﻿// EVENT 1274
Name "Talk: Mincubus"

If(1,20,0,1,0)
 JumpToLabel("情報")
 0()
EndIf()
If(1,20,0,2,0)
 JumpToLabel("質問")
 0()
EndIf()
If(1,20,0,3,0)
 JumpToLabel("要求")
 0()
EndIf()
If(1,20,0,4,0)
 JumpToLabel("贈与")
 0()
EndIf()
DefineLabel("情報")
ChangeVariable(13,13,0,2,1,100)
If(1,13,0,10,2)
 ShowMessageFace("minccubus_fc1",2,0,2,1)
 ShowMessage("\\n<Mincubus>I'll squeeze out your milk. ♪")
 EndEventProcessing()
 0()
EndIf()
If(1,13,0,20,2)
 ShowMessageFace("minccubus_fc1",2,0,2,2)
 ShowMessage("\\n<Mincubus>I'll squeeze out all of big bro's milk. ♪")
 EndEventProcessing()
 0()
EndIf()
If(1,13,0,30,2)
 ShowMessageFace("minccubus_fc1",2,0,2,3)
 ShowMessage("\\n<Mincubus>Welcome to the Sister's Heavy Petting Farm. ♪")
 EndEventProcessing()
 0()
EndIf()
If(1,13,0,40,2)
 ShowMessageFace("minccubus_fc1",1,0,2,4)
 ShowMessage("\\n<Mincubus>I became a succubus. ♪\nWith this, I won't have any trouble in my life. ♪")
 EndEventProcessing()
 0()
EndIf()
If(1,13,0,50,2)
 ShowMessageFace("minccubus_fc1",2,0,2,5)
 ShowMessage("\\n<Mincubus>I'm going to make big bro into livestock too. ♪")
 EndEventProcessing()
 0()
EndIf()
If(1,13,0,60,2)
 ShowMessageFace("minccubus_fc1",1,0,2,6)
 ShowMessage("\\n<Mincubus>The village mayor was also a succubus...\nI thought she was suspicious.")
 EndEventProcessing()
 0()
EndIf()
If(1,13,0,70,2)
 ShowMessageFace("minccubus_fc1",1,0,2,7)
 ShowMessage("\\n<Mincubus>I want to keep all of the men in this village on our farm. ♪")
 EndEventProcessing()
 0()
EndIf()
If(1,13,0,80,2)
 ShowMessageFace("minccubus_fc1",1,0,2,8)
 ShowMessage("\\n<Mincubus>My older sister plays with men too.\nI also play with them a lot. ♪")
 EndEventProcessing()
 0()
EndIf()
If(1,13,0,90,2)
 ShowMessageFace("minccubus_fc1",1,0,2,9)
 ShowMessage("\\n<Mincubus>Once I squeeze your milk, I'll drink it at once. ♪")
 EndEventProcessing()
 0()
EndIf()
If(1,13,0,100,2)
 ShowMessageFace("minccubus_fc1",1,0,2,10)
 ShowMessage("\\n<Mincubus>With this, the Sister's Heavy Petting Farm will thrive. ♪")
 EndEventProcessing()
 0()
EndIf()
DefineLabel("質問")
ChangeVariable(13,13,0,2,1,50)
If(1,13,0,10,2)
 ShowMessageFace("minccubus_fc1",1,0,2,11)
 ShowMessage("\\n<Mincubus>Is big bro an only child...?")
 ShowChoices(strings("I'm an only child","I have an older sister","I have a younger sister"),0)
 IfPlayerPicksChoice(0,"一人っ子")
  ShowMessageFace("minccubus_fc1",1,0,2,12)
  ShowMessage("\\n<Mincubus>Is that so... Aren't you lonely without a sister?")
  0()
 IfPlayerPicksChoice(1,"姉がいる")
  ShowMessageFace("minccubus_fc1",1,0,2,13)
  ShowMessage("\\n<Mincubus>Wow... Is your big sister kind?\nWhose is better, your big sis or mine?")
  355("change_friend(10)")
  0()
 IfPlayerPicksChoice(2,"妹がいる")
  ShowMessageFace("minccubus_fc1",1,0,2,14)
  ShowMessage("\\n<Mincubus>Then please be kind to your little sister. ♪")
  0()
 404()
 EndEventProcessing()
 0()
EndIf()
If(1,13,0,20,2)
 ShowMessageFace("minccubus_fc1",3,0,2,15)
 ShowMessage("\\n<Mincubus>Do you like...potatoes?")
 ShowChoices(strings("I like them","I hate them","I am a potato"),0)
 IfPlayerPicksChoice(0,"好き")
  ShowMessageFace("minccubus_fc1",3,0,2,16)
  ShowMessage("\\n<Mincubus>Uuu...")
  355("change_friend(-5)")
  0()
 IfPlayerPicksChoice(1,"嫌い")
  ShowMessageFace("minccubus_fc1",2,0,2,17)
  ShowMessage("\\n<Mincubus>Yeah! ♪")
  355("change_friend(10)")
  0()
 IfPlayerPicksChoice(2,"僕がイモだ")
  ShowMessageFace("minccubus_fc1",3,0,2,18)
  ShowMessage("\\n<Mincubus>Noisy potato...")
  355("change_friend(-5)")
  0()
 404()
 EndEventProcessing()
 0()
EndIf()
If(1,13,0,30,2)
 ShowMessageFace("minccubus_fc1",1,0,2,19)
 ShowMessage("\\n<Mincubus>The farm look like fun, doesn't it...?")
 ShowChoices(strings("It looks fun","It doesn't look fun","It doesn't matter"),0)
 IfPlayerPicksChoice(0,"楽しそう")
  ShowMessageFace("minccubus_fc1",3,0,2,20)
  ShowMessage("\\n<Mincubus>But isn't it hard work...?")
  0()
 IfPlayerPicksChoice(1,"楽しくなさそう")
  ShowMessageFace("minccubus_fc1",2,0,2,21)
  ShowMessage("\\n<Mincubus>Yeah! You understand. ♪")
  355("change_friend(10)")
  0()
 IfPlayerPicksChoice(2,"どうでもいい")
  ShowMessageFace("minccubus_fc1",3,0,2,22)
  ShowMessage("\\n<Mincubus>I'm nervous...")
  355("change_friend(-5)")
  0()
 404()
 EndEventProcessing()
 0()
EndIf()
If(1,13,0,40,2)
 ShowMessageFace("minccubus_fc1",1,0,2,23)
 ShowMessage("\\n<Mincubus>Do you want my panties? Hey, do you want them...?")
 ShowChoices(strings("I want them","I don't want them","I want to be panties"),0)
 IfPlayerPicksChoice(0,"欲しい")
  ShowMessageFace("minccubus_fc1",2,0,2,24)
  ShowMessage("\\n<Mincubus>I won't give them to you. ♪")
  355("change_friend(10)")
  0()
 IfPlayerPicksChoice(1,"欲しくない")
  ShowMessageFace("minccubus_fc1",3,0,2,25)
  ShowMessage("\\n<Mincubus>Terrible!")
  355("change_friend(-5)")
  0()
 IfPlayerPicksChoice(2,"パンツになりたい")
  ShowMessageFace("minccubus_fc1",3,0,2,26)
  ShowMessage("\\n<Mincubus>Uwa! A pervert...!")
  355("change_friend(-5)")
  0()
 404()
 EndEventProcessing()
 0()
EndIf()
If(1,13,0,50,2)
 ShowMessageFace("minccubus_fc1",1,0,2,27)
 ShowMessage("\\n<Mincubus>Which one of my garments would you like to be milked with...?")
 ShowChoices(strings("Panties","Socks","Your body"),0)
 IfPlayerPicksChoice(0,"パンツ")
  ShowMessageFace("minccubus_fc1",2,0,2,28)
  ShowMessage("\\n<Mincubus>My panties are good. ♪\nThere's no helping it. ♪")
  355("change_friend(10)")
  0()
 IfPlayerPicksChoice(1,"靴下")
  ShowMessageFace("minccubus_fc1",3,0,2,29)
  ShowMessage("\\n<Mincubus>That seems kind of perverted, doesn't it...?")
  0()
 IfPlayerPicksChoice(2,"生身")
  ShowMessageFace("minccubus_fc1",2,0,2,30)
  ShowMessage("\\n<Mincubus>You want me to touch you with my body...?\nAhaha, what should I do?")
  355("change_friend(10)")
  0()
 404()
 EndEventProcessing()
 0()
EndIf()
DefineLabel("要求")
ChangeVariable(13,13,0,2,1,30)
If(1,13,0,10,2)
 If(8,63)
  ShowMessageFace("minccubus_fc1",1,0,2,31)
  ShowMessage("\\n<Mincubus>I want to recover my wind powers. ♪")
  ChangeVariable(24,24,0,3,0,63,0)
  ShowMessageFace("",0,0,2,32)
  ShowMessage("Do you want to give a \\ii[63]? (Have:\\V[24])")
  ShowChoices(strings("Yes","No"),2)
  IfPlayerPicksChoice(0,"Yes")
   ShowMessageFace("minccubus_fc1",2,0,2,33)
   ShowMessage("\\n<Mincubus>Yaaay♪ I'm happy! ♪")
   ChangeInventory_Item(63,1,0,1)
   355("change_friend(20)")
   EndEventProcessing()
   0()
  IfPlayerPicksChoice(1,"No")
   ShowMessageFace("minccubus_fc1",3,0,2,34)
   ShowMessage("\\n<Mincubus>So stingy!")
   EndEventProcessing()
   0()
  404()
  0()
 Else()
  ChangeVariable(13,13,0,0,20)
  0()
 EndIf()
 0()
EndIf()
If(1,13,0,20,2)
 If(8,305)
  ShowMessageFace("minccubus_fc1",1,0,2,35)
  ShowMessage("\\n<Mincubus>I want to eat a banana. ♪")
  ChangeVariable(24,24,0,3,0,305,0)
  ShowMessageFace("",0,0,2,36)
  ShowMessage("Do you want to give a \\ii[305]? (Have:\\V[24])")
  ShowChoices(strings("Yes","No"),2)
  IfPlayerPicksChoice(0,"Yes")
   ShowMessageFace("minccubus_fc1",2,0,2,37)
   ShowMessage("\\n<Mincubus>Yaaay♪ I'm happy! ♪")
   ChangeInventory_Item(305,1,0,1)
   355("change_friend(30)")
   EndEventProcessing()
   0()
  IfPlayerPicksChoice(1,"No")
   ShowMessageFace("minccubus_fc1",3,0,2,38)
   ShowMessage("\\n<Mincubus>So stingy!")
   EndEventProcessing()
   0()
  404()
  0()
 Else()
  ChangeVariable(13,13,0,0,30)
  0()
 EndIf()
 0()
EndIf()
If(1,13,0,30,2)
 ShowMessageFace("minccubus_fc1",1,0,2,39)
 ShowMessage("\\n<Mincubus>I want an allowance. ♪")
 If(7,135,0)
  ChangeVariable(24,24,0,3,7,2,0)
  ShowMessageFace("",0,0,2,40)
  ShowMessage("Do you want to give 135G? (Remaining:\\V[24])")
  ShowChoices(strings("Yes","No"),2)
  IfPlayerPicksChoice(0,"Yes")
   ShowMessageFace("minccubus_fc1",2,0,2,41)
   ShowMessage("\\n<Mincubus>Yaaay♪ I'm happy! ♪")
   125(1,0,135)
   355("change_friend(25)")
   EndEventProcessing()
   0()
  IfPlayerPicksChoice(1,"No")
   ShowMessageFace("minccubus_fc1",3,0,2,42)
   ShowMessage("\\n<Mincubus>So stingy!")
   EndEventProcessing()
   0()
  404()
  0()
 Else()
  ShowMessageFace("minccubus_fc1",3,0,2,43)
  ShowMessage("\\n<Mincubus>...Are you poor?\nIt's the same with my family...")
  EndEventProcessing()
  0()
 EndIf()
 0()
EndIf()
DefineLabel("贈与")
ChangeVariable(13,13,0,2,1,30)
If(1,25,0,1,0)
 ChangeVariable(13,13,0,0,30)
 ChangeVariable(25,25,0,0,0)
 0()
EndIf()
If(1,25,0,2,0)
 ChangeVariable(13,13,0,2,1,20)
 ChangeVariable(25,25,0,0,0)
 0()
EndIf()
If(1,13,0,10,2)
 ShowMessageFace("minccubus_fc1",1,0,2,44)
 ShowMessage("\\n<Mincubus>I'll give you some milk I squeezed. ♪")
 250(bytes(0x04,0x08,0x6f,0x3a,0x0c,0x52,0x50,0x47,0x3a,0x3a,0x53,0x45,0x08,0x3a,0x0a,0x40,0x6e,0x61,0x6d,0x65,0x49,0x22,0x0a,0x49,0x74,0x65,0x6d,0x31,0x06,0x3a,0x06,0x45,0x54,0x3a,0x0b,0x40,0x70,0x69,0x74,0x63,0x68,0x69,0x69,0x3a,0x0c,0x40,0x76,0x6f,0x6c,0x75,0x6d,0x65,0x69,0x55))
 ChangeInventory_Item(342,0,0,1)
 ShowMessageFace("",0,0,2,45)
 ShowMessage("The Mincubus gave you a \\ii[342]!")
 EndEventProcessing()
 0()
EndIf()
If(1,13,0,20,2)
 ShowMessageFace("minccubus_fc1",3,0,2,46)
 ShowMessage("\\n<Mincubus>I'll give you a potato... I don't want to eat any more of them.")
 250(bytes(0x04,0x08,0x6f,0x3a,0x0c,0x52,0x50,0x47,0x3a,0x3a,0x53,0x45,0x08,0x3a,0x0a,0x40,0x6e,0x61,0x6d,0x65,0x49,0x22,0x0a,0x49,0x74,0x65,0x6d,0x31,0x06,0x3a,0x06,0x45,0x54,0x3a,0x0b,0x40,0x70,0x69,0x74,0x63,0x68,0x69,0x69,0x3a,0x0c,0x40,0x76,0x6f,0x6c,0x75,0x6d,0x65,0x69,0x55))
 ChangeInventory_Item(319,0,0,1)
 ShowMessageFace("",0,0,2,47)
 ShowMessage("The Mincubus gave you a \\ii[319]!")
 EndEventProcessing()
 0()
EndIf()
If(1,13,0,30,2)
 ShowMessageFace("minccubus_fc1",1,0,2,48)
 ShowMessage("\\n<Mincubus>Here's some money...♪")
 250(bytes(0x04,0x08,0x6f,0x3a,0x0c,0x52,0x50,0x47,0x3a,0x3a,0x53,0x45,0x08,0x3a,0x0a,0x40,0x6e,0x61,0x6d,0x65,0x49,0x22,0x0a,0x49,0x74,0x65,0x6d,0x31,0x06,0x3a,0x06,0x45,0x54,0x3a,0x0b,0x40,0x70,0x69,0x74,0x63,0x68,0x69,0x69,0x3a,0x0c,0x40,0x76,0x6f,0x6c,0x75,0x6d,0x65,0x69,0x55))
 125(0,0,225)
 ShowMessageFace("",0,0,2,49)
 ShowMessage("The Mincubus gave you 225G!")
 EndEventProcessing()
 0()
EndIf()
0()
