﻿// EVENT 4696
Name "Shinifa"

If(0,25,1)
 221()
 PictureClear(5)
 PictureClear(6)
 ShowMessageFace("",0,0,2,0)
 ShowMessage("......")
 242(2)
 Wait(120)
 241(bytes(0x04,0x08,0x6f,0x3a,0x0d,0x52,0x50,0x47,0x3a,0x3a,0x42,0x47,0x4d,0x08,0x3a,0x0a,0x40,0x6e,0x61,0x6d,0x65,0x49,0x22,0x0c,0x63,0x61,0x73,0x74,0x6c,0x65,0x36,0x06,0x3a,0x06,0x45,0x54,0x3a,0x0c,0x40,0x76,0x6f,0x6c,0x75,0x6d,0x65,0x69,0x69,0x3a,0x0b,0x40,0x70,0x69,0x74,0x63,0x68,0x69,0x69))
 EndEventProcessing()
 0()
EndIf()
PictureDisplay(5,"80_sinifa_st01",0,0,0,0,100,100,255,0)
ShowMessageFace("",0,0,2,1)
ShowMessage("\\n<Luka>There, food for you...")
ShowMessageFace("sinifa_fc1",0,0,2,2)
ShowMessage("\\n<Shinifa>Aha. Ahahahaaa...")
ShowMessageFace("",0,0,2,3)
ShowMessage("Shinifa's tentacles grip my hands presenting the meat to her. Her tentacles spread to the rest of my body...")
ShowMessageFace("",0,0,2,4)
ShowMessage("\\n<Luka>W-wait a minute, what are you...?!")
241(bytes(0x04,0x08,0x6f,0x3a,0x0d,0x52,0x50,0x47,0x3a,0x3a,0x42,0x47,0x4d,0x08,0x3a,0x0a,0x40,0x6e,0x61,0x6d,0x65,0x49,0x22,0x09,0x65,0x72,0x6f,0x31,0x06,0x3a,0x06,0x45,0x54,0x3a,0x0c,0x40,0x76,0x6f,0x6c,0x75,0x6d,0x65,0x69,0x69,0x3a,0x0b,0x40,0x70,0x69,0x74,0x63,0x68,0x69,0x69))
PictureDisplay(5,"ev_sinifa_ha01",0,0,0,0,100,100,0,0)
PictureMove(5,null,0,0,0,0,100,100,255,0,30,true)
ShowMessageFace("",0,0,2,5)
ShowMessage("Shinifa catches me!\nHer grotesque organs entangles my body, filling me with disgust...")
ShowMessageFace("",0,0,2,6)
ShowMessage("\\n<Luka>Wait, listen to me!\nJust, what are you...")
ShowMessageFace("sinifa_fc1",0,0,2,7)
ShowMessage("\\n<Shinifa>Ah, ahahahaha...")
ShowMessageFace("",0,0,2,8)
ShowMessage("She watches me struggle, laughing weirdly.\nI don't know if she understands me or has any kind of intelligence at all...")
PictureDisplay(5,"ev_sinifa_ha02",0,0,0,0,100,100,255,0)
ShowMessageFace("",0,0,2,9)
ShowMessage("Then...\nAn ominous organ approaches my crotch like a snake.")
ShowMessageFace("",0,0,2,10)
ShowMessage("I think this organ comes from Shinifa's abdomen.\nAt the end of that thing, I can see a strange hole of flesh.")
ShowMessageFace("",0,0,2,11)
ShowMessage("\\n<Luka>D-don't tell me you...")
PictureDisplay(5,"ev_sinifa_ha03",0,0,0,0,100,100,255,0)
ShowMessageFace("",0,0,2,12)
ShowMessage("That hole opens its drooling mouth.\nA sharp smell comes out of it and a viscous liquid overflows.")
ShowMessageFace("",0,0,2,13)
ShowMessage("There is no doubt about it, she's going to swallow my thing with this hole. Whether it's to copulate or to feed on my semen, her repulsive organ...")
ShowMessageFace("",0,0,2,14)
ShowMessage("\\n<Luka>S...stop...! Ah, aaaah...!!")
ShowMessageFace("sinifa_fc1",0,0,2,15)
ShowMessage("\\n<Shinifa>Ahaha...")
ShowMessageFace("",0,0,2,16)
ShowMessage("...The hole noisily drools and approaches my groin.\nThere's nothing I can do, she will violate me with that thing.")
ShowMessageFace("",0,0,2,17)
ShowMessage("I gaze at her hole, filled with despair.\nMeanwhile, her hole gets closer to my penis...")
PictureDisplay(5,"ev_sinifa_ha04",0,0,0,0,100,100,255,0)
245(bytes(0x04,0x08,0x6f,0x3a,0x0d,0x52,0x50,0x47,0x3a,0x3a,0x42,0x47,0x53,0x08,0x3a,0x0a,0x40,0x6e,0x61,0x6d,0x65,0x49,0x22,0x1e,0x6d,0x6f,0x6e,0x5f,0x68,0x73,0x65,0x61,0x6e,0x31,0x32,0x5f,0x69,0x6e,0x6e,0x65,0x72,0x77,0x6f,0x72,0x6b,0x73,0x5f,0x63,0x32,0x06,0x3a,0x06,0x45,0x54,0x3a,0x0c,0x40,0x76,0x6f,0x6c,0x75,0x6d,0x65,0x69,0x55,0x3a,0x0b,0x40,0x70,0x69,0x74,0x63,0x68,0x69,0x69))
ShowMessageFace("",0,0,2,18)
ShowMessage("Something soft touches my penis.\nA slippery, disgusting sensation.")
ShowMessageFace("",0,0,2,19)
ShowMessage("\\n<Luka>N-no... Aaah...")
ShowMessageFace("sinifa_fc1",0,0,2,20)
ShowMessage("\\n<Shinifa>Ahaha, hahahaha...")
PictureDisplay(5,"ev_sinifa_ha05",0,0,0,0,100,100,255,0)
ShowMessageFace("",0,0,2,21)
ShowMessage("My penis slowly sinks deeper into that horrifying organ... Then, her flesh tightens all over my length.")
ShowMessageFace("",0,0,2,22)
ShowMessage("Her inner walls ominously wriggle, drawing me deeper inside... She buries my penis in there with slurping noises.")
ShowMessageFace("",0,0,2,23)
ShowMessage("\\n<Luka>Ah, aaah...")
PictureDisplay(5,"ev_sinifa_ha06",0,0,0,0,100,100,255,0)
ShowMessageFace("",0,0,2,24)
ShowMessage("Then, it tightly grips my cock up to the base...\nMy penis is wrapped inside her throbbing wet hole!")
ShowMessageFace("",0,0,2,25)
ShowMessage("\\n<Luka>I-I don't want that...! It's disgusting...\nAh, aaaaaah!!")
ShowMessageFace("",0,0,2,26)
ShowMessage("Her excessive softness and viscosity give me a far too weird pleasure. It seems that some sort of tentacle is squirming inside.")
ShowMessageFace("sinifa_fc1",0,0,2,27)
ShowMessage("\\n<Shinifa>Aha, ahaha...")
ShowMessageFace("",0,0,2,28)
ShowMessage("\\n<Luka>Hii... Pull it out, pull it out...!!")
ShowMessageFace("",0,0,2,29)
ShowMessage("There is no doubt about it, it's this living being's sexual organ. So I'm having intercourse with her, tightly locked inside it.")
ShowMessageFace("",0,0,2,30)
ShowMessage("Facing so many disgusting things, my fright reaches its peak. I feel strong repulsion from a physiological... No, from a living being's point of view...")
ShowMessageFace("",0,0,2,31)
ShowMessage("\\n<Luka>I-it's disgusting...\nLet me go, let me go, let me go!!!")
ShowMessageFace("sinifa_fc1",0,0,2,32)
ShowMessage("\\n<Shinifa>......")
ShowMessageFace("",0,0,2,33)
ShowMessage("Shinifa unexpectedly puts a tentacle into my ear.\nAn eerie feeling invades the depth of my ear when it comes in.")
ShowMessageFace("",0,0,2,34)
ShowMessage("The next instant...")
PictureDisplay(5,"ev_sinifa_ha07",0,0,0,0,100,100,255,0)
ShowMessageFace("",0,0,2,35)
ShowMessage("What comes to my mind is the appearance of a thick, beautiful woman. She takes a fascinating pose and shows off her ass, as if to invite me...")
ShowMessageFace("",0,0,2,36)
ShowMessage("No, my penis is already inside this beautiful woman's vagina. The sweet flesh of her pussy sweetly tightens around me, as if to welcome me in...")
PictureDisplay(5,"ev_sinifa_ha08",0,0,0,0,100,100,255,0)
ShowMessageFace("",0,0,2,37)
ShowMessage("\\n<Luka>Aaah... That feels good...")
ShowMessageFace("",0,0,2,38)
ShowMessage("Mating with such a beautiful woman brings me a brain-melting pleasure. Her vagina only increases that feeling with its softness.")
ShowMessageFace("",0,0,2,39)
ShowMessage("Her walls of flesh tightly crush my penis...\nHer pussy truly is unmatched.")
ShowMessageFace("",0,0,2,40)
ShowMessage("\\n<Luka>Ahhh, it's amaziiing... I'm coming...")
ShowMessageFace("",0,0,2,41)
ShowMessage("This pleasure puts me further on the edge.\nTo have sex with such a wonderful woman then explode inside of her will be so...")
PictureDisplay(5,"ev_sinifa_ha09",0,0,0,0,100,100,255,0)
ShowMessageFace("",0,0,2,42)
ShowMessage("The next moment, the woman's vision disappears.\nShe's replaced by an ugly, heteromorphic genitalia.")
ShowMessageFace("",0,0,2,43)
ShowMessage("\\n<Luka>Don't... Ahhh!!\n...N-noooo... I'm coming...!")
ShowMessageFace("",0,0,2,44)
ShowMessage("However, it happens just before the ejaculation.\nI can't suppress this sweet ache in my waist any longer...")
ShowMessageFace("sinifa_fc1",0,0,2,45)
ShowMessage("\\n<Shinifa>Hahahaha...")
ShowMessageFace("",0,0,2,46)
ShowMessage("\\n<Luka>I-I don't want to...!!\nAaaah...!")
RunCommonEvent(104)
PictureDisplay(5,"ev_sinifa_ha10",0,0,0,0,100,100,255,0)
RunCommonEvent(105)
ShowMessageFace("",0,0,2,47)
ShowMessage("A forbidden moment.\nI ejaculate in this grotesque organ.")
ShowMessageFace("",0,0,2,48)
ShowMessage("My semen gushes out inside this dreadful hole.\nWhile tasting disgust and fear, I offer her my seed...")
PictureDisplay(5,"ev_sinifa_ha11",0,0,0,0,100,100,255,0)
ShowMessageFace("",0,0,2,49)
ShowMessage("\\n<Luka>Ah, aaah...")
ShowMessageFace("",0,0,2,50)
ShowMessage("The immorality and disgust of this situation make me tremble as strength leaves my body. As for Shinifa, her whole body trembles for another reason...")
ShowMessageFace("sinifa_fc1",0,0,2,51)
ShowMessage("\\n<Shinifa>Hahaha, ahahahaha...")
ShowMessageFace("",0,0,2,52)
ShowMessage("She seems to be delighted.\nDoes this being have emotions after all?")
ShowMessageFace("",0,0,2,53)
ShowMessage("To mate with such a grotesque life form...\nThe worst case scenario would be to have children with this creature...")
PictureDisplay(5,"ev_sinifa_ha12",0,0,0,0,100,100,255,0)
ShowMessageFace("sinifa_fc1",0,0,2,54)
ShowMessage("\\n<Shinifa>Hahaha... Ahahaha!")
ShowMessageFace("",0,0,2,55)
ShowMessage("Ominous eyeballs appear on Shinifa's head.\nI tremble even more in horror...")
ShowMessageFace("",0,0,2,56)
ShowMessage("And my penis is still inside her sexual organ.\nHer walls swell and strangely stimulate me...")
ShowMessageFace("",0,0,2,57)
ShowMessage("\\n<Luka>N-no... Not again...")
ShowMessageFace("sinifa_fc1",0,0,2,58)
ShowMessage("\\n<Shinifa>Haha... Hahahahaha!")
PictureDisplay(5,"ev_sinifa_ha13",0,0,0,0,100,100,255,0)
ShowMessageFace("",0,0,2,59)
ShowMessage("Shinifa pumps my penis like a piston with her organ!\nInside that hole, a tentacle coils around me...")
ShowMessageFace("",0,0,2,60)
ShowMessage("\\n<Luka>No... Stop, stop...!")
ShowMessageFace("",0,0,2,61)
ShowMessage("She gives me disgusting yet intense pleasure.\nHer strange-looking flesh plays with my penis, making me writhe in horror.")
ShowMessageFace("",0,0,2,62)
ShowMessage("But the most disgusting thing is...\n...That I'm starting to feel good because of this stimulation of hers.")
ShowMessageFace("",0,0,2,63)
ShowMessage("\\n<Luka>Aaah... Pull it out already...\nThis, this is disgusting!!")
ShowMessageFace("sinifa_fc1",0,0,2,64)
ShowMessage("\\n<Shinifa>Hahahaha...")
PictureDisplay(5,"ev_sinifa_ha14",0,0,0,0,100,100,255,0)
ShowMessageFace("",0,0,2,65)
ShowMessage("\\n<Luka>Ah, aaah...")
ShowMessageFace("",0,0,2,66)
ShowMessage("Once again, the curvy woman appears in my mind.\nMy heart grows weak and my reason melts away...")
PictureDisplay(5,"ev_sinifa_ha15",0,0,0,0,100,100,255,0)
ShowMessageFace("",0,0,2,67)
ShowMessage("\\n<Luka>Aaah... It feels good...")
ShowMessageFace("",0,0,2,68)
ShowMessage("Thus, I'm now completely immersed in the intercourse between her and me. Tasting her as I feel even more pleasure...")
ShowMessageFace("sinifa_fc1",0,0,2,69)
ShowMessage("\\n<Shinifa>Fufufu...")
PictureDisplay(5,"ev_sinifa_ha16",0,0,0,0,100,100,255,0)
ShowMessageFace("",0,0,2,70)
ShowMessage("Soft breasts are pressed against my mouth.\nThis light pleasure makes my head go even more blank...")
ShowMessageFace("",0,0,2,71)
ShowMessage("I don't know what I'm having sex with anymore.\nIs it with a thick, beautiful woman? Or a hideous creature...?")
PictureDisplay(5,"ev_sinifa_ha17",0,0,0,0,100,100,255,0)
ShowMessageFace("",0,0,2,72)
ShowMessage("\\n<Luka>Aaah... It feels good...\nThat feels good...")
ShowMessageFace("",0,0,2,73)
ShowMessage("Her pussy assaults my dick with violent piston-like movements. Inside her, I feel tentacles crawling over my penis...")
ShowMessageFace("",0,0,2,74)
ShowMessage("No, that's not it.\nIs this the strange life form's sexual organ...?")
ShowMessageFace("",0,0,2,75)
ShowMessage("\\n<Luka>Nnngh... I'm coming again...")
ShowMessageFace("",0,0,2,76)
ShowMessage("I don't know what's real or not anymore.\nI'm just bathed with pleasure without knowing anything...")
ShowMessageFace("",0,0,2,77)
ShowMessage("\\n<Luka>C-coming...\nI'm coming... Aaah...")
RunCommonEvent(104)
PictureDisplay(5,"ev_sinifa_ha18",0,0,0,0,100,100,255,0)
RunCommonEvent(105)
ShowMessageFace("",0,0,2,78)
ShowMessage("My semen gushes out inside this woman's pussy.\nThis feeling is so sweet, my waist feels like it's melting...")
ShowMessageFace("sinifa_fc1",0,0,2,79)
ShowMessage("\\n<Shinifa>Aha, hahahahaha!")
PictureDisplay(5,"ev_sinifa_ha21",0,0,0,0,100,100,255,0)
ShowMessageFace("",0,0,2,80)
ShowMessage("\\n<Luka>Ah, incredible...\nI'm so happy...")
ShowMessageFace("sinifa_fc1",0,0,2,81)
ShowMessage("\\n<Shinifa>Fufu, hahahaha...")
ShowMessageFace("",0,0,2,82)
ShowMessage("\\n<Luka>Yes... More, more...")
ShowMessageFace("",0,0,2,83)
ShowMessage("The beautiful woman's vagina vibrates, inviting me further inside... I drown in her body, abandoning myself to this sweet delirium...")
ShowMessageFace("",0,0,2,84)
ShowMessage("\\n<Luka>Aaah...I love this, it feels good...\nI'm coming again...")
ShowMessageFace("",0,0,2,85)
ShowMessage("The woman's pussy and the squirming tentacles both bring me on the edge. I taste such sweet ecstasy within this illusion...")
RunCommonEvent(104)
PictureDisplay(5,"ev_sinifa_ha22",0,0,0,0,100,100,255,0)
RunCommonEvent(105)
ShowMessageFace("",0,0,2,86)
ShowMessage("\\n<Luka>Huaaa...")
ShowMessageFace("",0,0,2,87)
ShowMessage("I offer a large amount of semen to this beautiful woman's insides. As a man, there is no greater joy possible.")
ShowMessageFace("sinifa_fc1",0,0,2,88)
ShowMessage("\\n<Shinifa>Haha... Hahahahaha!")
ShowMessageFace("",0,0,2,89)
ShowMessage("\\n<Luka>Ah... If you do that much...\nI will come immediately... I'm coming!")
ShowMessageFace("",0,0,2,90)
ShowMessage("She truly is a devilish beauty.\nNo matter how many times I come, I never get tired of this pleasure...")
RunCommonEvent(104)
PictureDisplay(5,"ev_sinifa_ha25",0,0,0,0,100,100,255,0)
RunCommonEvent(105)
ShowMessageFace("",0,0,2,91)
ShowMessage("\\n<Luka>Aaah...")
ShowMessageFace("",0,0,2,92)
ShowMessage("I release even more semen for her vagina.\nTasting heaven as I'm filled with ecstasy and happiness...")
ShowMessageFace("",0,0,2,93)
ShowMessage("\\n<Luka>More... Do it more...\nAh, aaah...")
ShowMessageFace("sinifa_fc1",0,0,2,94)
ShowMessage("\\n<Shinifa>Aha... Ahaha...!")
ShowMessageFace("",0,0,2,95)
ShowMessage("From there on, I kept having sex with this beautiful woman.\nWe made love until I didn't know what was happening to me anymore...")
ShowMessageFace("sinifa_fc1",0,0,2,96)
ShowMessage("\\n<Shinifa>Haha, hahahahahaha...!")
ShowMessageFace("",0,0,2,97)
ShowMessage("\\n<Luka>Aaah... More, mooooore...")
221()
PictureClear(5)
246(2)
ShowMessageFace("",0,0,2,98)
ShowMessage("......")
242(2)
Wait(120)
ChangeVariable(1002,1002,0,0,0)
216(1)
355("forced_transfer(154,18,52)")
355("release_temp_actors")
355("$game_map.screen.clear")
0()
