﻿// EVENT 2201
Name "Seduction: Magical Elf"

355("$game_troop.lose_event_id = 3201")
ChangeVariable(26,26,0,3,3,1,4)
ChangeVariable(26,26,4,0,10)
ShowMessageFace("m_elf_fc1",0,0,2,1)
ShowMessage("\\n<Magical Elf>Why are you being so violent?!\nYou just hurt me!")
ShowMessageFace("",0,0,2,2)
ShowMessage("The Magical Elf loses her temper!")
ShowMessageFace("m_elf_fc1",0,0,2,3)
ShowMessage("\\n<Magical Elf>Sit down in that chair for a moment!\nI'm going to give you plenty of scolding!")
ChangeSwitch(98,98,0)
ChangeSwitch(96,96,0)
ShowChoices(strings("Ignore her","Sit in the chair"),1)
IfPlayerPicksChoice(0,"Ignore her")
 ShowMessageFace("",0,0,2,4)
 ShowMessage("Luka resists her temptation!")
 RunCommonEvent(1999)
 EndEventProcessing()
 0()
IfPlayerPicksChoice(1,"椅子に座る")
 0()
404()
ShowMessageFace("m_elf_fc1",0,0,2,5)
ShowMessage("\\n<Magical Elf>Now then, I'll tie you up in this chair, and...")
355("battler_graphic_hide")
PictureDisplay(5,"ev_m_elf_h01",0,0,0,0,100,100,255,0)
ShowMessageFace("m_elf_fc1",0,0,2,6)
ShowMessage("\\n<Magical Elf>Now, it's punishment time.\nI'll give you plenty of torture with my pussy!")
ChangeVariable(26,26,3,0,4)
250(bytes(0x04,0x08,0x6f,0x3a,0x0c,0x52,0x50,0x47,0x3a,0x3a,0x53,0x45,0x08,0x3a,0x0a,0x40,0x6e,0x61,0x6d,0x65,0x49,0x22,0x11,0x6d,0x6f,0x6e,0x5f,0x65,0x72,0x6f,0x5f,0x70,0x79,0x75,0x31,0x06,0x3a,0x06,0x45,0x54,0x3a,0x0b,0x40,0x70,0x69,0x74,0x63,0x68,0x69,0x69,0x3a,0x0c,0x40,0x76,0x6f,0x6c,0x75,0x6d,0x65,0x69,0x69))
PictureDisplay(5,"ev_m_elf_h03",0,0,0,0,100,100,255,0)
311(0,1,1,1,26,true)
ShowMessageFace("",0,0,2,7)
ShowMessage("The Magical Elf sits on Luka's body and brings his penis into her vagina! Her soft flesh walls tighten around it!\\D")
ShowMessage("Luka takes \\V[26] damage!")
ChangeVariable(27,27,0,3,3,1,2)
If(1,27,0,0,0)
 JumpToLabel("射精1")
 0()
EndIf()
ShowMessageFace("m_elf_fc1",1,0,2,8)
ShowMessage("\\n<Magical Elf>Hora, repent!\nIf you do violent things, I'll return the favor like this!")
250(bytes(0x04,0x08,0x6f,0x3a,0x0c,0x52,0x50,0x47,0x3a,0x3a,0x53,0x45,0x08,0x3a,0x0a,0x40,0x6e,0x61,0x6d,0x65,0x49,0x22,0x13,0x6d,0x6f,0x6e,0x5f,0x65,0x72,0x6f,0x5f,0x63,0x68,0x75,0x70,0x61,0x33,0x06,0x3a,0x06,0x45,0x54,0x3a,0x0b,0x40,0x70,0x69,0x74,0x63,0x68,0x69,0x69,0x3a,0x0c,0x40,0x76,0x6f,0x6c,0x75,0x6d,0x65,0x69,0x69))
PictureDisplay(5,"ev_m_elf_h04",0,0,0,0,100,100,255,0)
311(0,1,1,1,26,true)
ShowMessageFace("",0,0,2,9)
ShowMessage("The Magical Elf moves her waist up and down!\nLuka's penis is tortured by the rubbing of her tight vagina!\\D")
ShowMessage("Luka takes \\V[26] damage!")
ChangeVariable(27,27,0,3,3,1,2)
If(1,27,0,0,0)
 JumpToLabel("射精2")
 0()
EndIf()
ShowMessageFace("m_elf_fc1",1,0,2,10)
ShowMessage("\\n<Magical Elf>Whaaat, are you about to leak?\nI'll have you shamefully leak it out while being raped like this by a girl!")
250(bytes(0x04,0x08,0x6f,0x3a,0x0c,0x52,0x50,0x47,0x3a,0x3a,0x53,0x45,0x08,0x3a,0x0a,0x40,0x6e,0x61,0x6d,0x65,0x49,0x22,0x13,0x6d,0x6f,0x6e,0x5f,0x65,0x72,0x6f,0x5f,0x63,0x68,0x75,0x70,0x61,0x33,0x06,0x3a,0x06,0x45,0x54,0x3a,0x0b,0x40,0x70,0x69,0x74,0x63,0x68,0x69,0x69,0x3a,0x0c,0x40,0x76,0x6f,0x6c,0x75,0x6d,0x65,0x69,0x69))
311(0,1,1,1,26,true)
ShowMessageFace("",0,0,2,11)
ShowMessage("The Magical Elf bends her waist back and forth, giving Luka a captivating pleasure! Her vagina contracts, slowly tightening around his penis!\\D")
ShowMessage("Luka takes \\V[26] damage!")
ChangeVariable(27,27,0,3,3,1,2)
If(1,27,0,0,0)
 JumpToLabel("射精2")
 0()
EndIf()
DefineLabel("射精1")
ShowMessageFace("",0,0,2,12)
ShowMessage("\\n<Luka>No, I'm coming... Aaaah...")
RunCommonEvent(104)
PictureDisplay(5,"ev_m_elf_h05",0,0,0,0,100,100,255,0)
RunCommonEvent(105)
ShowMessageFace("",0,0,2,13)
ShowMessage("The moment I am violated by the Magical Elf, I immediately come. My semen steadily gushes out inside of her tight vagina.")
ShowMessageFace("m_elf_fc1",1,0,2,14)
ShowMessage("\\n<Magical Elf>Whaaat? An instant defeat...?\nI wonder if my pussy felt that good?")
RunCommonEvent(2000)
EndEventProcessing()
DefineLabel("射精2")
ShowMessageFace("",0,0,2,15)
ShowMessage("\\n<Luka>No, I'm coming... Aaaah...")
RunCommonEvent(104)
PictureDisplay(5,"ev_m_elf_h05",0,0,0,0,100,100,255,0)
RunCommonEvent(105)
ShowMessageFace("",0,0,2,16)
ShowMessage("While being raped by the Magical Elf, I miserably come. My semen steadily gushes out inside of her tight vagina.")
ShowMessageFace("m_elf_fc1",1,0,2,17)
ShowMessage("\\n<Magical Elf>Whaaat? You already leaked...?\nI wonder if my pussy felt that good?")
RunCommonEvent(2000)
EndEventProcessing()
0()
