// EVENT 3225
Name "Jelly Girl"

PictureDisplay(5,"80_jelly_st02",0,0,0,0,100,100,0,0)
PictureMove(5,null,0,0,0,0,100,100,255,0,30,true)
241(bytes(0x04,0x08,0x6f,0x3a,0x0d,0x52,0x50,0x47,0x3a,0x3a,0x42,0x47,0x4d,0x08,0x3a,0x0a,0x40,0x6e,0x61,0x6d,0x65,0x49,0x22,0x09,0x65,0x72,0x6f,0x31,0x06,0x3a,0x06,0x45,0x54,0x3a,0x0c,0x40,0x76,0x6f,0x6c,0x75,0x6d,0x65,0x69,0x69,0x3a,0x0b,0x40,0x70,0x69,0x74,0x63,0x68,0x69,0x69))
ShowMessageFace("",0,0,2,1)
ShowMessage("\\n<Luka>")
ShowMessage("Unnngh...")
245(bytes(0x04,0x08,0x6f,0x3a,0x0d,0x52,0x50,0x47,0x3a,0x3a,0x42,0x47,0x53,0x08,0x3a,0x0a,0x40,0x6e,0x61,0x6d,0x65,0x49,0x22,0x17,0x6d,0x6f,0x6e,0x5f,0x68,0x73,0x65,0x61,0x6e,0x31,0x38,0x5f,0x73,0x6c,0x69,0x6d,0x65,0x31,0x06,0x3a,0x06,0x45,0x54,0x3a,0x0c,0x40,0x76,0x6f,0x6c,0x75,0x6d,0x65,0x69,0x55,0x3a,0x0b,0x40,0x70,0x69,0x74,0x63,0x68,0x69,0x69))
PictureDisplay(5,"ev_jelly_h3",0,0,0,0,100,100,255,0)
ShowMessageFace("",0,0,2,2)
ShowMessage("Completely exhausted, I look on helplessly as her giant looming slimy body slowly moves into my own.")
ShowMessage("Just like that, my body is absorbed by the Jelly Girl's!")
ShowMessageFace("",0,0,2,3)
ShowMessage("\\n<Luka>")
ShowMessage("Uaa!")
ShowMessageFace("",0,0,2,4)
ShowMessage("The Jelly Girl's soft slimy body slowly tightens around me, holding me in place inside her.")
ShowMessageFace("jelly_fc1",1,0,2,5)
ShowMessage("\\n<Jelly Girl>")
ShowMessage("Your penis... It's still big...")
ShowMessageFace("",0,0,2,6)
ShowMessage("The soft slime around my penis starts to compress.")
ShowMessageFace("",0,0,2,7)
ShowMessage("It slowly thickens until my penis is surrounded by and pushed on all sides by her elastic slime.")
ShowMessageFace("jelly_fc1",1,0,2,8)
ShowMessage("\\n<Jelly Girl>")
ShowMessage("Does my slime... Feel good...?")
ShowMessage("I'll make it... Even better...")
ShowMessageFace("",0,0,2,9)
ShowMessage("\\n<Luka>")
ShowMessage("Ah, aaaah...!!")
ShowMessageFace("",0,0,2,10)
ShowMessage("The slime around my penis starts to wriggle, making wet sounds as the soft jelly pulses around me.")
ShowMessageFace("",0,0,2,11)
ShowMessage("The soft slime gently tightens around me, as it freely flows all directions around my penis.")
ShowMessageFace("",0,0,2,12)
ShowMessage("\\n<Luka>")
ShowMessage("Ahh...! That feels good...!")
ShowMessageFace("",0,0,2,13)
ShowMessage("This stimulation is enough to make any man surrender...")
ShowMessage("I too can't bring myself to resist the slime squirming around my lower body.")
ShowMessageFace("jelly_fc1",1,0,2,14)
ShowMessage("\\n<Jelly Girl>")
ShowMessage("When you can't take it any longer, just come...")
ShowMessageFace("",0,0,2,15)
ShowMessage("\\n<Luka>")
ShowMessage("Huaaa...")
ShowMessageFace("",0,0,2,16)
ShowMessage("At times tightening, and at times swirling around and massaging me, the Jelly Girl freely controls her own body to play with me.")
ShowMessageFace("",0,0,2,17)
ShowMessage("The liquid nature of the slime even lets it poke inside the tip of my penis, gently rubbing against the most sensitive spot on my body.")
ShowMessageFace("",0,0,2,18)
ShowMessage("\\n<Luka>")
ShowMessage("Haaa! Ahhh!")
ShowMessageFace("jelly_fc1",1,0,2,19)
ShowMessage("\\n<Jelly Girl>")
ShowMessage("I'll make your penis feel good...")
ShowMessageFace("",0,0,2,20)
ShowMessage("The slime around my body continues to freely change its shape as it attacks me however the Jelly Girl wants.")
ShowMessageFace("",0,0,2,21)
ShowMessage("With nothing but her warm slime body around me, I can only shake my head helplessly as I'm forced to a quick orgasm.")
ShowMessageFace("",0,0,2,22)
ShowMessage("\\n<Luka>")
ShowMessage("Ahhh... I'm coming...")
ShowMessageFace("jelly_fc1",1,0,2,23)
ShowMessage("\\n<Jelly Girl>")
ShowMessage("Fill my blue body with your white semen...")
ShowMessageFace("",0,0,2,24)
ShowMessage("Her body movements get even faster, trying to force me to come right away.")
ShowMessageFace("",0,0,2,25)
ShowMessage("Enveloped in her warm body, I don't have any choice but to give in to the stimulation.")
RunCommonEvent(104)
PictureDisplay(5,"ev_jelly_h4",0,0,0,0,100,100,255,0)
RunCommonEvent(105)
ShowMessageFace("",0,0,2,26)
ShowMessage("Semen explodes from the tip of my penis, only able to come out an inch into her body before it stops.")
ShowMessageFace("",0,0,2,27)
ShowMessage("All during my ejaculation, her soft slime continues to wriggle and squeeze me, forcing every drop of semen out into her waiting body.")
ShowMessageFace("",0,0,2,28)
ShowMessage("\\n<Luka>")
ShowMessage("Hnnaaa...")
ShowMessageFace("jelly_fc1",1,0,2,29)
ShowMessage("\\n<Jelly Girl>")
ShowMessage("You can come more, right...? Come more...")
245(bytes(0x04,0x08,0x6f,0x3a,0x0d,0x52,0x50,0x47,0x3a,0x3a,0x42,0x47,0x53,0x08,0x3a,0x0a,0x40,0x6e,0x61,0x6d,0x65,0x49,0x22,0x17,0x6d,0x6f,0x6e,0x5f,0x68,0x73,0x65,0x61,0x6e,0x31,0x39,0x5f,0x73,0x6c,0x69,0x6d,0x65,0x32,0x06,0x3a,0x06,0x45,0x54,0x3a,0x0c,0x40,0x76,0x6f,0x6c,0x75,0x6d,0x65,0x69,0x55,0x3a,0x0b,0x40,0x70,0x69,0x74,0x63,0x68,0x69,0x69))
ShowMessageFace("",0,0,2,30)
ShowMessage("As I helplessly float in her body, her slime starts massaging my body even more violently than before.")
ShowMessageFace("",0,0,2,31)
ShowMessage("Overpowered by the warm, comfortable slime, just trying to struggle a little bit only makes it feel like I'm thrusting inside her.")
ShowMessageFace("",0,0,2,32)
ShowMessage("With my entire body encased in her springy slime, there's no escape.")
ShowMessage("I can't break free of her body any longer...")
ShowMessageFace("",0,0,2,33)
ShowMessage("\\n<Luka>")
ShowMessage("Ahhh!")
ShowMessageFace("",0,0,2,34)
ShowMessage("The soft slime around my penis gets a little bit tighter as it swirls around my penis, forcing me to another quick orgasm.")
ShowMessageFace("",0,0,2,35)
ShowMessage("\\n<Luka>")
ShowMessage("Haaaa... Again... Coming again...")
RunCommonEvent(104)
PictureDisplay(5,"ev_jelly_h5",0,0,0,0,100,100,255,0)
RunCommonEvent(105)
ShowMessageFace("",0,0,2,36)
ShowMessage("I let out a soft moan as I come inside her again.")
ShowMessage("Looking down in shame, I watch the semen slowly bubble up in her transparent body.")
ShowMessageFace("",0,0,2,37)
ShowMessage("Her blue body moves around inside, milking out the last drop of semen from my orgasm, all while I look on, watching it mix with her body.")
ShowMessageFace("",0,0,2,38)
ShowMessage("\\n<Luka>")
ShowMessage("Nnngh...")
ShowMessageFace("jelly_fc1",1,0,2,39)
ShowMessage("\\n<Jelly Girl>")
ShowMessage("You can come more, right...?")
ShowMessage("I'll squeeze it all out, don't worry...")
ShowMessageFace("",0,0,2,40)
ShowMessage("\\n<Luka>")
ShowMessage("Stop it already...")
ShowMessageFace("",0,0,2,41)
ShowMessage("But her merciless squeezing continues.")
ShowMessageFace("",0,0,2,42)
ShowMessage("With my body encased in hers, I float here helplessly as she skillfully manipulates her free flowing body to squeeze and milk out my semen.")
ShowMessageFace("",0,0,2,43)
ShowMessage("\\n<Luka>")
ShowMessage("Auuuu...")
ShowMessageFace("",0,0,2,44)
ShowMessage("And before I was even aware of it, I had given up.")
RunCommonEvent(104)
PictureDisplay(5,"ev_jelly_h6",0,0,0,0,100,100,255,0)
RunCommonEvent(105)
ShowMessageFace("",0,0,2,45)
ShowMessage("With no way to escape, I relax inside her warm body as her slime fills me with pleasure.")
ShowMessageFace("",0,0,2,46)
ShowMessage("\\n<Luka>")
ShowMessage("Ah, aaah...")
ShowMessageFace("",0,0,2,47)
ShowMessage("Relaxing inside her body, I quickly come again.")
ShowMessage("I look on in ecstasy as my white semen mixes with her blue slime.")
ShowMessageFace("jelly_fc1",1,0,2,48)
ShowMessage("\\n<Jelly Girl>")
ShowMessage("Come on... Come more...")
ShowMessage("Fill me with everything...")
ShowMessageFace("",0,0,2,49)
ShowMessage("\\n<Luka>")
ShowMessage("Ah, aaah...")
RunCommonEvent(104)
RunCommonEvent(105)
ShowMessageFace("",0,0,2,50)
ShowMessage("Coming a final time, I lose consciousness.")
ShowMessage("The only sensation I can feel as I drift off to sleep is her warm slime wriggling around my body.")
221()
PictureClear(5)
PictureClear(6)
246(2)
ShowMessageFace("",0,0,2,51)
ShowMessage("Caught by the Jelly Girl, I'll be squeezed like this for the rest of my life...")
ShowMessage("Not killed or released, I'm stuck inside her soft body forever.")
ShowMessageFace("",0,0,2,52)
ShowMessage("Stuck inside her body, I've become little more than prey for her to feed on all day.")
ShowMessage("I quickly went insane on the pleasure, and became little more than a slave to pleasure.")
ShowMessageFace("",0,0,2,53)
ShowMessage("Today too, the Jelly Girl is squeezing me dry inside her body in the underground cave.")
ShowMessage("Stuck inside the cave nobody visits with the Jelly Girl, my adventure ends here.")
ShowMessageFace("",0,0,2,54)
ShowMessage("......")
221()
242(1)
Wait(120)
355("memory_interruption")
ShowMessageFace("",0,0,2,55)
ShowMessage("You hear Ilias' voice calling out to you...")
ShowMessage("Receive her evaluation?")
ShowChoices(strings("Receive Evaluation","Change Difficulty","Reincarnate"),3)
IfPlayerPicksChoice(0,"Receive Evaluation")
 241(bytes(0x04,0x08,0x6f,0x3a,0x0d,0x52,0x50,0x47,0x3a,0x3a,0x42,0x47,0x4d,0x08,0x3a,0x0a,0x40,0x6e,0x61,0x6d,0x65,0x49,0x22,0x0a,0x69,0x72,0x69,0x61,0x73,0x06,0x3a,0x06,0x45,0x54,0x3a,0x0c,0x40,0x76,0x6f,0x6c,0x75,0x6d,0x65,0x69,0x5f,0x3a,0x0b,0x40,0x70,0x69,0x74,0x63,0x68,0x69,0x6e))
 PictureDisplay(1,"bg001",0,0,0,0,100,100,255,0)
 222()
 PictureDisplay(5,"80_iriasu_st04",0,0,0,0,100,100,0,0)
 PictureMove(5,null,0,0,0,0,100,100,255,0,30,true)
 ShowMessageFace("iriasu_fc1",3,0,2,56)
 ShowMessage("\\n<Ilias>")
 ShowMessage("Were you able to enjoy the feeling of being submerged in slime?")
 ShowMessage("I'm glad to see a glimpse of your true self again.")
 PictureDisplay(5,"80_iriasu_st01",0,0,0,0,100,100,255,0)
 ShowMessageFace("iriasu_fc1",0,0,2,57)
 ShowMessage("\\n<Ilias>")
 ShowMessage("The Jelly Girl heavily relies on her Slime attacks.")
 ShowMessage("Refrain from using Physical attacks since she's strong against them.")
 ShowMessageFace("iriasu_fc1",0,0,2,58)
 ShowMessage("\\n<Ilias>")
 ShowMessage("All elemental attacks other than Water ones work well on her.")
 ShowMessage("She'll be easy to defeat if you use magic against her.")
 PictureDisplay(5,"80_iriasu_st02",0,0,0,0,100,100,255,0)
 ShowMessageFace("iriasu_fc1",1,0,2,59)
 ShowMessage("\\n<Ilias>")
 ShowMessage("Now go, oh Brave Luka.")
 ShowMessage("If you come back here again, I'll drown you in slime.")
 242(1)
 221()
 PictureClear(5)
 PictureClear(1)
 Wait(60)
 0()
IfPlayerPicksChoice(1,"Change Difficulty")
 ShowMessageFace("",0,0,2,60)
 ShowMessage("Please choose a difficulty level.")
 RunCommonEvent(110)
 0()
IfPlayerPicksChoice(2,"Reincarnate")
 0()
404()
RunCommonEvent(3000)
0()
