// EVENT 2235
Name "Seduction: Paizuri Doll"

355("$game_troop.lose_event_id = 3235")
ChangeVariable(26,26,0,3,3,1,4)
ChangeVariable(26,26,4,0,10)
ShowMessageFace("paizuridoll_fc1",2,0,2,1)
ShowMessage("\\n<Paizuri Doll>")
ShowMessage("............")
355("battler_graphic_hide")
PictureDisplay(5,"ev_paizuridoll_h1",0,0,0,0,100,100,255,0)
ShowMessageFace("",0,0,2,2)
ShowMessage("The Paizuri Doll clings to Luka's waist!")
ShowMessage("Her large, soft breasts press up against him!")
ShowMessageFace("paizuridoll_fc1",0,0,2,3)
ShowMessage("\\n<Paizuri Doll>")
ShowMessage("............")
ChangeSwitch(98,98,0)
ChangeSwitch(96,96,0)
ShowChoices(strings("Struggle","Let her continue"),1)
IfPlayerPicksChoice(0,"もがく")
 ShowMessageFace("",0,0,2,4)
 ShowMessage("But Luka struggles, and breaks free!")
 RunCommonEvent(1999)
 EndEventProcessing()
 0()
IfPlayerPicksChoice(1,"なすがまま")
 0()
404()
ShowMessageFace("paizuridoll_fc1",0,0,2,5)
ShowMessage("\\n<Paizuri Doll>")
ShowMessage("............")
ChangeVariable(26,26,3,0,3)
250(bytes(0x04,0x08,0x6f,0x3a,0x0c,0x52,0x50,0x47,0x3a,0x3a,0x53,0x45,0x08,0x3a,0x0a,0x40,0x6e,0x61,0x6d,0x65,0x49,0x22,0x12,0x6d,0x6f,0x6e,0x5f,0x65,0x72,0x6f,0x5f,0x6b,0x6f,0x6b,0x69,0x31,0x06,0x3a,0x06,0x45,0x54,0x3a,0x0b,0x40,0x70,0x69,0x74,0x63,0x68,0x69,0x69,0x3a,0x0c,0x40,0x76,0x6f,0x6c,0x75,0x6d,0x65,0x69,0x69))
311(0,1,1,1,26,true)
ShowMessageFace("",0,0,2,6)
ShowMessage("The Paizuri Doll rubs her breasts against Luka's penis!")
ShowMessage("The tip of his penis is massaged in her cleavage!\\D")
ShowMessage("Luka takes \\V[26] damage!")
ChangeVariable(27,27,0,3,3,1,2)
If(1,27,0,0,0)
 JumpToLabel("射精1")
 0()
EndIf()
ShowMessageFace("paizuridoll_fc1",0,0,2,7)
ShowMessage("\\n<Paizuri Doll>")
ShowMessage("......♪")
250(bytes(0x04,0x08,0x6f,0x3a,0x0c,0x52,0x50,0x47,0x3a,0x3a,0x53,0x45,0x08,0x3a,0x0a,0x40,0x6e,0x61,0x6d,0x65,0x49,0x22,0x12,0x6d,0x6f,0x6e,0x5f,0x65,0x72,0x6f,0x5f,0x6b,0x6f,0x6b,0x69,0x31,0x06,0x3a,0x06,0x45,0x54,0x3a,0x0b,0x40,0x70,0x69,0x74,0x63,0x68,0x69,0x69,0x3a,0x0c,0x40,0x76,0x6f,0x6c,0x75,0x6d,0x65,0x69,0x69))
311(0,1,1,1,26,true)
ShowMessageFace("",0,0,2,8)
ShowMessage("The doll squeezes his penis between her breasts!")
ShowMessage("Her elastic tits force pleasure into Luka!\\D")
ShowMessage("Luka takes \\V[26] damage!")
ChangeVariable(27,27,0,3,3,1,2)
If(1,27,0,0,0)
 JumpToLabel("射精1")
 0()
EndIf()
ShowMessageFace("paizuridoll_fc1",0,0,2,9)
ShowMessage("\\n<Paizuri Doll>")
ShowMessage("......♪♪")
250(bytes(0x04,0x08,0x6f,0x3a,0x0c,0x52,0x50,0x47,0x3a,0x3a,0x53,0x45,0x08,0x3a,0x0a,0x40,0x6e,0x61,0x6d,0x65,0x49,0x22,0x12,0x6d,0x6f,0x6e,0x5f,0x65,0x72,0x6f,0x5f,0x6b,0x6f,0x6b,0x69,0x31,0x06,0x3a,0x06,0x45,0x54,0x3a,0x0b,0x40,0x70,0x69,0x74,0x63,0x68,0x69,0x69,0x3a,0x0c,0x40,0x76,0x6f,0x6c,0x75,0x6d,0x65,0x69,0x69))
311(0,1,1,1,26,true)
ShowMessageFace("",0,0,2,10)
ShowMessage("The doll bounces her breasts up and down!")
ShowMessage("Luka's penis is crushed in her cleavage!\\D")
ShowMessage("Luka takes \\V[26] damage!")
ChangeVariable(27,27,0,3,3,1,2)
If(1,27,0,0,0)
 JumpToLabel("射精1")
 0()
EndIf()
ShowMessageFace("paizuridoll_fc1",0,0,2,11)
ShowMessage("\\n<Paizuri Doll>")
ShowMessage("......♪♪♪")
250(bytes(0x04,0x08,0x6f,0x3a,0x0c,0x52,0x50,0x47,0x3a,0x3a,0x53,0x45,0x08,0x3a,0x0a,0x40,0x6e,0x61,0x6d,0x65,0x49,0x22,0x12,0x6d,0x6f,0x6e,0x5f,0x65,0x72,0x6f,0x5f,0x6b,0x6f,0x6b,0x69,0x31,0x06,0x3a,0x06,0x45,0x54,0x3a,0x0b,0x40,0x70,0x69,0x74,0x63,0x68,0x69,0x69,0x3a,0x0c,0x40,0x76,0x6f,0x6c,0x75,0x6d,0x65,0x69,0x69))
311(0,1,1,1,26,true)
ShowMessageFace("",0,0,2,12)
ShowMessage("The doll's breasts press hard against Luka's penis!")
ShowMessage("His penis is stuck in her softness!\\D")
ShowMessage("Luka takes \\V[26] damage!")
ChangeVariable(27,27,0,3,3,1,2)
If(1,27,0,0,0)
 JumpToLabel("射精1")
 0()
EndIf()
DefineLabel("射精1")
ShowMessageFace("",0,0,2,13)
ShowMessage("\\n<Luka>No, I'm coming... Ahhh...")
RunCommonEvent(104)
PictureDisplay(5,"ev_paizuridoll_h2",0,0,0,0,100,100,255,0)
RunCommonEvent(105)
ShowMessageFace("",0,0,2,14)
ShowMessage("Succumbing to her sole function, I submit to the doll's paizuri.")
ShowMessage("My semen is scattered all over her chest...")
ShowMessageFace("paizuridoll_fc1",0,0,2,15)
ShowMessage("\\n<Paizuri Doll>")
ShowMessage("......♪♪♪")
RunCommonEvent(2000)
EndEventProcessing()
0()
