// EVENT 0341
Name "Beelzebub Recruitment"

ShowMessageFace("beelzebub_fc1",2,0,2,1)
ShowMessage("\\n<Beelzebub A>The world is scary these days...\nSo scary...")
ShowMessageFace("beelzebub_fc2",2,0,2,2)
ShowMessage("\\n<Beelzebub B>It's absolutely nothing like what we read...")
ShowMessageFace("beelzebub_fc3",0,0,2,3)
ShowMessage("\\n<Beelzebub C>These dumplings are delicious, however.")
If(0,6,0)
 ShowMessageFace("sonia_fc3",2,0,2,4)
 ShowMessage("\\n<Sonya>What's going on here?")
 0()
Else()
 ShowMessageFace("ruka_fc1",0,0,2,5)
 ShowMessage("\\n<Luka>What's going on here?")
 0()
EndIf()
ShowMessageFace("beelzebub_fc1",2,0,2,6)
ShowMessage("\\n<Beelzebub A>Ilias is dead, the towns are swarming with monsters...\nHumans now kill each other, there are multiple Monster Lords fighting for power...\nThe world is already in shambles.")
ShowMessageFace("beelzebub_fc2",2,0,2,7)
ShowMessage("\\n<Beelzebub B>I want to go back to the ghost ship now.\nThis multi-century generation gap is too much.")
ShowMessageFace("beelzebub_fc3",0,0,2,8)
ShowMessage("\\n<Beelzebub C>Let me finish these dumplings first.")
ShowMessageFace("ruka_fc1",0,0,2,9)
ShowMessage("\\n<Luka>Umm, are you saying that you won't cause any trouble?")
ShowMessageFace("beelzebub_fc1",2,0,2,10)
ShowMessage("\\n<Beelzebub A>What more harm could we even do?\nWe're just ghosts of the past at this point...")
ShowMessageFace("beelzebub_fc2",2,0,2,11)
ShowMessage("\\n<Beelzebub B>You're already living in hell.\nThe modern world is a terrible enough place as it is.")
ShowMessageFace("beelzebub_fc3",0,0,2,12)
ShowMessage("\\n<Beelzebub C>Great dumplings, though.")
If(0,4,0)
 ShowMessageFace("alice_fc5",0,0,2,13)
 ShowMessage("\\n<Alice>Hmm, so it seems they've lost their ambition.\nBeing hit with decades of change all at once is certainly a lot to take in.")
 0()
EndIf()
If(0,5,0)
 ShowMessageFace("iriasu_fc4",0,0,2,14)
 ShowMessage("\\n<Ilias>It seems they've lost their ambition.\nBeing exposed to decades of change all at once is certainly tough.")
 0()
EndIf()
ShowMessageFace("serene_fc1",3,0,2,15)
ShowMessage("\\n<Selene>In other words, all is well.\nI can finally sail on...")
ShowMessageFace("beelzebub_fc1",2,0,2,16)
ShowMessage("\\n<Beelzebub A>...No, all is far from well.\nDo you think you can abandon us to these turbulent times in our greatest moment of need?")
ShowMessageFace("beelzebub_fc2",2,0,2,17)
ShowMessage("\\n<Beelzebub B>Take responsibility for releasing us.\nGive us somewhere to live and feed us.")
ShowMessageFace("beelzebub_fc3",0,0,2,18)
ShowMessage("\\n<Beelzebub C>Dumplings, please.")
ShowMessageFace("",0,0,2,19)
ShowMessage("The Beelzebubs won't take no for an answer!")
ChangeVariable(1067,1067,0,0,7)
355("add_actor_ex(275)")
355("add_actor_ex(276)")
355("add_actor_ex(277)")
249(bytes(0x04,0x08,0x6f,0x3a,0x0c,0x52,0x50,0x47,0x3a,0x3a,0x4d,0x45,0x08,0x3a,0x0a,0x40,0x6e,0x61,0x6d,0x65,0x49,0x22,0x0c,0x66,0x61,0x6e,0x66,0x61,0x6c,0x65,0x06,0x3a,0x06,0x45,0x54,0x3a,0x0b,0x40,0x70,0x69,0x74,0x63,0x68,0x69,0x69,0x3a,0x0c,0x40,0x76,0x6f,0x6c,0x75,0x6d,0x65,0x69,0x69))
ShowMessageFace("",0,0,2,20)
ShowMessage("The Beelzebubs have joined the party!")
Wait(60)
ShowMessageFace("serene_fc1",3,0,2,21)
ShowMessage("\\n<Selene>Now I'm back to being concerned...\nI guess I still can't pass on.")
ShowMessageFace("serene_fc1",4,0,2,22)
ShowMessage("\\n<Selene>I guess that means I'm anchored to you lot awhile longer. I always loved adventuring as a pirate queen. ♪")
249(bytes(0x04,0x08,0x6f,0x3a,0x0c,0x52,0x50,0x47,0x3a,0x3a,0x4d,0x45,0x08,0x3a,0x0a,0x40,0x6e,0x61,0x6d,0x65,0x49,0x22,0x0c,0x66,0x61,0x6e,0x66,0x61,0x6c,0x65,0x06,0x3a,0x06,0x45,0x54,0x3a,0x0b,0x40,0x70,0x69,0x74,0x63,0x68,0x69,0x69,0x3a,0x0c,0x40,0x76,0x6f,0x6c,0x75,0x6d,0x65,0x69,0x69))
ShowMessageFace("",0,0,2,23)
ShowMessage("Selene formally joins the party!")
Wait(60)
If(1,1068,0,0,0)
 ChangeVariable(1068,1068,0,0,1)
 ShowMessageFace("serene_fc1",3,0,2,24)
 ShowMessage("\\n<Selene>Oh yeah, why don't we sail to the northern undersea temple? The Silver Orb is supposed to be there.")
 If(0,2251,1)
  If(1,1016,0,3,1)
   If(0,4,0)
    ShowMessageFace("alice_fc5",0,0,2,25)
    ShowMessage("\\n<Alice>The Silver Orb? That's definitely an important item, but we have other priorities right now--")
    0()
   EndIf()
   If(0,5,0)
    ShowMessageFace("iriasu_fc4",2,0,2,26)
    ShowMessage("\\n<Ilias>The Silver Orb? It might be necessary, but other matters take precedence for now--")
    0()
   EndIf()
   ShowMessageFace("kraken_fc2",0,0,2,27)
   ShowMessage("\\n<Kraken>Umm, on that point, I've got a favor to ask.")
   If(0,4,0)
    ShowMessageFace("alice_fc5",6,0,2,28)
    ShowMessage("\\n<Alice>The squid spoke!?")
    0()
   EndIf()
   If(0,5,0)
    ShowMessageFace("iriasu_fc4",5,0,2,29)
    ShowMessage("\\n<Ilias>The squid spoke!?")
    0()
   EndIf()
   ShowMessageFace("kraken_fc2",0,0,2,30)
   ShowMessage("\\n<Kraken>I knew it. You've completely forgotten about me.")
   ShowMessageFace("kraken_fc2",0,0,2,31)
   ShowMessage("\\n<Kraken>I'm the Queen of the Southern Seas, Kraken.\nI was attacked by Astaroth at the southern undersea temple and turned into dried squid.")
   ShowMessageFace("ruka_fc1",0,0,2,32)
   ShowMessage("\\n<Luka>Oh, yeah! That happened!")
   ShowMessageFace("kraken_fc2",0,0,2,33)
   ShowMessage("\\n<Kraken>Anyway, I heard you mention the northern undersea temple. I'd really appreciate it if you brought me there.")
   ShowMessageFace("kraken_fc2",0,0,2,34)
   ShowMessage("\\n<Kraken>My sworn friend Poseidoness rules from that temple, and she may be able to change me back.")
   If(0,4,0)
    ShowMessageFace("alice_fc5",2,0,2,35)
    ShowMessage("\\n<Alice>Mmmn, well if we have to...\nShould we focus on getting to the northern undersea temple then?")
    0()
   EndIf()
   If(0,5,0)
    ShowMessageFace("iriasu_fc4",2,0,2,36)
    ShowMessage("\\n<Ilias>You've got to be squidding me...\nThough I suppose we don't have much choice.")
    ShowMessageFace("iriasu_fc4",2,0,2,37)
    ShowMessage("\\n<Ilias>We're going to need the Silver Orb sooner or later, after all. It doesn't matter much to me if we shift our priorities a little.")
    0()
   EndIf()
   0()
  Else()
   If(0,4,0)
    ShowMessageFace("alice_fc5",0,0,2,38)
    ShowMessage("\\n<Alice>The Silver Orb? That might be important to our adventure...")
    0()
   EndIf()
   If(0,5,0)
    ShowMessageFace("iriasu_fc4",2,0,2,39)
    ShowMessage("\\n<Ilias>The Silver Orb? That might be important to our adventure.")
    0()
   EndIf()
   0()
  EndIf()
  0()
 EndIf()
 ShowMessageFace("serene_fc1",3,0,2,40)
 ShowMessage("\\n<Selene>To get to the northern undersea temple, you'll need to use the Orb of Guidance at the beach along the Gold coast.")
 ShowMessageFace("ruka_fc1",0,0,2,41)
 ShowMessage("\\n<Luka>We already have the Orb of Guidance thanks to the mermaids of Port Natalia.")
 ShowMessageFace("serene_fc1",3,0,2,42)
 ShowMessage("\\n<Selene>Do you know the right spot on the Gold coast?\nIt's northeast of Goddard and east of the Toxic Swamp.")
 If(1,1016,0,3,1)
  If(0,2251,1)
   If(0,4,0)
    ShowMessageFace("alice_fc5",0,0,2,43)
    ShowMessage("\\n<Alice>Hmm, our next destination is decided then.\nLet's bring this squid to the northern undersea temple.")
    EndEventProcessing()
    0()
   EndIf()
   If(0,5,0)
    ShowMessageFace("iriasu_fc4",0,0,2,44)
    ShowMessage("\\n<Ilias>To the northern undersea temple, then.\nWe can feed this squid to Poseidoness while we get the orb.")
    EndEventProcessing()
    0()
   EndIf()
   0()
  EndIf()
  0()
 EndIf()
 If(0,4,0)
  ShowMessageFace("alice_fc5",0,0,2,45)
  ShowMessage("\\n<Alice>Hmm, our next destination is decided then.\nLet's go to the northern undersea temple to get the Silver Orb.")
  0()
 EndIf()
 If(0,5,0)
  ShowMessageFace("iriasu_fc4",0,0,2,46)
  ShowMessage("\\n<Ilias>To the northern undersea temple, then.\nLet's swipe that orb from the Queen of the Northern Seas.")
  0()
 EndIf()
 EndEventProcessing()
 0()
EndIf()
0()
