// EVENT 2016
Name "Seduction: Leech Girl"

If(0,25,1)
 EndEventProcessing()
 0()
EndIf()
355("$game_troop.lose_event_id = 3016")
ChangeVariable(26,26,0,3,3,1,4)
ChangeVariable(26,26,4,0,10)
ShowMessageFace("hiru_fc1",0,0,2,1)
ShowMessage("\\n<Leech Girl>You are quite strong...\nI'll make you feel good, so please let me go?")
ShowMessageFace("hiru_fc1",1,0,2,2)
ShowMessage("\\n<Leech Girl>Do that, and I'll make you go deep in my lower mouth.\nAnd I'll caress you with my tentacles too...")
ShowMessageFace("hiru_fc1",1,0,2,3)
ShowMessage("\\n<Leech Girl>You'll get to feel heaven, you know?\nHora, hora... you want at least taste it, right?")
ShowMessageFace("",0,0,2,4)
ShowMessage("Leech Girl's mouth wiggled like it invited Luka.")
ShowMessage("Inside of it were countless tentacles, undulating suspiciously...")
ChangeSwitch(98,98,0)
ChangeSwitch(96,96,0)
ShowChoices(strings("Ignore her","Get inside"),1)
IfPlayerPicksChoice(0,"Ignore her")
 ShowMessageFace("",0,0,2,5)
 ShowMessage("Luka resists her temptation!")
 RunCommonEvent(1999)
 EndEventProcessing()
 0()
IfPlayerPicksChoice(1,"中に入れてもらう")
 JumpToLabel("咥え込み")
 0()
404()
DefineLabel("咥え込み")
ChangeVariable(26,26,3,0,2)
250(bytes(0x04,0x08,0x6f,0x3a,0x0c,0x52,0x50,0x47,0x3a,0x3a,0x53,0x45,0x08,0x3a,0x0a,0x40,0x6e,0x61,0x6d,0x65,0x49,0x22,0x16,0x6d,0x6f,0x6e,0x5f,0x65,0x72,0x6f,0x5f,0x6d,0x61,0x6b,0x69,0x74,0x75,0x6b,0x69,0x33,0x06,0x3a,0x06,0x45,0x54,0x3a,0x0b,0x40,0x70,0x69,0x74,0x63,0x68,0x69,0x69,0x3a,0x0c,0x40,0x76,0x6f,0x6c,0x75,0x6d,0x65,0x69,0x69))
355("battler_graphic_hide")
PictureDisplay(5,"ev_hiru_st11",0,0,0,0,100,100,255,0)
311(0,1,1,1,26,true)
ShowMessageFace("",0,0,2,6)
ShowMessage("Luka got closer to the Leech Girl's mouth...")
ShowMessage("Suddenly, he's completely dragged in!\\D")
ShowMessage("Luka takes \\V[26] damage!")
ChangeVariable(27,27,0,3,3,1,2)
If(1,27,0,0,0)
 JumpToLabel("射精1")
 0()
EndIf()
ShowMessageFace("hiru_fc1",1,0,2,7)
ShowMessage("\\n<Leech Girl>Fufu! It's already nice just like that, right?\nHoora, stay still...")
ShowChoices(strings("Struggle","Let her continue"),2)
IfPlayerPicksChoice(0,"Struggle")
 ShowMessageFace("",0,0,2,8)
 ShowMessage("Luka struggled wildly, and escaped from Leech Girl's mouth!")
 RunCommonEvent(1999)
 EndEventProcessing()
 0()
IfPlayerPicksChoice(1,"なすがまま")
 ShowMessageFace("",0,0,2,9)
 ShowMessage("Luka stays still...")
 0()
404()
ShowMessageFace("hiru_fc1",1,0,2,10)
ShowMessage("\\n<Leech Girl>Oh? You don't struggle?\nThat's right, you want me to make you have a taste right now...")
250(bytes(0x04,0x08,0x6f,0x3a,0x0c,0x52,0x50,0x47,0x3a,0x3a,0x53,0x45,0x08,0x3a,0x0a,0x40,0x6e,0x61,0x6d,0x65,0x49,0x22,0x16,0x6d,0x6f,0x6e,0x5f,0x65,0x72,0x6f,0x5f,0x6d,0x61,0x6b,0x69,0x74,0x75,0x6b,0x69,0x33,0x06,0x3a,0x06,0x45,0x54,0x3a,0x0b,0x40,0x70,0x69,0x74,0x63,0x68,0x69,0x69,0x3a,0x0c,0x40,0x76,0x6f,0x6c,0x75,0x6d,0x65,0x69,0x69))
311(0,1,1,1,26,true)
ShowMessageFace("",0,0,2,11)
ShowMessage("Leech Girl's mouth insides undulated!")
ShowMessage("Tentacles wrap Luka's entire body, and caresses him lovingly!\\D")
ShowMessage("Luka takes \\V[26] damage!")
ChangeVariable(27,27,0,3,3,1,2)
If(1,27,0,0,0)
 JumpToLabel("射精1")
 0()
EndIf()
ShowMessageFace("hiru_fc1",1,0,2,12)
ShowMessage("\\n<Leech Girl>It's all winded inside, it must feel good.\nI'm going to suck you now, be still...")
ShowChoices(strings("Struggle","Let her continue"),2)
IfPlayerPicksChoice(0,"Struggle")
 ShowMessageFace("",0,0,2,13)
 ShowMessage("Luka struggled wildly, escaping from Leech Girl's mouth!")
 RunCommonEvent(1999)
 EndEventProcessing()
 0()
IfPlayerPicksChoice(1,"なすがまま")
 ShowMessageFace("",0,0,2,14)
 ShowMessage("Luka lets himself get sucked...")
 0()
404()
ShowMessageFace("hiru_fc1",1,0,2,15)
ShowMessage("\\n<Leech Girl>Yes, don't move...\nHoora, I'll wring you out...")
250(bytes(0x04,0x08,0x6f,0x3a,0x0c,0x52,0x50,0x47,0x3a,0x3a,0x53,0x45,0x08,0x3a,0x0a,0x40,0x6e,0x61,0x6d,0x65,0x49,0x22,0x16,0x6d,0x6f,0x6e,0x5f,0x65,0x72,0x6f,0x5f,0x6d,0x61,0x6b,0x69,0x74,0x75,0x6b,0x69,0x33,0x06,0x3a,0x06,0x45,0x54,0x3a,0x0b,0x40,0x70,0x69,0x74,0x63,0x68,0x69,0x69,0x3a,0x0c,0x40,0x76,0x6f,0x6c,0x75,0x6d,0x65,0x69,0x69))
311(0,1,1,1,26,true)
ShowMessageFace("",0,0,2,16)
ShowMessage("Leech Girl's entire mouth body sucks eagerly Luka!")
ShowMessage("Luka's playfully sucked body received pleasure!\\D")
ShowMessage("Luka takes \\V[26] damage!")
ChangeVariable(27,27,0,3,3,1,2)
If(1,27,0,0,0)
 JumpToLabel("射精1")
 0()
EndIf()
ShowMessageFace("",0,0,2,17)
ShowMessage("\\n<Luka>Haaa... i-it's amazing...")
ShowMessageFace("hiru_fc1",1,0,2,18)
ShowMessage("\\n<Leech Girl>Fufu! Isn't it paradise?\nYou'll be unsightly wrung out just like that!")
ShowMessageFace("hiru_fc1",1,0,2,19)
ShowMessage("\\n<Leech Girl>Your little interest became an addiction, right?\nYou won't be able to escape now...")
ShowChoices(strings("Struggle","Let her continue"),2)
IfPlayerPicksChoice(0,"Struggle")
 ShowMessageFace("",0,0,2,20)
 ShowMessage("Luka struggled wildly!")
 ShowMessage("However, the pleasure made him weak...")
 ShowMessageFace("hiru_fc1",1,0,2,21)
 ShowMessage("\\n<Leech Girl>I told you, there's no escape.\nYou're simply one of my prey!")
 0()
IfPlayerPicksChoice(1,"なすがまま")
 ShowMessageFace("",0,0,2,22)
 ShowMessage("Luka wants to be sucked...")
 ShowMessageFace("hiru_fc1",1,0,2,23)
 ShowMessage("\\n<Leech Girl>It's so enjoyable, you don't even want to escape.\nYou're just prey to be sucked on...")
 0()
404()
250(bytes(0x04,0x08,0x6f,0x3a,0x0c,0x52,0x50,0x47,0x3a,0x3a,0x53,0x45,0x08,0x3a,0x0a,0x40,0x6e,0x61,0x6d,0x65,0x49,0x22,0x16,0x6d,0x6f,0x6e,0x5f,0x65,0x72,0x6f,0x5f,0x6d,0x61,0x6b,0x69,0x74,0x75,0x6b,0x69,0x33,0x06,0x3a,0x06,0x45,0x54,0x3a,0x0b,0x40,0x70,0x69,0x74,0x63,0x68,0x69,0x69,0x3a,0x0c,0x40,0x76,0x6f,0x6c,0x75,0x6d,0x65,0x69,0x69))
311(0,1,1,1,26,true)
ShowMessageFace("",0,0,2,24)
ShowMessage("Luka's body is caressed roughly by the Leech Girl's mouth body!")
ShowMessage("Tentacles coiled up Luka's penis, teasing his whole body!\\D")
ShowMessage("Luka takes \\V[26] damage!")
ChangeVariable(27,27,0,3,3,1,2)
If(1,27,0,0,0)
 JumpToLabel("射精1")
 0()
EndIf()
ShowMessageFace("hiru_fc1",1,0,2,25)
ShowMessage("\\n<Leech Girl>You never thought that would happen?\nOr maybe... you expected it and yielded your body?")
ShowChoices(strings("Struggle","Let her continue"),2)
IfPlayerPicksChoice(0,"Struggle")
 ShowMessageFace("",0,0,2,26)
 ShowMessage("Luka tried to struggle!")
 ShowMessage("But he has no strength to escape...")
 ShowMessageFace("hiru_fc1",1,0,2,27)
 ShowMessage("\\n<Leech Girl>Fufu, that was some pathetic resistance.\nBut it'll soon be over with this...")
 0()
IfPlayerPicksChoice(1,"なすがまま")
 ShowMessageFace("",0,0,2,28)
 ShowMessage("Luka yields...")
 ShowMessageFace("hiru_fc1",1,0,2,29)
 ShowMessage("\\n<Leech Girl>That's right... you want to feel pleasure until the end.\nI'll finish you now...")
 0()
404()
250(bytes(0x04,0x08,0x6f,0x3a,0x0c,0x52,0x50,0x47,0x3a,0x3a,0x53,0x45,0x08,0x3a,0x0a,0x40,0x6e,0x61,0x6d,0x65,0x49,0x22,0x16,0x6d,0x6f,0x6e,0x5f,0x65,0x72,0x6f,0x5f,0x6d,0x61,0x6b,0x69,0x74,0x75,0x6b,0x69,0x33,0x06,0x3a,0x06,0x45,0x54,0x3a,0x0b,0x40,0x70,0x69,0x74,0x63,0x68,0x69,0x69,0x3a,0x0c,0x40,0x76,0x6f,0x6c,0x75,0x6d,0x65,0x69,0x69))
ChangeVariable(26,26,3,0,3)
311(0,1,1,1,26,true)
ShowMessageFace("",0,0,2,30)
ShowMessage("The tentacles inside wriggling, Luka's body was thoroughly caressed!")
ShowMessage("His whole body gets sucked, and she extracts all his strength!\\D")
ShowMessage("Luka takes \\V[26] damage!")
DefineLabel("射精1")
ShowMessageFace("",0,0,2,31)
ShowMessage("\\n<Luka>I'm coming....!\nA-aaaaaah...!")
RunCommonEvent(104)
PictureDisplay(5,"ev_hiru_st12",0,0,0,0,100,100,255,0)
RunCommonEvent(105)
ShowMessageFace("",0,0,2,32)
ShowMessage("Feeling too much pleasure, Luka came having his whole body sucked.")
ShowMessage("Semen spills inside the Leech Girl's mouth organ.")
ShowMessageFace("hiru_fc1",1,0,2,33)
ShowMessage("\\n<Leech Girl>Good, now the leader is defeated.\nWhat about his companions...?")
RunCommonEvent(2000)
EndEventProcessing()
0()
