// EVENT 1021
Name "Talk: Shesta"

If(1,20,0,1,0)
 JumpToLabel("情報")
 0()
EndIf()
If(1,20,0,2,0)
 JumpToLabel("質問")
 0()
EndIf()
If(1,20,0,3,0)
 JumpToLabel("要求")
 0()
EndIf()
If(1,20,0,4,0)
 JumpToLabel("贈与")
 0()
EndIf()
DefineLabel("情報")
ChangeVariable(13,13,0,2,1,100)
If(1,13,0,10,2)
 ShowMessageFace("syesta_fc1",0,0,2,1)
 ShowMessage("\\n<Shesta>My name is Shesta.\nThat's all I can remember...")
 EndEventProcessing()
 0()
EndIf()
If(1,13,0,20,2)
 ShowMessageFace("syesta_fc1",0,0,2,2)
 ShowMessage("\\n<Shesta>Where am I?\nWhat am I doing here?")
 EndEventProcessing()
 0()
EndIf()
If(1,13,0,30,2)
 ShowMessageFace("syesta_fc1",0,0,2,3)
 ShowMessage("\\n<Shesta>I think... I was a human.\nBut I can't remember...")
 EndEventProcessing()
 0()
EndIf()
If(1,13,0,40,2)
 ShowMessageFace("syesta_fc1",0,0,2,4)
 ShowMessage("\\n<Shesta>What is this body?\nI... I....")
 EndEventProcessing()
 0()
EndIf()
If(1,13,0,50,2)
 ShowMessageFace("syesta_fc1",0,0,2,5)
 ShowMessage("\\n<Shesta>Class One Cross-World Contact detected.\nI must eliminate you...")
 EndEventProcessing()
 0()
EndIf()
If(1,13,0,60,2)
 ShowMessageFace("syesta_fc1",0,0,2,6)
 ShowMessage("\\n<Shesta>You must not come to this place.\nYou must not see it. You must not feel it.")
 EndEventProcessing()
 0()
EndIf()
If(1,13,0,70,2)
 ShowMessageFace("syesta_fc1",0,0,2,7)
 ShowMessage("\\n<Shesta>I am the Shell Erosion Type Apoptosis, Shesta.\nMy purpose for existing is... to eliminate intruders.")
 EndEventProcessing()
 0()
EndIf()
If(1,13,0,80,2)
 ShowMessageFace("syesta_fc1",0,0,2,8)
 ShowMessage("\\n<Shesta>Nothing must be allowed to enter this place...")
 EndEventProcessing()
 0()
EndIf()
If(1,13,0,90,2)
 ShowMessageFace("syesta_fc1",0,0,2,9)
 ShowMessage("\\n<Shesta>I just had a sudden flash of memory...\nI was in some town...")
 EndEventProcessing()
 0()
EndIf()
If(1,13,0,100,2)
 ShowMessageFace("syesta_fc1",0,0,2,10)
 ShowMessage("\\n<Shesta>Everyone got absorbed, and then I...")
 ShowMessageFace("syesta_fc1",0,0,2,11)
 ShowMessage("\\n<Shesta>I don't know anymore.\nI just don't know...")
 EndEventProcessing()
 0()
EndIf()
DefineLabel("質問")
ChangeVariable(13,13,0,2,1,50)
If(1,13,0,10,2)
 ShowMessageFace("syesta_fc1",0,0,2,12)
 ShowMessage("\\n<Shesta>Do you know what I should be doing?\nPlease, tell me...")
 ShowChoices(strings("Fighting","Sexy things","I don't know"),0)
 IfPlayerPicksChoice(0,"Fighting")
  ShowMessageFace("syesta_fc1",0,0,2,13)
  ShowMessage("\\n<Shesta>But why do I fight?\nI don't know the reason, but I know it's something I have to do...")
  355("change_friend(-5)")
  0()
 IfPlayerPicksChoice(1,"Sexy things")
  ShowMessageFace("syesta_fc1",0,0,2,14)
  ShowMessage("\\n<Shesta>Sexy... things?\nIs that what I should be doing?")
  355("change_friend(10)")
  0()
 IfPlayerPicksChoice(2,"I don't know")
  ShowMessageFace("syesta_fc1",0,0,2,15)
  ShowMessage("\\n<Shesta>You don't know either...\nWhat should I do...?")
  0()
 404()
 EndEventProcessing()
 0()
EndIf()
If(1,13,0,20,2)
 ShowMessageFace("syesta_fc1",0,0,2,16)
 ShowMessage("\\n<Shesta>Where are we?\nDo you know?")
 ShowChoices(strings("Tartarus","This is my home, I own it","I don't know"),0)
 IfPlayerPicksChoice(0,"Tartarus")
  ShowMessageFace("syesta_fc1",0,0,2,17)
  ShowMessage("\\n<Shesta>Tartarus? Is that what you call this place in your world?\nBut actually, this place is...")
  0()
 IfPlayerPicksChoice(1,"This is my home, I own it")
  ShowMessageFace("syesta_fc1",0,0,2,18)
  ShowMessage("\\n<Shesta>This place belongs to you?\nDoes that make you the Lord of Chaos?")
  355("change_friend(10)")
  0()
 IfPlayerPicksChoice(2,"I don't know")
  ShowMessageFace("syesta_fc1",0,0,2,19)
  ShowMessage("\\n<Shesta>Yes, no one knows...")
  0()
 404()
 EndEventProcessing()
 0()
EndIf()
If(1,13,0,30,2)
 ShowMessageFace("syesta_fc1",0,0,2,20)
 ShowMessage("\\n<Shesta>I wonder what I was when I was a human...\nDo you know...?")
 ShowChoices(strings("Scholar","Merchant","Prostitute"),0)
 IfPlayerPicksChoice(0,"Scholar")
  ShowMessageFace("syesta_fc1",0,0,2,21)
  ShowMessage("\\n<Shesta>So... I studied a lot?\nI don't remember doing that, I think you might be wrong.")
  355("change_friend(-5)")
  0()
 IfPlayerPicksChoice(1,"Merchant")
  ShowMessageFace("syesta_fc1",0,0,2,22)
  ShowMessage("\\n<Shesta>Merchant... yes.\nI think I remember selling something on the street corner as people passed by...")
  0()
 IfPlayerPicksChoice(2,"Prostitute")
  ShowMessageFace("syesta_fc1",0,0,2,23)
  ShowMessage("\\n<Shesta>I... do not remember selling my body.\nBut is that what you want me to do? Do you want to have sex with me?")
  355("change_friend(10)")
  0()
 404()
 EndEventProcessing()
 0()
EndIf()
If(1,13,0,40,2)
 ShowMessageFace("syesta_fc1",0,0,2,24)
 ShowMessage("\\n<Shesta>Where did you come from?")
 ShowChoices(strings("From outside this place","A different world","I live next door"),0)
 IfPlayerPicksChoice(0,"From outside this place")
  ShowMessageFace("syesta_fc1",0,0,2,25)
  ShowMessage("\\n<Shesta>There's a world outside of here?\nI'd really like to go there. I might get my memory back...")
  355("change_friend(10)")
  0()
 IfPlayerPicksChoice(1,"A different world")
  ShowMessageFace("syesta_fc1",0,0,2,26)
  ShowMessage("\\n<Shesta>If there exist different worlds, then what does that make the space we're in now?")
  0()
 IfPlayerPicksChoice(2,"I live next door")
  ShowMessageFace("syesta_fc1",0,0,2,27)
  ShowMessage("\\n<Shesta>There is no such thing in this world...")
  355("change_friend(-5)")
  0()
 404()
 EndEventProcessing()
 0()
EndIf()
If(1,13,0,50,2)
 ShowMessageFace("syesta_fc1",0,0,2,28)
 ShowMessage("\\n<Shesta>What is it you are doing?")
 ShowChoices(strings("Adventuring","Bringing peace to the world","Raping monster girls"),0)
 IfPlayerPicksChoice(0,"Adventuring")
  ShowMessageFace("syesta_fc1",0,0,2,29)
  ShowMessage("\\n<Shesta>Adventuring?\nYes... I think when I was young, I had dreams of adventuring somewhere far off...")
  355("change_friend(10)")
  0()
 IfPlayerPicksChoice(1,"Bringing peace to the world")
  ShowMessageFace("syesta_fc1",0,0,2,30)
  ShowMessage("\\n<Shesta>But there can be no more peace.\nThis world is already gone...")
  0()
 IfPlayerPicksChoice(2,"Raping monster girls")
  ShowMessageFace("syesta_fc1",0,0,2,31)
  ShowMessage("\\n<Shesta>Really? You're not the one being raped?\nI don't like violent men...")
  355("change_friend(-5)")
  0()
 404()
 EndEventProcessing()
 0()
EndIf()
DefineLabel("要求")
ChangeVariable(13,13,0,2,1,30)
If(1,13,0,10,2)
 If(8,17)
  ShowMessageFace("syesta_fc1",0,0,2,32)
  ShowMessage("\\n<Shesta>I feel so numb...\nThere's no medicine, not in this place...")
  ChangeVariable(24,24,0,3,0,17,0)
  ShowMessageFace("",0,0,2,33)
  ShowMessage("Give \\ii[17]?(Have:\\V[24])")
  ShowChoices(strings("Yes","No"),2)
  IfPlayerPicksChoice(0,"Yes")
   ShowMessageFace("syesta_fc1",0,0,2,34)
   ShowMessage("\\n<Shesta>My memory...\nIt won't come back...")
   ChangeInventory_Item(17,1,0,1)
   355("change_friend(20)")
   EndEventProcessing()
   0()
  IfPlayerPicksChoice(1,"No")
   ShowMessageFace("syesta_fc1",0,0,2,35)
   ShowMessage("\\n<Shesta>I can't... I can't remember anything...")
   EndEventProcessing()
   0()
  404()
  0()
 Else()
  ChangeVariable(13,13,0,0,20)
  0()
 EndIf()
 0()
EndIf()
If(1,13,0,20,2)
 If(1,13,0,10,2)
  If(10,1026,false)
   ShowMessageFace("syesta_fc1",0,0,2,36)
   ShowMessage("\\n<Shesta>Accessories...\nBack then... did I like...")
   ChangeVariable(24,24,0,3,2,1026,0)
   ShowMessageFace("",0,0,2,37)
   ShowMessage("Do you want to give a \\ia[1026]?(Have:\\V[24])")
   ShowChoices(strings("Yes","No"),2)
   IfPlayerPicksChoice(0,"Yes")
    ShowMessageFace("syesta_fc1",0,0,2,38)
    ShowMessage("\\n<Shesta>My memory...\nIt won't come back...")
    ChangeInventoryArmor(1026,1,0,1,false)
    355("change_friend(30)")
    EndEventProcessing()
    0()
   IfPlayerPicksChoice(1,"No")
    ShowMessageFace("syesta_fc1",0,0,2,39)
    ShowMessage("\\n<Shesta>I can't... I can't remember anything...")
    EndEventProcessing()
    0()
   404()
   0()
  Else()
   ChangeVariable(13,13,0,0,30)
   0()
  EndIf()
  0()
 EndIf()
 0()
EndIf()
If(1,13,0,30,2)
 ShowMessageFace("syesta_fc1",0,0,2,40)
 ShowMessage("\\n<Shesta>Money...\nI always wanted it... I think...")
 If(7,84,0)
  ChangeVariable(24,24,0,3,7,2,0)
  ShowMessageFace("",0,0,2,41)
  ShowMessage("Do you want to give 84G?(Have:\\V[24])")
  ShowChoices(strings("Yes","No"),2)
  IfPlayerPicksChoice(0,"Yes")
   ShowMessageFace("syesta_fc1",0,0,2,42)
   ShowMessage("\\n<Shesta>My memory...\nIt won't come back...")
   125(1,0,84)
   355("change_friend(25)")
   EndEventProcessing()
   0()
  IfPlayerPicksChoice(1,"No")
   ShowMessageFace("syesta_fc1",0,0,2,43)
   ShowMessage("\\n<Shesta>I can't... I can't remember anything...")
   EndEventProcessing()
   0()
  404()
  0()
 Else()
  ShowMessageFace("syesta_fc1",0,0,2,44)
  ShowMessage("\\n<Shesta>...You have no money?\nThat feels... familiar to me...")
  EndEventProcessing()
  0()
 EndIf()
 0()
EndIf()
DefineLabel("贈与")
ChangeVariable(13,13,0,2,1,30)
If(1,25,0,1,0)
 ChangeVariable(13,13,0,0,30)
 ChangeVariable(25,25,0,0,0)
 0()
EndIf()
If(1,25,0,2,0)
 ChangeVariable(13,13,0,2,1,20)
 ChangeVariable(25,25,0,0,0)
 0()
EndIf()
If(1,13,0,10,2)
 ShowMessageFace("syesta_fc1",0,0,2,45)
 ShowMessage("\\n<Shesta>This thing...\nI don't understand. Why do I have it?")
 250(bytes(0x04,0x08,0x6f,0x3a,0x0c,0x52,0x50,0x47,0x3a,0x3a,0x53,0x45,0x08,0x3a,0x0a,0x40,0x6e,0x61,0x6d,0x65,0x49,0x22,0x0a,0x49,0x74,0x65,0x6d,0x31,0x06,0x3a,0x06,0x45,0x54,0x3a,0x0b,0x40,0x70,0x69,0x74,0x63,0x68,0x69,0x69,0x3a,0x0c,0x40,0x76,0x6f,0x6c,0x75,0x6d,0x65,0x69,0x55))
 ChangeInventory_Item(301,0,0,1)
 ShowMessageFace("",0,0,2,46)
 ShowMessage("Shesta gave you \\ii[301]!")
 EndEventProcessing()
 0()
EndIf()
If(1,13,0,20,2)
 ShowMessageFace("syesta_fc1",0,0,2,47)
 ShowMessage("\\n<Shesta>When in trouble, you should use this.\nBut when you use it... what happens?")
 250(bytes(0x04,0x08,0x6f,0x3a,0x0c,0x52,0x50,0x47,0x3a,0x3a,0x53,0x45,0x08,0x3a,0x0a,0x40,0x6e,0x61,0x6d,0x65,0x49,0x22,0x0a,0x49,0x74,0x65,0x6d,0x31,0x06,0x3a,0x06,0x45,0x54,0x3a,0x0b,0x40,0x70,0x69,0x74,0x63,0x68,0x69,0x69,0x3a,0x0c,0x40,0x76,0x6f,0x6c,0x75,0x6d,0x65,0x69,0x55))
 ChangeInventory_Item(11,0,0,1)
 ShowMessageFace("",0,0,2,48)
 ShowMessage("Shesta gave you a \\ii[11]!")
 EndEventProcessing()
 0()
EndIf()
If(1,13,0,30,2)
 125(0,0,140)
 ShowMessageFace("syesta_fc1",0,0,2,49)
 ShowMessage("\\n<Shesta>This money...\nCan I get my memory back with this?")
 250(bytes(0x04,0x08,0x6f,0x3a,0x0c,0x52,0x50,0x47,0x3a,0x3a,0x53,0x45,0x08,0x3a,0x0a,0x40,0x6e,0x61,0x6d,0x65,0x49,0x22,0x0a,0x49,0x74,0x65,0x6d,0x31,0x06,0x3a,0x06,0x45,0x54,0x3a,0x0b,0x40,0x70,0x69,0x74,0x63,0x68,0x69,0x69,0x3a,0x0c,0x40,0x76,0x6f,0x6c,0x75,0x6d,0x65,0x69,0x55))
 ShowMessageFace("",0,0,2,50)
 ShowMessage("Shesta gave you 140G!")
 EndEventProcessing()
 0()
EndIf()
0()
