// EVENT 2030
Name "Seduction: Slug Nun"

If(0,25,1)
 EndEventProcessing()
 0()
EndIf()
355("$game_troop.lose_event_id = 3030")
ChangeVariable(26,26,0,3,3,1,4)
ChangeVariable(26,26,4,0,10)
ShowMessageFace("name_s_fc1",2,0,2,1)
ShowMessage("\\n<Slug Nun>I'm in trouble...\nFor the sake of my goals, I mustn't fall here.")
355("battler_graphic_hide")
PictureDisplay(5,"ev_name_s_ha1",0,0,0,0,100,100,0,0)
PictureMove(5,null,0,0,0,0,100,100,255,0,60,true)
ShowMessageFace("",0,0,2,2)
ShowMessage("The Slug Nun crawls toward Luka, and sticks out her tongue.")
ShowMessageFace("name_s_fc1",0,0,2,3)
ShowMessage("\\n<Slug Nun>If you let me go... I'll service you with my tongue.\nIt's slimy, and will feel amazing...")
ChangeSwitch(98,98,0)
ChangeSwitch(96,96,0)
ShowChoices(strings("Ignore her","Give in to temptation"),1)
IfPlayerPicksChoice(0,"Ignore her")
 ShowMessageFace("",0,0,2,4)
 ShowMessage("Luka resists her temptation!")
 RunCommonEvent(1999)
 EndEventProcessing()
 0()
IfPlayerPicksChoice(1,"誘惑に乗る")
 0()
404()
ShowMessageFace("",0,0,2,5)
ShowMessage("Luka allows her to move her tongue near his penis.")
ShowMessageFace("name_s_fc1",0,0,2,6)
ShowMessage("\\n<Slug Nun>Then, allow me to serve you...\nNnn...*Lick*")
ChangeVariable(26,26,3,0,2)
250(bytes(0x04,0x08,0x6f,0x3a,0x0c,0x52,0x50,0x47,0x3a,0x3a,0x53,0x45,0x08,0x3a,0x0a,0x40,0x6e,0x61,0x6d,0x65,0x49,0x22,0x11,0x6d,0x6f,0x6e,0x5f,0x65,0x72,0x6f,0x5f,0x70,0x79,0x75,0x32,0x06,0x3a,0x06,0x45,0x54,0x3a,0x0b,0x40,0x70,0x69,0x74,0x63,0x68,0x69,0x69,0x3a,0x0c,0x40,0x76,0x6f,0x6c,0x75,0x6d,0x65,0x69,0x69))
311(0,1,1,1,26,true)
ShowMessageFace("",0,0,2,7)
ShowMessage("The Slug Nun's tongue, dripping mucus, licks Luka's penis!")
ShowMessage("The sticky touch stimulates him!\\D")
ShowMessage("Luka takes \\V[26] damage!")
ChangeVariable(27,27,0,3,3,1,2)
If(1,27,0,0,0)
 JumpToLabel("射精1")
 0()
EndIf()
ShowMessageFace("name_s_fc1",0,0,2,8)
ShowMessage("\\n<Slug Nun>My tongue feels good, doesn't it?\n*Lick* *Lick*")
250(bytes(0x04,0x08,0x6f,0x3a,0x0c,0x52,0x50,0x47,0x3a,0x3a,0x53,0x45,0x08,0x3a,0x0a,0x40,0x6e,0x61,0x6d,0x65,0x49,0x22,0x11,0x6d,0x6f,0x6e,0x5f,0x65,0x72,0x6f,0x5f,0x70,0x79,0x75,0x32,0x06,0x3a,0x06,0x45,0x54,0x3a,0x0b,0x40,0x70,0x69,0x74,0x63,0x68,0x69,0x69,0x3a,0x0c,0x40,0x76,0x6f,0x6c,0x75,0x6d,0x65,0x69,0x69))
311(0,1,1,1,26,true)
ShowMessageFace("",0,0,2,9)
ShowMessage("Her thick tongue crawls all over his penis!")
ShowMessage("The slimy saliva pleasures Luka!\\D")
ShowMessage("Luka takes \\V[26] damage!")
ChangeVariable(27,27,0,3,3,1,2)
If(1,27,0,0,0)
 JumpToLabel("射精2")
 0()
EndIf()
ShowMessageFace("",0,0,2,10)
ShowMessage("\\n<Luka>Unnngh...!")
ShowMessageFace("",0,0,2,11)
ShowMessage("The Slug Nun's tongue feels so good, it's as if I could melt...")
ShowMessage("If I let this keep going, I'll come in no time.")
ShowChoices(strings("Resist Temptation","Let her keep licking"),1)
IfPlayerPicksChoice(0,"誘惑を振り払う")
 ShowMessageFace("",0,0,2,12)
 ShowMessage("Luka resists her temptation!")
 RunCommonEvent(1999)
 EndEventProcessing()
 0()
IfPlayerPicksChoice(1,"このまま舐め回してもらう")
 ShowMessageFace("",0,0,2,13)
 ShowMessage("Luka surrenders to the pleasure...")
 0()
404()
ShowMessageFace("name_s_fc1",0,0,2,14)
ShowMessage("\\n<Slug Nun>The tip feels the best...\n*Lick* *Lick*")
250(bytes(0x04,0x08,0x6f,0x3a,0x0c,0x52,0x50,0x47,0x3a,0x3a,0x53,0x45,0x08,0x3a,0x0a,0x40,0x6e,0x61,0x6d,0x65,0x49,0x22,0x11,0x6d,0x6f,0x6e,0x5f,0x65,0x72,0x6f,0x5f,0x70,0x79,0x75,0x32,0x06,0x3a,0x06,0x45,0x54,0x3a,0x0b,0x40,0x70,0x69,0x74,0x63,0x68,0x69,0x69,0x3a,0x0c,0x40,0x76,0x6f,0x6c,0x75,0x6d,0x65,0x69,0x69))
311(0,1,1,1,26,true)
ShowMessageFace("",0,0,2,15)
ShowMessage("Her tongue covers Luka's penis with sticky slime!")
ShowMessage("The tip of her tongue crawls all over the tip of Luka's penis!\\D")
ShowMessage("Luka takes \\V[26] damage!")
ChangeVariable(27,27,0,3,3,1,2)
If(1,27,0,0,0)
 JumpToLabel("射精2")
 0()
EndIf()
ShowMessageFace("name_s_fc1",0,0,2,16)
ShowMessage("\\n<Slug Nun>You can ejaculate just like this.\nPlease be sure to come as much as you can... *Lick*")
250(bytes(0x04,0x08,0x6f,0x3a,0x0c,0x52,0x50,0x47,0x3a,0x3a,0x53,0x45,0x08,0x3a,0x0a,0x40,0x6e,0x61,0x6d,0x65,0x49,0x22,0x11,0x6d,0x6f,0x6e,0x5f,0x65,0x72,0x6f,0x5f,0x70,0x79,0x75,0x32,0x06,0x3a,0x06,0x45,0x54,0x3a,0x0b,0x40,0x70,0x69,0x74,0x63,0x68,0x69,0x69,0x3a,0x0c,0x40,0x76,0x6f,0x6c,0x75,0x6d,0x65,0x69,0x69))
311(0,1,1,1,26,true)
ShowMessageFace("",0,0,2,17)
ShowMessage("The Slug Nun's tongue wraps around Luka's penis!")
ShowMessage("His tip is assaulted by her slimy tongue!\\D")
ShowMessage("Luka takes \\V[26] damage!")
ChangeVariable(27,27,0,3,3,1,2)
If(1,27,0,0,0)
 JumpToLabel("射精2")
 0()
EndIf()
ShowMessageFace("name_s_fc1",0,0,2,18)
ShowMessage("\\n<Slug Nun>Fufu, you can't take much more, can you?\nPlease cover my tongue with your seed...")
250(bytes(0x04,0x08,0x6f,0x3a,0x0c,0x52,0x50,0x47,0x3a,0x3a,0x53,0x45,0x08,0x3a,0x0a,0x40,0x6e,0x61,0x6d,0x65,0x49,0x22,0x11,0x6d,0x6f,0x6e,0x5f,0x65,0x72,0x6f,0x5f,0x70,0x79,0x75,0x32,0x06,0x3a,0x06,0x45,0x54,0x3a,0x0b,0x40,0x70,0x69,0x74,0x63,0x68,0x69,0x69,0x3a,0x0c,0x40,0x76,0x6f,0x6c,0x75,0x6d,0x65,0x69,0x69))
311(0,1,1,1,26,true)
ShowMessageFace("",0,0,2,19)
ShowMessage("The Slug Nun's tongue sticks to Luka's penis!")
ShowMessage("The sticky irritation is too much for Luka to take!\\D")
ShowMessage("Luka takes \\V[26] damage!")
ChangeVariable(27,27,0,3,3,1,2)
If(1,27,0,0,0)
 JumpToLabel("射精2")
 0()
EndIf()
DefineLabel("射精1")
ShowMessageFace("",0,0,2,20)
ShowMessage("\\n<Luka>Ah...I'm coming...")
RunCommonEvent(104)
PictureDisplay(5,"ev_name_s_ha2",0,0,0,0,100,100,255,0)
RunCommonEvent(105)
ShowMessageFace("",0,0,2,21)
ShowMessage("At the first touch of her tongue, I can't take it any more.")
ShowMessage("I spurt out, devoting all of my semen to her tongue.")
ShowMessageFace("name_s_fc1",0,0,2,22)
ShowMessage("\\n<Slug Nun>Ah, with just a single lick.\nYou already came? Fufufu...")
RunCommonEvent(2000)
EndEventProcessing()
DefineLabel("射精2")
ShowMessageFace("",0,0,2,23)
ShowMessage("\\n<Luka>Aaah... Feels good...")
RunCommonEvent(104)
PictureDisplay(5,"ev_name_s_ha2",0,0,0,0,100,100,255,0)
RunCommonEvent(105)
ShowMessageFace("",0,0,2,24)
ShowMessage("Her tongue is still wrapped around my penis.")
ShowMessage("Feeling too good, I come in her tongue embrace.")
ShowMessageFace("name_s_fc1",0,0,2,25)
ShowMessage("\\n<Slug Nun>Nnn... You came a lot.\nMy tongue felt amazing, didn't it?")
RunCommonEvent(2000)
EndEventProcessing()
0()
