// EVENT 2181
Name "Seduction: Misstauros"

355("$game_troop.lose_event_id = 3181")
ChangeVariable(26,26,0,3,3,1,4)
ChangeVariable(26,26,4,0,10)
ShowMessageFace("m_mino_fc1",0,0,2,1)
ShowMessage("\\n<Misstauros>")
ShowMessage("Ara, so energetic...")
ShowMessage("Shall I give you a reward?")
ShowMessageFace("",0,0,2,2)
ShowMessage("Misstauros pushes Luka down!")
ShowMessageFace("m_mino_fc1",0,0,2,3)
ShowMessage("\\n<Misstauros>")
ShowMessage("Just stay still...")
ShowMessage("I'll make you come lots and lots with my pussy.")
ChangeSwitch(98,98,0)
ChangeSwitch(96,96,0)
ShowChoices(strings("Struggle","Let her continue"),1)
IfPlayerPicksChoice(0,"もがく")
 ShowMessageFace("",0,0,2,4)
 ShowMessage("Luka struggles, and breaks free!")
 RunCommonEvent(1999)
 EndEventProcessing()
 0()
IfPlayerPicksChoice(1,"なすがまま")
 0()
404()
ShowMessageFace("m_mino_fc1",1,0,2,5)
ShowMessage("\\n<Misstauros>")
ShowMessage("I'll give you a taste of my lewd pussy...")
ShowMessage("Let's put it in.")
ChangeVariable(26,26,3,0,4)
250(bytes(0x04,0x08,0x6f,0x3a,0x0c,0x52,0x50,0x47,0x3a,0x3a,0x53,0x45,0x08,0x3a,0x0a,0x40,0x6e,0x61,0x6d,0x65,0x49,0x22,0x11,0x6d,0x6f,0x6e,0x5f,0x65,0x72,0x6f,0x5f,0x70,0x79,0x75,0x31,0x06,0x3a,0x06,0x45,0x54,0x3a,0x0b,0x40,0x70,0x69,0x74,0x63,0x68,0x69,0x69,0x3a,0x0c,0x40,0x76,0x6f,0x6c,0x75,0x6d,0x65,0x69,0x69))
311(0,1,1,1,26,true)
ShowMessageFace("",0,0,2,6)
ShowMessage("Misstauros forces Luka into her!")
ShowMessage("Her soft flesh wraps him up!\\D")
ShowMessage("Luka takes \\V[26] damage!")
ChangeVariable(27,27,0,3,3,1,2)
If(1,27,0,0,0)
 JumpToLabel("射精1")
 0()
EndIf()
ShowMessageFace("m_mino_fc1",1,0,2,7)
ShowMessage("\\n<Misstauros>")
ShowMessage("It feels like I'm sucking you in, doesn't it?")
ShowMessage("Come as much as you can inside.")
250(bytes(0x04,0x08,0x6f,0x3a,0x0c,0x52,0x50,0x47,0x3a,0x3a,0x53,0x45,0x08,0x3a,0x0a,0x40,0x6e,0x61,0x6d,0x65,0x49,0x22,0x13,0x6d,0x6f,0x6e,0x5f,0x65,0x72,0x6f,0x5f,0x63,0x68,0x75,0x70,0x61,0x33,0x06,0x3a,0x06,0x45,0x54,0x3a,0x0b,0x40,0x70,0x69,0x74,0x63,0x68,0x69,0x69,0x3a,0x0c,0x40,0x76,0x6f,0x6c,0x75,0x6d,0x65,0x69,0x69))
311(0,1,1,1,26,true)
ShowMessageFace("",0,0,2,8)
ShowMessage("Misstauros's soft flesh pulls on Luka's penis!")
ShowMessage("Her walls contract, squeezing on Luka!\\D")
ShowMessage("Luka takes \\V[26] damage!")
ChangeVariable(27,27,0,3,3,1,2)
If(1,27,0,0,0)
 JumpToLabel("射精2")
 0()
EndIf()
ShowMessageFace("m_mino_fc1",1,0,2,9)
ShowMessage("\\n<Misstauros>")
ShowMessage("Ufufu... Can you endure it?")
ShowMessage("Hora, come inside me...")
250(bytes(0x04,0x08,0x6f,0x3a,0x0c,0x52,0x50,0x47,0x3a,0x3a,0x53,0x45,0x08,0x3a,0x0a,0x40,0x6e,0x61,0x6d,0x65,0x49,0x22,0x13,0x6d,0x6f,0x6e,0x5f,0x65,0x72,0x6f,0x5f,0x63,0x68,0x75,0x70,0x61,0x33,0x06,0x3a,0x06,0x45,0x54,0x3a,0x0b,0x40,0x70,0x69,0x74,0x63,0x68,0x69,0x69,0x3a,0x0c,0x40,0x76,0x6f,0x6c,0x75,0x6d,0x65,0x69,0x69))
311(0,1,1,1,26,true)
ShowMessageFace("",0,0,2,10)
ShowMessage("Misstauros's pussy sucks on Luka's penis!")
ShowMessage("The sweet movements of her flesh force him to a climax!\\D")
ShowMessage("Luka takes \\V[26] damage!")
ChangeVariable(27,27,0,3,3,1,2)
If(1,27,0,0,0)
 JumpToLabel("射精2")
 0()
EndIf()
DefineLabel("射精1")
ShowMessageFace("",0,0,2,11)
ShowMessage("\\n<Luka>No, I'm coming... Ahh...")
RunCommonEvent(104)
RunCommonEvent(105)
ShowMessageFace("",0,0,2,12)
ShowMessage("The moment I'm brought into her, I come.")
ShowMessage("My semen gushes into her soft vagina...")
ShowMessageFace("m_mino_fc1",1,0,2,13)
ShowMessage("\\n<Misstauros>")
ShowMessage("Ara... You already came?")
ShowMessage("You filled my pussy with so much semen... Ufufu.")
RunCommonEvent(2000)
EndEventProcessing()
DefineLabel("射精2")
ShowMessageFace("",0,0,2,14)
ShowMessage("\\n<Luka>No, I'm coming... Ahh...")
RunCommonEvent(104)
RunCommonEvent(105)
ShowMessageFace("",0,0,2,15)
ShowMessage("As Misstauros rapes me, I come...")
ShowMessage("My semen gushes into her soft vagina...")
ShowMessageFace("m_mino_fc1",1,0,2,16)
ShowMessage("\\n<Misstauros>")
ShowMessage("Ara... You came.")
ShowMessage("You filled my pussy with so much semen... Ufufu.")
RunCommonEvent(2000)
EndEventProcessing()
0()
