// EVENT 4337
Name "Crab Girl 2"

If(0,25,1)
 221()
 PictureClear(5)
 PictureClear(6)
 ShowMessageFace("",0,0,2,0)
 ShowMessage("......")
 242(2)
 Wait(120)
 241(bytes(0x04,0x08,0x6f,0x3a,0x0d,0x52,0x50,0x47,0x3a,0x3a,0x42,0x47,0x4d,0x08,0x3a,0x0a,0x40,0x6e,0x61,0x6d,0x65,0x49,0x22,0x0c,0x63,0x61,0x73,0x74,0x6c,0x65,0x36,0x06,0x3a,0x06,0x45,0x54,0x3a,0x0c,0x40,0x76,0x6f,0x6c,0x75,0x6d,0x65,0x69,0x69,0x3a,0x0b,0x40,0x70,0x69,0x74,0x63,0x68,0x69,0x69))
 EndEventProcessing()
 0()
EndIf()
PictureDisplay(5,"80_kani_st02",0,0,0,0,100,100,255,0)
ShowMessageFace("kani_fc1",1,0,2,1)
ShowMessage("\\n<Soapy>Do you want to mate with me?\nWell then, I'll make it special. ♪")
ShowMessageFace("",0,0,2,2)
ShowMessage("\\n<Luka>Unnngh...")
241(bytes(0x04,0x08,0x6f,0x3a,0x0d,0x52,0x50,0x47,0x3a,0x3a,0x42,0x47,0x4d,0x08,0x3a,0x0a,0x40,0x6e,0x61,0x6d,0x65,0x49,0x22,0x09,0x65,0x72,0x6f,0x31,0x06,0x3a,0x06,0x45,0x54,0x3a,0x0c,0x40,0x76,0x6f,0x6c,0x75,0x6d,0x65,0x69,0x69,0x3a,0x0b,0x40,0x70,0x69,0x74,0x63,0x68,0x69,0x69))
ShowMessageFace("",0,0,2,3)
ShowMessage("My body is tightly restrained by her scissors.")
ShowMessage("She picks me up and lifts me right in front of her face.")
ShowMessageFace("kani_fc1",1,0,2,4)
ShowMessage("\\n<Soapy>This is how you mate with me.\nIt'll be fine, I'll be gentle.")
ShowMessageFace("",0,0,2,5)
ShowMessage("A tube-like organ slithers out of Soapy's abdomen.")
ShowMessage("Its tip opens and it looks like there's space to insert something in it...")
ShowMessageFace("kani_fc1",1,0,2,6)
ShowMessage("\\n<Soapy>This is my fallopian tube.\nI'll put your penis in here and suck out your semen.")
ShowMessageFace("kani_fc1",1,0,2,7)
ShowMessage("\\n<Soapy>Mating with me is very pleasant, don't you know...?")
ShowMessageFace("",0,0,2,8)
ShowMessage("\\n<Luka>Ah, unnngh...")
ShowMessageFace("",0,0,2,9)
ShowMessage("Her fallopian tube extending to my crotch, it finally reaches my penis.")
ShowMessage("The tip opens its mouth wider...")
ShowMessageFace("",0,0,2,10)
ShowMessage("\\n<Luka>Ah, aaaah...!")
245(bytes(0x04,0x08,0x6f,0x3a,0x0d,0x52,0x50,0x47,0x3a,0x3a,0x42,0x47,0x53,0x08,0x3a,0x0a,0x40,0x6e,0x61,0x6d,0x65,0x49,0x22,0x17,0x6d,0x6f,0x6e,0x5f,0x68,0x73,0x65,0x61,0x6e,0x31,0x35,0x5f,0x6b,0x79,0x75,0x69,0x6e,0x32,0x06,0x3a,0x06,0x45,0x54,0x3a,0x0c,0x40,0x76,0x6f,0x6c,0x75,0x6d,0x65,0x69,0x55,0x3a,0x0b,0x40,0x70,0x69,0x74,0x63,0x68,0x69,0x69))
PictureDisplay(5,"ev_kani_h1",0,0,0,0,100,100,255,0)
ShowMessageFace("",0,0,2,11)
ShowMessage("And her fallopian tube swallows my erect penis!")
PictureDisplay(6,"ev_kani_ct21",0,0,0,0,100,100,255,0)
ShowMessageFace("",0,0,2,12)
ShowMessage("Slowly pulling me deeper inside, my penis slips deep into her tube.")
ShowMessageFace("",0,0,2,13)
ShowMessage("Wrapped in her slimy, narrow tube, I cringe at the initial strange feeling.")
ShowMessageFace("",0,0,2,14)
ShowMessage("\\n<Luka>Ah...ahh...")
ShowMessageFace("",0,0,2,15)
ShowMessage("This is mating with an inhuman monster...")
ShowMessage("Her oviduct feels completely foreign to me.")
ShowMessageFace("",0,0,2,16)
ShowMessage("Filled with the immorality of mating with a monster, I also start to feel a strange sense of pleasure rising through me.")
ShowMessageFace("kani_fc1",1,0,2,17)
ShowMessage("\\n<Soapy>Haha, now you're connected with me.")
ShowMessageFace("kani_fc1",1,0,2,18)
ShowMessage("\\n<Soapy>My oviduct feels amazing, doesn't it?\nYou want to shoot your seed inside, don't you?")
ShowMessageFace("",0,0,2,19)
ShowMessage("\\n<Luka>Th...that... No...")
ShowMessageFace("",0,0,2,20)
ShowMessage("Even as I deny it with my mouth, my male organ is obviously rejoicing in the feelings.")
ShowMessage("Soapy obviously notices my conflicting feelings...")
ShowMessageFace("kani_fc1",1,0,2,21)
ShowMessage("\\n<Soapy>Haha, stubborn aren't you?")
ShowMessageFace("kani_fc1",1,0,2,22)
ShowMessage("\\n<Soapy>Then let me see how long you can endure it. ♪\nHo~ra horahora ♪")
ShowMessageFace("",0,0,2,23)
ShowMessage("\\n<Luka>Ah...! Ahhh!")
ShowMessageFace("",0,0,2,24)
ShowMessage("Her tube starts to move like a piston, thrusting me in and out of it.")
ShowMessageFace("",0,0,2,25)
ShowMessage("Her spiral shaped inner wall rubs against my penis with every thrust, making me gasp in pleasure.")
ShowMessageFace("",0,0,2,26)
ShowMessage("With every thrust into her, the tip of my penis pushes against her walls, spreading her narrow tube aside.")
ShowMessage("As she pulls me out, the spiral ridges of her walls rub against the neck of my penis,\nalmost as if they were grabbing at it.")
ShowMessageFace("",0,0,2,27)
ShowMessage("Soapy looks down at me with a smile as I writhe in pleasure from the inserting and pulling pleasures.")
ShowMessageFace("kani_fc1",1,0,2,28)
ShowMessage("\\n<Soapy>Oh? It looks like you're really loving this.\nHaha ♪ Look at that waist of yours, shaking around!")
ShowMessageFace("kani_fc1",1,0,2,29)
ShowMessage("\\n<Soapy>You love this, don't you?\nYou want to shoot that seed of yours right into my oviduct, don't you?")
ShowMessageFace("",0,0,2,30)
ShowMessage("\\n<Luka>Ah...ahh...")
ShowMessageFace("",0,0,2,31)
ShowMessage("Unable to even deny her words, I simply moan as she continues forcing me in and out of her oviduct.")
ShowMessageFace("",0,0,2,32)
ShowMessage("If I relaxed for even a second, I'd explode inside of her...")
ShowMessageFace("kani_fc1",1,0,2,33)
ShowMessage("\\n<Soapy>Haha, go ahead and come. ♪")
ShowMessageFace("kani_fc1",1,0,2,34)
ShowMessage("\\n<Soapy>Just think of how good it will feel when you come inside me...♪")
ShowMessageFace("",0,0,2,35)
ShowMessage("\\n<Luka>Ahh...")
ShowMessageFace("",0,0,2,36)
ShowMessage("Soapy taunts me as she continues to thrust her tube back and forth.")
ShowMessageFace("",0,0,2,37)
ShowMessage("Unable to take it any longer, I relax my body as I entrust myself to the pleasure.")
ShowMessage("I stop thinking about the taboo, and just focus on the pleasure from her spiral shaped oviduct.")
ShowMessageFace("kani_fc1",1,0,2,38)
ShowMessage("\\n<Soapy>Haha, it looks like you gave up.\nIt feels so good, so I guess there wasn't any helping it. ♪")
ShowMessageFace("kani_fc1",1,0,2,39)
ShowMessage("\\n<Soapy>All right then, I guess I'll make you come now.\nI'll do something special to let you finish inside me. ♪")
ShowMessageFace("",0,0,2,40)
ShowMessage("Soapy giggles as her oviduct continues to drown me in pleasure.")
ShowMessageFace("",0,0,2,41)
ShowMessage("She tightens the tube around me, forcing the spiral walls deep against my penis.")
ShowMessage("Pumping it in and out like a piston, the narrow hole quickly pushes me over the limit.")
ShowMessageFace("",0,0,2,42)
ShowMessage("\\n<Luka>Ha...ahhh...")
RunCommonEvent(104)
PictureDisplay(5,"ev_kani_h2",0,0,0,0,100,100,255,0)
PictureDisplay(6,"ev_kani_ct22",0,0,0,0,100,100,255,0)
RunCommonEvent(105)
ShowMessageFace("",0,0,2,43)
ShowMessage("I explode inside of her oviduct.")
ShowMessage("Moaning in pleasure, my semen shoots straight into her reproductive organ.")
ShowMessageFace("",0,0,2,44)
ShowMessage("\\n<Luka>Ha...ahh...")
ShowMessageFace("kani_fc1",1,0,2,45)
ShowMessage("\\n<Soapy>Haha... Did you enjoy it?")
ShowMessageFace("",0,0,2,46)
ShowMessage("Soapy looks right into my eyes and laughs.")
ShowMessage("At the same time, her oviduct stops moving and instead starts sucking on me, pulling the semen out into her.")
246(1)
ShowMessageFace("kani_fc1",1,0,2,47)
ShowMessage("\\n<Soapy>You let out quite a lot...♪\nEven though you said you didn't want to at first...♪")
ShowMessageFace("kani_fc1",1,0,2,48)
ShowMessage("\\n<Soapy>With all of that semen, you must have fertilized all of my eggs.\nYou lost to the pleasure, and became a daddy at the same time. ♪")
ShowMessageFace("",0,0,2,49)
ShowMessage("\\n<Luka>N-no way...")
ShowMessageFace("kani_fc1",1,0,2,50)
ShowMessage("\\n<Soapy>Well, I won't have a baby just yet.\nMy fallopian tubes are able to store semen.")
ShowMessageFace("kani_fc1",1,0,2,51)
ShowMessage("\\n<Soapy>After the adventure ends I'll settle down with Luka and give birth to his child.\nThere's a lot of work for the dad, so get ready. ♪")
ShowMessageFace("",0,0,2,52)
ShowMessage("\\n<Luka>Ahh...")
ShowMessageFace("",0,0,2,53)
ShowMessage("After giving in to the pleasure and coming inside Soapy, I fertilized her.")
ShowMessage("There's no escaping from my responsibilities...")
221()
PictureClear(5)
PictureClear(6)
246(2)
ShowMessageFace("",0,0,2,54)
ShowMessage("......")
242(2)
Wait(120)
241(bytes(0x04,0x08,0x6f,0x3a,0x0d,0x52,0x50,0x47,0x3a,0x3a,0x42,0x47,0x4d,0x08,0x3a,0x0a,0x40,0x6e,0x61,0x6d,0x65,0x49,0x22,0x0c,0x63,0x61,0x73,0x74,0x6c,0x65,0x36,0x06,0x3a,0x06,0x45,0x54,0x3a,0x0c,0x40,0x76,0x6f,0x6c,0x75,0x6d,0x65,0x69,0x69,0x3a,0x0b,0x40,0x70,0x69,0x74,0x63,0x68,0x69,0x69))
0()
