﻿// EVENT 0127
Name "Stage 7"

355("ex_choice_add(\"Sea Queen Tea Party\",1,")
655("\"s[1280] and s[1329]\",1)")
655("ex_choice_add(\"Question of Potatoes\",2,")
655("\"s[1143] and s[1287]\",1)")
655("ex_choice_add(\"Succubus Drain Show\",3,")
655("\"s[1284] and s[1285] and s[1288]\",1)")
655("ex_choice_add(\"Twin Idols\",4,")
655("\"s[1294] and s[1295]\",1)")
655("ex_choice_add(\"Lecherous Elf\",5,")
655("\"s[1136] and s[1312] and s[1316]\",1)")
655("ex_choice_add(\"Prank of Fairy Queen\",6,")
655("\"s[1139] and s[1311] and s[1315]\",1)")
355("ex_choice_add(\"STAR Flower Show\",7,")
655("\"s[1208] and s[1317] and s[1318] and ")
655("s[1320] and s[1322]\",1)")
655("ex_choice_add(\"Dance!\",8,")
655("\"s[1083] and s[1084] and s[1259] and ")
655("s[1260] and s[1323]\",1)")
655("ex_choice_add(\"Princess El's Song\",9,")
655("\"s[1325] and s[1326] and s[1327] and ")
655("s[1328]\",1)")
655("ex_choice_add(\"Spider Show\",10,")
655("\"s[1330] and s[1331] and s[1332] and ")
655("s[1333] and s[1334]\",1)")
355("ex_choice_add(\"Cancel\",11)")
355("ex_choice_show(0,11,[0,0])")
If(1,9,0,1,0)
 ChangeSwitch(661,661,0)
 221()
 242(1)
 Wait(60)
 211(0)
 TeleportPlayer(0,759,0,1,0,2)
 222()
 EndEventProcessing()
 0()
EndIf()
If(1,9,0,2,0)
 ChangeSwitch(662,662,0)
 221()
 242(1)
 Wait(60)
 211(0)
 TeleportPlayer(0,759,0,1,0,2)
 222()
 EndEventProcessing()
 0()
EndIf()
If(1,9,0,3,0)
 ChangeSwitch(663,663,0)
 221()
 242(1)
 Wait(60)
 211(0)
 TeleportPlayer(0,759,0,1,0,2)
 222()
 EndEventProcessing()
 0()
EndIf()
If(1,9,0,4,0)
 ChangeSwitch(664,664,0)
 221()
 242(1)
 Wait(60)
 211(0)
 TeleportPlayer(0,759,0,1,0,2)
 222()
 EndEventProcessing()
 0()
EndIf()
If(1,9,0,5,0)
 ChangeSwitch(665,665,0)
 221()
 242(1)
 Wait(60)
 211(0)
 TeleportPlayer(0,759,0,1,0,2)
 222()
 EndEventProcessing()
 0()
EndIf()
If(1,9,0,6,0)
 ChangeSwitch(666,666,0)
 221()
 242(1)
 Wait(60)
 211(0)
 TeleportPlayer(0,759,0,1,0,2)
 222()
 EndEventProcessing()
 0()
EndIf()
If(1,9,0,7,0)
 ChangeSwitch(667,667,0)
 221()
 242(1)
 Wait(60)
 211(0)
 TeleportPlayer(0,759,0,1,0,2)
 222()
 EndEventProcessing()
 0()
EndIf()
If(1,9,0,8,0)
 ChangeSwitch(668,668,0)
 221()
 242(1)
 Wait(60)
 211(0)
 TeleportPlayer(0,759,0,1,0,2)
 222()
 EndEventProcessing()
 0()
EndIf()
If(1,9,0,9,0)
 ChangeSwitch(669,669,0)
 221()
 242(1)
 Wait(60)
 211(0)
 TeleportPlayer(0,759,0,1,0,2)
 222()
 EndEventProcessing()
 0()
EndIf()
If(1,9,0,10,0)
 ChangeSwitch(670,670,0)
 221()
 242(1)
 Wait(60)
 211(0)
 TeleportPlayer(0,759,0,1,0,2)
 222()
 EndEventProcessing()
 0()
EndIf()
0()
