﻿// EVENT 2302
Name "Seduction: Narwhal Girl"

355("$game_troop.lose_event_id = 3302")
ChangeVariable(26,26,0,3,3,1,4)
ChangeVariable(26,26,4,0,10)
ShowMessageFace("ikkaku_fc1",0,0,2,1)
ShowMessage("\\n<Narwhal Girl>You're quite a strong person to push me this far... I want to get a good taste of that body!")
ShowMessageFace("",0,0,2,2)
ShowMessage("The Narwhal Girl holds Luka's body in her huge mouth!")
ShowMessageFace("ikkaku_fc1",1,0,2,3)
ShowMessage("\\n<Narwhal Girl>Mmm... I'll suck on you inside my mouth like this.\nI'll suck on your entire body until you're exhausted...!")
ChangeSwitch(98,98,0)
ChangeSwitch(96,96,0)
ShowChoices(strings("Struggle","Let her continue"),1)
IfPlayerPicksChoice(0,null)
 ShowMessageFace("",0,0,2,4)
 ShowMessage("Luka struggles violently, and escapes from the Narwhal Girl's restraint!")
 RunCommonEvent(1999)
 EndEventProcessing()
 0()
IfPlayerPicksChoice(1,null)
 0()
404()
ShowMessageFace("ikkaku_fc1",1,0,2,5)
ShowMessage("\\n<Narwhal Girl>So you lost your will to struggle...\nThen I'll have a taste of that body!")
ChangeVariable(26,26,3,0,4)
250(bytes(0x04,0x08,0x6f,0x3a,0x0c,0x52,0x50,0x47,0x3a,0x3a,0x53,0x45,0x08,0x3a,0x0a,0x40,0x6e,0x61,0x6d,0x65,0x49,0x22,0x13,0x6d,0x6f,0x6e,0x5f,0x65,0x72,0x6f,0x5f,0x62,0x75,0x63,0x68,0x75,0x33,0x06,0x3a,0x06,0x45,0x54,0x3a,0x0b,0x40,0x70,0x69,0x74,0x63,0x68,0x69,0x69,0x3a,0x0c,0x40,0x76,0x6f,0x6c,0x75,0x6d,0x65,0x69,0x69))
311(0,1,1,1,26,true)
ShowMessageFace("",0,0,2,6)
ShowMessage("Inside the Narwhal Girl's mouth, her tongue begins to move! Luka's entire body is licked and covered in saliva!\\D")
ShowMessage("Luka takes \\V[26] damage!")
ChangeVariable(27,27,0,3,3,1,2)
If(1,27,0,0,0)
 JumpToLabel("射精1")
 0()
EndIf()
ShowMessageFace("ikkaku_fc1",1,0,2,7)
ShowMessage("\\n<Narwhal Girl>Of course, I'll also have a taste of your male genitals. If you can't stand it anymore, let out your semen...")
250(bytes(0x04,0x08,0x6f,0x3a,0x0c,0x52,0x50,0x47,0x3a,0x3a,0x53,0x45,0x08,0x3a,0x0a,0x40,0x6e,0x61,0x6d,0x65,0x49,0x22,0x13,0x6d,0x6f,0x6e,0x5f,0x65,0x72,0x6f,0x5f,0x62,0x75,0x63,0x68,0x75,0x33,0x06,0x3a,0x06,0x45,0x54,0x3a,0x0b,0x40,0x70,0x69,0x74,0x63,0x68,0x69,0x69,0x3a,0x0c,0x40,0x76,0x6f,0x6c,0x75,0x6d,0x65,0x69,0x69))
311(0,1,1,1,26,true)
ShowMessageFace("",0,0,2,8)
ShowMessage("The Narwhal Girl's tongue crawls all over Luka's crotch!\nHe is given pleasure as her enormous tongue toys with his penis!\\D")
ShowMessage("Luka takes \\V[26] damage!")
ChangeVariable(27,27,0,3,3,1,2)
If(1,27,0,0,0)
 JumpToLabel("射精1")
 0()
EndIf()
ShowMessageFace("ikkaku_fc1",1,0,2,9)
ShowMessage("\\n<Narwhal Girl>Your entire body is trembling.\nNow, release plenty!")
250(bytes(0x04,0x08,0x6f,0x3a,0x0c,0x52,0x50,0x47,0x3a,0x3a,0x53,0x45,0x08,0x3a,0x0a,0x40,0x6e,0x61,0x6d,0x65,0x49,0x22,0x13,0x6d,0x6f,0x6e,0x5f,0x65,0x72,0x6f,0x5f,0x62,0x75,0x63,0x68,0x75,0x33,0x06,0x3a,0x06,0x45,0x54,0x3a,0x0b,0x40,0x70,0x69,0x74,0x63,0x68,0x69,0x69,0x3a,0x0c,0x40,0x76,0x6f,0x6c,0x75,0x6d,0x65,0x69,0x69))
311(0,1,1,1,26,true)
ShowMessageFace("",0,0,2,10)
ShowMessage("The Narwhal Girl sucks on Luka's entire body!\nHis penis is exhaustively toyed with by the oral mucosa of her tongue!\\D")
ShowMessage("Luka takes \\V[26] damage!")
ChangeVariable(27,27,0,3,3,1,2)
If(1,27,0,0,0)
 JumpToLabel("射精1")
 0()
EndIf()
DefineLabel("射精1")
ShowMessageFace("",0,0,2,11)
ShowMessage("\\n<Luka>No, I'm coming... Aaaah...")
RunCommonEvent(104)
RunCommonEvent(105)
ShowMessageFace("",0,0,2,12)
ShowMessage("While being sucked on by the Narwhal Girl, I finally come. My semen is scattered inside of her slimy mouth.")
ShowMessageFace("ikkaku_fc1",1,0,2,13)
ShowMessage("\\n<Narwhal Girl>Fufu, your delicious juices are leaking inside my mouth. I want to taste more of it...")
RunCommonEvent(2000)
EndEventProcessing()
0()
