// EVENT 7032
Name "Don Dahlia: Match"

ShowMessageFace("dondaria_fc1",0,0,2,1)
ShowMessage("\\n<Don Dahlia>All right, time to squeeze out a huge load from you. Here, let's get your dick out first.")
ChangeSwitch(96,96,0)
ChangeSwitch(98,98,0)
PictureDisplay(6,"ev_dondaria_h1",0,0,120,50,100,100,255,0)
ShowMessageFace("",0,0,2,2)
ShowMessage("Don Dahlia shoves herself against Luka, sandwiching his penis in her armpit!")
ShowMessageFace("ruka_fc1",0,0,2,3)
ShowMessage("\\n<Luka>Waaa... What are you doing...")
ShowMessageFace("dondaria_fc1",0,0,2,4)
ShowMessage("\\n<Don Dahlia>My armpit should be sufficient for a good-for-nothing dick like yours. No one else has ever lasted the full 5 minutes, after all.")
250(bytes(0x04,0x08,0x6f,0x3a,0x0c,0x52,0x50,0x47,0x3a,0x3a,0x53,0x45,0x08,0x3a,0x0a,0x40,0x6e,0x61,0x6d,0x65,0x49,0x22,0x12,0x6d,0x6f,0x6e,0x5f,0x65,0x72,0x6f,0x5f,0x6b,0x6f,0x6b,0x69,0x31,0x06,0x3a,0x06,0x45,0x54,0x3a,0x0b,0x40,0x70,0x69,0x74,0x63,0x68,0x69,0x69,0x3a,0x0c,0x40,0x76,0x6f,0x6c,0x75,0x6d,0x65,0x69,0x69))
ChangeVariable(11,11,0,2,38,42)
311(0,1,1,1,11,true)
ShowMessageFace("",0,0,2,5)
ShowMessage("Don Dahlia firmly squeezes Luka's penis in her armpit! Her soft flesh presses against him from all sides!\\D")
ShowMessage("Luka takes \\V[11] damage!")
ChangeVariable(27,27,0,3,3,1,2)
If(1,27,0,0,0)
 RunCommonEvent(7033)
 EndEventProcessing()
 0()
EndIf()
250(bytes(0x04,0x08,0x6f,0x3a,0x0c,0x52,0x50,0x47,0x3a,0x3a,0x53,0x45,0x08,0x3a,0x0a,0x40,0x6e,0x61,0x6d,0x65,0x49,0x22,0x12,0x6d,0x6f,0x6e,0x5f,0x65,0x72,0x6f,0x5f,0x6b,0x6f,0x6b,0x69,0x31,0x06,0x3a,0x06,0x45,0x54,0x3a,0x0b,0x40,0x70,0x69,0x74,0x63,0x68,0x69,0x69,0x3a,0x0c,0x40,0x76,0x6f,0x6c,0x75,0x6d,0x65,0x69,0x69))
ChangeVariable(11,11,0,2,38,42)
311(0,1,1,1,11,true)
ShowMessageFace("",0,0,2,6)
ShowMessage("Luka's glans protrudes out beyond her armpit and rubs against her breast! Its tender sensation flows through Luka's penis!\\D")
ShowMessage("Luka takes \\V[11] damage!")
ChangeVariable(27,27,0,3,3,1,2)
If(1,27,0,0,0)
 RunCommonEvent(7033)
 EndEventProcessing()
 0()
EndIf()
ShowMessageFace("ruka_fc1",0,0,2,7)
ShowMessage("\\n<Luka>Nngh...")
ShowMessageFace("dondaria_fc1",0,0,2,8)
ShowMessage("\\n<Don Dahlia>Heheh, you'll be done in a jiffy at this rate. Shall I finish you off right away?")
250(bytes(0x04,0x08,0x6f,0x3a,0x0c,0x52,0x50,0x47,0x3a,0x3a,0x53,0x45,0x08,0x3a,0x0a,0x40,0x6e,0x61,0x6d,0x65,0x49,0x22,0x12,0x6d,0x6f,0x6e,0x5f,0x65,0x72,0x6f,0x5f,0x6b,0x6f,0x6b,0x69,0x31,0x06,0x3a,0x06,0x45,0x54,0x3a,0x0b,0x40,0x70,0x69,0x74,0x63,0x68,0x69,0x69,0x3a,0x0c,0x40,0x76,0x6f,0x6c,0x75,0x6d,0x65,0x69,0x69))
ChangeVariable(11,11,0,2,38,42)
311(0,1,1,1,11,true)
ShowMessageFace("",0,0,2,9)
ShowMessage("Don Dahlia squeezes her arm tighter against her body, putting a nearly crushing force into Luka's penis!\\D")
ShowMessage("Luka takes \\V[11] damage!")
ChangeVariable(27,27,0,3,3,1,2)
If(1,27,0,0,0)
 RunCommonEvent(7034)
 EndEventProcessing()
 0()
EndIf()
ShowMessageFace("dondaria_fc1",0,0,2,10)
ShowMessage("\\n<Don Dahlia>Or would you prefer I give you some time to stew first?")
250(bytes(0x04,0x08,0x6f,0x3a,0x0c,0x52,0x50,0x47,0x3a,0x3a,0x53,0x45,0x08,0x3a,0x0a,0x40,0x6e,0x61,0x6d,0x65,0x49,0x22,0x12,0x6d,0x6f,0x6e,0x5f,0x65,0x72,0x6f,0x5f,0x6b,0x6f,0x6b,0x69,0x31,0x06,0x3a,0x06,0x45,0x54,0x3a,0x0b,0x40,0x70,0x69,0x74,0x63,0x68,0x69,0x69,0x3a,0x0c,0x40,0x76,0x6f,0x6c,0x75,0x6d,0x65,0x69,0x69))
ChangeVariable(11,11,0,2,38,42)
311(0,1,1,1,11,true)
ShowMessageFace("",0,0,2,11)
ShowMessage("Don Dahlia begins moving her upper arm with Luka's penis still tightly inserted underneath it! She rotates it in a circle like a message, focusing on Luka's pleasure points!\\D")
ShowMessage("Luka takes \\V[11] damage!")
ChangeVariable(27,27,0,3,3,1,2)
If(1,27,0,0,0)
 RunCommonEvent(7034)
 EndEventProcessing()
 0()
EndIf()
ShowMessageFace("ruka_fc1",0,0,2,12)
ShowMessage("\\n<Luka>Aaaaaah!")
ShowMessageFace("dondaria_fc1",0,0,2,13)
ShowMessage("\\n<Don Dahlia>Heheheh, looks like you're weak to this technique. That's good, you can come now.")
250(bytes(0x04,0x08,0x6f,0x3a,0x0c,0x52,0x50,0x47,0x3a,0x3a,0x53,0x45,0x08,0x3a,0x0a,0x40,0x6e,0x61,0x6d,0x65,0x49,0x22,0x12,0x6d,0x6f,0x6e,0x5f,0x65,0x72,0x6f,0x5f,0x6b,0x6f,0x6b,0x69,0x31,0x06,0x3a,0x06,0x45,0x54,0x3a,0x0b,0x40,0x70,0x69,0x74,0x63,0x68,0x69,0x69,0x3a,0x0c,0x40,0x76,0x6f,0x6c,0x75,0x6d,0x65,0x69,0x69))
ChangeVariable(11,11,0,2,38,42)
311(0,1,1,1,11,true)
ShowMessageFace("",0,0,2,14)
ShowMessage("With a tight grip on Luka's penis, Don Dahlia shifts her upper arm to rub his shaft back and forth!\\D")
ShowMessage("Luka takes \\V[11] damage!")
ChangeVariable(27,27,0,3,3,1,2)
If(1,27,0,0,0)
 RunCommonEvent(7034)
 EndEventProcessing()
 0()
EndIf()
250(bytes(0x04,0x08,0x6f,0x3a,0x0c,0x52,0x50,0x47,0x3a,0x3a,0x53,0x45,0x08,0x3a,0x0a,0x40,0x6e,0x61,0x6d,0x65,0x49,0x22,0x12,0x6d,0x6f,0x6e,0x5f,0x65,0x72,0x6f,0x5f,0x6b,0x6f,0x6b,0x69,0x31,0x06,0x3a,0x06,0x45,0x54,0x3a,0x0b,0x40,0x70,0x69,0x74,0x63,0x68,0x69,0x69,0x3a,0x0c,0x40,0x76,0x6f,0x6c,0x75,0x6d,0x65,0x69,0x69))
ChangeVariable(11,11,0,2,38,42)
311(0,1,1,1,11,true)
ShowMessageFace("",0,0,2,15)
ShowMessage("Don Dahlia skillfully strokes Luka's penis underneath her arm! At the same time, she rubs his glans against her breast to give him an irresistible shot of pleasure!\\D")
ShowMessage("Luka takes \\V[11] damage!")
ChangeVariable(27,27,0,3,3,1,2)
If(1,27,0,0,0)
 RunCommonEvent(7034)
 EndEventProcessing()
 0()
EndIf()
If(1,27,0,56,4)
 ShowMessageFace("ruka_fc1",0,0,2,16)
 ShowMessage("\\n<Luka>Haaa... That feels so good...")
 ShowMessageFace("dondaria_fc1",0,0,2,17)
 ShowMessage("\\n<Don Dahlia>Haha, already moaning in defeat?\nYou're not very impressive... Come on, let's end this.")
 0()
Else()
 ShowMessageFace("dondaria_fc1",0,0,2,18)
 ShowMessage("\\n<Don Dahlia>Oooh, holding on pretty well, aren't you?\nI'll have to get serious then.")
 0()
EndIf()
250(bytes(0x04,0x08,0x6f,0x3a,0x0c,0x52,0x50,0x47,0x3a,0x3a,0x53,0x45,0x08,0x3a,0x0a,0x40,0x6e,0x61,0x6d,0x65,0x49,0x22,0x12,0x6d,0x6f,0x6e,0x5f,0x65,0x72,0x6f,0x5f,0x6b,0x6f,0x6b,0x69,0x31,0x06,0x3a,0x06,0x45,0x54,0x3a,0x0b,0x40,0x70,0x69,0x74,0x63,0x68,0x69,0x69,0x3a,0x0c,0x40,0x76,0x6f,0x6c,0x75,0x6d,0x65,0x69,0x69))
ChangeVariable(11,11,0,2,38,42)
311(0,1,1,1,11,true)
ShowMessageFace("",0,0,2,19)
ShowMessage("Don Dahlia squeezes her arm even tighter! Her tender armpit smooshes against Luka's penis!\\D")
ShowMessage("Luka takes \\V[11] damage!")
ChangeVariable(27,27,0,3,3,1,2)
If(1,27,0,0,0)
 RunCommonEvent(7034)
 EndEventProcessing()
 0()
EndIf()
250(bytes(0x04,0x08,0x6f,0x3a,0x0c,0x52,0x50,0x47,0x3a,0x3a,0x53,0x45,0x08,0x3a,0x0a,0x40,0x6e,0x61,0x6d,0x65,0x49,0x22,0x12,0x6d,0x6f,0x6e,0x5f,0x65,0x72,0x6f,0x5f,0x6b,0x6f,0x6b,0x69,0x31,0x06,0x3a,0x06,0x45,0x54,0x3a,0x0b,0x40,0x70,0x69,0x74,0x63,0x68,0x69,0x69,0x3a,0x0c,0x40,0x76,0x6f,0x6c,0x75,0x6d,0x65,0x69,0x69))
ChangeVariable(11,11,0,2,38,42)
311(0,1,1,1,11,true)
ShowMessageFace("",0,0,2,20)
ShowMessage("With his penis firmly in place, Don Dahlia moves her arm up and down, thoroughly massaging every inch of Luka's shaft!\\D")
ShowMessage("Luka takes \\V[11] damage!")
ChangeVariable(27,27,0,3,3,1,2)
If(1,27,0,0,0)
 RunCommonEvent(7034)
 EndEventProcessing()
 0()
EndIf()
If(1,27,0,28,4)
 ShowMessageFace("ruka_fc1",0,0,2,21)
 ShowMessage("\\n<Luka>C-can't... hold!")
 ShowMessageFace("dondaria_fc1",0,0,2,22)
 ShowMessage("\\n<Don Dahlia>Heheh, you challenged me too early.\nCome on, shoot out the proof of your surrender!")
 0()
Else()
 ShowMessageFace("dondaria_fc1",0,0,2,23)
 ShowMessage("\\n<Don Dahlia>Tch, still hanging in there?\nI'm gonna have to force it out!")
 0()
EndIf()
250(bytes(0x04,0x08,0x6f,0x3a,0x0c,0x52,0x50,0x47,0x3a,0x3a,0x53,0x45,0x08,0x3a,0x0a,0x40,0x6e,0x61,0x6d,0x65,0x49,0x22,0x12,0x6d,0x6f,0x6e,0x5f,0x65,0x72,0x6f,0x5f,0x6b,0x6f,0x6b,0x69,0x31,0x06,0x3a,0x06,0x45,0x54,0x3a,0x0b,0x40,0x70,0x69,0x74,0x63,0x68,0x69,0x69,0x3a,0x0c,0x40,0x76,0x6f,0x6c,0x75,0x6d,0x65,0x69,0x69))
ChangeVariable(11,11,0,2,38,42)
311(0,1,1,1,11,true)
ShowMessageFace("",0,0,2,24)
ShowMessage("Don Dahlia furiously shakes her upper arm, giving Luka's penis a firm massage and stimulation to break his will!\\D")
ShowMessage("Luka takes \\V[11] damage!")
ChangeVariable(27,27,0,3,3,1,2)
If(1,27,0,0,0)
 RunCommonEvent(7034)
 EndEventProcessing()
 0()
EndIf()
250(bytes(0x04,0x08,0x6f,0x3a,0x0c,0x52,0x50,0x47,0x3a,0x3a,0x53,0x45,0x08,0x3a,0x0a,0x40,0x6e,0x61,0x6d,0x65,0x49,0x22,0x12,0x6d,0x6f,0x6e,0x5f,0x65,0x72,0x6f,0x5f,0x6b,0x6f,0x6b,0x69,0x31,0x06,0x3a,0x06,0x45,0x54,0x3a,0x0b,0x40,0x70,0x69,0x74,0x63,0x68,0x69,0x69,0x3a,0x0c,0x40,0x76,0x6f,0x6c,0x75,0x6d,0x65,0x69,0x69))
ChangeVariable(11,11,0,2,38,42)
311(0,1,1,1,11,true)
ShowMessageFace("",0,0,2,25)
ShowMessage("She squeezes tighter, putting her full power into applying pressure! Her soft flesh constricts around Luka's shaft!\\D")
ShowMessage("Luka takes \\V[11] damage!")
ChangeVariable(27,27,0,3,3,1,2)
If(1,27,0,0,0)
 RunCommonEvent(7034)
 EndEventProcessing()
 0()
EndIf()
RunCommonEvent(7036)
EndEventProcessing()
0()
