// EVENT 5518
Name "Queen Vampire 3"

PictureDisplay(5,"80_queenvanpire_st12",0,0,0,0,100,100,0,0)
PictureMove(5,null,0,0,0,0,100,100,255,0,30,true)
ShowMessageFace("queenvampire_fc1",0,0,2,1)
ShowMessage("\\n<Fatima>")
ShowMessage("Requesting pleasure, are you willing to offer your body to me?")
ShowMessageFace("",0,0,2,2)
ShowMessage("\\n<Luka>")
ShowMessage("Y-Yes please...")
ShowMessageFace("queenvampire_fc1",1,0,2,3)
ShowMessage("\\n<Fatima>")
ShowMessage("Now, I shall suck your bodily fluids...")
ShowMessage("Be happy, for you will be sucked by the Queen herself.")
ShowMessageFace("",0,0,2,4)
ShowMessage("Emitting strange magical power, Fatima's cloak expands...")
ShowMessage("The crimson lining starts to rustle.")
ShowMessageFace("",0,0,2,5)
ShowMessage("Emerging from the cloak's lining, countless tentacles start to wave in the air, surrounding me in a whirlpool of tentacles.")
ShowMessageFace("queenvampire_fc1",1,0,2,6)
ShowMessage("\\n<Fatima>")
ShowMessage("Hehe... I'll wrap you up in this.")
ShowMessage("You will give me all of your semen and blood...")
ShowMessageFace("",0,0,2,7)
ShowMessage("\\n<Luka>")
ShowMessage("S...Stop... Ahhh!")
241(bytes(0x04,0x08,0x6f,0x3a,0x0d,0x52,0x50,0x47,0x3a,0x3a,0x42,0x47,0x4d,0x08,0x3a,0x0a,0x40,0x6e,0x61,0x6d,0x65,0x49,0x22,0x09,0x65,0x72,0x6f,0x31,0x06,0x3a,0x06,0x45,0x54,0x3a,0x0c,0x40,0x76,0x6f,0x6c,0x75,0x6d,0x65,0x69,0x69,0x3a,0x0b,0x40,0x70,0x69,0x74,0x63,0x68,0x69,0x69))
250(bytes(0x04,0x08,0x6f,0x3a,0x0c,0x52,0x50,0x47,0x3a,0x3a,0x53,0x45,0x08,0x3a,0x0a,0x40,0x6e,0x61,0x6d,0x65,0x49,0x22,0x16,0x6d,0x6f,0x6e,0x5f,0x65,0x72,0x6f,0x5f,0x6d,0x61,0x6b,0x69,0x74,0x75,0x6b,0x69,0x33,0x06,0x3a,0x06,0x45,0x54,0x3a,0x0b,0x40,0x70,0x69,0x74,0x63,0x68,0x69,0x69,0x3a,0x0c,0x40,0x76,0x6f,0x6c,0x75,0x6d,0x65,0x69,0x69))
245(bytes(0x04,0x08,0x6f,0x3a,0x0d,0x52,0x50,0x47,0x3a,0x3a,0x42,0x47,0x53,0x08,0x3a,0x0a,0x40,0x6e,0x61,0x6d,0x65,0x49,0x22,0x1e,0x6d,0x6f,0x6e,0x5f,0x68,0x73,0x65,0x61,0x6e,0x31,0x32,0x5f,0x69,0x6e,0x6e,0x65,0x72,0x77,0x6f,0x72,0x6b,0x73,0x5f,0x63,0x32,0x06,0x3a,0x06,0x45,0x54,0x3a,0x0c,0x40,0x76,0x6f,0x6c,0x75,0x6d,0x65,0x69,0x55,0x3a,0x0b,0x40,0x70,0x69,0x74,0x63,0x68,0x69,0x69))
PictureDisplay(5,"ev_queenvanpire_hc1",0,0,0,0,100,100,255,0)
ShowMessageFace("",0,0,2,8)
ShowMessage("Without being able to resist, I'm treated as her simple prey...")
ShowMessage("Wrapped up by her cloak, I'm deprived of my freedom.")
ShowMessageFace("",0,0,2,9)
ShowMessage("The same time the cloak envelops my body, the tentacles start to crawl over my body.")
ShowMessageFace("",0,0,2,10)
ShowMessage("In addition, her fangs pierce into my neck.")
ShowMessage("Not only does it not hurt, but a warm feeling of pleasure starts to spread through my body from where the fangs pierce me.")
ShowMessageFace("",0,0,2,11)
ShowMessage("Her vagina opens up, and welcomes me into her...")
ShowMessage("My penis is slowly sucked up into her warm interior.")
ShowMessageFace("",0,0,2,12)
ShowMessage("\\n<Luka>")
ShowMessage("Ah, aaaaaah!!")
ShowMessageFace("",0,0,2,13)
ShowMessage("Fatima starts to squeeze and contract her vagina around my penis, her flesh wriggling around every so often and massaging me.")
ShowMessageFace("queenvampire_fc1",1,0,2,14)
ShowMessage("\\n<Fatima>")
ShowMessage("Hehe... How does it feel mating with a Queen?")
ShowMessage("I'll squeeze you completely dry with my vagina...")
ShowMessageFace("queenvampire_fc1",1,0,2,15)
ShowMessage("\\n<Fatima>")
ShowMessage("And with my fangs, I'll suck your blood dry at the same time.")
ShowMessage("Nnnn... *Suck*")
ShowMessageFace("",0,0,2,16)
ShowMessage("\\n<Luka>")
ShowMessage("Hyaaa!")
ShowMessageFace("",0,0,2,17)
ShowMessage("A groan of pleasure escapes my mouth as she starts to suck my blood.")
ShowMessage("A sweet, relaxing pleasure floods my body from where she's biting me.")
ShowMessageFace("",0,0,2,18)
ShowMessage("I feel my body trying to twitch and writhe around...")
ShowMessage("But the cloak wrapped around me prevents me from even doing that.")
ShowMessageFace("",0,0,2,19)
ShowMessage("The tentacles from her cloak stroke and rub against my whole body, not leaving a single space on my body free from some sort of stimulation.")
ShowMessageFace("queenvampire_fc1",1,0,2,20)
ShowMessage("\\n<Fatima>")
ShowMessage("Haha... I'll drain all of your bodily fluids.")
ShowMessage("Die as you go mad in the agony of absorption...")
ShowMessageFace("",0,0,2,21)
ShowMessage("\\n<Luka>")
ShowMessage("Ah, aaaaaah!!")
ShowMessageFace("",0,0,2,22)
ShowMessage("The tentacles violating my body, Fatima raping me as she sucks my blood...")
ShowMessage("There's no way a man could endure this kind of assault.")
ShowMessageFace("",0,0,2,23)
ShowMessage("It's a hell of pleasure with no escape.")
ShowMessage("Unable to even writhe around, I can only go mad in ecstasy.")
ShowMessageFace("",0,0,2,24)
ShowMessage("\\n<Luka>")
ShowMessage("Urhg... Co...Coming...")
ShowMessageFace("",0,0,2,25)
ShowMessage("Her warm flesh around my penis waves and rubs against me.")
ShowMessage("It's too much... Nobody could hold out from this.")
ShowMessageFace("queenvampire_fc1",1,0,2,26)
ShowMessage("\\n<Fatima>")
ShowMessage("Haha... Finish inside my vagina.")
ShowMessage("Pour that semen of yours into me.")
ShowMessageFace("queenvampire_fc1",1,0,2,27)
ShowMessage("\\n<Fatima>")
ShowMessage("Nnnn... *Suck*")
ShowMessageFace("",0,0,2,28)
ShowMessage("With a cold-blooded smile, Fatima continues sucking up more blood.")
ShowMessage("She keeps sucking out more blood from my neck.")
ShowMessageFace("",0,0,2,29)
ShowMessage("The sweet pleasure doubles and a sense of weakness takes over my body...")
ShowMessageFace("",0,0,2,30)
ShowMessage("In tandem with her relentless bloodsucking, her vagina intensifies its movements.")
ShowMessage("My penis starts pulsing, announcing my surrender...")
RunCommonEvent(104)
PictureDisplay(5,"ev_queenvanpire_hc2",0,0,0,0,100,100,255,0)
RunCommonEvent(105)
ShowMessageFace("",0,0,2,31)
ShowMessage("\\n<Luka>")
ShowMessage("Unnngh...")
ShowMessageFace("",0,0,2,32)
ShowMessage("I explode inside her warm vagina.")
ShowMessage("At the same time, she starts contracting her vagina in a strange, devilish way.")
ShowMessageFace("",0,0,2,33)
ShowMessage("It's almost creating a type of suction on my penis, forcibly drawing out my semen into her.")
ShowMessageFace("",0,0,2,34)
ShowMessage("\\n<Luka>")
ShowMessage("Haaa... What...was that...?")
ShowMessageFace("",0,0,2,35)
ShowMessage("And my ejaculation doesn't stop...")
ShowMessage("It should have stopped shooting out semen after a few seconds, but mine is still pulsing inside her.")
ShowMessageFace("",0,0,2,36)
ShowMessage("The intense sensation of orgasm is still exploding in my brain, as my penis continues to pulse and leak out inside her.")
ShowMessageFace("",0,0,2,37)
ShowMessage("\\n<Luka>")
ShowMessage("Ahh... It won't stop...")
ShowMessageFace("queenvampire_fc1",1,0,2,38)
ShowMessage("\\n<Fatima>")
ShowMessage("...Haha, it feels amazing, doesn't it?")
ShowMessage("Devote everything of yours to me...")
ShowMessageFace("",0,0,2,39)
ShowMessage("\\n<Luka>")
ShowMessage("N...no... Ahhh!")
PictureDisplay(5,"ev_queenvanpire_hc3",0,0,0,0,100,100,255,0)
ShowMessageFace("",0,0,2,40)
ShowMessage("A huge amount of semen is being shot into her.")
ShowMessage("This is too much... If this keeps up, I'm going to die.")
ShowMessageFace("",0,0,2,41)
ShowMessage("\\n<Luka>")
ShowMessage("G...Get off...")
ShowMessageFace("",0,0,2,42)
ShowMessage("I struggle to escape somehow...")
ShowMessage("But Fatima just embraces me tighter, holding my limbs down with her cloak's tentacles.")
ShowMessageFace("",0,0,2,43)
ShowMessage("I can't even run... All I can do is have my blood and semen forcibly sucked out of me.")
ShowMessageFace("",0,0,2,44)
ShowMessage("\\n<Luka>")
ShowMessage("Stop... I'm going to die!")
ShowMessageFace("queenvampire_fc1",1,0,2,45)
ShowMessage("\\n<Fatima>")
ShowMessage("Haha... What are you talking about?")
ShowMessage("We already covered this a while ago. You will give all of your bodily fluids to me.")
ShowMessageFace("queenvampire_fc1",1,0,2,46)
ShowMessage("\\n<Fatima>")
ShowMessage("And it's not just semen.")
ShowMessage("It's everything.")
245(bytes(0x04,0x08,0x6f,0x3a,0x0d,0x52,0x50,0x47,0x3a,0x3a,0x42,0x47,0x53,0x08,0x3a,0x0a,0x40,0x6e,0x61,0x6d,0x65,0x49,0x22,0x1e,0x6d,0x6f,0x6e,0x5f,0x68,0x73,0x65,0x61,0x6e,0x31,0x33,0x5f,0x69,0x6e,0x6e,0x65,0x72,0x77,0x6f,0x72,0x6b,0x73,0x5f,0x63,0x33,0x06,0x3a,0x06,0x45,0x54,0x3a,0x0c,0x40,0x76,0x6f,0x6c,0x75,0x6d,0x65,0x69,0x55,0x3a,0x0b,0x40,0x70,0x69,0x74,0x63,0x68,0x69,0x69))
PictureDisplay(5,"ev_queenvanpire_hc4",0,0,0,0,100,100,255,0)
ShowMessageFace("",0,0,2,47)
ShowMessage("Suddenly, Fatima's cloak starts to rustle around...")
ShowMessage("It expands and covers even more of my body, enveloping more of me.")
ShowMessageFace("",0,0,2,48)
ShowMessage("\\n<Luka>")
ShowMessage("Stop, get off!")
ShowMessageFace("",0,0,2,49)
ShowMessage("The tentacles suddenly press down even harder on my body.")
ShowMessage("It feels like I'm being swallowed by some huge creature...")
ShowMessageFace("queenvampire_fc1",1,0,2,50)
ShowMessage("\\n<Fatima>")
ShowMessage("Hehehe... You're beyond help now.")
ShowMessage("Dry out into a shriveled corpse as you scream.")
ShowMessageFace("",0,0,2,51)
ShowMessage("\\n<Luka>")
ShowMessage("Hyaaaaa!!")
PictureDisplay(5,"ev_queenvanpire_hc5",0,0,0,0,100,100,255,0)
ShowMessageFace("",0,0,2,52)
ShowMessage("Little by little, more of my world is taken by the black cloak and tentacles.")
ShowMessage("My body is overrun by her tentacles as they rub all over me.")
ShowMessageFace("",0,0,2,53)
ShowMessage("It's like her cloak is already digesting me alive...")
ShowMessageFace("",0,0,2,54)
ShowMessage("\\n<Luka>")
ShowMessage("Urhg... Help...help...")
PictureDisplay(5,"ev_queenvanpire_hc6",0,0,0,0,100,100,255,0)
ShowMessageFace("queenvampire_fc1",1,0,2,55)
ShowMessage("\\n<Fatima>")
ShowMessage("I'll start sucking your blood again...")
ShowMessage("I'll suck you until you die, so prepare yourself...")
PictureDisplay(5,"ev_queenvanpire_hc7",0,0,0,0,100,100,255,0)
ShowMessageFace("",0,0,2,56)
ShowMessage("Fatima shows a sadistic smile...")
ShowMessage("She pierces my neck again with her fangs!")
ShowMessageFace("",0,0,2,57)
ShowMessage("\\n<Luka>")
ShowMessage("Aiiie!")
ShowMessageFace("",0,0,2,58)
ShowMessage("At the same time, tentacles creep into her vagina and coil around my penis even as she rapes me.")
ShowMessage("Her tentacles wind around my penis and start squeezing and loosening around it.")
PictureDisplay(5,"ev_queenvanpire_hc8",0,0,0,0,100,100,255,0)
ShowMessageFace("",0,0,2,59)
ShowMessage("It makes it feel like she's forcibly squeezing out my semen even faster than ever.")
ShowMessage("The merciless stimulation makes each pulse of my penis shoot out even more semen into her.")
ShowMessageFace("",0,0,2,60)
ShowMessage("\\n<Luka>")
ShowMessage("Ahhhh!")
ShowMessageFace("queenvampire_fc1",1,0,2,61)
ShowMessage("\\n<Fatima>")
ShowMessage("Are you already seeing a bit of Heaven?")
ShowMessage("You're going to be nothing but a dry corpse in my embrace soon enough...")
ShowMessageFace("queenvampire_fc1",1,0,2,62)
ShowMessage("\\n<Fatima>")
ShowMessage("Are you happy? Isn't it a great way to go?")
ShowMessage("Hahaha.")
ShowMessageFace("",0,0,2,63)
ShowMessage("\\n<Luka>")
ShowMessage("Ahhgg... Ah!")
ShowMessageFace("",0,0,2,64)
ShowMessage("My body relaxes in weakness as she drains everything from me.")
ShowMessage("My blood through her fangs, my semen into her vagina, and the rest of my fluids through her cloak...")
ShowMessageFace("",0,0,2,65)
ShowMessage("\\n<Luka>")
ShowMessage("Ahh...ah...")
ShowMessageFace("",0,0,2,66)
ShowMessage("The storm of pleasure slowly takes over my brain, leaving me unable to do anything but focus on the ecstasy.")
ShowMessage("My reasoning is long gone and in its place, my mind is dominated by ecstasy.")
ShowMessageFace("",0,0,2,67)
ShowMessage("My life itself is being sucked out, and I'm drying up...")
ShowMessageFace("",0,0,2,68)
ShowMessage("\\n<Luka>")
ShowMessage("Ah...a...")
ShowMessageFace("",0,0,2,69)
ShowMessage("All my bodily fluids are sucked out...")
ShowMessage("My life devoured by the Queen Vampire.")
246(1)
ShowMessageFace("queenvampire_fc1",1,0,2,70)
ShowMessage("\\n<Fatima>")
ShowMessage("Hehehe... You were delicious.")
ShowMessage("I'll even use the last of your meat as some food.")
ShowMessageFace("",0,0,2,71)
ShowMessage("Inside the cloak, the Hero's dried up corpse is melted down into a small amount of nutrients to be digested.")
ShowMessageFace("",0,0,2,72)
ShowMessage("Thus, every piece of the Hero is used to feed Fatima Vampire.")
221()
PictureClear(5)
PictureClear(6)
ShowMessageFace("",0,0,2,73)
ShowMessage("......")
RunCommonEvent(3999)
0()
