// EVENT 0103
Name "Skill: Steal Status"

ChangeVariable(11,11,0,2,1,20)
If(1,11,0,1,0)
 ChangeVariable(12,12,0,2,1,8)
 If(1,12,0,1,0)
  317(1,100,0,0,0,2)
  ShowMessageFace("",0,0,2,1)
  ShowMessage("Stole 2 points of Max HP!")
  EndEventProcessing()
  0()
 EndIf()
 If(1,12,0,2,0)
  317(1,100,1,0,0,2)
  ShowMessageFace("",0,0,2,2)
  ShowMessage("Stole 2 points of Max MP!")
  EndEventProcessing()
  0()
 EndIf()
 If(1,12,0,3,0)
  317(1,100,2,0,0,1)
  ShowMessageFace("",0,0,2,3)
  ShowMessage("Stole 1 point of Strength!")
  EndEventProcessing()
  0()
 EndIf()
 If(1,12,0,4,0)
  317(1,100,3,0,0,1)
  ShowMessageFace("",0,0,2,4)
  ShowMessage("Stole 1 point of Defense!")
  EndEventProcessing()
  0()
 EndIf()
 If(1,12,0,5,0)
  317(1,100,4,0,0,1)
  ShowMessageFace("",0,0,2,5)
  ShowMessage("Stole 1 point of Magic!")
  EndEventProcessing()
  0()
 EndIf()
 If(1,12,0,6,0)
  317(1,100,5,0,0,1)
  ShowMessageFace("",0,0,2,6)
  ShowMessage("Stole 1 point of Willpower!")
  EndEventProcessing()
  0()
 EndIf()
 If(1,12,0,7,0)
  317(1,100,6,0,0,1)
  ShowMessageFace("",0,0,2,7)
  ShowMessage("Stole 1 point of Agility!")
  EndEventProcessing()
  0()
 EndIf()
 If(1,12,0,8,0)
  317(1,100,7,0,0,1)
  ShowMessageFace("",0,0,2,8)
  ShowMessage("Stole 1 point of Dexterity!")
  EndEventProcessing()
  0()
 EndIf()
 0()
EndIf()
ShowMessageFace("",0,0,2,9)
ShowMessage("But you failed to steal anything!")
0()
