// EVENT 4381
Name "Meia 1"

If(0,25,1)
 221()
 PictureClear(5)
 PictureClear(6)
 ShowMessageFace("",0,0,2,0)
 ShowMessage("......")
 242(2)
 Wait(120)
 241(bytes(0x04,0x08,0x6f,0x3a,0x0d,0x52,0x50,0x47,0x3a,0x3a,0x42,0x47,0x4d,0x08,0x3a,0x0a,0x40,0x6e,0x61,0x6d,0x65,0x49,0x22,0x0c,0x63,0x61,0x73,0x74,0x6c,0x65,0x36,0x06,0x3a,0x06,0x45,0x54,0x3a,0x0c,0x40,0x76,0x6f,0x6c,0x75,0x6d,0x65,0x69,0x69,0x3a,0x0b,0x40,0x70,0x69,0x74,0x63,0x68,0x69,0x69))
 EndEventProcessing()
 0()
EndIf()
PictureDisplay(5,"80_meia_st02",0,0,0,0,100,100,255,0)
ShowMessageFace("meia_fc1",1,0,2,1)
ShowMessage("\\n<Meia>Mr. Hero, your journey must be arduous and tiresome.\nWould you like me to suck your penis?")
ShowMessageFace("",0,0,2,2)
ShowMessage("\\n<Luka>Eh? Ehhhhhh!?")
ShowMessageFace("meia_fc1",1,0,2,3)
ShowMessage("\\n<Meia>...Is this not good enough?\nI'm confident with my mouth skills...")
ShowMessageFace("meia_fc1",1,0,2,4)
ShowMessage("\\n<Meia>I don't think any human could even last thirty seconds...\nTeehee.")
ShowMessageFace("",0,0,2,5)
ShowMessage("\\n<Luka>No way!\nDidn't you just get married!?")
ShowMessageFace("meia_fc1",1,0,2,6)
ShowMessage("\\n<Meia>My love is only for my darling.\nSo this isn't cheating on him.")
ShowMessageFace("",0,0,2,7)
ShowMessage("\\n<Luka>No... I don't think that's quite right...")
ShowMessageFace("",0,0,2,8)
ShowMessage("Even though I shouldn't think such things,")
ShowMessage("the image of Meia holding my penis in her mouth flashes in my mind.")
ShowMessageFace("",0,0,2,9)
ShowMessage("...The thought causes my penis to become erect.")
ShowMessage("I'm not able to draw my gaze from her wet lips...")
ShowMessageFace("",0,0,2,10)
ShowMessage("\\n<Luka>Well then, just a bit I guess...")
ShowMessageFace("meia_fc1",1,0,2,11)
ShowMessage("\\n<Meia>Ufufu, then please come to my room.")
ShowMessageFace("",0,0,2,12)
ShowMessage("Trying to stay out of view, I follow Meia to her room...")
221()
PictureDisplay(1,"bg195",0,0,0,0,100,100,255,0)
PictureDisplay(5,"80_meia_st02",0,0,0,0,100,100,255,0)
222()
241(bytes(0x04,0x08,0x6f,0x3a,0x0d,0x52,0x50,0x47,0x3a,0x3a,0x42,0x47,0x4d,0x08,0x3a,0x0a,0x40,0x6e,0x61,0x6d,0x65,0x49,0x22,0x09,0x65,0x72,0x6f,0x31,0x06,0x3a,0x06,0x45,0x54,0x3a,0x0c,0x40,0x76,0x6f,0x6c,0x75,0x6d,0x65,0x69,0x69,0x3a,0x0b,0x40,0x70,0x69,0x74,0x63,0x68,0x69,0x69))
ShowMessageFace("meia_fc1",1,0,2,13)
ShowMessage("\\n<Meia>Fufu, then let me entertain you...")
ShowMessageFace("meia_fc1",1,0,2,14)
ShowMessage("\\n<Meia>Your sticky white pee,\nI'll suck it all out...")
ShowMessageFace("",0,0,2,15)
ShowMessage("Right as I enter her room, Meia buries her face in my crotch.")
ShowMessage("She takes off my pants and underwear, exposing my already erect penis.")
ShowMessageFace("",0,0,2,16)
ShowMessage("\\n<Luka>......")
ShowMessageFace("",0,0,2,17)
ShowMessage("I just stand there silent and embarassed.")
ShowMessageFace("meia_fc1",1,0,2,18)
ShowMessage("\\n<Meia>Teehee... A Hero's penis is in my mouth...♪")
ShowMessageFace("",0,0,2,19)
ShowMessage("Her tongue starts to lick my penis all over.")
ShowMessageFace("",0,0,2,20)
ShowMessage("\\n<Luka>Aaah...")
ShowMessageFace("",0,0,2,21)
ShowMessage("The breath and warmth from her mouth tickles me.")
ShowMessageFace("",0,0,2,22)
ShowMessage("Meia slowly opens her lips, and quickly moves her face forward.")
245(bytes(0x04,0x08,0x6f,0x3a,0x0d,0x52,0x50,0x47,0x3a,0x3a,0x42,0x47,0x53,0x08,0x3a,0x0a,0x40,0x6e,0x61,0x6d,0x65,0x49,0x22,0x10,0x6d,0x6f,0x6e,0x5f,0x68,0x76,0x6f,0x69,0x63,0x65,0x33,0x06,0x3a,0x06,0x45,0x54,0x3a,0x0c,0x40,0x76,0x6f,0x6c,0x75,0x6d,0x65,0x69,0x55,0x3a,0x0b,0x40,0x70,0x69,0x74,0x63,0x68,0x69,0x69))
PictureDisplay(5,"ev_meia_ha1",0,0,0,0,100,100,255,0)
ShowMessageFace("",0,0,2,23)
ShowMessage("In an instant, she sucks me inside of her warm mouth.")
ShowMessageFace("",0,0,2,24)
ShowMessage("\\n<Luka>Auu... Your mouth feels incredible...")
ShowMessageFace("meia_fc1",1,0,2,25)
ShowMessage("\\n<Meia>A Hero's penis is in my mouth... Hahaha♪")
ShowMessageFace("",0,0,2,26)
ShowMessage("Her tongue starts to lick my penis all over.")
ShowMessageFace("",0,0,2,27)
ShowMessage("In her warm mouth, the saliva from her tongue gives a slippery feeling as her tongue continues to lick me.")
ShowMessageFace("meia_fc1",1,0,2,28)
ShowMessage("\\n<Meia>Now, let me make it feel better...")
ShowMessageFace("",0,0,2,29)
ShowMessage("\\n<Luka>Ah, aaaah...!")
ShowMessageFace("",0,0,2,30)
ShowMessage("Meia's tongue starts to lightly tickle the tip of my penis.")
ShowMessage("After a couple licks, she starts to wrap her tongue around me.")
ShowMessageFace("",0,0,2,31)
ShowMessage("Her long tongue coils from the tip of my penis up to her lips.")
ShowMessageFace("",0,0,2,32)
ShowMessage("\\n<Luka>Huaaa...!")
ShowMessageFace("",0,0,2,33)
ShowMessage("My hips push forward involuntarily at the pleasure.")
ShowMessageFace("",0,0,2,34)
ShowMessage("Suddenly, Meia puts her arms around my waist.")
ShowMessageFace("",0,0,2,35)
ShowMessage("As she sucks on my penis, she tightly holds my waist.")
ShowMessage("Meia looks up at my face and smiles.")
ShowMessageFace("",0,0,2,36)
ShowMessage("At the same time, she sweetly caresses my penis with her tongue.")
ShowMessage("Her soft licking causes the feeling of an orgasm to come rising up through me.")
ShowMessageFace("",0,0,2,37)
ShowMessage("The sudden urge to come rises up as if it's a surprise attack.")
ShowMessageFace("",0,0,2,38)
ShowMessage("\\n<Luka>Ah! Coming! Ahhhh!")
246(1)
RunCommonEvent(104)
PictureDisplay(5,"ev_meia_ha2",0,0,0,0,100,100,255,0)
RunCommonEvent(105)
ShowMessageFace("",0,0,2,39)
ShowMessage("I explode inside of Meia, shooting my semen into her mouth.")
ShowMessage("Unable to last even twenty seconds, I feel embarrassed.")
ShowMessageFace("meia_fc1",1,0,2,40)
ShowMessage("\\n<Meia>Mmm...")
ShowMessageFace("",0,0,2,41)
ShowMessage("Meia licks up all my semen with a tender expression.")
ShowMessage("Closing tighter down on my penis, she drinks all of my semen.")
ShowMessageFace("",0,0,2,42)
ShowMessage("\\n<Luka>Aaaaah...")
ShowMessageFace("",0,0,2,43)
ShowMessage("Every time Meia swallows, a wave of pleasure flows through me.")
ShowMessageFace("",0,0,2,44)
ShowMessage("Thanks to that, I can enjoy the pleasure till the last drop is sucked out.")
ShowMessage("I finish my ejaculation...")
ShowMessageFace("",0,0,2,45)
ShowMessage("But even after my ejaculation ends, she doesn't let go of my penis.")
PictureDisplay(5,"ev_meia_ha3",0,0,0,0,100,100,255,0)
ShowMessageFace("meia_fc1",1,0,2,46)
ShowMessage("\\n<Meia>...You already let it out.")
ShowMessageFace("",0,0,2,47)
ShowMessage("\\n<Luka>I'm sorry...!")
ShowMessageFace("",0,0,2,48)
ShowMessage("I couldn't even last twenty seconds in her mouth.")
ShowMessage("Even if she's skilled, that's pathetic...")
ShowMessageFace("meia_fc1",1,0,2,49)
ShowMessage("\\n<Meia>Hahaha... There's no helping it.")
ShowMessageFace("meia_fc1",1,0,2,50)
ShowMessage("\\n<Meia>Even my darling comes right away when I do this.\nHe comes in an instant.")
ShowMessageFace("meia_fc1",1,0,2,51)
ShowMessage("\\n<Meia>But... because you're a hero,\nI thought you might last longer.")
ShowMessageFace("meia_fc1",1,0,2,52)
ShowMessage("\\n<Meia>Ufufu...")
ShowMessageFace("",0,0,2,53)
ShowMessage("\\n<Luka>......")
ShowMessageFace("",0,0,2,54)
ShowMessage("Ashamed, I look away from her.")
ShowMessageFace("meia_fc1",1,0,2,55)
ShowMessage("\\n<Meia>Instead of coming right away,\nwhy don't you enjoy it for a long time?")
ShowMessageFace("meia_fc1",1,0,2,56)
ShowMessage("\\n<Meia>Just like I do to my husband,\nI'll suck it gently...")
245(bytes(0x04,0x08,0x6f,0x3a,0x0d,0x52,0x50,0x47,0x3a,0x3a,0x42,0x47,0x53,0x08,0x3a,0x0a,0x40,0x6e,0x61,0x6d,0x65,0x49,0x22,0x10,0x6d,0x6f,0x6e,0x5f,0x68,0x76,0x6f,0x69,0x63,0x65,0x33,0x06,0x3a,0x06,0x45,0x54,0x3a,0x0c,0x40,0x76,0x6f,0x6c,0x75,0x6d,0x65,0x69,0x55,0x3a,0x0b,0x40,0x70,0x69,0x74,0x63,0x68,0x69,0x69))
ShowMessageFace("",0,0,2,57)
ShowMessage("Her tongue starts to lick me again, carefully licking every corner of my penis.")
ShowMessageFace("",0,0,2,58)
ShowMessage("Slowly licking me all over, it's as if she's carefully painting my penis with her saliva.")
ShowMessageFace("",0,0,2,59)
ShowMessage("\\n<Luka>Aaaaah...")
ShowMessageFace("",0,0,2,60)
ShowMessage("Rather than trying to quickly make me ejaculate, she's slowly sucking me to give maximum pleasure.")
ShowMessageFace("",0,0,2,61)
ShowMessage("Gently being played with in her mouth, I let out a sigh.")
ShowMessageFace("meia_fc1",1,0,2,62)
ShowMessage("\\n<Meia>Hehe... You look like you're in a trance.\nDoes it feel good, Mr. Hero?")
ShowMessageFace("",0,0,2,63)
ShowMessage("Still holding me in her mouth as she talks, her mouth vibrates with her voice.")
ShowMessageFace("",0,0,2,64)
ShowMessage("The gentle pleasure of her tongue and mouth send a sweet sensation through my waist.")
ShowMessageFace("meia_fc1",1,0,2,65)
ShowMessage("\\n<Meia>Mmm...")
ShowMessageFace("",0,0,2,66)
ShowMessage("Her tongue plays gently with my penis and her blowjob is sweet.")
ShowMessageFace("",0,0,2,67)
ShowMessage("As her tongue continues to play with my penis, she starts to move her head forward and back.")
ShowMessageFace("",0,0,2,68)
ShowMessage("Still not being too forceful, she's slowly moving and stimulating me so as not to make me orgasm.")
ShowMessageFace("",0,0,2,69)
ShowMessage("\\n<Luka>Aaaah...!")
ShowMessageFace("",0,0,2,70)
ShowMessage("Her slow-motion movement quickly drains the strength from my legs.")
ShowMessageFace("meia_fc1",1,0,2,71)
ShowMessage("\\n<Meia>Hehe... Your salty soup is coming out of the tip...")
ShowMessageFace("",0,0,2,72)
ShowMessage("Meia licks my urethral opening with the tip of her tongue.")
ShowMessageFace("",0,0,2,73)
ShowMessage("Licking up all of my pre-come, she gently stimulates my most sensitive part.")
ShowMessageFace("",0,0,2,74)
ShowMessage("After licking up my pre-come, she wraps her tongue around my penis again and starts to squeeze down.")
ShowMessageFace("meia_fc1",1,0,2,75)
ShowMessage("\\n<Meia>It's about time to make you come again...")
ShowMessageFace("",0,0,2,76)
ShowMessage("\\n<Luka>Nnngh...")
245(bytes(0x04,0x08,0x6f,0x3a,0x0d,0x52,0x50,0x47,0x3a,0x3a,0x42,0x47,0x53,0x08,0x3a,0x0a,0x40,0x6e,0x61,0x6d,0x65,0x49,0x22,0x10,0x6d,0x6f,0x6e,0x5f,0x68,0x76,0x6f,0x69,0x63,0x65,0x35,0x06,0x3a,0x06,0x45,0x54,0x3a,0x0c,0x40,0x76,0x6f,0x6c,0x75,0x6d,0x65,0x69,0x55,0x3a,0x0b,0x40,0x70,0x69,0x74,0x63,0x68,0x69,0x69))
ShowMessageFace("",0,0,2,77)
ShowMessage("Her tongue starts to slowly quicken its movements.")
ShowMessageFace("",0,0,2,78)
ShowMessage("Unlike before when she was just gently stimulating me, now her movements are to force me to come.")
ShowMessageFace("meia_fc1",1,0,2,79)
ShowMessage("\\n<Meia>Mmm... *Suck* *Suck*\n*Slurp* *Suck*")
ShowMessageFace("",0,0,2,80)
ShowMessage("\\n<Luka>Ah, aaaah...!")
ShowMessageFace("",0,0,2,81)
ShowMessage("Her tongue starts to quickly lick and massage the tip of my penis.")
ShowMessage("After teasing me for a few seconds, she wraps her tongue back around my penis and squeezes.")
ShowMessageFace("",0,0,2,82)
ShowMessage("At the same time she squeezes me with her tongue, she continues the piston movement with her head.")
ShowMessageFace("meia_fc1",1,0,2,83)
ShowMessage("\\n<Meia>*Slurp* *Suck*\nNow... Please shoot it out...")
ShowMessageFace("",0,0,2,84)
ShowMessage("\\n<Luka>Ah, unnngh... Aaah...")
ShowMessageFace("",0,0,2,85)
ShowMessage("Like that, she continues her single-minded blowjob.")
ShowMessageFace("",0,0,2,86)
ShowMessage("I try to endure with all of my might as she forces me to another orgasm.")
ShowMessageFace("meia_fc1",1,0,2,87)
ShowMessage("\\n<Meia>*Slurp* *Suck*\nShoot it out inside my mouth...")
ShowMessageFace("",0,0,2,88)
ShowMessage("\\n<Luka>Aaaah...!")
ShowMessageFace("",0,0,2,89)
ShowMessage("Deciding for herself when she wants me to come...")
ShowMessage("Instead of being served by her mouth, it's more like I'm being violated by it...")
ShowMessageFace("",0,0,2,90)
ShowMessage("Her piston movement gets even more intense as her tongue tightens around my penis.")
ShowMessageFace("meia_fc1",1,0,2,91)
ShowMessage("\\n<Meia>*Slurp*\n*Suck*")
ShowMessageFace("",0,0,2,92)
ShowMessage("\\n<Luka>Huaaa...")
ShowMessageFace("",0,0,2,93)
ShowMessage("I can't endure her intense blowjob any longer.")
ShowMessage("Just like this, she's going to force me to come in her mouth.")
ShowMessageFace("",0,0,2,94)
ShowMessage("I give in to the desire, and explode in an instant.")
ShowMessageFace("",0,0,2,95)
ShowMessage("\\n<Luka>Ah, aaaaaah!!")
RunCommonEvent(104)
PictureDisplay(5,"ev_meia_ha4",0,0,0,0,100,100,255,0)
RunCommonEvent(105)
ShowMessageFace("",0,0,2,96)
ShowMessage("My lower back arches as I feel everything shoot into her mouth.")
ShowMessageFace("",0,0,2,97)
ShowMessage("Spurt spurt...I shoot my cloudy semen inside Meia's mouth.")
ShowMessageFace("",0,0,2,98)
ShowMessage("Meia sucks harder than before, sucking up every drop of my semen as I shoot it out.")
ShowMessageFace("meia_fc1",1,0,2,99)
ShowMessage("\\n<Meia>Mmm... You let out so much...\n*Suck* *Sluuuurrpp*")
ShowMessageFace("",0,0,2,100)
ShowMessage("She intensely sucks on my penis, as if trying to suck out every drop from inside of me.")
ShowMessageFace("",0,0,2,101)
ShowMessage("\\n<Luka>Aiee!")
ShowMessageFace("meia_fc1",1,0,2,102)
ShowMessage("\\n<Meia>*Suck*\n*Sluuuurrpp*")
ShowMessageFace("",0,0,2,103)
ShowMessage("Meia continues to suck on me until every drop has been sucked out.")
ShowMessageFace("",0,0,2,104)
ShowMessage("Once the ejaculation finally ends, she gives me a final kiss on the tip of my penis.")
ShowMessageFace("",0,0,2,105)
ShowMessage("\\n<Luka>Aaah...")
ShowMessageFace("",0,0,2,106)
ShowMessage("Sucked dry, my body shakes.")
ShowMessage("After that final kiss, she lets go of my penis and stands back.")
246(1)
ShowMessageFace("meia_fc1",1,0,2,107)
ShowMessage("\\n<Meia>That's the end...\nDid it feel good, Mr. Hero?")
ShowMessageFace("",0,0,2,108)
ShowMessage("Meia wipes away the leftover semen off her mouth.")
ShowMessageFace("meia_fc1",1,0,2,109)
ShowMessage("\\n<Meia>When you get pent up again, come to my room.\nWith this mouth... I'll satisfy you.")
ShowMessageFace("",0,0,2,110)
ShowMessage("\\n<Luka>Al...All right...")
ShowMessageFace("",0,0,2,111)
ShowMessage("Still in a slight trance, I can only manage that reply and nod.")
221()
PictureClear(5)
PictureClear(6)
246(2)
ShowMessageFace("",0,0,2,112)
ShowMessage("......")
242(2)
Wait(120)
241(bytes(0x04,0x08,0x6f,0x3a,0x0d,0x52,0x50,0x47,0x3a,0x3a,0x42,0x47,0x4d,0x08,0x3a,0x0a,0x40,0x6e,0x61,0x6d,0x65,0x49,0x22,0x0c,0x63,0x61,0x73,0x74,0x6c,0x65,0x36,0x06,0x3a,0x06,0x45,0x54,0x3a,0x0c,0x40,0x76,0x6f,0x6c,0x75,0x6d,0x65,0x69,0x69,0x3a,0x0b,0x40,0x70,0x69,0x74,0x63,0x68,0x69,0x69))
0()
