// EVENT 7172
Name "Melody: Match"

ShowMessageFace("mob_odoriko1_fc1",0,0,2,1)
ShowMessage("\\n<Melody>Ehehe, now we're talking.♪\nI'll show you my dance.♪")
ShowMessageFace("mob_odoriko1_fc1",0,0,2,2)
ShowMessage("\\n<Melody>I'll rub your penis all over my body.\nNobody can withstand my full dance...")
ChangeSwitch(96,96,0)
ChangeSwitch(98,98,0)
ShowMessageFace("mob_odoriko1_fc1",0,0,2,3)
ShowMessage("\\n<Melody>It's time to dance~♪\nFirst an opening with my robes.♪")
250(bytes(0x04,0x08,0x6f,0x3a,0x0c,0x52,0x50,0x47,0x3a,0x3a,0x53,0x45,0x08,0x3a,0x0a,0x40,0x6e,0x61,0x6d,0x65,0x49,0x22,0x12,0x6d,0x6f,0x6e,0x5f,0x65,0x72,0x6f,0x5f,0x6b,0x6f,0x6b,0x69,0x31,0x06,0x3a,0x06,0x45,0x54,0x3a,0x0b,0x40,0x70,0x69,0x74,0x63,0x68,0x69,0x69,0x3a,0x0c,0x40,0x76,0x6f,0x6c,0x75,0x6d,0x65,0x69,0x69))
ChangeVariable(11,11,0,2,77,83)
311(0,1,1,1,11,true)
ShowMessageFace("",0,0,2,4)
ShowMessage("Melody rubs her soft silk robe against Luka's penis!")
ShowMessage("The smooth feel stimulates him!\\D")
ShowMessage("Luka takes \\V[11] damage!")
ChangeVariable(27,27,0,3,3,1,2)
If(1,27,0,0,0)
 RunCommonEvent(7175)
 EndEventProcessing()
 0()
EndIf()
ShowMessageFace("mob_odoriko1_fc1",0,0,2,5)
ShowMessage("\\n<Melody>Ehehe...\nIt's silky smooth, isn't it?")
250(bytes(0x04,0x08,0x6f,0x3a,0x0c,0x52,0x50,0x47,0x3a,0x3a,0x53,0x45,0x08,0x3a,0x0a,0x40,0x6e,0x61,0x6d,0x65,0x49,0x22,0x12,0x6d,0x6f,0x6e,0x5f,0x65,0x72,0x6f,0x5f,0x6b,0x6f,0x6b,0x69,0x31,0x06,0x3a,0x06,0x45,0x54,0x3a,0x0b,0x40,0x70,0x69,0x74,0x63,0x68,0x69,0x69,0x3a,0x0c,0x40,0x76,0x6f,0x6c,0x75,0x6d,0x65,0x69,0x69))
ChangeVariable(11,11,0,2,77,83)
311(0,1,1,1,11,true)
ShowMessageFace("",0,0,2,6)
ShowMessage("Melody wraps Luka's penis with her silky robe!")
ShowMessage("She tightens it, rubbing it against him!\\D")
ShowMessage("Luka takes \\V[11] damage!")
ChangeVariable(27,27,0,3,3,1,2)
If(1,27,0,0,0)
 RunCommonEvent(7175)
 EndEventProcessing()
 0()
EndIf()
ShowMessageFace("mob_odoriko1_fc1",0,0,2,7)
ShowMessage("\\n<Melody>The dance isn't over yet~♪\nNow for a titty dance.♪")
250(bytes(0x04,0x08,0x6f,0x3a,0x0c,0x52,0x50,0x47,0x3a,0x3a,0x53,0x45,0x08,0x3a,0x0a,0x40,0x6e,0x61,0x6d,0x65,0x49,0x22,0x12,0x6d,0x6f,0x6e,0x5f,0x65,0x72,0x6f,0x5f,0x6b,0x6f,0x6b,0x69,0x31,0x06,0x3a,0x06,0x45,0x54,0x3a,0x0b,0x40,0x70,0x69,0x74,0x63,0x68,0x69,0x69,0x3a,0x0c,0x40,0x76,0x6f,0x6c,0x75,0x6d,0x65,0x69,0x69))
PictureDisplay(5,"80_mob_odoriko1_st01",0,0,-190,0,100,100,255,0)
PictureDisplay(6,"ev_mob_odoriko1_ct11",0,0,240,50,100,100,255,0)
ChangeVariable(11,11,0,2,77,83)
311(0,1,1,1,11,true)
ShowMessageFace("",0,0,2,8)
ShowMessage("Melody presses her breasts against Luka's penis!")
ShowMessage("Her soft breasts squeeze against his penis!\\D")
ShowMessage("Luka takes \\V[11] damage!")
ChangeVariable(27,27,0,3,3,1,2)
If(1,27,0,0,0)
 RunCommonEvent(7176)
 EndEventProcessing()
 0()
EndIf()
ShowMessageFace("mob_odoriko1_fc1",0,0,2,9)
ShowMessage("\\n<Melody>Aren't they nice and soft?\nSquish squish.♪")
250(bytes(0x04,0x08,0x6f,0x3a,0x0c,0x52,0x50,0x47,0x3a,0x3a,0x53,0x45,0x08,0x3a,0x0a,0x40,0x6e,0x61,0x6d,0x65,0x49,0x22,0x12,0x6d,0x6f,0x6e,0x5f,0x65,0x72,0x6f,0x5f,0x6b,0x6f,0x6b,0x69,0x31,0x06,0x3a,0x06,0x45,0x54,0x3a,0x0b,0x40,0x70,0x69,0x74,0x63,0x68,0x69,0x69,0x3a,0x0c,0x40,0x76,0x6f,0x6c,0x75,0x6d,0x65,0x69,0x69))
ChangeVariable(11,11,0,2,77,83)
311(0,1,1,1,11,true)
ShowMessageFace("",0,0,2,10)
ShowMessage("Melody dances, rubbing her breasts against Luka's penis!")
ShowMessage("The soft feel of her skin fills his senses!\\D")
ShowMessage("Luka takes \\V[11] damage!")
ChangeVariable(27,27,0,3,3,1,2)
If(1,27,0,0,0)
 RunCommonEvent(7176)
 EndEventProcessing()
 0()
EndIf()
ShowMessageFace("mob_odoriko1_fc1",0,0,2,11)
ShowMessage("\\n<Melody>Next is my armpit!\nI'll squeeze you nice and tight here.♪")
250(bytes(0x04,0x08,0x6f,0x3a,0x0c,0x52,0x50,0x47,0x3a,0x3a,0x53,0x45,0x08,0x3a,0x0a,0x40,0x6e,0x61,0x6d,0x65,0x49,0x22,0x12,0x6d,0x6f,0x6e,0x5f,0x65,0x72,0x6f,0x5f,0x6b,0x6f,0x6b,0x69,0x31,0x06,0x3a,0x06,0x45,0x54,0x3a,0x0b,0x40,0x70,0x69,0x74,0x63,0x68,0x69,0x69,0x3a,0x0c,0x40,0x76,0x6f,0x6c,0x75,0x6d,0x65,0x69,0x69))
PictureDisplay(6,"ev_mob_odoriko1_ct31",0,0,240,50,100,100,255,0)
ChangeVariable(11,11,0,2,77,83)
311(0,1,1,1,11,true)
ShowMessageFace("",0,0,2,12)
ShowMessage("Melody twirls, and slips Luka's penis into her armpit!")
ShowMessage("She lowers her arm, squeezing his penis!\\D")
ShowMessage("Luka takes \\V[11] damage!")
ChangeVariable(27,27,0,3,3,1,2)
If(1,27,0,0,0)
 RunCommonEvent(7177)
 EndEventProcessing()
 0()
EndIf()
ShowMessageFace("mob_odoriko1_fc1",0,0,2,13)
ShowMessage("\\n<Melody>Next is my underarm...\nIt's soft and smooth~♪")
250(bytes(0x04,0x08,0x6f,0x3a,0x0c,0x52,0x50,0x47,0x3a,0x3a,0x53,0x45,0x08,0x3a,0x0a,0x40,0x6e,0x61,0x6d,0x65,0x49,0x22,0x12,0x6d,0x6f,0x6e,0x5f,0x65,0x72,0x6f,0x5f,0x6b,0x6f,0x6b,0x69,0x31,0x06,0x3a,0x06,0x45,0x54,0x3a,0x0b,0x40,0x70,0x69,0x74,0x63,0x68,0x69,0x69,0x3a,0x0c,0x40,0x76,0x6f,0x6c,0x75,0x6d,0x65,0x69,0x69))
PictureDisplay(6,"ev_mob_odoriko1_ct33",0,0,240,50,100,100,255,0)
ChangeVariable(11,11,0,2,77,83)
311(0,1,1,1,11,true)
ShowMessageFace("",0,0,2,14)
ShowMessage("Melody moves Luka's penis to the other side!")
ShowMessage("She rubs him against her soft underarm!\\D")
ShowMessage("Luka takes \\V[11] damage!")
ChangeVariable(27,27,0,3,3,1,2)
If(1,27,0,0,0)
 RunCommonEvent(7178)
 EndEventProcessing()
 0()
EndIf()
If(1,27,0,320,4)
 ShowMessageFace("ruka_fc1",0,0,2,15)
 ShowMessage("\\n<Luka>Ah, unnngh...")
 ShowMessageFace("mob_odoriko1_fc1",0,0,2,16)
 ShowMessage("\\n<Melody>Ehehe, are you going to come?\nThere's no way you'll last through this half.♪")
 0()
Else()
 ShowMessageFace("mob_odoriko1_fc1",0,0,2,17)
 ShowMessage("\\n<Melody>Ehehe, you're holding back.\nWill you be able to endure the second half of my dance?")
 0()
EndIf()
250(bytes(0x04,0x08,0x6f,0x3a,0x0c,0x52,0x50,0x47,0x3a,0x3a,0x53,0x45,0x08,0x3a,0x0a,0x40,0x6e,0x61,0x6d,0x65,0x49,0x22,0x12,0x6d,0x6f,0x6e,0x5f,0x65,0x72,0x6f,0x5f,0x6b,0x6f,0x6b,0x69,0x31,0x06,0x3a,0x06,0x45,0x54,0x3a,0x0b,0x40,0x70,0x69,0x74,0x63,0x68,0x69,0x69,0x3a,0x0c,0x40,0x76,0x6f,0x6c,0x75,0x6d,0x65,0x69,0x69))
PictureDisplay(6,"ev_mob_odoriko1_ct61",0,0,240,50,100,100,255,0)
ChangeVariable(11,11,0,2,77,83)
311(0,1,1,1,11,true)
ShowMessageFace("",0,0,2,18)
ShowMessage("Melody takes Luka's penis between her thighs!")
ShowMessage("She skillfully rubs him against her!\\D")
ShowMessage("Luka takes \\V[11] damage!")
ChangeVariable(27,27,0,3,3,1,2)
If(1,27,0,0,0)
 RunCommonEvent(7179)
 EndEventProcessing()
 0()
EndIf()
250(bytes(0x04,0x08,0x6f,0x3a,0x0c,0x52,0x50,0x47,0x3a,0x3a,0x53,0x45,0x08,0x3a,0x0a,0x40,0x6e,0x61,0x6d,0x65,0x49,0x22,0x12,0x6d,0x6f,0x6e,0x5f,0x65,0x72,0x6f,0x5f,0x6b,0x6f,0x6b,0x69,0x31,0x06,0x3a,0x06,0x45,0x54,0x3a,0x0b,0x40,0x70,0x69,0x74,0x63,0x68,0x69,0x69,0x3a,0x0c,0x40,0x76,0x6f,0x6c,0x75,0x6d,0x65,0x69,0x69))
ChangeVariable(11,11,0,2,77,83)
311(0,1,1,1,11,true)
ShowMessageFace("",0,0,2,19)
ShowMessage("Melody sandwiches Luka's penis between her thighs!")
ShowMessage("The soft touch presses against him!\\D")
ShowMessage("Luka takes \\V[11] damage!")
ChangeVariable(27,27,0,3,3,1,2)
If(1,27,0,0,0)
 RunCommonEvent(7179)
 EndEventProcessing()
 0()
EndIf()
ShowMessageFace("mob_odoriko1_fc1",0,0,2,20)
ShowMessage("\\n<Melody>It's about time for the finish.♪\nI'll make you come right away!")
250(bytes(0x04,0x08,0x6f,0x3a,0x0c,0x52,0x50,0x47,0x3a,0x3a,0x53,0x45,0x08,0x3a,0x0a,0x40,0x6e,0x61,0x6d,0x65,0x49,0x22,0x12,0x6d,0x6f,0x6e,0x5f,0x65,0x72,0x6f,0x5f,0x6b,0x6f,0x6b,0x69,0x31,0x06,0x3a,0x06,0x45,0x54,0x3a,0x0b,0x40,0x70,0x69,0x74,0x63,0x68,0x69,0x69,0x3a,0x0c,0x40,0x76,0x6f,0x6c,0x75,0x6d,0x65,0x69,0x69))
PictureDisplay(5,"ev_mob_odoriko1_h1",0,0,0,0,100,100,255,0)
PictureClear(6)
ChangeVariable(11,11,0,2,77,83)
311(0,1,1,1,11,true)
ShowMessageFace("",0,0,2,21)
ShowMessage("Melody straddles Luka, pressing her thighs against the base of his penis!")
ShowMessage("Like that, she grabs hold of the top part of his penis!\\D")
ShowMessage("Luka takes \\V[11] damage!")
ChangeVariable(27,27,0,3,3,1,2)
If(1,27,0,0,0)
 RunCommonEvent(7180)
 EndEventProcessing()
 0()
EndIf()
ShowMessageFace("mob_odoriko1_fc1",0,0,2,22)
ShowMessage("\\n<Melody>A last spurt, straight to heaven~♪\nNow cooome~♪")
250(bytes(0x04,0x08,0x6f,0x3a,0x0c,0x52,0x50,0x47,0x3a,0x3a,0x53,0x45,0x08,0x3a,0x0a,0x40,0x6e,0x61,0x6d,0x65,0x49,0x22,0x12,0x6d,0x6f,0x6e,0x5f,0x65,0x72,0x6f,0x5f,0x6b,0x6f,0x6b,0x69,0x31,0x06,0x3a,0x06,0x45,0x54,0x3a,0x0b,0x40,0x70,0x69,0x74,0x63,0x68,0x69,0x69,0x3a,0x0c,0x40,0x76,0x6f,0x6c,0x75,0x6d,0x65,0x69,0x69))
ChangeVariable(11,11,0,2,77,83)
311(0,1,1,1,11,true)
ShowMessageFace("",0,0,2,23)
ShowMessage("Melody grinds her waist back and forth!")
ShowMessage("At the same time, she strokes Luka's penis!\\D")
ShowMessage("Luka takes \\V[11] damage!")
ChangeVariable(27,27,0,3,3,1,2)
If(1,27,0,0,0)
 RunCommonEvent(7180)
 EndEventProcessing()
 0()
EndIf()
RunCommonEvent(7174)
EndEventProcessing()
0()
