﻿// EVENT 5753
Name "ミュスカ"

PictureDisplay(5,"80_myuska_st11",0,0,0,0,100,100,0,0)
PictureMove(5,null,0,0,0,0,100,100,255,0,30,true)
ShowMessageFace("",0,0,2,1)
ShowMessage("\\n<Luka>")
ShowMessage("お……お願い……")
ShowMessageFace("myuska_fc1",5,0,2,2)
ShowMessage("\\n<Myusca>")
ShowMessage("あはっ、自分から食べられにくるんだぁ……")
ShowMessage("いいよぉ、食べてあげる♡")
ShowMessageFace("",0,0,2,3)
ShowMessage("こうして僕は、ミュスカの部屋に誘われた――")
221()
PictureDisplay(1,"bg195",0,0,0,0,100,100,255,0)
PictureDisplay(5,"80_myuska_st11",0,0,0,0,100,100,255,0)
222()
241(bytes(0x04,0x08,0x6f,0x3a,0x0d,0x52,0x50,0x47,0x3a,0x3a,0x42,0x47,0x4d,0x08,0x3a,0x0a,0x40,0x6e,0x61,0x6d,0x65,0x49,0x22,0x09,0x65,0x72,0x6f,0x31,0x06,0x3a,0x06,0x45,0x54,0x3a,0x0c,0x40,0x76,0x6f,0x6c,0x75,0x6d,0x65,0x69,0x69,0x3a,0x0b,0x40,0x70,0x69,0x74,0x63,0x68,0x69,0x69))
ShowMessageFace("myuska_fc1",5,0,2,4)
ShowMessage("\\n<Myusca>")
ShowMessage("どうする？　この姿で食べられたい？")
ShowMessage("それともぉ……")
PictureDisplay(5,"80_myuska_st01",0,0,0,0,100,100,255,0)
ShowMessageFace("myuska_fc1",0,0,2,5)
ShowMessage("\\n<Myusca>")
ShowMessage("普段の姿で、してあげようか？")
ShowMessage("キミは、どっちの姿が好きかなぁ……？")
ShowMessageFace("",0,0,2,6)
ShowMessage("\\n<Luka>")
ShowMessage("あ、あぁぁ……")
ShowMessageFace("",0,0,2,7)
ShowMessage("横たわる僕に、ミュスカが迫ってくる。")
ShowMessage("その服が消え、そして――")
245(bytes(0x04,0x08,0x6f,0x3a,0x0d,0x52,0x50,0x47,0x3a,0x3a,0x42,0x47,0x53,0x08,0x3a,0x0a,0x40,0x6e,0x61,0x6d,0x65,0x49,0x22,0x1e,0x6d,0x6f,0x6e,0x5f,0x68,0x73,0x65,0x61,0x6e,0x30,0x35,0x5f,0x69,0x6e,0x6e,0x65,0x72,0x77,0x6f,0x72,0x6b,0x73,0x5f,0x61,0x35,0x06,0x3a,0x06,0x45,0x54,0x3a,0x0c,0x40,0x76,0x6f,0x6c,0x75,0x6d,0x65,0x69,0x55,0x3a,0x0b,0x40,0x70,0x69,0x74,0x63,0x68,0x69,0x69))
PictureDisplay(5,"ev_myuska_hb02",0,0,0,0,100,100,0,0)
PictureMove(5,null,0,0,0,0,100,100,255,0,30,true)
ShowMessageFace("",0,0,2,8)
ShowMessage("僕の上にまたがり、一気に腰を落としてきた。")
ShowMessage("肉棒が、あっという間に膣内に咥え込まれてしまう――")
ShowMessageFace("",0,0,2,9)
ShowMessage("\\n<Luka>")
ShowMessage("あぁぁぁっ……！！")
ShowMessageFace("",0,0,2,10)
ShowMessage("肉棒を包む、とろけた柔肉の感触。")
ShowMessage("ぎゅっと締められながら、甘く溶かされていくような感覚。")
ShowMessageFace("",0,0,2,11)
ShowMessage("これは、男を生命を貪るための魔膣だ。")
ShowMessage("強烈な快楽で、人間の魂まで吸い取る魔性の器官――")
ShowMessageFace("",0,0,2,12)
ShowMessage("\\n<Luka>")
ShowMessage("こ、これ……だめぇ……")
ShowMessageFace("",0,0,2,13)
ShowMessage("膣内にペニスを咥え込まれた瞬間、僕はそれを悟っていた。")
ShowMessage("同時に、腰がびくびくと震え――")
RunCommonEvent(104)
PictureDisplay(5,"ev_myuska_hb03",0,0,0,0,100,100,255,0)
RunCommonEvent(105)
ShowMessageFace("",0,0,2,14)
ShowMessage("\\n<Luka>")
ShowMessage("あぅぅぅっ……！")
ShowMessageFace("",0,0,2,15)
ShowMessage("あっという間に、膣内でイってしまった。")
ShowMessage("挿入した直後に、強烈な快感で射精してしまったのだ。")
ShowMessageFace("",0,0,2,16)
ShowMessage("\\n<Luka>")
ShowMessage("うぁぁぁ……")
ShowMessageFace("myuska_fc1",0,0,2,17)
ShowMessage("\\n<Myusca>")
ShowMessage("あ～あ、もうイっちゃったの？")
ShowMessage("まあ、男はだいたいみんな秒殺なんだけどぉ……")
ShowMessageFace("myuska_fc1",0,0,2,18)
ShowMessage("\\n<Myusca>")
ShowMessage("勇者なんだし、もうちょっと遊べるかと思ったのに。")
ShowMessage("これじゃそこらの男と、あんまり変わらないねぇ？")
PictureDisplay(5,"ev_myuska_hb04",0,0,0,0,100,100,255,0)
ShowMessageFace("myuska_fc1",0,0,2,19)
ShowMessage("\\n<Myusca>")
ShowMessage("んー……あんまり時間かけても、つまんないかも。")
ShowMessage("さっさと吸い尽くして、終わらせちゃおうかな……？")
ShowMessageFace("",0,0,2,20)
ShowMessage("\\n<Luka>")
ShowMessage("そ、そんな――")
ShowMessageFace("myuska_fc1",0,0,2,21)
ShowMessage("\\n<Myusca>")
ShowMessage("うん。他にもいっぱい食べたいし。")
ShowMessage("そういうわけでぇ……もう死んじゃおっか♡")
PictureDisplay(5,"ev_myuska_hb05",0,0,0,0,100,100,255,0)
ShowMessageFace("",0,0,2,22)
ShowMessage("次の瞬間、ミュスカの姿が淫魔のものに変化した。")
ShowMessage("同時に、膣内がぎゅぅっと締まる。")
ShowMessageFace("",0,0,2,23)
ShowMessage("\\n<Luka>")
ShowMessage("はぅぅぅぅっ……！！")
ShowMessageFace("myuska_fc1",6,0,2,24)
ShowMessage("\\n<Myusca>")
ShowMessage("それじゃあ、エナジードレイン開始～♡")
ShowMessage("最高に感じながら、精液まき散らして天国にイってね♪")
ShowMessageFace("",0,0,2,25)
ShowMessage("\\n<Luka>")
ShowMessage("やめてぇ……やめてぇ……")
ShowMessageFace("myuska_fc1",6,0,2,26)
ShowMessage("\\n<Myusca>")
ShowMessage("あはっ♡　いい顔してるぅ……♡")
ShowMessageFace("myuska_fc1",6,0,2,27)
ShowMessage("\\n<Myusca>")
ShowMessage("でも泣いたってダメ～♪")
ShowMessage("ほ～ら、吸い殺しちゃうよ～♪")
PictureDisplay(5,"ev_myuska_hb07",0,0,0,0,100,100,255,0)
ShowMessageFace("",0,0,2,28)
ShowMessage("\\n<Luka>")
ShowMessage("あぁぁぁぁぁ～～！！")
ShowMessageFace("",0,0,2,29)
ShowMessage("激しい快感が、電流のように全身を駆け巡った。")
ShowMessage("柔肉がぎゅっと締まり、膣壁が吸い上げるようにうねる。")
ShowMessageFace("",0,0,2,30)
ShowMessage("同時に、とろけるような快感を与えてくる魔力の渦。")
ShowMessage("僕は、腰をぶるぶると震わせ――")
ShowMessageFace("",0,0,2,31)
ShowMessage("\\n<Luka>")
ShowMessage("あぅぅぅっ……！")
RunCommonEvent(104)
PictureDisplay(5,"ev_myuska_hb08",0,0,0,0,100,100,255,0)
RunCommonEvent(105)
ShowMessageFace("",0,0,2,32)
ShowMessage("あっという間に、ミュスカの魔膣に大量の精液を捧げてしまった。")
ShowMessage("同時に、精気が驚くほどの早さで吸い上げられていく。")
ShowMessageFace("",0,0,2,33)
ShowMessage("体からは力が抜け、甘い恍惚感が広がっていった。")
ShowMessage("死に至る快楽が、全身をとろけさせてくる――")
ShowMessageFace("",0,0,2,34)
ShowMessage("\\n<Luka>")
ShowMessage("あ……あ、うぅぅっ……")
ShowMessageFace("myuska_fc1",6,0,2,35)
ShowMessage("\\n<Myusca>")
ShowMessage("ん～っ……♡　わぁ……♡")
ShowMessage("キミ、とっても早いけど、精気の味は最高だねぇ♪")
ShowMessageFace("myuska_fc1",6,0,2,36)
ShowMessage("\\n<Myusca>")
ShowMessage("もっともっと……死ぬまで出して♡")
ShowMessageFace("",0,0,2,37)
ShowMessage("\\n<Luka>")
ShowMessage("ひぁぁぁぁぁ～～！！")
PictureDisplay(5,"ev_myuska_hb09",0,0,0,0,100,100,255,0)
ShowMessageFace("",0,0,2,38)
ShowMessage("さらに激しく、ミュスカは僕の精気を吸い上げてきた。")
ShowMessage("快楽と引き替えに、生命が食事として貪られているのだ。")
ShowMessageFace("",0,0,2,39)
ShowMessage("その代償に与えられる、極上の快感。")
ShowMessage("僕は全身をびくびく痙攣させながら、狂おしい快楽に身悶える。")
ShowMessageFace("",0,0,2,40)
ShowMessage("\\n<Luka>")
ShowMessage("あぅ……あぁぁぁぁ～～！！")
RunCommonEvent(104)
RunCommonEvent(105)
ShowMessageFace("myuska_fc1",6,0,2,41)
ShowMessage("\\n<Myusca>")
ShowMessage("あははっ、おいし～い♪")
ShowMessage("キミ、最高に美味しいごはんだね♪")
ShowMessageFace("myuska_fc1",6,0,2,42)
ShowMessage("\\n<Myusca>")
ShowMessage("折角だし、もっと味付けしたいけどぉ……♡")
ShowMessage("ちょっと美味しすぎて……もう止められないや……♡")
PictureDisplay(5,"ev_myuska_hb10",0,0,0,0,100,100,255,0)
ShowMessageFace("",0,0,2,43)
ShowMessage("\\n<Luka>")
ShowMessage("ひぁぁぁぁ～～！！")
ShowMessageFace("",0,0,2,44)
ShowMessage("さらにミュスカは、腰を激しく上下させてきた。")
ShowMessage("捕らえた獲物を嫐り、弱らせながら捕食するかのよう。")
ShowMessageFace("",0,0,2,45)
ShowMessage("そう、僕は絶対者に捕食されている獲物なのだ。")
ShowMessage("思うがままに貪られ、搾り尽くされようとしている――")
ShowMessageFace("myuska_fc1",6,0,2,46)
ShowMessage("\\n<Myusca>")
ShowMessage("そろそろおしまいかなぁ……？")
ShowMessageFace("myuska_fc1",6,0,2,47)
ShowMessage("\\n<Myusca>")
ShowMessage("今まで、沢山頑張ってきたのに、")
ShowMessage("あたしに食べられて終わりなんて、かわいそう～♡")
ShowMessageFace("myuska_fc1",6,0,2,48)
ShowMessage("\\n<Myusca>")
ShowMessage("だけど……キミ達は、あたし達のごはんなんだから……")
ShowMessage("最後には食べられちゃうのが運命なんだよねぇ……♡")
ShowMessageFace("",0,0,2,49)
ShowMessage("\\n<Luka>")
ShowMessage("あひ……ひぁぁぁぁ……！！")
RunCommonEvent(104)
RunCommonEvent(105)
ShowMessageFace("",0,0,2,50)
ShowMessage("大量の精液が迸り、生命が搾取されていく。")
ShowMessage("甘く狂おしい快楽の中で、意識が失われていき――")
ShowMessageFace("myuska_fc1",6,0,2,51)
ShowMessage("\\n<Myusca>")
ShowMessage("ばいばーい……♡")
ShowMessageFace("",0,0,2,52)
ShowMessage("\\n<Luka>")
ShowMessage("ぅ……ぁぁ……")
RunCommonEvent(104)
RunCommonEvent(105)
246(2)
PictureDisplay(5,"ev_myuska_hb11",0,0,0,0,100,100,255,0)
ShowMessageFace("",0,0,2,53)
ShowMessage("\\n<Luka>")
ShowMessage("……………………")
ShowMessageFace("myuska_fc1",6,0,2,54)
ShowMessage("\\n<Myusca>")
ShowMessage("あはっ……ごちそうさまぁ……♡")
ShowMessageFace("",0,0,2,55)
ShowMessage("こうして僕は、ミュスカに捕食され――")
ShowMessage("そして、あっという間に力尽きてしまったのである。")
221()
PictureClear(5)
PictureClear(6)
246(2)
ShowMessageFace("",0,0,2,56)
ShowMessage("・・・・・・・・")
RunCommonEvent(3999)
0()
