// EVENT 0332
Name "Leviathan Companion"

If(0,1536,1)
 ShowMessageFace("levia_fc1",1,0,2,1)
 ShowMessage("\\n<Leviathan>A voyage in search of adventure, I remember these old days.")
 ShowMessage("Once, I also sailed across the seas...")
 ShowMessageFace("levia_fc1",0,0,2,2)
 ShowMessage("\\n<Leviathan>...Those were the times, but now they are nothing but memories. I'm in charge of the Navy now. It's my responsibility to maintain peace across the seas.")
 ShowMessageFace("levia_fc1",0,0,2,3)
 ShowMessage("\\n<Leviathan>I'm sorry, but I can't accompany you.")
 ShowMessage("It isn't possible to ignore my duties as the Navy Admiral.")
 PictureClear(5)
 EndEventProcessing()
 0()
Else()
 ShowMessageFace("levia_fc1",0,0,2,4)
 ShowMessage("\\n<Leviathan>I'm sorry, but I've said already that I can't join you.")
 ShowMessage("I can't just ignore my duties as the Navy Admiral...")
 PictureDisplay(6,"80_serene_st11",0,0,-150,0,100,100,255,0)
 PictureDisplay(5,"80_levia_st03",0,0,150,0,100,100,255,0)
 ShowMessageFace("serene_fc1",3,0,2,5)
 ShowMessage("\\n<Selene>Oh my, Levia has become quite important.")
 ShowMessageFace("levia_fc1",2,0,2,6)
 ShowMessage("\\n<Leviathan>No way, it can't be...")
 ShowMessage("C-Captain Selene!?")
 PictureDisplay(5,"80_levia_st02",0,0,150,0,100,100,255,0)
 ShowMessageFace("levia_fc1",1,0,2,7)
 ShowMessage("\\n<Leviathan>Y-You're alive...")
 ShowMessage("I joined the Navy just so I could find you! I thought that by climbing up its ranks you would notice and come looking for me...")
 ShowMessageFace("serene_fc1",3,0,2,8)
 ShowMessage("\\n<Selene>I'm sorry for all the troubles I caused you, but it wasn't safe for me to show up.")
 ShowMessage("I am now nothing but a ghost of who I once was.")
 ShowMessageFace("levia_fc1",1,0,2,9)
 ShowMessage("\\n<Leviathan>Still, it's good to see you after all these years...")
 ShowMessage("I was starting to question if I would ever get to see my captain again...")
 If(0,6,0)
  ShowMessageFace("sonia_fc1",4,0,2,10)
  ShowMessage("\\n<Sonya>They seem to have known each other for a long time.")
  0()
 Else()
  ShowMessageFace("ruka_fc1",0,0,2,11)
  ShowMessage("\\n<Luka>They know each other...?")
  0()
 EndIf()
 ShowMessageFace("serene_fc1",3,0,2,12)
 ShowMessage("\\n<Selene>Well... The truth is that Levia was a member of the Selene Pirates.")
 ShowMessage("As you can see, she still has the tattoo of our crew on her hand.")
 If(4,203,0)
  ShowMessageFace("tatunoko_k_fc1",1,0,2,13)
  ShowMessage("\\n<Tatsuko>Was the admiral also a sea horse in the past!?")
  ShowMessageFace("levia_fc1",2,0,2,14)
  ShowMessage("\\n<Levia>It was a long time ago...")
  0()
 EndIf()
 ShowMessageFace("serene_fc1",3,0,2,15)
 ShowMessage("\\n<Selene>This girl, who was brought to my ship during a storm, was our protégée.")
 ShowMessage("She was our mascot and the entire crew loved her...")
 PictureDisplay(5,"80_levia_st03",0,0,150,0,100,100,255,0)
 ShowMessageFace("levia_fc1",2,0,2,16)
 ShowMessage("\\n<Levia>Hey, that was during my childhood...!")
 ShowMessage("Please, do not bring those times up...")
 ShowMessageFace("serene_fc1",3,0,2,17)
 ShowMessage("\\n<Selene>And that, old friend, is why you will join us, won't you?")
 ShowMessageFace("levia_fc1",2,0,2,18)
 ShowMessage("\\n<Levia>I already told you, I'm the Navy Admiral. I have important duties now!")
 PictureDisplay(6,"80_serene_st12",0,0,-150,0,100,100,255,0)
 ShowMessageFace("serene_fc1",4,0,2,19)
 ShowMessage("\\n<Selene>Oh, of course, just like that time we came across a great storm at the whale sea.")
 ShowMessage("During that night, Levia was...")
 ShowMessageFace("levia_fc1",2,0,2,20)
 ShowMessage("\\n<Levia>Ah! All right, I'll go!\nI'll join you!")
 PictureClear(5)
 PictureClear(6)
 205(0,bytes(0x04,0x08,0x6f,0x3a,0x13,0x52,0x50,0x47,0x3a,0x3a,0x4d,0x6f,0x76,0x65,0x52,0x6f,0x75,0x74,0x65,0x09,0x3a,0x0c,0x40,0x72,0x65,0x70,0x65,0x61,0x74,0x46,0x3a,0x0f,0x40,0x73,0x6b,0x69,0x70,0x70,0x61,0x62,0x6c,0x65,0x46,0x3a,0x0a,0x40,0x77,0x61,0x69,0x74,0x54,0x3a,0x0a,0x40,0x6c,0x69,0x73,0x74,0x5b,0x09,0x6f,0x3a,0x15,0x52,0x50,0x47,0x3a,0x3a,0x4d,0x6f,0x76,0x65,0x43,0x6f,0x6d,0x6d,0x61,0x6e,0x64,0x07,0x3a,0x0a,0x40,0x63,0x6f,0x64,0x65,0x69,0x2a,0x3a,0x10,0x40,0x70,0x61,0x72,0x61,0x6d,0x65,0x74,0x65,0x72,0x73,0x5b,0x00,0x6f,0x3b,0x0a,0x07,0x3b,0x0b,0x69,0x0f,0x3b,0x0c,0x5b,0x00,0x6f,0x3b,0x0a,0x07,0x3b,0x0b,0x69,0x2c,0x3b,0x0c,0x5b,0x00,0x6f,0x3b,0x0a,0x07,0x3b,0x0b,0x69,0x00,0x3b,0x0c,0x5b,0x00))
 505(bytes(0x04,0x08,0x6f,0x3a,0x15,0x52,0x50,0x47,0x3a,0x3a,0x4d,0x6f,0x76,0x65,0x43,0x6f,0x6d,0x6d,0x61,0x6e,0x64,0x07,0x3a,0x0a,0x40,0x63,0x6f,0x64,0x65,0x69,0x2a,0x3a,0x10,0x40,0x70,0x61,0x72,0x61,0x6d,0x65,0x74,0x65,0x72,0x73,0x5b,0x00))
 505(bytes(0x04,0x08,0x6f,0x3a,0x15,0x52,0x50,0x47,0x3a,0x3a,0x4d,0x6f,0x76,0x65,0x43,0x6f,0x6d,0x6d,0x61,0x6e,0x64,0x07,0x3a,0x0a,0x40,0x63,0x6f,0x64,0x65,0x69,0x0f,0x3a,0x10,0x40,0x70,0x61,0x72,0x61,0x6d,0x65,0x74,0x65,0x72,0x73,0x5b,0x00))
 505(bytes(0x04,0x08,0x6f,0x3a,0x15,0x52,0x50,0x47,0x3a,0x3a,0x4d,0x6f,0x76,0x65,0x43,0x6f,0x6d,0x6d,0x61,0x6e,0x64,0x07,0x3a,0x0a,0x40,0x63,0x6f,0x64,0x65,0x69,0x2c,0x3a,0x10,0x40,0x70,0x61,0x72,0x61,0x6d,0x65,0x74,0x65,0x72,0x73,0x5b,0x00))
 355("add_actor_ex(205)")
 249(bytes(0x04,0x08,0x6f,0x3a,0x0c,0x52,0x50,0x47,0x3a,0x3a,0x4d,0x45,0x08,0x3a,0x0a,0x40,0x6e,0x61,0x6d,0x65,0x49,0x22,0x0c,0x66,0x61,0x6e,0x66,0x61,0x6c,0x65,0x06,0x3a,0x06,0x45,0x54,0x3a,0x0b,0x40,0x70,0x69,0x74,0x63,0x68,0x69,0x69,0x3a,0x0c,0x40,0x76,0x6f,0x6c,0x75,0x6d,0x65,0x69,0x69))
 ShowMessageFace("",0,0,2,21)
 ShowMessage("Levia was persuaded to join the party!")
 Wait(60)
 ChangeSwitch(2186,2186,0)
 If(0,6,0)
  ShowMessageFace("sonia_fc1",2,0,2,22)
  ShowMessage("\\n<Sonya>It's a pleasure to meet you, Levia.")
  ShowMessageFace("levia_fc1",2,0,2,23)
  ShowMessage("\\n<Levia>Ah...")
  ShowMessageFace("ruka_fc1",0,0,2,24)
  ShowMessage("\\n<Luka>.....................")
  EndEventProcessing()
  0()
 EndIf()
 0()
EndIf()
0()
