﻿// EVENT 4801
Name "Ittan-Momen"

PictureDisplay(5,"80_ittanmomen_st02",0,0,0,0,100,100,0,0)
PictureDisplay(6,"80_ittanmomen_st12",0,0,0,0,100,100,0,0)
PictureDisplay(7,"80_ittanmomen_st22",0,0,0,0,100,100,0,0)
PictureMove(5,null,0,0,0,0,100,100,255,0,30,false)
PictureMove(6,null,0,0,0,0,100,100,255,0,30,false)
PictureMove(7,null,0,0,0,0,100,100,255,0,30,true)
ShowMessageFace("ittanmomen_fc1",1,0,2,1)
ShowMessage("\\n<Ittan-Momen A>Do you want us to play with you...?")
ShowMessageFace("",0,0,2,2)
ShowMessage("\\n<Luka>P-please...")
ShowMessageFace("ittanmomen_fc3",1,0,2,3)
ShowMessage("\\n<Ittan-Momen C>Here we goooo! ♪")
241(bytes(0x04,0x08,0x6f,0x3a,0x0d,0x52,0x50,0x47,0x3a,0x3a,0x42,0x47,0x4d,0x08,0x3a,0x0a,0x40,0x6e,0x61,0x6d,0x65,0x49,0x22,0x09,0x65,0x72,0x6f,0x31,0x06,0x3a,0x06,0x45,0x54,0x3a,0x0c,0x40,0x76,0x6f,0x6c,0x75,0x6d,0x65,0x69,0x69,0x3a,0x0b,0x40,0x70,0x69,0x74,0x63,0x68,0x69,0x69))
245(bytes(0x04,0x08,0x6f,0x3a,0x0d,0x52,0x50,0x47,0x3a,0x3a,0x42,0x47,0x53,0x08,0x3a,0x0a,0x40,0x6e,0x61,0x6d,0x65,0x49,0x22,0x17,0x6d,0x6f,0x6e,0x5f,0x68,0x73,0x65,0x61,0x6e,0x31,0x37,0x5f,0x73,0x69,0x67,0x6f,0x6b,0x69,0x06,0x3a,0x06,0x45,0x54,0x3a,0x0c,0x40,0x76,0x6f,0x6c,0x75,0x6d,0x65,0x69,0x55,0x3a,0x0b,0x40,0x70,0x69,0x74,0x63,0x68,0x69,0x69))
PictureClear(6)
PictureClear(7)
PictureDisplay(5,"ev_ittanmomen_h1",0,0,0,0,100,100,0,0)
PictureMove(5,null,0,0,0,0,100,100,255,0,30,true)
ShowMessageFace("",0,0,2,4)
ShowMessage("The Ittan-Momen restrain my body, suspending me in the air... After that, their clothes wrap all around me.")
ShowMessageFace("",0,0,2,5)
ShowMessage("A fluffy sensation covers my entire body.\nThe soft material holds me down tightly...")
ShowMessageFace("",0,0,2,6)
ShowMessage("\\n<Luka>Ugh... Augh...!")
ShowMessageFace("",0,0,2,7)
ShowMessage("In an instant, my whole body is entwined by their clothes. Being wrapped in this smooth sensation feels very pleasant.")
ShowMessageFace("ittanmomen_fc1",1,0,2,8)
ShowMessage("\\n<Ittan-Momen A>It feels good, doesn't it?")
ShowMessageFace("ittanmomen_fc2",1,0,2,9)
ShowMessage("\\n<Ittan-Momen B>Your penis is getting bigger...\nOur clothes got you excited, pervert...")
ShowMessageFace("ittanmomen_fc3",1,0,2,10)
ShowMessage("\\n<Ittan-Momen C>Then, his penis... *Schhhhhlurrp* ♪")
PictureDisplay(5,"ev_ittanmomen_h2",0,0,0,0,100,100,255,0)
ShowMessageFace("",0,0,2,11)
ShowMessage("\\n<Luka>Aaau...!!")
ShowMessageFace("",0,0,2,12)
ShowMessage("Another piece of cloth entangles my penis.\nIt winds around, neatly covering it and squeezing it.")
ShowMessageFace("ittanmomen_fc1",1,0,2,13)
ShowMessage("\\n<Ittan-Momen A>Ehehe... Does your penis feel good wound up like this?")
ShowMessageFace("ittanmomen_fc2",1,0,2,14)
ShowMessage("\\n<Ittan-Momen B>Ufufu, does it feel good...?")
ShowMessageFace("ittanmomen_fc3",1,0,2,15)
ShowMessage("\\n<Ittan-Momen C>Just like this, we'll drain you dry...♪")
ShowMessageFace("",0,0,2,16)
ShowMessage("\\n<Luka>D-don't... Aaaaah...!")
ShowMessageFace("",0,0,2,17)
ShowMessage("The cloth wound around my penis starts moving.\nIt feels as if it's tickling my entire dick...")
ShowMessageFace("",0,0,2,18)
ShowMessage("The cloth rises and lowers itself as if it were a hand stroking me up and down... It skillfully stimulates me as if it has a will of its own.")
ShowMessageFace("",0,0,2,19)
ShowMessage("\\n<Luka>Wauu... Ah, aaau...!")
ShowMessageFace("ittanmomen_fc1",1,0,2,20)
ShowMessage("\\n<Ittan-Momen A>Ahaha, he's feeling it! ♪")
ShowMessageFace("ittanmomen_fc2",1,0,2,21)
ShowMessage("\\n<Ittan-Momen B>We're going to play with your penis just like this until you come...\n...Wouldn't that be so embarrassing?")
ShowMessageFace("ittanmomen_fc3",1,0,2,22)
ShowMessage("\\n<Ittan-Momen C>Hora hora, shoot out a lot of your semen! ♪")
ShowMessageFace("",0,0,2,23)
ShowMessage("\\n<Luka>Hyaaaaaa...!!")
ShowMessageFace("",0,0,2,24)
ShowMessage("The cloth starts to tighten and loosen around my penis...\nMy entire dick gets crushed by the softness...")
ShowMessageFace("",0,0,2,25)
ShowMessage("The Ittan-Momen skillfully attack me with this stimulation. Pleasure courses through my penis and I can feel the sense of release welling up inside me...")
ShowMessageFace("",0,0,2,26)
ShowMessage("\\n<Luka>No... I'm going to come already...")
ShowMessageFace("ittanmomen_fc1",1,0,2,27)
ShowMessage("\\n<Ittan-Momen A>Haha, he's already going to leak! ♪")
ShowMessageFace("ittanmomen_fc2",1,0,2,28)
ShowMessage("\\n<Ittan-Momen B>*Giggle*... What a pathetic man...")
ShowMessageFace("ittanmomen_fc3",1,0,2,29)
ShowMessage("\\n<Ittan-Momen C>Where is he going to leak from, I wanna watch it happen...♪")
ShowMessageFace("",0,0,2,30)
ShowMessage("\\n<Luka>Ah... Aaaaah...!!")
ShowMessageFace("",0,0,2,31)
ShowMessage("All three girls' clothes attack my penis at once...\nI finally surrender to their intense massage.")
RunCommonEvent(104)
PictureDisplay(5,"ev_ittanmomen_h3",0,0,0,0,100,100,255,0)
RunCommonEvent(105)
ShowMessageFace("",0,0,2,32)
ShowMessage("\\n<Luka>Fuaaaa...")
ShowMessageFace("",0,0,2,33)
ShowMessage("My penis wrapped in their soft clothes starts shooting out semen. With every pulse, melting pleasure courses through me.")
ShowMessageFace("ittanmomen_fc1",1,0,2,34)
ShowMessage("\\n<Ittan-Momen A>Ahaha, he came! ♪")
ShowMessageFace("ittanmomen_fc2",1,0,2,35)
ShowMessage("\\n<Ittan-Momen B>He couldn't endure having his penis played with and he leaked his semen... Ufufu, how embarrassing...")
ShowMessageFace("ittanmomen_fc3",1,0,2,36)
ShowMessage("\\n<Ittan-Momen C>It looks like he's feeling very good. ♪\nDid it feel good to have your penis attacked like that?")
ShowMessageFace("",0,0,2,37)
ShowMessage("\\n<Luka>Amazing... It felt so good...")
ShowMessageFace("",0,0,2,38)
ShowMessage("The sweet sensation of shooting my semen while being wrapped in the fluffy material... It felt like I was in heaven.")
ShowMessageFace("",0,0,2,39)
ShowMessage("Even after my ejaculation is over, the cloth doesn't stop moving. It skillfully tickles and strokes my penis...")
ShowMessageFace("ittanmomen_fc1",1,0,2,40)
ShowMessage("\\n<Ittan-Momen A>That was just the first shot...\nBut, we're going to wring out more and more. ♪")
ShowMessageFace("ittanmomen_fc2",1,0,2,41)
ShowMessage("\\n<Ittan-Momen B>We'll wring your penis a second time.\nWe'll drain out a lot of sperm from you...")
ShowMessageFace("ittanmomen_fc3",1,0,2,42)
ShowMessage("\\n<Ittan-Momen C>Whenever I do this, all men start screaming...\nThey cry out as their semen leaks out. ♪")
PictureDisplay(5,"ev_ittanmomen_h4",0,0,0,0,100,100,255,0)
ShowMessageFace("",0,0,2,43)
ShowMessage("My penis is tightly squeezed.\nAnd just like that, the pressure gets tighter and tighter.")
ShowMessageFace("",0,0,2,44)
ShowMessage("The pressure attacks me from all sides.\nIt's not painful but the stimulation is too much for my penis, sensitive after ejaculating...")
ShowMessageFace("",0,0,2,45)
ShowMessage("\\n<Luka>Hyaaaa...! T-tight...!")
ShowMessageFace("",0,0,2,46)
ShowMessage("The slow but intense tightening makes me scream.\nI try to move my limbs, but I'm too tightly bound.")
ShowMessageFace("ittanmomen_fc1",1,0,2,47)
ShowMessage("\\n<Ittan-Momen A>Ahaha, what a pathetic-sounding voice! ♪")
ShowMessageFace("ittanmomen_fc2",1,0,2,48)
ShowMessage("\\n<Ittan-Momen B>But it feels good, doesn't it...?\nHaving your penis bullied like this...")
ShowMessageFace("ittanmomen_fc3",1,0,2,49)
ShowMessage("\\n<Ittan-Momen C>Your penis is throbbing. ♪\nBut I won't set it free! ♪")
ShowMessageFace("",0,0,2,50)
ShowMessage("\\n<Luka>Hyaa... Aaaaaah!!")
ShowMessageFace("",0,0,2,51)
ShowMessage("As my penis is squeezed, my hips push forward.\nIn the next moment, the feeling of release rises from the back of my waist...")
RunCommonEvent(104)
PictureDisplay(5,"ev_ittanmomen_h5",0,0,0,0,100,100,255,0)
RunCommonEvent(105)
ShowMessageFace("",0,0,2,52)
ShowMessage("And I come to a pathetic finish.\nFor a second time in a row, I come inside the tight cloth.")
ShowMessageFace("",0,0,2,53)
ShowMessage("\\n<Luka>Aaaaah...")
ShowMessageFace("ittanmomen_fc1",1,0,2,54)
ShowMessage("\\n<Ittan-Momen A>What, came already...?\nEm-ba-rra-ssing! ♪")
ShowMessageFace("ittanmomen_fc2",1,0,2,55)
ShowMessage("\\n<Ittan-Momen B>I think we should play with him even more...\nAren't you ashamed to come so quickly?")
ShowMessageFace("ittanmomen_fc3",1,0,2,56)
ShowMessage("\\n<Ittan-Momen C>Well then, your punishment has been decided...\nHooraa! ♪")
PictureDisplay(5,"ev_ittanmomen_h6",0,0,0,0,100,100,255,0)
ShowMessageFace("",0,0,2,57)
ShowMessage("The Ittan-Momen's clothes wrap up my body entirely.\nBefore I knew it, my whole body is covered up by the soft cloth.")
ShowMessageFace("",0,0,2,58)
ShowMessage("\\n<Luka>Nn... Mgfh...")
ShowMessageFace("",0,0,2,59)
ShowMessage("There's no danger of suffocating, I can breathe through the material. Still, the cloth is tightly wrapped around me.")
ShowMessageFace("",0,0,2,60)
ShowMessage("I feel pathetic...\nMy whole body is invaded only by pleasure, I feel no pain at all.")
ShowMessageFace("",0,0,2,61)
ShowMessage("My still-erect penis continues to be wrapped up in the cloth. It's squeezed and the tightness makes me jerk in pleasure...")
ShowMessageFace("ittanmomen_fc1",1,0,2,62)
ShowMessage("\\n<Ittan-Momen A>Ahaha♪ He's happy even if he's bound like this. ♪")
ShowMessageFace("ittanmomen_fc2",1,0,2,63)
ShowMessage("\\n<Ittan-Momen B>Doesn't it feel miserable to be trapped by a youkai...? Nevertheless, it should feel embarrassing for a human to go crazy like this...")
ShowMessageFace("ittanmomen_fc3",1,0,2,64)
ShowMessage("\\n<Ittan-Momen C>What a pathetic man...\nWe're gonna drain you dry next. ♪")
ShowMessageFace("",0,0,2,65)
ShowMessage("\\n<Luka>Ah... Aaaaaah!!")
ShowMessageFace("",0,0,2,66)
ShowMessage("My whole body is squeezed hard...\nShortly after, it loosens, carefully playing with me...")
ShowMessageFace("",0,0,2,67)
ShowMessage("In the same way my penis is played with...\nThe squeezing stimulation forces me over the edge...")
RunCommonEvent(104)
PictureDisplay(5,"ev_ittanmomen_h7",0,0,0,0,100,100,255,0)
RunCommonEvent(105)
ShowMessageFace("",0,0,2,68)
ShowMessage("\\n<Luka>Hyaaaa...")
ShowMessageFace("",0,0,2,69)
ShowMessage("And just like that, I start shooting out semen.\nThe soft cloth wrapped around my penis is all dirty with my cloudiness.")
ShowMessageFace("ittanmomen_fc1",1,0,2,70)
ShowMessage("\\n<Ittan-Momen A>You squirted out so much...")
ShowMessageFace("ittanmomen_fc2",1,0,2,71)
ShowMessage("\\n<Ittan-Momen B>Looks like he needs a diaper.\nHe got our clothes all dirty...")
ShowMessageFace("ittanmomen_fc3",1,0,2,72)
ShowMessage("\\n<Ittan-Momen C>Did it feel good to pew-pew your white stuff...?\nBut, there's much more to be squeezed. ♪")
ShowMessageFace("",0,0,2,73)
ShowMessage("\\n<Luka>Stop it already... Hyaaaaa!!")
RunCommonEvent(104)
RunCommonEvent(105)
ShowMessageFace("",0,0,2,74)
ShowMessage("My moans of pleasure and pleading mix.\nMore of my semen is wrung from me as I taste extreme humiliation...")
ShowMessageFace("",0,0,2,75)
ShowMessage("No matter how agonizing it is, they don't stop wringing me... I feel as I'm about to lose consciousness...")
RunCommonEvent(104)
RunCommonEvent(105)
ShowMessageFace("",0,0,2,76)
ShowMessage("With my whole body wrapped in their clothes, I lose consciousness. Restrained by the Ittan-Momen, I'm completely wrung...")
221()
PictureClear(5)
PictureClear(6)
246(2)
ShowMessageFace("",0,0,2,77)
ShowMessage("......")
RunCommonEvent(3998)
0()
