// EVENT 4301
Name "Two-tailed Silver Kitsune"

If(0,25,1)
 221()
 PictureClear(5)
 PictureClear(6)
 ShowMessageFace("",0,0,2,0)
 ShowMessage("......")
 242(2)
 Wait(120)
 241(bytes(0x04,0x08,0x6f,0x3a,0x0d,0x52,0x50,0x47,0x3a,0x3a,0x42,0x47,0x4d,0x08,0x3a,0x0a,0x40,0x6e,0x61,0x6d,0x65,0x49,0x22,0x0c,0x63,0x61,0x73,0x74,0x6c,0x65,0x36,0x06,0x3a,0x06,0x45,0x54,0x3a,0x0c,0x40,0x76,0x6f,0x6c,0x75,0x6d,0x65,0x69,0x69,0x3a,0x0b,0x40,0x70,0x69,0x74,0x63,0x68,0x69,0x69))
 EndEventProcessing()
 0()
EndIf()
PictureDisplay(5,"80_youko_st02",0,0,0,0,100,100,255,0)
ShowMessageFace("youko_fc1",1,0,2,1)
ShowMessage("\\n<Kitsu>Mufufu, you want to do lewd things with me~?")
ShowMessageFace("",0,0,2,2)
ShowMessage("\\n<Luka>Y...Yes... Please...")
ShowMessageFace("youko_fc1",1,0,2,3)
ShowMessage("\\n<Kitsu>Well then, I'd be glad to be your partner. ♪")
ShowMessageFace("",0,0,2,4)
ShowMessage("I follow Kitsu to her room...")
221()
PictureDisplay(1,"bg195",0,0,0,0,100,100,255,0)
PictureDisplay(5,"80_youko_st02",0,0,0,0,100,100,255,0)
222()
241(bytes(0x04,0x08,0x6f,0x3a,0x0d,0x52,0x50,0x47,0x3a,0x3a,0x42,0x47,0x4d,0x08,0x3a,0x0a,0x40,0x6e,0x61,0x6d,0x65,0x49,0x22,0x09,0x65,0x72,0x6f,0x31,0x06,0x3a,0x06,0x45,0x54,0x3a,0x0c,0x40,0x76,0x6f,0x6c,0x75,0x6d,0x65,0x69,0x69,0x3a,0x0b,0x40,0x70,0x69,0x74,0x63,0x68,0x69,0x69))
ShowMessageFace("youko_fc1",1,0,2,5)
ShowMessage("\\n<Kitsu>All right, let's do it!~♪")
ShowMessageFace("",0,0,2,6)
ShowMessage("As soon as I enter the room, Kitsu pushes me down.")
ShowMessage("Before I can react, she jumps on top of me!")
ShowMessageFace("youko_fc1",1,0,2,7)
ShowMessage("\\n<Kitsu>Ehehe... I'll put you in...")
ShowMessageFace("",0,0,2,8)
ShowMessage("\\n<Luka>Ahhhhh!")
245(bytes(0x04,0x08,0x6f,0x3a,0x0d,0x52,0x50,0x47,0x3a,0x3a,0x42,0x47,0x53,0x08,0x3a,0x0a,0x40,0x6e,0x61,0x6d,0x65,0x49,0x22,0x1e,0x6d,0x6f,0x6e,0x5f,0x68,0x73,0x65,0x61,0x6e,0x30,0x31,0x5f,0x69,0x6e,0x6e,0x65,0x72,0x77,0x6f,0x72,0x6b,0x73,0x5f,0x61,0x31,0x06,0x3a,0x06,0x45,0x54,0x3a,0x0c,0x40,0x76,0x6f,0x6c,0x75,0x6d,0x65,0x69,0x55,0x3a,0x0b,0x40,0x70,0x69,0x74,0x63,0x68,0x69,0x69))
PictureDisplay(5,"ev_youko_h1",0,0,0,0,100,100,255,0)
ShowMessageFace("",0,0,2,9)
ShowMessage("My dick is forced into her tiny honey pot.")
ShowMessageFace("",0,0,2,10)
ShowMessage("Hot and narrow, she pushes me into her all the way.")
ShowMessageFace("",0,0,2,11)
ShowMessage("The sudden burst of pleasure causes me to push my waist up into her.")
ShowMessageFace("youko_fc1",1,0,2,12)
ShowMessage("\\n<Kitsu>Do I feel good?\nI'll let you put out a lot in me!")
ShowMessageFace("",0,0,2,13)
ShowMessage("\\n<Luka>Aaaaa....")
ShowMessageFace("",0,0,2,14)
ShowMessage("Her small hole completely swallows me up.")
ShowMessageFace("",0,0,2,15)
ShowMessage("Not even moving, the pressure from her tightness is already exploding ecstasy through me.")
ShowMessageFace("",0,0,2,16)
ShowMessage("Moreover, her walls were slightly rough, and her coarse membrane rubs against me.")
ShowMessageFace("",0,0,2,17)
ShowMessage("\\n<Luka>Faaa...")
ShowMessageFace("youko_fc1",1,0,2,18)
ShowMessage("\\n<Kitsu>Aha, you're feeling good, you're feeling good!\nDoes mating with me feel that good, really?")
245(bytes(0x04,0x08,0x6f,0x3a,0x0d,0x52,0x50,0x47,0x3a,0x3a,0x42,0x47,0x53,0x08,0x3a,0x0a,0x40,0x6e,0x61,0x6d,0x65,0x49,0x22,0x1e,0x6d,0x6f,0x6e,0x5f,0x68,0x73,0x65,0x61,0x6e,0x30,0x34,0x5f,0x69,0x6e,0x6e,0x65,0x72,0x77,0x6f,0x72,0x6b,0x73,0x5f,0x61,0x34,0x06,0x3a,0x06,0x45,0x54,0x3a,0x0c,0x40,0x76,0x6f,0x6c,0x75,0x6d,0x65,0x69,0x55,0x3a,0x0b,0x40,0x70,0x69,0x74,0x63,0x68,0x69,0x69))
ShowMessageFace("",0,0,2,19)
ShowMessage("Looking pleased with herself, the Kitsune shakes her waist.")
ShowMessageFace("",0,0,2,20)
ShowMessage("Her rough walls start to violently rub against me, shooting pleasure through my waist.")
ShowMessageFace("",0,0,2,21)
ShowMessage("\\n<Luka>Aaah... I'm going to come...")
ShowMessageFace("",0,0,2,22)
ShowMessage("Stuck in her tiny rough pussy, I feel myself moving closer to the edge.")
ShowMessageFace("",0,0,2,23)
ShowMessage("Not even in her for a minute, I feel miserable at already wanting to come.")
ShowMessageFace("youko_fc1",1,0,2,24)
ShowMessage("\\n<Kitsu>Haha, just a little more and you'll shoot out your white stuff.\nOk! Now come!")
ShowMessageFace("",0,0,2,25)
ShowMessage("As the Kitsune laughs, she starts to violently grind her waist into me.")
ShowMessageFace("",0,0,2,26)
ShowMessage("Such a tiny girl is forcing me to come...")
ShowMessageFace("",0,0,2,27)
ShowMessage("\\n<Luka>Aaaaa!")
RunCommonEvent(104)
PictureDisplay(5,"ev_youko_h2",0,0,0,0,100,100,255,0)
RunCommonEvent(105)
ShowMessageFace("",0,0,2,28)
ShowMessage("Unable to last even a minute, I feel humiliated as I explode in her vagina.")
ShowMessageFace("youko_fc1",1,0,2,29)
ShowMessage("\\n<Kitsu>Ahaha, you already let it out.\nComing so easily, what a pathetic hero!")
ShowMessageFace("youko_fc1",1,0,2,30)
ShowMessage("\\n<Kitsu>Here! I'll bully you even more!")
245(bytes(0x04,0x08,0x6f,0x3a,0x0d,0x52,0x50,0x47,0x3a,0x3a,0x42,0x47,0x53,0x08,0x3a,0x0a,0x40,0x6e,0x61,0x6d,0x65,0x49,0x22,0x1e,0x6d,0x6f,0x6e,0x5f,0x68,0x73,0x65,0x61,0x6e,0x30,0x38,0x5f,0x69,0x6e,0x6e,0x65,0x72,0x77,0x6f,0x72,0x6b,0x73,0x5f,0x61,0x38,0x06,0x3a,0x06,0x45,0x54,0x3a,0x0c,0x40,0x76,0x6f,0x6c,0x75,0x6d,0x65,0x69,0x55,0x3a,0x0b,0x40,0x70,0x69,0x74,0x63,0x68,0x69,0x69))
ShowMessageFace("",0,0,2,31)
ShowMessage("Laughing at me, the Kitsune starts grinding her waist against me again.")
ShowMessage("Even though I just came, she's already trying to force me to another...")
ShowMessageFace("",0,0,2,32)
ShowMessage("Stuck in her tiny, rough pussy...")
ShowMessage("This little girl is furiously violating me...")
ShowMessageFace("",0,0,2,33)
ShowMessage("\\n<Luka>Stop! Ahhh!")
ShowMessageFace("youko_fc1",1,0,2,34)
ShowMessage("\\n<Kitsu>Your semen is really delicious...\nLet out more, more!")
ShowMessageFace("",0,0,2,35)
ShowMessage("\\n<Luka>Auuu... If you move so much... Again...")
ShowMessageFace("",0,0,2,36)
ShowMessage("Stimulated by her rough vagina, I feel my power to escape fade.")
ShowMessageFace("",0,0,2,37)
ShowMessage("Deep inside the Kitsune, I feel her tighten around the tip of my penis even more.")
ShowMessage("The pleasure from the increased pressure sends chills down my spine.")
ShowMessageFace("youko_fc1",1,0,2,38)
ShowMessage("\\n<Kitsu>Hehe... Come!")
ShowMessageFace("",0,0,2,39)
ShowMessage("As if forcing me to ejaculate, the Kitsune tightens her pussy and pumps me even faster.")
ShowMessage("Her movements destroy the last of my endurance.")
ShowMessageFace("",0,0,2,40)
ShowMessage("\\n<Luka>Aaaaahhh!")
RunCommonEvent(104)
PictureDisplay(5,"ev_youko_h3",0,0,0,0,100,100,255,0)
RunCommonEvent(105)
ShowMessageFace("",0,0,2,41)
ShowMessage("I've been forced to climax twice now inside of her.")
ShowMessage("For the second time, the proof of my submission to her shoots inside her pussy.")
ShowMessageFace("youko_fc1",1,0,2,42)
ShowMessage("\\n<Kitsu>Hahaha... Semen... Delicious...\nI really like you!")
ShowMessageFace("youko_fc1",1,0,2,43)
ShowMessage("\\n<Kitsu>Hey hey... Do you know how a Kitsune and a human get married?")
ShowMessageFace("",0,0,2,44)
ShowMessage("\\n<Luka>M...Marriage...?")
ShowMessageFace("youko_fc1",1,0,2,45)
ShowMessage("\\n<Kitsu>A Kitsune violates the human, and receives his seed three times.\nOnce they do that, they're tied together and become a married couple.")
ShowMessageFace("youko_fc1",1,0,2,46)
ShowMessage("\\n<Kitsu>So far, you've ejaculated in me twice...\nJust one time left! Heehee.")
ShowMessageFace("",0,0,2,47)
ShowMessage("\\n<Luka>That... Marriage... Auuuu...")
ShowMessageFace("youko_fc1",1,0,2,48)
ShowMessage("\\n<Kitsu>I said I like you...\nSo be my husband!")
ShowMessageFace("youko_fc1",1,0,2,49)
ShowMessage("\\n<Kitsu>I'll make you feel good every day...\nFrom morning till night, we'll mate all day!")
ShowMessageFace("",0,0,2,50)
ShowMessage("\\n<Luka>That... No way... Ahhh!")
ShowMessageFace("",0,0,2,51)
ShowMessage("Kitsu looks down at me as she starts to move her hips again.")
ShowMessage("Crushed in her tight pussy, I struggle helplessly.")
ShowMessageFace("",0,0,2,52)
ShowMessage("\\n<Luka>Auu... No...")
ShowMessageFace("youko_fc1",1,0,2,53)
ShowMessage("\\n<Kitsu>Come on, come on... Let's get married...\nEven if by force, I'll finish the ceremony...")
ShowMessageFace("",0,0,2,54)
ShowMessage("Kitsu grinds her waist into me harder than before as she laughs.")
ShowMessage("At this rate, I'll be forced to come in her a third time...")
ShowMessageFace("",0,0,2,55)
ShowMessage("\\n<Luka>Aaaahhh....")
ShowMessageFace("youko_fc1",1,0,2,56)
ShowMessage("\\n<Kitsu>Hahaha, can you endure it...?\n...Or are you going to become my husband?")
ShowMessageFace("",0,0,2,57)
ShowMessage("The Kitsune starts to move right and left as she continues to pump me.")
ShowMessageFace("",0,0,2,58)
ShowMessage("Rubbed all over by her rough pussy, I feel myself on the edge.")
ShowMessageFace("",0,0,2,59)
ShowMessage("I can't endure like this...")
ShowMessage("I'm going to come inside of her again...")
ShowMessageFace("",0,0,2,60)
ShowMessage("\\n<Luka>Auuu... No more...\nI'm coming again...!")
ShowMessageFace("youko_fc1",1,0,2,61)
ShowMessage("\\n<Kitsu>Yay! Be my husband!")
ShowMessageFace("",0,0,2,62)
ShowMessage("Kitsu pushes down hard, forcing my tip all the way to the entrance of her womb.")
ShowMessage("Hitting her deepest point, the sudden stimulation forces me over the edge.")
ShowMessageFace("",0,0,2,63)
ShowMessage("\\n<Luka>Aaa! Ahhhh!")
RunCommonEvent(104)
PictureDisplay(5,"ev_youko_h4",0,0,0,0,100,100,255,0)
RunCommonEvent(105)
ShowMessageFace("",0,0,2,64)
ShowMessage("My mind goes pure white as I come inside of her a third time, shooting a large amount of semen into her womb.")
ShowMessageFace("youko_fc1",1,0,2,65)
ShowMessage("\\n<Kitsu>...Ehehe, you let out a lot.\nThe ceremony is over with that. We're married now!")
ShowMessageFace("youko_fc1",1,0,2,66)
ShowMessage("\\n<Kitsu>Once your adventure is over, we'll live together in Kitsune's Village.")
ShowMessageFace("",0,0,2,67)
ShowMessage("Kitsu's tails start to wag furiously.")
ShowMessage("Still stuck in her pussy, the wagging causes an intense tightening around me.")
ShowMessageFace("",0,0,2,68)
ShowMessage("\\n<Luka>Aaa... That feels good...")
ShowMessageFace("youko_fc1",1,0,2,69)
ShowMessage("\\n<Kitsu>Ehehe... Once we're in the village together, we'll always be together. ♪\nWe'll mate every day, and have lots of cute babies!")
ShowMessageFace("",0,0,2,70)
ShowMessage("Kitsu shakes her hips as she talks excitedly.")
ShowMessageFace("",0,0,2,71)
ShowMessage("\\n<Luka>Auu... Coming again...")
RunCommonEvent(104)
RunCommonEvent(105)
ShowMessageFace("",0,0,2,72)
ShowMessage("I continue mating with my new wife as my consciousness fades.")
ShowMessageFace("",0,0,2,73)
ShowMessage("Stuck inside of her tiny pussy, everything I shoot out is sucked up by her womb.")
221()
PictureClear(5)
246(2)
ShowMessageFace("",0,0,2,74)
ShowMessage("Thus, a promise of marriage was sealed with Kitsu.")
ShowMessage("When my adventure is over, it looks like we'll have a happy married life together...")
ShowMessageFace("",0,0,2,75)
ShowMessage("What's really going to happen...?")
ShowMessage("Heading back to my room, I hold my head between my hands, troubled.")
ShowMessageFace("",0,0,2,76)
ShowMessage("............")
242(2)
Wait(120)
241(bytes(0x04,0x08,0x6f,0x3a,0x0d,0x52,0x50,0x47,0x3a,0x3a,0x42,0x47,0x4d,0x08,0x3a,0x0a,0x40,0x6e,0x61,0x6d,0x65,0x49,0x22,0x0c,0x63,0x61,0x73,0x74,0x6c,0x65,0x36,0x06,0x3a,0x06,0x45,0x54,0x3a,0x0c,0x40,0x76,0x6f,0x6c,0x75,0x6d,0x65,0x69,0x69,0x3a,0x0b,0x40,0x70,0x69,0x74,0x63,0x68,0x69,0x69))
0()
