﻿// EVENT 2100
Name "Seduction: Centipede Girl"

If(0,25,1)
 EndEventProcessing()
 0()
EndIf()
355("$game_troop.lose_event_id = 3100")
ChangeVariable(26,26,0,3,3,1,4)
ChangeVariable(26,26,4,0,10)
ShowMessageFace("mukade_fc1",1,0,2,1)
ShowMessage("\\n<Centipede Girl>Hey, would you like to taste a centipede's crawl?\nIt's often thought to be creepy, but it feels surprisingly good...")
ShowMessageFace("mukade_fc1",1,0,2,2)
ShowMessage("\\n<Centipede Girl>If you feel these legs crawling around that place... Ufufu, you might become captivated...")
ChangeSwitch(98,98,0)
ChangeSwitch(96,96,0)
ShowChoices(strings("Ignore her","Give in to temptation"),1)
IfPlayerPicksChoice(0,"Ignore her")
 ShowMessageFace("",0,0,2,3)
 ShowMessage("Luka resists her temptation!")
 RunCommonEvent(1999)
 EndEventProcessing()
 0()
IfPlayerPicksChoice(1,"Give in to temptation")
 0()
404()
ShowMessageFace("mukade_fc1",1,0,2,4)
ShowMessage("\\n<Centipede Girl>In that case, I'll give you good time.\nI'll overwhelm you with the pleasure of a hundred crawling legs...")
250(bytes(0x04,0x08,0x6f,0x3a,0x0c,0x52,0x50,0x47,0x3a,0x3a,0x53,0x45,0x08,0x3a,0x0a,0x40,0x6e,0x61,0x6d,0x65,0x49,0x22,0x16,0x6d,0x6f,0x6e,0x5f,0x65,0x72,0x6f,0x5f,0x6d,0x61,0x6b,0x69,0x74,0x75,0x6b,0x69,0x33,0x06,0x3a,0x06,0x45,0x54,0x3a,0x0b,0x40,0x70,0x69,0x74,0x63,0x68,0x69,0x69,0x3a,0x0c,0x40,0x76,0x6f,0x6c,0x75,0x6d,0x65,0x69,0x69))
355("battler_graphic_hide")
PictureDisplay(5,"ev_mukade_h1",0,0,0,0,100,100,255,0)
ShowMessageFace("",0,0,2,5)
ShowMessage("Both of the Centipede Girl's arms stretch out and wrap around Luka's body!\nLuka's body was rolled up in the Centipede Girl's arms!")
ShowMessageFace("mukade_fc1",1,0,2,6)
ShowMessage("\\n<Centipede Girl>Ahaha, are you unable to move?\nCatching you with my temptation like this was too easy...")
ShowMessageFace("mukade_fc1",1,0,2,7)
ShowMessage("\\n<Centipede Girl>However, I will keep my promise.\nI'll delight you with the pleasurable feeling of a centipede...")
ChangeVariable(26,26,3,0,3)
250(bytes(0x04,0x08,0x6f,0x3a,0x0c,0x52,0x50,0x47,0x3a,0x3a,0x53,0x45,0x08,0x3a,0x0a,0x40,0x6e,0x61,0x6d,0x65,0x49,0x22,0x0e,0x6d,0x6f,0x6e,0x5f,0x75,0x6d,0x61,0x72,0x75,0x06,0x3a,0x06,0x45,0x54,0x3a,0x0b,0x40,0x70,0x69,0x74,0x63,0x68,0x69,0x69,0x3a,0x0c,0x40,0x76,0x6f,0x6c,0x75,0x6d,0x65,0x69,0x69))
PictureDisplay(5,"ev_mukade_ct01",0,0,0,0,100,100,255,0)
311(0,1,1,1,26,true)
ShowMessageFace("",0,0,2,8)
ShowMessage("Both of the Centipede Girl's arms wind around Luka's penis! Her closely-packed legs wriggle as they twine around his penis!\\D")
ShowMessage("Luka takes \\V[26] damage!")
ChangeVariable(27,27,0,3,3,1,2)
If(1,27,0,0,0)
 JumpToLabel("射精1")
 0()
EndIf()
ShowMessageFace("mukade_fc1",1,0,2,9)
ShowMessage("\\n<Centipede Girl>I wonder if the tickling feels good...\nIt's fine if you come like this.")
250(bytes(0x04,0x08,0x6f,0x3a,0x0c,0x52,0x50,0x47,0x3a,0x3a,0x53,0x45,0x08,0x3a,0x0a,0x40,0x6e,0x61,0x6d,0x65,0x49,0x22,0x0e,0x6d,0x6f,0x6e,0x5f,0x75,0x6d,0x61,0x72,0x75,0x06,0x3a,0x06,0x45,0x54,0x3a,0x0b,0x40,0x70,0x69,0x74,0x63,0x68,0x69,0x69,0x3a,0x0c,0x40,0x76,0x6f,0x6c,0x75,0x6d,0x65,0x69,0x69))
311(0,1,1,1,26,true)
ShowMessageFace("",0,0,2,10)
ShowMessage("The Centipede Girl slowly winds around Luka's dick, her countless legs stimulating him from the base to the tip!\\D")
ShowMessage("Luka takes \\V[26] damage!")
ChangeVariable(27,27,0,3,3,1,2)
If(1,27,0,0,0)
 JumpToLabel("射精1")
 0()
EndIf()
ShowMessageFace("mukade_fc1",1,0,2,11)
ShowMessage("\\n<Centipede Girl>Fufufu, it's pointless to endure it...\nA centipede's embrace cannot be withstood...")
250(bytes(0x04,0x08,0x6f,0x3a,0x0c,0x52,0x50,0x47,0x3a,0x3a,0x53,0x45,0x08,0x3a,0x0a,0x40,0x6e,0x61,0x6d,0x65,0x49,0x22,0x0e,0x6d,0x6f,0x6e,0x5f,0x75,0x6d,0x61,0x72,0x75,0x06,0x3a,0x06,0x45,0x54,0x3a,0x0b,0x40,0x70,0x69,0x74,0x63,0x68,0x69,0x69,0x3a,0x0c,0x40,0x76,0x6f,0x6c,0x75,0x6d,0x65,0x69,0x69))
311(0,1,1,1,26,true)
ShowMessageFace("",0,0,2,12)
ShowMessage("The Centipede Girl's countless legs stroked Luka's penis, giving a tickling stimulation!\\D")
ShowMessage("Luka takes \\V[26] damage!")
ChangeVariable(27,27,0,3,3,1,2)
If(1,27,0,0,0)
 JumpToLabel("射精1")
 0()
EndIf()
ShowMessageFace("mukade_fc1",1,0,2,13)
ShowMessage("\\n<Centipede Girl>...It's unbearable, right?\nResign yourself and come...")
250(bytes(0x04,0x08,0x6f,0x3a,0x0c,0x52,0x50,0x47,0x3a,0x3a,0x53,0x45,0x08,0x3a,0x0a,0x40,0x6e,0x61,0x6d,0x65,0x49,0x22,0x0e,0x6d,0x6f,0x6e,0x5f,0x75,0x6d,0x61,0x72,0x75,0x06,0x3a,0x06,0x45,0x54,0x3a,0x0b,0x40,0x70,0x69,0x74,0x63,0x68,0x69,0x69,0x3a,0x0c,0x40,0x76,0x6f,0x6c,0x75,0x6d,0x65,0x69,0x69))
311(0,1,1,1,26,true)
ShowMessageFace("",0,0,2,14)
ShowMessage("A wriggling feeling thoroughly tortures Luka's cock!\nThe Centipede Girl's arms crawl around his penis, exposing him to a strange pleasure!\\D")
ShowMessage("Luka takes \\V[26] damage!")
ChangeVariable(27,27,0,3,3,1,2)
If(1,27,0,0,0)
 JumpToLabel("射精1")
 0()
EndIf()
DefineLabel("射精1")
ShowMessageFace("",0,0,2,15)
ShowMessage("\\n<Luka>Th-this is... Aaaah...")
RunCommonEvent(104)
PictureDisplay(5,"ev_mukade_ct02",0,0,0,0,100,100,255,0)
RunCommonEvent(105)
ShowMessageFace("",0,0,2,16)
ShowMessage("The wriggling feeling of the Centipede Girl's small legs overrun my male genitals. My inexperience with this stimulation leads me to a tragic climax.")
ShowMessageFace("mukade_fc1",1,0,2,17)
ShowMessage("\\n<Centipede Girl>Like that, you shot your sperm into my arms...\nWhat a shameful male...")
RunCommonEvent(2000)
EndEventProcessing()
0()
