﻿// EVENT 0513
Name "コラボC6：ピアノ"

250(bytes(0x04,0x08,0x6f,0x3a,0x0c,0x52,0x50,0x47,0x3a,0x3a,0x53,0x45,0x08,0x3a,0x0a,0x40,0x6e,0x61,0x6d,0x65,0x49,0x22,0x0e,0x6d,0x6f,0x6e,0x5f,0x70,0x69,0x61,0x6e,0x6f,0x06,0x3a,0x06,0x45,0x54,0x3a,0x0b,0x40,0x70,0x69,0x74,0x63,0x68,0x69,0x50,0x3a,0x0c,0x40,0x76,0x6f,0x6c,0x75,0x6d,0x65,0x69,0x69))
ShowMessageFace("",0,0,2,1)
ShowMessage("うっかり、鍵盤に触れてしまった！")
ShowMessageFace("kazuya_fc2",3,0,2,2)
ShowMessage("\\n<Kazuya>")
ShowMessage("なんで、図書室にこんなものが！")
RunCommonEvent(514)
0()
