﻿// EVENT 0537
Name "コラボC6：図書室貼紙"

ShowMessageFace("",0,0,2,1)
ShowMessage("正面のドア、故障中")
ShowMessage("音がうるさく迷惑なので、使用中止")
ShowMessage("この貼り紙の下にある抜け道を使うこと")
ShowMessageFace("kazuya_fc2",2,0,2,2)
ShowMessage("\\n<Kazuya>")
ShowMessage("（ドアが騒音……？")
ShowMessage("　今は使わない方がいいな）")
ShowMessageFace("byakunen_fc1",0,0,2,3)
ShowMessage("\\n<Hakunen>")
ShowMessage("（あっ、抜け穴がありました。")
ShowMessage("　狭いですけど、通れそうですね）")
ShowMessageFace("kazuya_fc2",0,0,2,4)
ShowMessage("\\n<Kazuya>")
ShowMessage("（音を立てないように、そっとだぞ……）")
281(1)
250(bytes(0x04,0x08,0x6f,0x3a,0x0c,0x52,0x50,0x47,0x3a,0x3a,0x53,0x45,0x08,0x3a,0x0a,0x40,0x6e,0x61,0x6d,0x65,0x49,0x22,0x09,0x4d,0x6f,0x76,0x65,0x06,0x3a,0x06,0x45,0x54,0x3a,0x0b,0x40,0x70,0x69,0x74,0x63,0x68,0x69,0x69,0x3a,0x0c,0x40,0x76,0x6f,0x6c,0x75,0x6d,0x65,0x69,0x55))
221()
ShowMessageFace("",0,0,2,5)
ShowMessage("こうして僕達は、抜け道を通り抜け――")
ShowMessage("無事に図書室を抜けたのである。")
TeleportPlayer(0,847,47,125,0,2)
222()
ShowMessageFace("kazuya_fc2",2,0,2,6)
ShowMessage("\\n<Kazuya>")
ShowMessage("ふぅ、ヒヤヒヤしたな。")
ShowMessage("命がいくつあっても足りやしない……")
ShowMessageFace("byakunen_fc1",2,0,2,7)
ShowMessage("\\n<Hakunen>")
ShowMessage("あのヴィヌムという方……そんなに恐ろしいのですか？")
ShowMessage("三人の中で、一番小さく見えましたが。")
ShowMessageFace("kazuya_fc2",0,0,2,8)
ShowMessage("\\n<Kazuya>")
ShowMessage("とんでもないバケモノだよ。")
ShowMessage("人間の身で、あれに関わるべきじゃない。")
ShowMessageFace("byakunen_fc1",3,0,2,9)
ShowMessage("\\n<Hakunen>")
ShowMessage("それほどまでに恐ろしい相手とは……")
ShowMessageFace("kazuya_fc2",1,0,2,10)
ShowMessage("\\n<Kazuya>")
ShowMessage("まあ、今回もなんとか乗り切れたんだ。")
ShowMessage("今は脱出を目指して、先に進もう。")
ChangeVariable(1206,1206,0,0,7)
ChangeSwitch(31,31,1)
EndEventProcessing()
0()
