﻿// EVENT 3457
Name "躯"

PictureDisplay(5,"80_mukuro_st02",0,0,0,0,100,100,0,0)
PictureMove(5,null,0,0,0,0,100,100,255,0,30,true)
241(bytes(0x04,0x08,0x6f,0x3a,0x0d,0x52,0x50,0x47,0x3a,0x3a,0x42,0x47,0x4d,0x08,0x3a,0x0a,0x40,0x6e,0x61,0x6d,0x65,0x49,0x22,0x09,0x65,0x72,0x6f,0x31,0x06,0x3a,0x06,0x45,0x54,0x3a,0x0c,0x40,0x76,0x6f,0x6c,0x75,0x6d,0x65,0x69,0x69,0x3a,0x0b,0x40,0x70,0x69,0x74,0x63,0x68,0x69,0x69))
ShowMessageFace("",0,0,2,1)
ShowMessage("\\n<Luka>")
ShowMessage("う……うぅっ……")
ShowMessageFace("mukuro_fc1",0,0,2,2)
ShowMessage("\\n<Mukuro>")
ShowMessage("諦めたか……いい子だ。")
ShowMessage("来い……抱き締めてやる……")
PictureDisplay(5,"ev_mukuro_hb1",0,0,0,0,100,100,255,0)
PictureDisplay(6,"ev_mukuro_hb2",0,0,0,0,100,100,0,0)
PictureMove(6,null,0,0,0,0,100,100,255,0,60,false)
PictureDisplay(7,"ev_mukuro_hb3",0,0,0,0,100,100,0,0)
PictureMove(7,null,0,0,0,0,100,100,255,0,60,true)
PictureMove(7,null,0,0,0,0,100,100,0,0,30,true)
PictureClear(5)
PictureClear(7)
ShowMessageFace("",0,0,2,3)
ShowMessage("躯は胸元をはだけ、豊満なおっぱいを露出させた。")
ShowMessage("それは、作り物に見えない艶めかしさだ――")
ShowMessageFace("",0,0,2,4)
ShowMessage("\\n<Luka>")
ShowMessage("あ、あぁぁ……")
ShowMessageFace("",0,0,2,5)
ShowMessage("誘惑された僕は、ふらふらと躯に歩み寄り――")
PictureClear(6)
PictureDisplay(5,"ev_mukuro_h01",0,0,0,0,100,100,255,0)
ShowMessageFace("",0,0,2,6)
ShowMessage("そのまま、躯のおっぱいへと顔を埋めてしまった。")
ShowMessage("まるで夢のような、むにゅむにゅの柔らかさだ。")
ShowMessageFace("",0,0,2,7)
ShowMessage("\\n<Luka>")
ShowMessage("ふぁぁぁ……")
ShowMessageFace("mukuro_fc1",0,0,2,8)
ShowMessage("\\n<Mukuro>")
ShowMessage("気持ちいいか……？")
ShowMessage("人間の男は、ホントに単純だな……")
ShowMessageFace("mukuro_fc1",0,0,2,9)
ShowMessage("\\n<Mukuro>")
ShowMessage("こうやって優しく抱き締めれば")
ShowMessage("たちまち言いなりになってしまう……")
ShowMessageFace("",0,0,2,10)
ShowMessage("躯は、僕の体をぎゅっと抱き締めてくる。")
ShowMessage("人形とは思えない柔らかな抱擁感に、思わず脱力した。")
ShowMessageFace("mukuro_fc1",0,0,2,11)
ShowMessage("\\n<Mukuro>")
ShowMessage("もう、離れない……")
ShowMessage("このまま、枯れるまで精気を吸い尽くしてやろう。")
ShowMessageFace("",0,0,2,12)
ShowMessage("\\n<Luka>")
ShowMessage("そ、そんなぁ……")
PictureDisplay(5,"ev_mukuro_h02",0,0,0,0,100,100,255,0)
ShowMessageFace("",0,0,2,13)
ShowMessage("躯は僕の腰を抱き寄せ、自らの下腹部に密着させた。")
ShowMessage("大きくなったペニスが、股間に導かれる――")
ShowMessageFace("mukuro_fc1",0,0,2,14)
ShowMessage("\\n<Mukuro>")
ShowMessage("私の搾精膣は特別製だ……")
ShowMessage("もともと、そういう目的の人形だからな……")
ShowMessageFace("mukuro_fc1",0,0,2,15)
ShowMessage("\\n<Mukuro>")
ShowMessage("生身の人間や悪魔では味わえぬ快楽……")
ShowMessage("存分に堪能するがいい……")
ShowMessageFace("",0,0,2,16)
ShowMessage("\\n<Luka>")
ShowMessage("あぁぁぁ……")
ShowMessageFace("",0,0,2,17)
ShowMessage("このまま犯されれば、破滅は免れないのに――")
ShowMessage("僕はそのまま、躯の抱擁に甘んじていた。")
ShowMessageFace("mukuro_fc1",0,0,2,18)
ShowMessage("\\n<Mukuro>")
ShowMessage("……一切の抵抗も無しか。")
ShowMessage("よほど私と一緒に、はやく極楽に逝きたいらしい。")
ShowMessageFace("mukuro_fc1",0,0,2,19)
ShowMessage("\\n<Mukuro>")
ShowMessage("いいだろう……")
ShowMessage("連れていってやる……")
ShowMessageFace("",0,0,2,20)
ShowMessage("そのまま躯は、僕の腰をぎゅっと抱き寄せ――")
245(bytes(0x04,0x08,0x6f,0x3a,0x0d,0x52,0x50,0x47,0x3a,0x3a,0x42,0x47,0x53,0x08,0x3a,0x0a,0x40,0x6e,0x61,0x6d,0x65,0x49,0x22,0x1e,0x6d,0x6f,0x6e,0x5f,0x68,0x73,0x65,0x61,0x6e,0x30,0x39,0x5f,0x69,0x6e,0x6e,0x65,0x72,0x77,0x6f,0x72,0x6b,0x73,0x5f,0x62,0x31,0x06,0x3a,0x06,0x45,0x54,0x3a,0x0c,0x40,0x76,0x6f,0x6c,0x75,0x6d,0x65,0x69,0x55,0x3a,0x0b,0x40,0x70,0x69,0x74,0x63,0x68,0x69,0x69))
PictureDisplay(5,"ev_mukuro_h03",0,0,0,0,100,100,255,0)
ShowMessageFace("",0,0,2,21)
ShowMessage("\\n<Luka>")
ShowMessage("はぅぅぅっ……！！")
ShowMessageFace("",0,0,2,22)
ShowMessage("作り物の女性器に、僕のモノが咥え込まれてしまった。")
ShowMessage("その途端、温かな柔肉がぎゅっとペニスを締め付けてくる――")
ShowMessageFace("mukuro_fc1",0,0,2,23)
ShowMessage("\\n<Mukuro>")
ShowMessage("気持ち良いだろう……？")
ShowMessage("男を射精させることに特化した搾精膣……")
ShowMessageFace("mukuro_fc1",0,0,2,24)
ShowMessage("\\n<Mukuro>")
ShowMessage("屈強な男でも、数分で情けなく射精する……")
ShowMessage("お前は、どれぐらい持つかな……？")
ShowMessageFace("",0,0,2,25)
ShowMessage("\\n<Luka>")
ShowMessage("はぅ……あぅぅっ……！！")
ShowMessageFace("",0,0,2,26)
ShowMessage("柔肉が蠕動し、うねうねとうねりながら――")
ShowMessage("収縮するように、肉壁がぎゅうぎゅう締め付けてくる。")
ShowMessageFace("",0,0,2,27)
ShowMessage("その艶めかしい刺激に、僕はたちまち身を委ねた。")
ShowMessage("躯にしがみついたまま、腰をぶるっと震わせ――")
RunCommonEvent(104)
PictureDisplay(5,"ev_mukuro_h04",0,0,0,0,100,100,255,0)
RunCommonEvent(105)
ShowMessageFace("",0,0,2,28)
ShowMessage("\\n<Luka>")
ShowMessage("はぅぅぅ……")
ShowMessageFace("",0,0,2,29)
ShowMessage("そのまま、ドクドクと射精してしまった。")
ShowMessage("挿入しただけで、あえなく暴発してしまったのだ――")
ShowMessageFace("mukuro_fc1",0,0,2,30)
ShowMessage("\\n<Mukuro>")
ShowMessage("もう出したのか……？")
ShowMessage("まだ腰振り機能も使ってないのに……")
ShowMessageFace("mukuro_fc1",0,0,2,31)
ShowMessage("\\n<Mukuro>")
ShowMessage("馬鹿の上に、こんなにも情けない……")
ShowMessage("人間のオスとして、最低だな……")
ShowMessageFace("",0,0,2,32)
ShowMessage("\\n<Luka>")
ShowMessage("う、うぅぅ……")
ShowMessageFace("",0,0,2,33)
ShowMessage("屈辱に震えながらも、僕は躯の体にしがみついていた。")
ShowMessage("口調とは裏腹に、躯は優しく抱き返してくれる。")
ShowMessageFace("mukuro_fc1",0,0,2,34)
ShowMessage("\\n<Mukuro>")
ShowMessage("……もっと強く抱かれたいのか……")
ShowMessage("いいぞ……存分に味わえ……")
PictureDisplay(5,"ev_mukuro_h05",0,0,0,0,100,100,255,0)
ShowMessageFace("",0,0,2,35)
ShowMessage("ぎゅぅっ……と、躯は僕を抱き寄せた。")
ShowMessage("さらに密着感が増し、温もりと柔らかさに包まれる。")
ShowMessageFace("mukuro_fc1",0,0,2,36)
ShowMessage("\\n<Mukuro>")
ShowMessage("気に入ったのならば、悔いのないように甘えろ……")
ShowMessage("どうせお前は、もう逃げられない……")
ShowMessageFace("",0,0,2,37)
ShowMessage("\\n<Luka>")
ShowMessage("はぅぅぅっ……")
ShowMessageFace("",0,0,2,38)
ShowMessage("抱擁がきつくなると同時に、膣内の締め付けも増した。")
ShowMessage("柔肉がぎゅうぎゅうと締まり、ペニスを圧迫してくる――")
ShowMessageFace("",0,0,2,39)
ShowMessage("\\n<Luka>")
ShowMessage("あぁぁ……気持ちいい……")
ShowMessage("気持ちいいよぉ……")
ShowMessageFace("",0,0,2,40)
ShowMessage("ぶるぶると腰を震わせながら、躯の抱擁に身を任せる。")
ShowMessage("そして、ひときわ甘い痺れが腰を満たし――")
RunCommonEvent(104)
PictureDisplay(5,"ev_mukuro_h06",0,0,0,0,100,100,255,0)
RunCommonEvent(105)
ShowMessageFace("",0,0,2,41)
ShowMessage("\\n<Luka>")
ShowMessage("はぅぅぅぅ……")
ShowMessageFace("",0,0,2,42)
ShowMessage("あえなく、躯の膣内に精液を捧げていた。")
ShowMessage("とろけそうな快感と共に、精が溢れていく――")
ShowMessageFace("mukuro_fc1",0,0,2,43)
ShowMessage("\\n<Mukuro>")
ShowMessage("また、すぐに出したな……")
ShowMessage("さすがに腰を動かす前に、二度も出すとは思わなかった……")
ShowMessageFace("",0,0,2,44)
ShowMessage("\\n<Luka>")
ShowMessage("あぅ……うぅぅ……")
ShowMessageFace("mukuro_fc1",0,0,2,45)
ShowMessage("\\n<Mukuro>")
ShowMessage("……お前の精気のおかげで、駆動部が暖まってきた。")
ShowMessage("そろそろ、私の本当の搾精機能を見せてやる。")
PictureDisplay(5,"ev_mukuro_h07",0,0,0,0,100,100,255,0)
ShowMessageFace("",0,0,2,46)
ShowMessage("不意に、躯の髪が伸びた。")
ShowMessage("しゅるしゅると伸びた髪が、僕の体に絡み付き――")
PictureDisplay(5,"ev_mukuro_h08",0,0,0,0,100,100,255,0)
ShowMessageFace("",0,0,2,47)
ShowMessage("\\n<Luka>")
ShowMessage("あ……あぁぁっ！！")
ShowMessageFace("",0,0,2,48)
ShowMessage("全身が、躯の髪に巻き取られてしまう。")
ShowMessage("まるで髪で覆われるような拘束に、僕は身動きが出来なくなった。")
ShowMessageFace("mukuro_fc1",0,0,2,49)
ShowMessage("\\n<Mukuro>")
ShowMessage("これで、もう離れられない……")
ShowMessage("絶対に離さない……")
ShowMessageFace("",0,0,2,50)
ShowMessage("\\n<Luka>")
ShowMessage("はぅ……うぅぅぅ……")
ShowMessageFace("",0,0,2,51)
ShowMessage("ますます激しくなる密着感。")
ShowMessage("膣壁はぐねぐねとうねり、艶めかしさを増していく。")
ShowMessageFace("",0,0,2,52)
ShowMessage("\\n<Luka>")
ShowMessage("あぁぁ……きもちいいよぉ……")
RunCommonEvent(104)
PictureDisplay(5,"ev_mukuro_h09",0,0,0,0,100,100,255,0)
RunCommonEvent(105)
ShowMessageFace("",0,0,2,53)
ShowMessage("甘い快感に浸りながら、ドクドクと精を漏らす。")
ShowMessage("すっかり僕は、身も心もとろけきっていた。")
ShowMessageFace("mukuro_fc1",0,0,2,54)
ShowMessage("\\n<Mukuro>")
ShowMessage("私の『腰振り機能』……")
ShowMessage("おそらく、お前なら瞬殺だろうな……")
ShowMessageFace("",0,0,2,55)
ShowMessage("\\n<Luka>")
ShowMessage("はぅ……あぅぅ……")
ShowMessageFace("mukuro_fc1",0,0,2,56)
ShowMessage("\\n<Mukuro>")
ShowMessage("さあ、もう後戻りはできない……")
ShowMessage("一緒に天国へ逝こう……")
ShowMessageFace("",0,0,2,57)
ShowMessage("躯は、腰を動かし始めた。")
ShowMessage("その動作は、徐々に激しくなっていき――")
PictureDisplay(5,"ev_mukuro_h10",0,0,0,0,100,100,255,0)
ShowMessageFace("",0,0,2,58)
ShowMessage("\\n<Luka>")
ShowMessage("あ……ひぁぁぁぁぁ～～！！")
ShowMessageFace("",0,0,2,59)
ShowMessage("強烈な腰振りに、僕は悶絶していた。")
ShowMessage("膣内でペニスが扱き抜かれ、すさまじい快感が与えられる。")
ShowMessageFace("mukuro_fc1",0,0,2,60)
ShowMessage("\\n<Mukuro>")
ShowMessage("これが、私の腰振り機能だ。")
ShowMessage("たいていの男が、数秒で壊れてしまうくらいの速度……")
ShowMessageFace("mukuro_fc1",0,0,2,61)
ShowMessage("\\n<Mukuro>")
ShowMessage("本当は、もっとゆっくりも動かせるが……")
ShowMessage("どうせ逝くなら、一気に極上の快楽が欲しいだろう……？")
ShowMessageFace("",0,0,2,62)
ShowMessage("\\n<Luka>")
ShowMessage("あひ……あぁぁぁぁぁ～～！！")
RunCommonEvent(104)
PictureDisplay(5,"ev_mukuro_h11",0,0,0,0,100,100,255,0)
RunCommonEvent(105)
ShowMessageFace("",0,0,2,63)
ShowMessage("あっという間に、大量の精液が迸っていた。")
ShowMessage("強烈な快感で、即座にイってしまったのだ。")
ShowMessageFace("",0,0,2,64)
ShowMessage("\\n<Luka>")
ShowMessage("あひ……あぅ、あぐぐ……！")
ShowMessageFace("mukuro_fc1",0,0,2,65)
ShowMessage("\\n<Mukuro>")
ShowMessage("どんな男も、この機能の前では数秒ももたない……")
ShowMessage("お前は弱いから、もっと早かったな。")
ShowMessageFace("mukuro_fc1",0,0,2,66)
ShowMessage("\\n<Mukuro>")
ShowMessage("だが……休んでる暇はないぞ……")
ShowMessageFace("",0,0,2,67)
ShowMessage("\\n<Luka>")
ShowMessage("あぅ……あ、うぅぅっ……！！")
ShowMessageFace("",0,0,2,68)
ShowMessage("さらに激しくなる腰振り。")
ShowMessage("そして膣壁全体が、ぐにぐに収縮している――")
RunCommonEvent(104)
RunCommonEvent(105)
ShowMessageFace("",0,0,2,69)
ShowMessage("\\n<Luka>")
ShowMessage("あぁぁぁ……！")
ShowMessageFace("",0,0,2,70)
ShowMessage("たちどころに連続射精させられ、僕は悶える。")
ShowMessage("躯にしがみつきながら、その腰振りに圧倒された。")
ShowMessageFace("mukuro_fc1",0,0,2,71)
ShowMessage("\\n<Mukuro>")
ShowMessage("この機能を使ったが最期……")
ShowMessage("精子は全て、すぐに私の中に搾り出される……")
ShowMessageFace("",0,0,2,72)
ShowMessage("\\n<Luka>")
ShowMessage("そんな――あぐぐ、あぁぁぁ～～！！")
RunCommonEvent(104)
PictureDisplay(5,"ev_mukuro_h12",0,0,0,0,100,100,255,0)
RunCommonEvent(105)
ShowMessageFace("",0,0,2,73)
ShowMessage("大量の精液が、どぷどぷと溢れ出ていく。")
ShowMessage("狂おしい快楽の中で、ひたすらに精が搾り出されていく――")
ShowMessageFace("",0,0,2,74)
ShowMessage("\\n<Luka>")
ShowMessage("はぅ、うぁ……あぁぁぁぁ～～！！")
RunCommonEvent(104)
RunCommonEvent(105)
ShowMessageFace("",0,0,2,75)
ShowMessage("柔らかな抱擁感に身を任せながら、ひたすら射精する。")
ShowMessage("それはまさに、天にも昇りそうなほどの快楽だった――")
ShowMessageFace("",0,0,2,76)
ShowMessage("\\n<Luka>")
ShowMessage("うぁ……あ、あぁぁ……")
ShowMessageFace("mukuro_fc1",0,0,2,77)
ShowMessage("\\n<Mukuro>")
ShowMessage("このまま人形の腰振りで弱らされて、死んでしまうとは……")
ShowMessage("お前はつくづく、惨めな人間だな……")
ShowMessageFace("mukuro_fc1",0,0,2,78)
ShowMessage("\\n<Mukuro>")
ShowMessage("ちゃんとした魂を持って生まれてきたのに……")
ShowMessage("性欲に勝てないばかりに、人形に抱かれながら終わる……")
ShowMessageFace("",0,0,2,79)
ShowMessage("\\n<Luka>")
ShowMessage("あひ……あ、あぁぁ……")
RunCommonEvent(104)
RunCommonEvent(105)
ShowMessageFace("mukuro_fc1",0,0,2,80)
ShowMessage("\\n<Mukuro>")
ShowMessage("でも大丈夫だ……")
ShowMessage("そのみじめな魂、私がもらい受けよう……")
RunCommonEvent(104)
RunCommonEvent(105)
ShowMessageFace("",0,0,2,81)
ShowMessage("\\n<Luka>")
ShowMessage("ぁ……ぁぅぅ……")
ShowMessageFace("mukuro_fc1",0,0,2,82)
ShowMessage("\\n<Mukuro>")
ShowMessage("私と一緒に……私の腕の中で……")
ShowMessage("快楽に溺れながら、逝くがいい……")
RunCommonEvent(104)
RunCommonEvent(105)
ShowMessageFace("",0,0,2,83)
ShowMessage("\\n<Luka>")
ShowMessage("……………………")
ShowMessageFace("mukuro_fc1",0,0,2,84)
ShowMessage("\\n<Mukuro>")
ShowMessage("これで、一緒になれる……")
ShowMessage("私は……独りじゃない……")
ShowMessageFace("",0,0,2,85)
ShowMessage("こうして僕は、人形に抱かれたまま果ててしまい――")
ShowMessage("そして、躯と永遠に添い遂げたのだった。")
221()
PictureClear(5)
PictureClear(6)
246(2)
ShowMessageFace("",0,0,2,86)
ShowMessage("・・・・・・・・")
221()
242(1)
Wait(120)
ShowChoices(strings("難易度を変更する","輪廻に戻る"),2)
IfPlayerPicksChoice(0,null)
 ShowMessageFace("",0,0,2,87)
 ShowMessage("難易度を選択して下さい。")
 RunCommonEvent(110)
 0()
IfPlayerPicksChoice(1,null)
 0()
404()
RunCommonEvent(2999)
0()
