// EVENT 3103
Name "Ostrich Girl"

If(0,25,1)
 JumpToLabel("反省会")
 0()
EndIf()
PictureDisplay(5,"80_datyou_st04",0,0,0,0,100,100,0,0)
PictureMove(5,null,0,0,0,0,100,100,255,0,30,true)
241(bytes(0x04,0x08,0x6f,0x3a,0x0d,0x52,0x50,0x47,0x3a,0x3a,0x42,0x47,0x4d,0x08,0x3a,0x0a,0x40,0x6e,0x61,0x6d,0x65,0x49,0x22,0x09,0x65,0x72,0x6f,0x31,0x06,0x3a,0x06,0x45,0x54,0x3a,0x0c,0x40,0x76,0x6f,0x6c,0x75,0x6d,0x65,0x69,0x69,0x3a,0x0b,0x40,0x70,0x69,0x74,0x63,0x68,0x69,0x69))
ShowMessageFace("",0,0,2,1)
ShowMessage("\\n<Luka>Unnngh...")
ShowMessageFace("datyou_fc1",3,0,2,2)
ShowMessage("\\n<Ostrich Girl>Ufufu, you can't resist anymore.\nNext, why don't we try a sex battle?")
ShowMessageFace("datyou_fc1",3,0,2,3)
ShowMessage("\\n<Ostrich Girl>I love that kind of sport.\nEven in a sex battle, I won't be defeated!")
ShowMessageFace("",0,0,2,4)
ShowMessage("\\n<Luka>N-no...! Aaah!")
ShowMessageFace("",0,0,2,5)
ShowMessage("The Ostrich Girl mounts me without even taking my rejection into consideration.")
ShowMessage("Her waist drops all at once...")
245(bytes(0x04,0x08,0x6f,0x3a,0x0d,0x52,0x50,0x47,0x3a,0x3a,0x42,0x47,0x53,0x08,0x3a,0x0a,0x40,0x6e,0x61,0x6d,0x65,0x49,0x22,0x1e,0x6d,0x6f,0x6e,0x5f,0x68,0x73,0x65,0x61,0x6e,0x30,0x39,0x5f,0x69,0x6e,0x6e,0x65,0x72,0x77,0x6f,0x72,0x6b,0x73,0x5f,0x62,0x31,0x06,0x3a,0x06,0x45,0x54,0x3a,0x0c,0x40,0x76,0x6f,0x6c,0x75,0x6d,0x65,0x69,0x55,0x3a,0x0b,0x40,0x70,0x69,0x74,0x63,0x68,0x69,0x69))
PictureDisplay(5,"ev_datyou_h1",0,0,0,0,100,100,0,0)
PictureMove(5,null,0,0,0,0,100,100,255,0,30,true)
ShowMessageFace("",0,0,2,6)
ShowMessage("And my penis sinks into the Ostrich Girl's vagina!")
ShowMessageFace("datyou_fc1",3,0,2,7)
ShowMessage("\\n<Ostrich Girl>How was that for a smooth insertion?\nI'm already ahead of you...!")
ShowMessageFace("datyou_fc1",3,0,2,8)
ShowMessage("\\n<Ostrich Girl>Besides, I'm training the inside of my vagina...")
ShowMessageFace("",0,0,2,9)
ShowMessage("\\n<Luka>Ngh... Aaaah...!")
PictureDisplay(5,"ev_datyou_h2",0,0,0,0,100,100,255,0)
ShowMessageFace("",0,0,2,10)
ShowMessage("The Ostrich Girl's vagina is hot and tight.")
ShowMessage("Her muscular vagina gives pleasure to both my glans and my shaft.")
ShowMessageFace("",0,0,2,11)
ShowMessage("The most amazing thing about her vagina is the tightness.")
ShowMessage("Her vaginal walls narrow and squeeze my penis from all sides...")
ShowMessageFace("",0,0,2,12)
ShowMessage("\\n<Luka>A-amazing...It's so tight...")
ShowMessageFace("datyou_fc1",3,0,2,13)
ShowMessage("\\n<Ostrich Girl>Because I run every day.\nI train my leg muscles!")
ShowMessageFace("datyou_fc1",3,0,2,14)
ShowMessage("\\n<Ostrich Girl>Because of that, I can freely tighten my vagina!\nHoo~ra... Eii! Eii!")
ShowMessageFace("",0,0,2,15)
ShowMessage("\\n<Luka>Ah...! Ooooh...!")
PictureDisplay(5,"ev_datyou_h3",0,0,0,0,100,100,255,0)
ShowMessageFace("",0,0,2,16)
ShowMessage("Every time the Ostrich Girl puts strength in her abdomen, her vagina tightens.")
ShowMessage("Squeeze, squeeze...It's as if she's trying to crush my penis inside her.")
ShowMessageFace("datyou_fc1",3,0,2,17)
ShowMessage("\\n<Ostrich Girl>What's wrong?\nNo way, you're moaning from just this much?")
ShowMessageFace("datyou_fc1",3,0,2,18)
ShowMessage("\\n<Ostrich Girl>Eii! Eii, E~~ya!")
ShowMessageFace("",0,0,2,19)
ShowMessage("\\n<Luka>Hnnngh...! Ah, aaaah...!!")
ShowMessageFace("",0,0,2,20)
ShowMessage("When the inside of her vagina tightens, it also vibrates.")
ShowMessage("Every time she breathes, her vagina tightens and rubs my penis non-stop.")
ShowMessageFace("",0,0,2,21)
ShowMessage("She tightens and loosens really fast, aiming to make me come.")
ShowMessage("With her vagina, the Ostrich Girl brings my penis to its limit...")
ShowMessageFace("",0,0,2,22)
ShowMessage("\\n<Luka>Don't...Anymore and...")
ShowMessageFace("datyou_fc1",3,0,2,23)
ShowMessage("\\n<Ostrich Girl>You seem to be at your limit, then I'll finish you off!\nTightening my vagina...E~~ya!")
ShowMessageFace("",0,0,2,24)
ShowMessage("\\n<Luka>Ah... Aieee!")
ShowMessageFace("",0,0,2,25)
ShowMessage("Her vagina tightens around my penis as much as possible.")
ShowMessage("My head goes pure white from the pleasure...")
RunCommonEvent(104)
PictureDisplay(5,"ev_datyou_h4",0,0,0,0,100,100,255,0)
RunCommonEvent(105)
ShowMessageFace("",0,0,2,26)
ShowMessage("I shoot the proof of my defeat inside her vagina.")
ShowMessage("I suffer a miserable loss while tasting the sweet feeling of release...")
ShowMessageFace("",0,0,2,27)
ShowMessage("\\n<Luka>Nnngh...")
PictureDisplay(5,"ev_datyou_h5",0,0,0,0,100,100,255,0)
ShowMessageFace("datyou_fc1",1,0,2,28)
ShowMessage("\\n<Ostrich Girl>Ahaha, that was awful.\nYou couldn't even endure this much of my tightening?")
ShowMessageFace("datyou_fc1",1,0,2,29)
ShowMessage("\\n<Ostrich Girl>This is a 3-point sex battle, I won the first point.\nIn that case, winning one more point will be a piece of cake...♪")
PictureDisplay(5,"ev_datyou_h6",0,0,0,0,100,100,255,0)
ShowMessageFace("datyou_fc1",1,0,2,30)
ShowMessage("\\n<Ostrich Girl>I'll attack with my waist skill next!\nEi, Ei, E~~ya!")
ShowMessageFace("",0,0,2,31)
ShowMessage("\\n<Luka>Ah... Hyaaaaaa!!")
ShowMessageFace("",0,0,2,32)
ShowMessage("The Ostrich Girl starts violently swinging her waist up and down!")
ShowMessageFace("",0,0,2,33)
ShowMessage("My penis is stroked inside her tight meat pot.")
ShowMessage("Obscene sounds come from where our waists slam against each other...")
ShowMessageFace("",0,0,2,34)
ShowMessage("\\n<Luka>Don't...I'm already going to...")
ShowMessageFace("datyou_fc1",1,0,2,35)
ShowMessage("\\n<Ostrich Girl>Whatwhatwhat? Giving up already?\nBut I won't go easy on you...")
ShowMessageFace("datyou_fc1",1,0,2,36)
ShowMessage("\\n<Ostrich Girl>Hoo~ra, finishing blow!\nCome inside me~♪")
ShowMessageFace("",0,0,2,37)
ShowMessage("\\n<Luka>Hnnngh...!!")
ShowMessageFace("",0,0,2,38)
ShowMessage("Just like a last sprint to the finish, her waist movement becomes even more intense.")
ShowMessage("My whole body starts trembling as I accept the sweet feeling of defeat...")
RunCommonEvent(104)
PictureDisplay(5,"ev_datyou_h7",0,0,0,0,100,100,255,0)
RunCommonEvent(105)
ShowMessageFace("",0,0,2,39)
ShowMessage("\\n<Luka>aaa...")
ShowMessageFace("",0,0,2,40)
ShowMessage("I lose control of my body as I start ejaculating.")
ShowMessage("I tragically come from the Ostrich Girl's intense, violent riding...")
246(2)
ShowMessageFace("datyou_fc1",1,0,2,41)
ShowMessage("\\n<Ostrich Girl>Yes, my win~♪\nYour sex battle skills are weak.")
ShowMessageFace("datyou_fc1",1,0,2,42)
ShowMessage("\\n<Ostrich Girl>Well then, shall I train you?\nAren't you embarrassed to have such a weak penis?")
ShowMessageFace("",0,0,2,43)
ShowMessage("\\n<Luka>......")
ShowMessageFace("",0,0,2,44)
ShowMessage("I can't resist anymore no matter how hard I try.")
ShowMessage("Thus, I became the Ostrich Girl's toy.")
221()
PictureClear(5)
DefineLabel("反省会")
ShowMessageFace("",0,0,2,45)
ShowMessage("......")
221()
242(1)
Wait(120)
355("memory_interruption")
ShowMessageFace("",0,0,2,46)
ShowMessage("You hear Ilias' voice calling out to you...")
ShowMessage("Receive her evaluation?")
ShowChoices(strings("Receive evaluation","Change difficulty","Reincarnate"),3)
IfPlayerPicksChoice(0,null)
 241(bytes(0x04,0x08,0x6f,0x3a,0x0d,0x52,0x50,0x47,0x3a,0x3a,0x42,0x47,0x4d,0x08,0x3a,0x0a,0x40,0x6e,0x61,0x6d,0x65,0x49,0x22,0x0a,0x69,0x72,0x69,0x61,0x73,0x06,0x3a,0x06,0x45,0x54,0x3a,0x0c,0x40,0x76,0x6f,0x6c,0x75,0x6d,0x65,0x69,0x5f,0x3a,0x0b,0x40,0x70,0x69,0x74,0x63,0x68,0x69,0x6e))
 PictureDisplay(1,"bg001",0,0,0,0,100,100,255,0)
 222()
 PictureDisplay(5,"80_iriasu_st04",0,0,0,0,100,100,0,0)
 PictureMove(5,null,0,0,0,0,100,100,255,0,30,true)
 ShowMessageFace("iriasu_fc1",3,0,2,47)
 ShowMessage("\\n<Ilias>No way, to think you would lose to an ostrich...\nDid you know that ostriches bury their heads because they're afraid of the sky?")
 PictureDisplay(5,"80_iriasu_st02",0,0,0,0,100,100,255,0)
 ShowMessageFace("iriasu_fc1",1,0,2,48)
 ShowMessage("\\n<Ilias>...No they don't.")
 PictureDisplay(5,"80_iriasu_st01",0,0,0,0,100,100,255,0)
 ShowMessageFace("iriasu_fc1",0,0,2,49)
 ShowMessage("\\n<Ilias>The Ostrich Girl is a pathetic Harpy subspecies that cannot fly.\nTherefore, she crawls on the ground and uses Unarmed skills.")
 ShowMessageFace("iriasu_fc1",0,0,2,50)
 ShowMessage("\\n<Ilias>Her Unarmed skills hurt because she is strong.\nShe is easy to defeat because she is vulnerable to Blind.")
 ShowMessageFace("iriasu_fc1",0,0,2,51)
 ShowMessage("\\n<Ilias>Other status ailments work well on her as well.\nBecause she's a harpy, she's strong against Wind but she is weak to Earth and Water elemental attacks.")
 ShowMessageFace("iriasu_fc1",0,0,2,52)
 ShowMessage("\\n<Ilias>Be mindful however of her high evasion.\nShe does not have a lot of HP so she should be easy to defeat.")
 PictureDisplay(5,"80_iriasu_st02",0,0,0,0,100,100,255,0)
 ShowMessageFace("iriasu_fc1",1,0,2,53)
 ShowMessage("\\n<Ilias>Now go, oh brave Luka.\nMake the Ostrich Girls extinct, just like the dodo and moa.")
 PictureDisplay(5,"80_iriasu_st05",0,0,0,0,100,100,255,0)
 ShowMessageFace("iriasu_fc1",4,0,2,54)
 ShowMessage("\\n<Ilias>...Were there dodos and moas in your world?")
 242(1)
 221()
 PictureClear(5)
 PictureClear(1)
 Wait(60)
 0()
IfPlayerPicksChoice(1,null)
 ShowMessageFace("",0,0,2,55)
 ShowMessage("Please choose a difficulty level.")
 RunCommonEvent(110)
 0()
IfPlayerPicksChoice(2,null)
 0()
404()
RunCommonEvent(3000)
0()
