// EVENT 2077
Name "Seduction: Zombie Swordsman"

If(0,25,1)
 EndEventProcessing()
 0()
EndIf()
355("$game_troop.lose_event_id = 3077")
ChangeVariable(26,26,0,3,3,1,4)
ChangeVariable(26,26,4,0,10)
ShowMessageFace("zonbe_fc2",0,0,2,1)
ShowMessage("\\n<Zombie Swordsman>Body... Is heavy...\nSemen... Need...")
355("battler_graphic_hide")
PictureDisplay(5,"ev_zonbe_h0",0,0,0,0,100,100,255,0)
ShowMessageFace("",0,0,2,2)
ShowMessage("The Zombie moves toward Luka, and pushes him down!")
ShowMessage("Luka has been pushed down by the Zombie Swordsman!")
ShowMessageFace("zonbe_fc2",0,0,2,3)
ShowMessage("\\n<Zombie Swordsman>Sate my thirst...")
ChangeSwitch(98,98,0)
ChangeSwitch(96,96,0)
ShowChoices(strings("Struggle","Let her continue"),1)
IfPlayerPicksChoice(0,"もがく")
 ShowMessageFace("",0,0,2,4)
 ShowMessage("Luka struggles, and forces the Zombie Swordsman off her!")
 RunCommonEvent(1999)
 EndEventProcessing()
 0()
IfPlayerPicksChoice(1,"なすがまま")
 0()
404()
ShowMessageFace("zonbe_fc2",0,0,2,5)
ShowMessage("\\n<Zombie Swordsman>Want... Male... Semen...")
ChangeVariable(26,26,3,0,4)
250(bytes(0x04,0x08,0x6f,0x3a,0x0c,0x52,0x50,0x47,0x3a,0x3a,0x53,0x45,0x08,0x3a,0x0a,0x40,0x6e,0x61,0x6d,0x65,0x49,0x22,0x11,0x6d,0x6f,0x6e,0x5f,0x65,0x72,0x6f,0x5f,0x70,0x79,0x75,0x31,0x06,0x3a,0x06,0x45,0x54,0x3a,0x0b,0x40,0x70,0x69,0x74,0x63,0x68,0x69,0x69,0x3a,0x0c,0x40,0x76,0x6f,0x6c,0x75,0x6d,0x65,0x69,0x69))
PictureDisplay(5,"ev_zonbe_h1",0,0,0,0,100,100,255,0)
311(0,1,1,1,26,true)
ShowMessageFace("",0,0,2,6)
ShowMessage("The Zombie brings her waist down!")
ShowMessage("Luka's penis sinks into her slimy vagina!\\D")
ShowMessage("Luka takes \\V[26] damage!")
ChangeVariable(27,27,0,3,3,1,2)
If(1,27,0,0,0)
 JumpToLabel("射精1")
 0()
EndIf()
ShowMessageFace("",0,0,2,7)
ShowMessage("\\n<Luka>Aaaah...!")
ShowMessageFace("",0,0,2,8)
ShowMessage("Her vagina feels strange...")
ShowMessageFace("",0,0,2,9)
ShowMessage("It's not too tight, and it's fairly cold.")
ShowMessage("Her moist flesh clings to my penis.")
ShowMessageFace("",0,0,2,10)
ShowMessage("\\n<Luka>Aiyeee...!")
ShowMessageFace("",0,0,2,11)
ShowMessage("Pleasure fills me along with the strange sensation.")
ShowMessage("The immoral feeling of having sex with a Zombie only adds to the feeling.")
ShowMessageFace("zonbe_fc2",0,0,2,12)
ShowMessage("\\n<Zombie Swordsman>Auuu... Stop...")
250(bytes(0x04,0x08,0x6f,0x3a,0x0c,0x52,0x50,0x47,0x3a,0x3a,0x53,0x45,0x08,0x3a,0x0a,0x40,0x6e,0x61,0x6d,0x65,0x49,0x22,0x13,0x6d,0x6f,0x6e,0x5f,0x65,0x72,0x6f,0x5f,0x63,0x68,0x75,0x70,0x61,0x33,0x06,0x3a,0x06,0x45,0x54,0x3a,0x0b,0x40,0x70,0x69,0x74,0x63,0x68,0x69,0x69,0x3a,0x0c,0x40,0x76,0x6f,0x6c,0x75,0x6d,0x65,0x69,0x69))
311(0,1,1,1,26,true)
ShowMessageFace("",0,0,2,13)
ShowMessage("The Zombie Girl furiously shakes her waist!")
ShowMessage("Her wet flesh rubs against Luka's penis!\\D")
ShowMessage("Luka takes \\V[26] damage!")
ChangeVariable(27,27,0,3,3,1,2)
If(1,27,0,0,0)
 JumpToLabel("射精1")
 0()
EndIf()
ShowMessageFace("zonbe_fc2",0,0,2,14)
ShowMessage("\\n<Zombie Swordsman>Life... Male...")
250(bytes(0x04,0x08,0x6f,0x3a,0x0c,0x52,0x50,0x47,0x3a,0x3a,0x53,0x45,0x08,0x3a,0x0a,0x40,0x6e,0x61,0x6d,0x65,0x49,0x22,0x13,0x6d,0x6f,0x6e,0x5f,0x65,0x72,0x6f,0x5f,0x63,0x68,0x75,0x70,0x61,0x33,0x06,0x3a,0x06,0x45,0x54,0x3a,0x0b,0x40,0x70,0x69,0x74,0x63,0x68,0x69,0x69,0x3a,0x0c,0x40,0x76,0x6f,0x6c,0x75,0x6d,0x65,0x69,0x69))
311(0,1,1,1,26,true)
ShowMessageFace("",0,0,2,15)
ShowMessage("The Zombie Girl furiously shakes her waist!")
ShowMessage("Her slimy vagina forces pleasure into Luka!\\D")
ShowMessage("Luka takes \\V[26] damage!")
ChangeVariable(27,27,0,3,3,1,2)
If(1,27,0,0,0)
 JumpToLabel("射精1")
 0()
EndIf()
DefineLabel("射精1")
ShowMessageFace("",0,0,2,16)
ShowMessage("\\n<Luka>D-don't do... Aaah...")
RunCommonEvent(104)
PictureDisplay(5,"ev_zonbe_h2",0,0,0,0,100,100,255,0)
RunCommonEvent(105)
ShowMessageFace("",0,0,2,17)
ShowMessage("As the Zombie rapes me, I finally succumb to the pleasure.")
ShowMessage("Squeezed, my semen shoots into her cold body.")
ShowMessageFace("zonbe_fc2",0,0,2,18)
ShowMessage("\\n<Zombie Swordsman>Male... Semen... Warm...")
RunCommonEvent(2000)
EndEventProcessing()
0()
