﻿// EVENT 2224
Name "Seduction: Zion"

355("$game_troop.lose_event_id = 3224")
ChangeVariable(26,26,0,3,3,1,4)
ChangeVariable(26,26,4,0,10)
ShowMessageFace("shion_fc1",0,0,2,1)
ShowMessage("\\n<Zion>Hmmm... not bad!\nI'll have to try a more stimulating approach!")
355("battler_graphic_hide")
PictureDisplay(5,"ev_shion_hb01",0,0,0,0,100,100,255,0)
ShowMessageFace("",0,0,2,2)
ShowMessage("Zion forcibly pins Luka down!\nShe holds her mechanical arm over him!")
ShowMessageFace("shion_fc1",0,0,2,3)
ShowMessage("\\n<Zion>With this arm, I can generate vibration waves. If I focus those on your cock... Can you imagine what will happen?")
ShowMessageFace("",0,0,2,4)
ShowMessage("\\n<Luka>Th-that will..")
PictureDisplay(5,"ev_shion_hb02",0,0,0,0,100,100,255,0)
ShowMessageFace("",0,0,2,5)
ShowMessage("Zion connects her mechanical arm to Luka's penis!")
ShowMessageFace("shion_fc1",1,0,2,6)
ShowMessage("\\n<Zion>You will taste the finest pleasure as your semen instantly bursts out. I hope you're looking forward to it, kuku...")
ChangeSwitch(98,98,0)
ChangeSwitch(96,96,0)
ShowChoices(strings("Struggle","Let her continue"),1)
IfPlayerPicksChoice(0,"Struggle")
 ShowMessageFace("",0,0,2,7)
 ShowMessage("Luka struggles violently, and escapes from Zion's restraint!")
 RunCommonEvent(1999)
 EndEventProcessing()
 0()
IfPlayerPicksChoice(1,"Let her continue")
 0()
404()
ShowMessageFace("shion_fc1",1,0,2,8)
ShowMessage("\\n<Zion>Then let's go...\nYour semen will be scattered in a single shot!!")
ChangeVariable(26,26,3,0,12)
250(bytes(0x04,0x08,0x6f,0x3a,0x0c,0x52,0x50,0x47,0x3a,0x3a,0x53,0x45,0x08,0x3a,0x0a,0x40,0x6e,0x61,0x6d,0x65,0x49,0x22,0x0c,0x4d,0x61,0x63,0x68,0x69,0x6e,0x65,0x06,0x3a,0x06,0x45,0x54,0x3a,0x0b,0x40,0x70,0x69,0x74,0x63,0x68,0x69,0x69,0x3a,0x0c,0x40,0x76,0x6f,0x6c,0x75,0x6d,0x65,0x69,0x69))
PictureDisplay(5,"ev_shion_hb03",0,0,0,0,100,100,255,0)
311(0,1,1,1,26,true)
ShowMessageFace("",0,0,2,9)
ShowMessage("Zion's arm oscillates, sending strong vibrations to Luka's penis! An intense pleasure envelops his entire penis!\\D")
ShowMessage("Luka takes \\V[26] damage!")
ChangeVariable(27,27,0,3,3,1,2)
If(1,27,0,0,0)
 JumpToLabel("射精1")
 0()
EndIf()
DefineLabel("射精1")
ShowMessageFace("",0,0,2,10)
ShowMessage("\\n<Luka>Ah...! Hyaaahhh!!")
RunCommonEvent(104)
PictureDisplay(5,"ev_shion_hb04",0,0,0,0,100,100,255,0)
RunCommonEvent(105)
ShowMessageFace("",0,0,2,11)
ShowMessage("My semen spurts out in an instant after being exposed to the tremendous vibrations. My semen scatters into the surroundings as I writhe in madness from the intense pleasure.")
PictureDisplay(5,"ev_shion_hb05",0,0,0,0,100,100,255,0)
ShowMessageFace("shion_fc1",1,0,2,12)
ShowMessage("\\n<Zion>...What? That was one shot wasn't it?")
RunCommonEvent(2000)
EndEventProcessing()
0()
