// EVENT 4442
Name "Ghost 2"

If(0,25,1)
 221()
 PictureClear(5)
 PictureClear(6)
 ShowMessageFace("",0,0,2,0)
 ShowMessage("......")
 242(2)
 Wait(120)
 241(bytes(0x04,0x08,0x6f,0x3a,0x0d,0x52,0x50,0x47,0x3a,0x3a,0x42,0x47,0x4d,0x08,0x3a,0x0a,0x40,0x6e,0x61,0x6d,0x65,0x49,0x22,0x0c,0x63,0x61,0x73,0x74,0x6c,0x65,0x36,0x06,0x3a,0x06,0x45,0x54,0x3a,0x0c,0x40,0x76,0x6f,0x6c,0x75,0x6d,0x65,0x69,0x69,0x3a,0x0b,0x40,0x70,0x69,0x74,0x63,0x68,0x69,0x69))
 EndEventProcessing()
 0()
EndIf()
PictureDisplay(5,"80_ghost_st01",0,0,0,0,100,100,255,0)
ShowMessageFace("ghost_fc1",0,0,2,1)
ShowMessage("\\n<Carrie>You want to be violated by me?\nDo you know what it means to do that with a Ghost?")
ShowMessageFace("",0,0,2,2)
ShowMessage("\\n<Luka>P-please...")
PictureDisplay(5,"80_ghost_st02",0,0,0,0,100,100,255,0)
ShowMessageFace("ghost_fc1",1,0,2,3)
ShowMessage("\\n<Carrie>Now I'll rape you...\nGush out all your energy inside of me...")
241(bytes(0x04,0x08,0x6f,0x3a,0x0d,0x52,0x50,0x47,0x3a,0x3a,0x42,0x47,0x4d,0x08,0x3a,0x0a,0x40,0x6e,0x61,0x6d,0x65,0x49,0x22,0x09,0x65,0x72,0x6f,0x31,0x06,0x3a,0x06,0x45,0x54,0x3a,0x0c,0x40,0x76,0x6f,0x6c,0x75,0x6d,0x65,0x69,0x69,0x3a,0x0b,0x40,0x70,0x69,0x74,0x63,0x68,0x69,0x69))
245(bytes(0x04,0x08,0x6f,0x3a,0x0d,0x52,0x50,0x47,0x3a,0x3a,0x42,0x47,0x53,0x08,0x3a,0x0a,0x40,0x6e,0x61,0x6d,0x65,0x49,0x22,0x1e,0x6d,0x6f,0x6e,0x5f,0x68,0x73,0x65,0x61,0x6e,0x30,0x31,0x5f,0x69,0x6e,0x6e,0x65,0x72,0x77,0x6f,0x72,0x6b,0x73,0x5f,0x61,0x31,0x06,0x3a,0x06,0x45,0x54,0x3a,0x0c,0x40,0x76,0x6f,0x6c,0x75,0x6d,0x65,0x69,0x55,0x3a,0x0b,0x40,0x70,0x69,0x74,0x63,0x68,0x69,0x69))
PictureDisplay(5,"ev_ghost_h1",0,0,0,0,100,100,255,0)
PictureDisplay(6,"ev_ghost_ct01",0,0,0,0,100,100,255,0)
ShowMessageFace("",0,0,2,4)
ShowMessage("Carrie slowly forces her waist into mine, forcing my penis inside of her intimate place.")
ShowMessage("The soft feeling of her flesh envelops me.")
ShowMessageFace("",0,0,2,5)
ShowMessage("\\n<Luka>Aaaaah...!")
ShowMessageFace("",0,0,2,6)
ShowMessage("Despite seemingly not having substance,")
ShowMessage("her honey pot feels surprisingly soft.")
ShowMessageFace("",0,0,2,7)
ShowMessage("The sticky fluid flowing out of her starts to cover my penis as well.")
ShowMessageFace("ghost_fc1",1,0,2,8)
ShowMessage("\\n<Carrie>Is it good...?\nNow, shoot it out in me...")
ShowMessageFace("",0,0,2,9)
ShowMessage("Carrie starts to slowly move her waist.")
ShowMessage("With every movement, the soft walls of her vagina wriggle around me.")
ShowMessageFace("",0,0,2,10)
ShowMessage("\\n<Luka>M-My life couldn't be... No...\nAaaa...")
ShowMessageFace("",0,0,2,11)
ShowMessage("The bad feeling collapses before the sweet pleasure.")
ShowMessageFace("",0,0,2,12)
ShowMessage("The sticky liquid inside of her swirls around my penis with every thrust.")
ShowMessage("A lewd noise sounds out every time I'm forced all the way inside of her.")
ShowMessageFace("",0,0,2,13)
ShowMessage("For some reason, the flesh around me feels very cold.")
ShowMessageFace("",0,0,2,14)
ShowMessage("But the friction of my warm penis on her cold flesh feels surprisingly good.")
ShowMessage("Even though this feels immoral, it feels good...")
ShowMessageFace("ghost_fc1",1,0,2,15)
ShowMessage("\\n<Carrie>Come...\nCome a lot...")
ShowMessageFace("",0,0,2,16)
ShowMessage("\\n<Luka>Faaa...")
ShowMessageFace("",0,0,2,17)
ShowMessage("As more of her sticky liquid flows onto me, the wriggling walls of her vagina only increase in speed.")
ShowMessageFace("",0,0,2,18)
ShowMessage("As if they had their own will, every crease and point in her flesh is moving in random directions.")
ShowMessageFace("ghost_fc1",1,0,2,19)
ShowMessage("\\n<Carrie>Give me your warmth...")
ShowMessageFace("",0,0,2,20)
ShowMessage("As Carrie says that, she starts to quickly pump me.")
ShowMessageFace("",0,0,2,21)
ShowMessage("Grinding back and forth, the lewd slapping noise gets even louder.")
ShowMessage("With that sudden attack of pleasure, I'm finally forced over the edge.")
ShowMessageFace("",0,0,2,22)
ShowMessage("\\n<Luka>Aaaa!!")
RunCommonEvent(104)
RunCommonEvent(105)
PictureDisplay(10,"sys_white",0,0,0,0,100,100,0,0)
PictureMove(10,null,0,0,0,0,100,100,255,0,20,true)
PictureDisplay(5,"ev_ghost_h2",0,0,0,0,100,100,255,0)
PictureDisplay(6,"ev_ghost_ct02",0,0,0,0,100,100,255,0)
250(bytes(0x04,0x08,0x6f,0x3a,0x0c,0x52,0x50,0x47,0x3a,0x3a,0x53,0x45,0x08,0x3a,0x0a,0x40,0x6e,0x61,0x6d,0x65,0x49,0x22,0x0f,0x6d,0x6f,0x6e,0x5f,0x73,0x79,0x61,0x73,0x65,0x69,0x06,0x3a,0x06,0x45,0x54,0x3a,0x0b,0x40,0x70,0x69,0x74,0x63,0x68,0x69,0x69,0x3a,0x0c,0x40,0x76,0x6f,0x6c,0x75,0x6d,0x65,0x69,0x69))
PictureMove(10,null,0,0,0,0,100,100,0,0,25,true)
PictureMove(10,null,0,0,0,0,100,100,255,0,20,true)
PictureMove(10,null,0,0,0,0,100,100,0,0,25,true)
PictureMove(10,null,0,0,0,0,100,100,255,0,6,true)
PictureMove(10,null,0,0,0,0,100,100,0,0,60,true)
ShowMessageFace("",0,0,2,23)
ShowMessage("I shoot my warm semen into her cold hole.")
ShowMessage("With each spurt, I feel more of my energy being drained.")
ShowMessageFace("",0,0,2,24)
ShowMessage("\\n<Luka>Aa... Faa...")
ShowMessageFace("",0,0,2,25)
ShowMessage("Raped by Carrie, I've been forced to come...")
ShowMessage("But I wanted this...")
ShowMessageFace("ghost_fc1",1,0,2,26)
ShowMessage("\\n<Carrie>More... Come more...")
245(bytes(0x04,0x08,0x6f,0x3a,0x0d,0x52,0x50,0x47,0x3a,0x3a,0x42,0x47,0x53,0x08,0x3a,0x0a,0x40,0x6e,0x61,0x6d,0x65,0x49,0x22,0x1e,0x6d,0x6f,0x6e,0x5f,0x68,0x73,0x65,0x61,0x6e,0x30,0x34,0x5f,0x69,0x6e,0x6e,0x65,0x72,0x77,0x6f,0x72,0x6b,0x73,0x5f,0x61,0x34,0x06,0x3a,0x06,0x45,0x54,0x3a,0x0c,0x40,0x76,0x6f,0x6c,0x75,0x6d,0x65,0x69,0x55,0x3a,0x0b,0x40,0x70,0x69,0x74,0x63,0x68,0x69,0x69))
ShowMessageFace("",0,0,2,27)
ShowMessage("Without letting me rest, Carrie continues to pump me.")
ShowMessage("Stimulating my penis right after an orgasm, she isn't showing any mercy.")
ShowMessageFace("",0,0,2,28)
ShowMessage("All the way in, then all the way out...")
ShowMessage("Over and over, she forces me in and out of her sticky vagina.")
ShowMessageFace("",0,0,2,29)
ShowMessage("Covered in her sticky juices, a strange pleasure fills my body.")
ShowMessageFace("",0,0,2,30)
ShowMessage("\\n<Luka>Faaa...")
ShowMessageFace("",0,0,2,31)
ShowMessage("All I can feel is her chilly flesh.")
ShowMessage("She isn't particularly tight inside, but her wriggling walls attack me with every pump.")
ShowMessageFace("",0,0,2,32)
ShowMessage("Before I realized it, I felt myself thrusting in time with her movements.")
ShowMessageFace("",0,0,2,33)
ShowMessage("Being raped by this Ghost Girl, she's sucking in my energy...")
ShowMessage("And I'm even starting to accept my fate...")
ShowMessageFace("ghost_fc1",1,0,2,34)
ShowMessage("\\n<Carrie>Pour your energy into me...\nMore... More...")
ShowMessageFace("",0,0,2,35)
ShowMessage("\\n<Luka>Ahh... I'm coming again...\nAhhh!!")
RunCommonEvent(104)
PictureDisplay(5,"ev_ghost_h3",0,0,0,0,100,100,255,0)
PictureDisplay(6,"ev_ghost_ct03",0,0,0,0,100,100,255,0)
RunCommonEvent(105)
ShowMessageFace("",0,0,2,36)
ShowMessage("I shoot out more of my semen into her cold vagina.")
ShowMessageFace("",0,0,2,37)
ShowMessage("I'm not able to resist this pleasure any longer...")
ShowMessageFace("ghost_fc1",1,0,2,38)
ShowMessage("\\n<Carrie>Mmm... Warm...\nYour energy... I want more...")
ShowMessageFace("",0,0,2,39)
ShowMessage("\\n<Luka>Aaaa...")
ShowMessageFace("",0,0,2,40)
ShowMessage("She grinds against me even quicker than before.")
ShowMessageFace("",0,0,2,41)
ShowMessage("As if thanking her for the pleasure,")
ShowMessage("I'm quickly brought to another orgasm.")
ShowMessageFace("",0,0,2,42)
ShowMessage("\\n<Luka>Aaah... Already... again...!")
RunCommonEvent(104)
PictureDisplay(5,"ev_ghost_h4",0,0,0,0,100,100,255,0)
PictureDisplay(6,"ev_ghost_ct04",0,0,0,0,100,100,255,0)
RunCommonEvent(105)
ShowMessageFace("",0,0,2,43)
ShowMessage("With barely any time since my last ejaculation, I'm quickly forced to another height.")
ShowMessage("Surprisingly, even more semen than last time came out as well.")
ShowMessageFace("",0,0,2,44)
ShowMessage("I should be feeling fear at this situation...")
ShowMessage("But because of this overpowering pleasure, my sense of danger has already been paralyzed...")
ShowMessageFace("ghost_fc1",1,0,2,45)
ShowMessage("\\n<Carrie>Come...\nPour everything into me...")
ShowMessageFace("",0,0,2,46)
ShowMessage("\\n<Luka>Auuu...\nEverything... Coming...")
RunCommonEvent(104)
RunCommonEvent(105)
ShowMessageFace("",0,0,2,47)
ShowMessage("Right after I moan,")
ShowMessage("she quickly forces me all the way inside of her.")
ShowMessageFace("",0,0,2,48)
ShowMessage("As if flipping a switch, I instantly ejaculated.")
ShowMessage("My orgasm keeps going for almost thirty seconds...")
ShowMessageFace("",0,0,2,49)
ShowMessage("Stuck in an orgasm for so long, I keep spurting out more semen inside of her.")
ShowMessageFace("",0,0,2,50)
ShowMessage("This must be what she meant by sucking my energy...")
ShowMessage("At this rate, she's going to take everything from me...")
ShowMessageFace("",0,0,2,51)
ShowMessage("Soaked in pleasure, I can't fight back against this...")
ShowMessageFace("ghost_fc1",1,0,2,52)
ShowMessage("\\n<Carrie>Hahaha... Leak your existence into me...")
ShowMessageFace("",0,0,2,53)
ShowMessage("\\n<Luka>Auuu...")
RunCommonEvent(104)
RunCommonEvent(105)
ShowMessageFace("",0,0,2,54)
ShowMessage("As she commanded, I shoot out more of my semen into her.")
ShowMessage("...And probably my life, too...")
ShowMessageFace("",0,0,2,55)
ShowMessage("As I shoot out more and more into her, I feel my thoughts start to fade.")
ShowMessageFace("ghost_fc1",1,0,2,56)
ShowMessage("\\n<Carrie>More... Give me everything...\nI'll suck in your life...")
ShowMessageFace("",0,0,2,57)
ShowMessage("\\n<Luka>Aaa...")
RunCommonEvent(104)
RunCommonEvent(105)
ShowMessageFace("",0,0,2,58)
ShowMessage("Coming one final time into her, I let out a sigh.")
ShowMessage("Defeated by ecstasy, I feel myself drift out of consciousness.")
221()
PictureClear(5)
PictureClear(6)
246(2)
ShowMessageFace("ghost_fc1",1,0,2,59)
ShowMessage("\\n<Carrie>You thought that was the end?\nBut I didn't squeeze you to death...")
ShowMessageFace("ghost_fc1",1,0,2,60)
ShowMessage("\\n<Carrie>You're an important ally after all.\nI left some life in you...")
ShowMessageFace("",0,0,2,61)
ShowMessage("\\n<Luka>..................")
ShowMessageFace("",0,0,2,62)
ShowMessage("It looks like I escaped death.")
ShowMessage("But I still got to taste this forbidden crossing...")
ShowMessageFace("",0,0,2,63)
ShowMessage("..................")
242(2)
Wait(120)
241(bytes(0x04,0x08,0x6f,0x3a,0x0d,0x52,0x50,0x47,0x3a,0x3a,0x42,0x47,0x4d,0x08,0x3a,0x0a,0x40,0x6e,0x61,0x6d,0x65,0x49,0x22,0x0c,0x63,0x61,0x73,0x74,0x6c,0x65,0x36,0x06,0x3a,0x06,0x45,0x54,0x3a,0x0c,0x40,0x76,0x6f,0x6c,0x75,0x6d,0x65,0x69,0x69,0x3a,0x0b,0x40,0x70,0x69,0x74,0x63,0x68,0x69,0x69))
0()
