// EVENT 3067
Name "Sister Lamia"

If(0,25,1)
 JumpToLabel("反省会")
 0()
EndIf()
PictureDisplay(5,"80_sisterlamia_st02",0,0,0,0,100,100,0,0)
PictureMove(5,null,0,0,0,0,100,100,255,0,30,true)
241(bytes(0x04,0x08,0x6f,0x3a,0x0d,0x52,0x50,0x47,0x3a,0x3a,0x42,0x47,0x4d,0x08,0x3a,0x0a,0x40,0x6e,0x61,0x6d,0x65,0x49,0x22,0x09,0x65,0x72,0x6f,0x31,0x06,0x3a,0x06,0x45,0x54,0x3a,0x0c,0x40,0x76,0x6f,0x6c,0x75,0x6d,0x65,0x69,0x69,0x3a,0x0b,0x40,0x70,0x69,0x74,0x63,0x68,0x69,0x69))
ShowMessageFace("",0,0,2,1)
ShowMessage("\\n<Luka>Auuu...")
ShowMessageFace("sisterlamia_fc1",1,0,2,2)
ShowMessage("\\n<Sister Lamia>There's no point in resisting now. Now I shall coil around you.")
ShowMessageFace("",0,0,2,3)
ShowMessage("Sister Lamia slowly coils around my body from my feet up to my waist as I'm left wondering what kind of fate she has in store for me...")
250(bytes(0x04,0x08,0x6f,0x3a,0x0c,0x52,0x50,0x47,0x3a,0x3a,0x53,0x45,0x08,0x3a,0x0a,0x40,0x6e,0x61,0x6d,0x65,0x49,0x22,0x16,0x6d,0x6f,0x6e,0x5f,0x65,0x72,0x6f,0x5f,0x6d,0x61,0x6b,0x69,0x74,0x75,0x6b,0x69,0x33,0x06,0x3a,0x06,0x45,0x54,0x3a,0x0b,0x40,0x70,0x69,0x74,0x63,0x68,0x69,0x69,0x3a,0x0c,0x40,0x76,0x6f,0x6c,0x75,0x6d,0x65,0x69,0x69))
PictureDisplay(5,"ev_sisterlamia_h1",0,0,0,0,100,100,255,0)
ShowMessageFace("",0,0,2,4)
ShowMessage("She presses my face between her large breasts while locking the rest of my body tightly in her embrace.")
ShowMessageFace("",0,0,2,5)
ShowMessage("\\n<Luka>Ahhg... Uhh...")
ShowMessageFace("sisterlamia_fc1",1,0,2,6)
ShowMessage("\\n<Sister Lamia>Hehe... No escape at this point. And besides, your body seems to be desiring this pleasure.")
ShowMessageFace("",0,0,2,7)
ShowMessage("I can hear her softly speaking to herself as my penis rubs against her stomach in my helpless state.")
ShowMessageFace("",0,0,2,8)
ShowMessage("I feel a throbbing in my body as I slowly succumb to her pleasure... Her embrace feels reassuring despite my inability to escape from it.")
ShowMessageFace("",0,0,2,9)
ShowMessage("She has me bound and helpless like a snake coiled around its prey...")
ShowMessageFace("",0,0,2,10)
ShowMessage("\\n<Luka>L-let me go...!")
ShowMessageFace("sisterlamia_fc1",1,0,2,11)
ShowMessage("\\n<Sister Lamia>You must be my daily meal, sent by the grace of Ilias for her devout follower to feed from.")
ShowMessageFace("sisterlamia_fc1",1,0,2,12)
ShowMessage("\\n<Sister Lamia>It's not something I am particularly fond of, but her will shall be done.")
ShowMessageFace("",0,0,2,13)
ShowMessage("\\n<Luka>Guh...! Stop this!")
ShowMessageFace("",0,0,2,14)
ShowMessage("I renew my struggles to escape from her coils after hearing her intentions, but all that comes from it is her squeezing me even more tightly than before.")
ShowMessageFace("",0,0,2,15)
ShowMessage("At the same time, she presses my face even harder into her breasts. Pushed hard into her soft chest, I'm almost choking on her breasts.")
ShowMessageFace("",0,0,2,16)
ShowMessage("\\n<Luka>Nnn... Mmmgg!")
ShowMessageFace("sisterlamia_fc1",1,0,2,17)
ShowMessage("\\n<Sister Lamia>No violence please.")
ShowMessageFace("sisterlamia_fc1",1,0,2,18)
ShowMessage("\\n<Sister Lamia>I'll indulge you in pleasure until your last moments, if only to pacify you.")
ShowMessageFace("",0,0,2,19)
ShowMessage("\\n<Luka>Ah...")
ShowMessageFace("",0,0,2,20)
ShowMessage("I can't see anything that's going on with my face pressed into her breasts. My feeble struggling is cut short as I feel my penis suddenly engulfed.")
245(bytes(0x04,0x08,0x6f,0x3a,0x0d,0x52,0x50,0x47,0x3a,0x3a,0x42,0x47,0x53,0x08,0x3a,0x0a,0x40,0x6e,0x61,0x6d,0x65,0x49,0x22,0x1e,0x6d,0x6f,0x6e,0x5f,0x68,0x73,0x65,0x61,0x6e,0x30,0x35,0x5f,0x69,0x6e,0x6e,0x65,0x72,0x77,0x6f,0x72,0x6b,0x73,0x5f,0x61,0x35,0x06,0x3a,0x06,0x45,0x54,0x3a,0x0c,0x40,0x76,0x6f,0x6c,0x75,0x6d,0x65,0x69,0x55,0x3a,0x0b,0x40,0x70,0x69,0x74,0x63,0x68,0x69,0x69))
PictureDisplay(6,"ev_sisterlamia_ct01",0,0,0,0,100,100,255,0)
ShowMessageFace("",0,0,2,21)
ShowMessage("I feel something wet and fleshy surround my penis before tightening around my shaft.")
ShowMessageFace("",0,0,2,22)
ShowMessage("\\n<Luka>Ahh...! W...What is this!?")
ShowMessageFace("sisterlamia_fc1",1,0,2,23)
ShowMessage("\\n<Sister Lamia>I'm indulging your base desires... It's the will of the Goddess for you to be raped and squeezed to death.")
ShowMessageFace("",0,0,2,24)
ShowMessage("\\n<Luka>Hyaaa!")
ShowMessageFace("",0,0,2,25)
ShowMessage("My penis slowly sinks into her vagina in a wet and noisy manner.")
ShowMessageFace("",0,0,2,26)
ShowMessage("Despite being unable to see it, it's like another snake is coiling around my penis, like she is around my body...")
ShowMessageFace("",0,0,2,27)
ShowMessage("The further I sink in, the more she squeezes down on my throbbing length. A shiver runs through me from the intense stimulation.")
ShowMessageFace("",0,0,2,28)
ShowMessage("It's like a large mouth opened up and is swallowing my penis...")
ShowMessageFace("",0,0,2,29)
ShowMessage("I can do nothing but feel her vagina have its way with my penis as I writhe in her tight embrace.")
ShowMessageFace("",0,0,2,30)
ShowMessage("\\n<Luka>Ahh...!")
ShowMessageFace("",0,0,2,31)
ShowMessage("She buries me inside her all the way to the hilt and squeezes me powerfully from base to tip.")
ShowMessageFace("sisterlamia_fc1",1,0,2,32)
ShowMessage("\\n<Sister Lamia>As a lamia, I can make you feel pleasure while squeezing the life from you. I'll send you to Heaven without you even feeling any pain.")
ShowMessageFace("",0,0,2,33)
ShowMessage("\\n<Luka>No... Stop...Ahhh...")
ShowMessageFace("",0,0,2,34)
ShowMessage("I suddenly feel her walls start to writhe and wriggle around my penis. She continues to squeeze down on my shaft tightly while I'm assaulted by these new sensations.")
ShowMessageFace("",0,0,2,35)
ShowMessage("She uses her powerful muscles stroke to my penis from base to tip, sending jolts of pleasure down my spine.")
ShowMessageFace("",0,0,2,36)
ShowMessage("At the same time, she squeezes just the tip of my penis deep inside her.")
ShowMessageFace("",0,0,2,37)
ShowMessage("It feels just like a snake playing with its prey before devouring it...")
ShowMessageFace("",0,0,2,38)
ShowMessage("\\n<Luka>Ah... Hyaa!")
ShowMessageFace("",0,0,2,39)
ShowMessage("The intense pleasure makes my body go slack as I stop struggling, relaxing in her sweet embrace.")
ShowMessageFace("sisterlamia_fc1",1,0,2,40)
ShowMessage("\\n<Sister Lamia>Feels much better to just give in, doesn't it? Let me reward you by sending you to Heaven.")
ShowMessageFace("",0,0,2,41)
ShowMessage("\\n<Luka>Hyaaa... Stop...")
ShowMessageFace("",0,0,2,42)
ShowMessage("I see nothing with my face pressed in between her breasts. All I hear are strange, wet sounds emanating from where my penis is embedded in her vagina.")
ShowMessageFace("",0,0,2,43)
ShowMessage("The absence of my sight while feeling the intense stimulation and hearing the lewd sounds increases the pleasure I feel from this copulation.")
ShowMessageFace("",0,0,2,44)
ShowMessage("\\n<Luka>Stop... Let me go...Ahh... I'm going to come...")
ShowMessageFace("sisterlamia_fc1",1,0,2,45)
ShowMessage("\\n<Sister Lamia>Go ahead then. There's no reason to hold back anymore... I won't let you resist it, so just give in...")
ShowMessageFace("",0,0,2,46)
ShowMessage("\\n<Luka>Ahhh!!")
ShowMessageFace("",0,0,2,47)
ShowMessage("Her vaginal muscles suddenly increase their tempo and squeeze my penis with a quick pace.")
ShowMessageFace("",0,0,2,48)
ShowMessage("She also squeezes down on the tip of my penis at the same time to coax an orgasm from me more quickly.")
ShowMessageFace("sisterlamia_fc1",1,0,2,49)
ShowMessage("\\n<Sister Lamia>Now, please...")
ShowMessageFace("",0,0,2,50)
ShowMessage("\\n<Luka>Ah... Ahhh!!")
RunCommonEvent(104)
PictureDisplay(5,"ev_sisterlamia_h2",0,0,0,0,100,100,255,0)
PictureDisplay(6,"ev_sisterlamia_ct02",0,0,0,0,100,100,255,0)
RunCommonEvent(105)
ShowMessageFace("",0,0,2,51)
ShowMessage("The overwhelming pleasure seizes my body as my penis twitches in response to my ejaculation.")
ShowMessageFace("",0,0,2,52)
ShowMessage("The Lamia's embrace tightens as my orgasm washes over me while my body sags against hers.")
ShowMessageFace("",0,0,2,53)
ShowMessage("\\n<Luka>Ah...")
ShowMessageFace("",0,0,2,54)
ShowMessage("A tingling numbness spreads out from where I'm joined to her as my penis continues to spurt out semen. I instinctively know that my essence itself is being extracted along with my sperm...")
ShowMessageFace("",0,0,2,55)
ShowMessage("A niggling fear takes hold of me as I realize what will happen if this continues.")
ShowMessageFace("",0,0,2,56)
ShowMessage("\\n<Luka>Ah... Let go...")
ShowMessageFace("sisterlamia_fc1",1,0,2,57)
ShowMessage("\\n<Sister Lamia>To turn you loose would be to insult the Goddess herself. You're a gift to her faithful, meant to give sustenance until your death...")
ShowMessageFace("",0,0,2,58)
ShowMessage("\\n<Luka>Ahhh...!")
245(bytes(0x04,0x08,0x6f,0x3a,0x0d,0x52,0x50,0x47,0x3a,0x3a,0x42,0x47,0x53,0x08,0x3a,0x0a,0x40,0x6e,0x61,0x6d,0x65,0x49,0x22,0x1e,0x6d,0x6f,0x6e,0x5f,0x68,0x73,0x65,0x61,0x6e,0x30,0x38,0x5f,0x69,0x6e,0x6e,0x65,0x72,0x77,0x6f,0x72,0x6b,0x73,0x5f,0x61,0x38,0x06,0x3a,0x06,0x45,0x54,0x3a,0x0c,0x40,0x76,0x6f,0x6c,0x75,0x6d,0x65,0x69,0x55,0x3a,0x0b,0x40,0x70,0x69,0x74,0x63,0x68,0x69,0x69))
ShowMessageFace("",0,0,2,59)
ShowMessage("As if emphasizing her words, her vagina suddenly tightens much more around me.")
ShowMessageFace("",0,0,2,60)
ShowMessage("Starting from my root and slowly moving like a wave to my tip, the tightness squeezes out every drop of semen that was still in me into her.")
ShowMessageFace("",0,0,2,61)
ShowMessage("She repeats the strong milking movement again as she stimulates me to my next orgasm...")
ShowMessageFace("",0,0,2,62)
ShowMessage("\\n<Luka>Ah...! Ahh!")
ShowMessageFace("sisterlamia_fc1",1,0,2,63)
ShowMessage("\\n<Sister Lamia>Rejoice at being able to ascend to heaven at the height of pleasure.")
ShowMessageFace("sisterlamia_fc1",1,0,2,64)
ShowMessage("\\n<Sister Lamia>I'll embrace you until your last moments. So please, end your life peacefully.")
ShowMessageFace("",0,0,2,65)
ShowMessage("From her words and caring embrace, I can feel her love leaking through... But at the same time, the sensation of being prey doesn't vanish.")
ShowMessageFace("",0,0,2,66)
ShowMessage("My life itself is being mercilessly squeezed out by her vagina.")
ShowMessageFace("",0,0,2,67)
ShowMessage("\\n<Luka>Hyaa! Ah...!")
ShowMessageFace("",0,0,2,68)
ShowMessage("My body goes rigid with spasms as the pleasure takes over my lower body. Through it all, Sister Lamia keeps me in her loving embrace.")
ShowMessageFace("",0,0,2,69)
ShowMessage("The cascading pressure around my shaft torments my body with ecstatic pleasure as I feel my penis throb in response to the stimulation.")
ShowMessageFace("sisterlamia_fc1",1,0,2,70)
ShowMessage("\\n<Sister Lamia>You'll ascend to Heaven at this rate... One climax at a time.")
ShowMessageFace("",0,0,2,71)
ShowMessage("In the next moment, the tightness around my glans suddenly increases. Doing everything she can to finish me off, I feel my body rejoicing in the coming climax.")
ShowMessageFace("",0,0,2,72)
ShowMessage("\\n<Luka>Ha...! Ahh!")
RunCommonEvent(104)
RunCommonEvent(105)
ShowMessageFace("",0,0,2,73)
ShowMessage("It feels like she has complete control over my orgasms as I feel incapable of resisting her at all.")
ShowMessageFace("",0,0,2,74)
ShowMessage("The weakness in my body spreads even more. My life itself really is fleeing with each ejaculation...")
ShowMessageFace("",0,0,2,75)
ShowMessage("\\n<Luka>Aiie!")
ShowMessageFace("",0,0,2,76)
ShowMessage("The relentless squeezing motions as she milks my penis persist, regardless of how many times she makes me climax.")
ShowMessageFace("",0,0,2,77)
ShowMessage("My body rejoices in the pleasure, while my mind fears for what's next.")
ShowMessageFace("sisterlamia_fc1",1,0,2,78)
ShowMessage("\\n<Sister Lamia>Now let me make you ejaculate over and over.")
ShowMessageFace("sisterlamia_fc1",1,0,2,79)
ShowMessage("\\n<Sister Lamia>Please enjoy this ecstasy before your death.")
ShowMessageFace("sisterlamia_fc1",1,0,2,80)
ShowMessage("\\n<Sister Lamia>And the moment you surrender to it, you will ascend to Heaven... Hehe.")
ShowMessageFace("",0,0,2,81)
ShowMessage("...I'm certain I heard her laughing just now despite my waning senses. Some part of her is enjoying the act of devouring me as a predator towards its prey.")
ShowMessageFace("",0,0,2,82)
ShowMessage("This affectionate embrace is no lie. But deep inside her heart, she still thinks of me like prey to be squeezed.")
ShowMessageFace("sisterlamia_fc1",1,0,2,83)
ShowMessage("\\n<Sister Lamia>It won't be long now... Soon you'll reach your peaceful end while filling me with your seed.")
ShowMessageFace("sisterlamia_fc1",1,0,2,84)
ShowMessage("\\n<Sister Lamia>I'll send you to Heaven in the throes of pleasure.")
ShowMessageFace("",0,0,2,85)
ShowMessage("\\n<Luka>Ah... Aiiee!")
ShowMessageFace("",0,0,2,86)
ShowMessage("I feel copious amounts of fluids from Sister Lamia's vagina coating my penis following her proclamation.")
ShowMessageFace("",0,0,2,87)
ShowMessage("Her vigorous handling of my shaft increases in intensity as I feel her vaginal muscles wring me with ecstatic frenzy.")
ShowMessageFace("",0,0,2,88)
ShowMessage("My resolve lies in shambles in the face of the overpowering sensations. I feel my penis twitch in searing pleasure as she quickly brings me to climax.")
RunCommonEvent(104)
PictureDisplay(5,"ev_sisterlamia_h3",0,0,0,0,100,100,255,0)
PictureDisplay(6,"ev_sisterlamia_ct03",0,0,0,0,100,100,255,0)
RunCommonEvent(105)
ShowMessageFace("",0,0,2,89)
ShowMessage("I come in only moments... Sister Lamia's vagina won't allow any man to endure it if she doesn't want him to.")
ShowMessageFace("",0,0,2,90)
ShowMessage("\\n<Luka>Ah... Stop...I'm going to die...")
ShowMessageFace("sisterlamia_fc1",1,0,2,91)
ShowMessage("\\n<Sister Lamia>Have you not been listening? This is your destiny, given by the Goddess. Do not fear it, embrace it.")
ShowMessageFace("sisterlamia_fc1",1,0,2,92)
ShowMessage("\\n<Sister Lamia>You'll be able to reach Heaven in the heights of pleasure.")
ShowMessageFace("",0,0,2,93)
ShowMessage("\\n<Luka>Hyaa... No...")
ShowMessageFace("",0,0,2,94)
ShowMessage("Her snake body tightens more around me, cutting off even the last of my feeble attempts at struggling.")
ShowMessageFace("",0,0,2,95)
ShowMessage("At the same time, her vagina continues squeezing around me, helplessly leading me to another ejaculation.")
ShowMessageFace("",0,0,2,97)
ShowMessage("\\n<Luka>Haa... It's going to leak again...")
ShowMessageFace("sisterlamia_fc1",1,0,2,98)
ShowMessage("\\n<Sister Lamia>I don't mind... Go ahead. Let out everything.")
ShowMessageFace("",0,0,2,99)
ShowMessage("\\n<Luka>Hnnaaa...")
RunCommonEvent(104)
RunCommonEvent(105)
ShowMessageFace("",0,0,2,100)
ShowMessage("My extremities have long since numbed as I feel a deep weakness wash over my body from the continuous orgasms.")
ShowMessageFace("",0,0,2,101)
ShowMessage("My body can barely move as I'm left paralyzed by sheer exhaustion while my mind erodes from the pleasure.")
ShowMessageFace("",0,0,2,102)
ShowMessage("\\n<Luka>Ah... Haaa...")
ShowMessageFace("sisterlamia_fc1",1,0,2,103)
ShowMessage("\\n<Sister Lamia>Your life will be finished in my embrace. Until the last moments of your life, indulge in this bliss.")
ShowMessageFace("",0,0,2,104)
ShowMessage("With an affectionate smile, Sister Lamia hugs me even tighter.")
ShowMessageFace("",0,0,2,105)
ShowMessage("And in her vagina, she continues squeezing out my life itself, trading pleasure for death.")
ShowMessageFace("",0,0,2,106)
ShowMessage("\\n<Luka>Ha... Ah...")
RunCommonEvent(104)
RunCommonEvent(105)
ShowMessageFace("",0,0,2,107)
ShowMessage("Another drop of my life is taken by her vagina. As I am now, I'm too weak to even move a finger.")
ShowMessageFace("",0,0,2,108)
ShowMessage("A haze fills my mind as my eyelids grow heavy with exhaustion.")
ShowMessageFace("sisterlamia_fc1",1,0,2,109)
ShowMessage("\\n<Sister Lamia>You seem to be near your end... Do not fear, you'll be in my loving embrace until the end.")
ShowMessageFace("",0,0,2,110)
ShowMessage("\\n<Luka>Ah... Oooh...")
RunCommonEvent(104)
RunCommonEvent(105)
ShowMessageFace("",0,0,2,111)
ShowMessage("The last of my life spurts into her vagina, causing me to faint at the same time.")
ShowMessageFace("",0,0,2,112)
ShowMessage("I slowly drift into a deep, deep sleep from which I won't awaken.")
ShowMessageFace("",0,0,2,113)
ShowMessage("Thus, I meet my end in Sister Lamia's sweet embrace.")
ShowMessageFace("",0,0,2,114)
ShowMessage("Sister Lamia gives one final squeeze to my lifeless body as she can't help but let out a charming laugh.")
ShowMessageFace("sisterlamia_fc1",1,0,2,116)
ShowMessage("\\n<Sister Lamia>Hehe... Did you die?")
ShowMessageFace("sisterlamia_fc1",1,0,2,117)
ShowMessage("\\n<Sister Lamia>Oh Goddess Ilias, thank you for my daily meal.")
221()
PictureClear(5)
PictureClear(6)
246(2)
DefineLabel("反省会")
ShowMessageFace("",0,0,2,118)
ShowMessage("..............")
221()
242(1)
Wait(120)
355("memory_interruption")
ShowMessageFace("",0,0,2,119)
ShowMessage("You hear Ilias' voice calling out to you...")
ShowMessage("Receive her evaluation?")
ShowChoices(strings("Receive Evaluation","Change Difficulty","Reincarnate"),3)
IfPlayerPicksChoice(0,null)
 241(bytes(0x04,0x08,0x6f,0x3a,0x0d,0x52,0x50,0x47,0x3a,0x3a,0x42,0x47,0x4d,0x08,0x3a,0x0a,0x40,0x6e,0x61,0x6d,0x65,0x49,0x22,0x0a,0x69,0x72,0x69,0x61,0x73,0x06,0x3a,0x06,0x45,0x54,0x3a,0x0c,0x40,0x76,0x6f,0x6c,0x75,0x6d,0x65,0x69,0x5f,0x3a,0x0b,0x40,0x70,0x69,0x74,0x63,0x68,0x69,0x6e))
 PictureDisplay(1,"bg001",0,0,0,0,100,100,255,0)
 222()
 PictureDisplay(5,"80_iriasu_st02",0,0,0,0,100,100,0,0)
 PictureMove(5,null,0,0,0,0,100,100,255,0,30,true)
 ShowMessageFace("iriasu_fc1",1,0,2,120)
 ShowMessage("\\n<Ilias>How did it feel to ascend while being held by that Lamia?\nIt looked so good, my mouth was agape the whole time.")
 PictureDisplay(5,"80_iriasu_st01",0,0,0,0,100,100,255,0)
 ShowMessageFace("iriasu_fc1",0,0,2,121)
 ShowMessage("\\n<Ilias>Sister Lamia is a combination of both a Lamia and a Priest.\nShe can use party-wide Snake skills, pleasure attacks, support and healing magic...")
 ShowMessageFace("iriasu_fc1",0,0,2,122)
 ShowMessage("\\n<Ilias>You can Silence her and stop her healing and support spells.\nOther than that, Sleep also can be applied and you should take advantage of that.")
 ShowMessageFace("iriasu_fc1",0,0,2,123)
 ShowMessage("\\n<Ilias>Like any other Lamia, she is weak to Ice.\nIf you hit her with Ice elemental skills, she should go down easily.")
 ShowMessageFace("iriasu_fc1",0,0,2,124)
 ShowMessage("\\n<Ilias>This Lamia also seems to be quite lewd.\nShe's weak to Pleasure attacks and Pleasure-related status ailments.")
 ShowMessageFace("iriasu_fc1",0,0,2,125)
 ShowMessage("\\n<Ilias>Fought head-on she's quite powerful...\nBut if you take advantage of her weaknesses, she's really not much of a threat.")
 PictureDisplay(5,"80_iriasu_st02",0,0,0,0,100,100,255,0)
 ShowMessageFace("iriasu_fc1",1,0,2,126)
 ShowMessage("\\n<Ilias>Now go, oh brave Luka.\nThe only thing monsters deserve is the wrath of Heaven.")
 242(1)
 221()
 PictureClear(5)
 PictureClear(1)
 Wait(60)
 0()
IfPlayerPicksChoice(1,null)
 ShowMessageFace("",0,0,2,127)
 ShowMessage("Please choose a difficulty level.")
 RunCommonEvent(110)
 0()
IfPlayerPicksChoice(2,null)
 0()
404()
RunCommonEvent(3000)
0()
