﻿// EVENT 5763
Name "妲己"

PictureDisplay(5,"80_dakki_st01",0,0,0,0,100,100,0,0)
PictureMove(5,null,0,0,0,0,100,100,255,0,30,true)
ShowMessageFace("",0,0,2,1)
ShowMessage("\\n<Luka>")
ShowMessage("お……お願い……")
ShowMessageFace("dakki_fc1",0,0,2,2)
ShowMessage("\\n<Daji>")
ShowMessage("妾に快楽を求めるとは、命がいらぬと見えおるわ。")
ShowMessage("では、望み通りにしてくれようぞ。")
ShowMessageFace("",0,0,2,3)
ShowMessage("こうして僕は、妲己の部屋に誘われた――")
221()
PictureDisplay(1,"bg195",0,0,0,0,100,100,255,0)
PictureDisplay(5,"80_dakki_st01",0,0,0,0,100,100,255,0)
222()
241(bytes(0x04,0x08,0x6f,0x3a,0x0d,0x52,0x50,0x47,0x3a,0x3a,0x42,0x47,0x4d,0x08,0x3a,0x0a,0x40,0x6e,0x61,0x6d,0x65,0x49,0x22,0x09,0x65,0x72,0x6f,0x31,0x06,0x3a,0x06,0x45,0x54,0x3a,0x0c,0x40,0x76,0x6f,0x6c,0x75,0x6d,0x65,0x69,0x69,0x3a,0x0b,0x40,0x70,0x69,0x74,0x63,0x68,0x69,0x69))
ShowMessageFace("dakki_fc1",0,0,2,4)
ShowMessage("\\n<Daji>")
ShowMessage("ほれ、この胸で抱かれたかろう？")
ShowMessage("存分に可愛がってやろうぞ……")
ShowMessageFace("",0,0,2,5)
ShowMessage("妲己は豊満な胸をはだけ、妖しく誘う。")
ShowMessageFace("",0,0,2,6)
ShowMessage("\\n<Luka>")
ShowMessage("あ……あぁぁぁ……")
ShowMessageFace("",0,0,2,7)
ShowMessage("たちまち僕は理性を失い、ふらふらと妲己に歩み寄った。")
ShowMessage("そして、その胸に顔を埋めてしまう――")
ShowMessageFace("dakki_fc1",0,0,2,8)
ShowMessage("\\n<Daji>")
ShowMessage("ホホホ、欲望に素直な小僧よ……")
ShowMessage("たっぷりと褒美をくれてやろう。")
PictureDisplay(5,"ev_dakki_h1",0,0,0,0,100,100,0,0)
PictureMove(5,null,0,0,0,0,100,100,255,0,30,true)
ShowMessageFace("",0,0,2,9)
ShowMessage("そのまま妲己は、僕の体を優しく抱き締めてきた。")
ShowMessage("柔らかな温もりに包まれ、途端に脱力してしまう。")
ShowMessageFace("",0,0,2,10)
ShowMessage("\\n<Luka>")
ShowMessage("あ……はぅぅぅぅ……")
ShowMessageFace("",0,0,2,11)
ShowMessage("まるで、包み込まれるような密着感。")
ShowMessage("これだけでも、すぐさまイってしまいそうだ――")
ShowMessageFace("dakki_fc1",0,0,2,12)
ShowMessage("\\n<Daji>")
ShowMessage("まだ先走るでないぞ……")
ShowMessage("ほれ、妾が犯してやろう。")
ShowMessageFace("",0,0,2,13)
ShowMessage("大きくなった肉棒を、妲己は自身の膣口に導いてくる。")
ShowMessage("亀頭が、柔らかな肌の感触に触れ――")
245(bytes(0x04,0x08,0x6f,0x3a,0x0d,0x52,0x50,0x47,0x3a,0x3a,0x42,0x47,0x53,0x08,0x3a,0x0a,0x40,0x6e,0x61,0x6d,0x65,0x49,0x22,0x1e,0x6d,0x6f,0x6e,0x5f,0x68,0x73,0x65,0x61,0x6e,0x30,0x35,0x5f,0x69,0x6e,0x6e,0x65,0x72,0x77,0x6f,0x72,0x6b,0x73,0x5f,0x61,0x35,0x06,0x3a,0x06,0x45,0x54,0x3a,0x0c,0x40,0x76,0x6f,0x6c,0x75,0x6d,0x65,0x69,0x55,0x3a,0x0b,0x40,0x70,0x69,0x74,0x63,0x68,0x69,0x69))
PictureDisplay(5,"ev_dakki_h2",0,0,0,0,100,100,255,0)
ShowMessageFace("",0,0,2,14)
ShowMessage("\\n<Luka>")
ShowMessage("はぅぅぅっ……！！")
ShowMessageFace("",0,0,2,15)
ShowMessage("そして、僕のモノは魅惑の肉壺に咥え込まれてしまった！")
ShowMessage("熱く濡れた肉壁がペニスを包み、柔らかく揉み解してくる――")
ShowMessageFace("dakki_fc1",0,0,2,16)
ShowMessage("\\n<Daji>")
ShowMessage("ホホホ……妾の肉壺はどうだ？")
ShowMessage("どんな男でも数秒もたぬ心地、堪能するが良いぞ……")
ShowMessageFace("",0,0,2,17)
ShowMessage("\\n<Luka>")
ShowMessage("う……あ、あぁぁっ……！")
ShowMessageFace("",0,0,2,18)
ShowMessage("その甘い感触に、僕は上擦った声を漏らすしかなかった。")
ShowMessage("柔肉は艶めかしく収縮し、ペニスの先端から根元まで揉みしだく。")
ShowMessageFace("",0,0,2,19)
ShowMessage("まるで極楽のような快感に、僕はたちまち溺れきった。")
ShowMessage("妲己の抱擁に包まれながら、腰をぶるっと震わせ――")
RunCommonEvent(104)
PictureDisplay(5,"ev_dakki_h3",0,0,0,0,100,100,255,0)
RunCommonEvent(105)
ShowMessageFace("",0,0,2,20)
ShowMessage("\\n<Luka>")
ShowMessage("はぅぅぅぅ……")
ShowMessageFace("",0,0,2,21)
ShowMessage("そして、あっという間に射精に至らされてしまう。")
ShowMessage("中の感触を味わった瞬間、漏らしてしまったのだ。")
ShowMessageFace("dakki_fc1",0,0,2,22)
ShowMessage("\\n<Daji>")
ShowMessage("ホホホ……もう果てたか。")
ShowMessage("まあ、ほとんどの男はそのようなものよ。")
PictureDisplay(5,"ev_dakki_h4",0,0,0,0,100,100,255,0)
ShowMessageFace("",0,0,2,23)
ShowMessage("妲己の膣内がうねり、きゅうきゅうと小刻みに締めてくる。")
ShowMessage("まるで、射精中のペニスから精を搾り出すかのようだ。")
ShowMessageFace("dakki_fc1",0,0,2,24)
ShowMessage("\\n<Daji>")
ShowMessage("構うことはない、思う存分に出すが良い。")
ShowMessage("妾の体に溺れ、干涸らびるまで出し尽くせ……")
ShowMessageFace("",0,0,2,25)
ShowMessage("\\n<Luka>")
ShowMessage("はぅぅ……あ、あぁぁ……")
ShowMessageFace("",0,0,2,26)
ShowMessage("頭は柔らかな乳房に埋もれ、むにゅむにゅと圧迫される。")
ShowMessage("その温もりと、甘い香りは理性までとろけるほどだ。")
ShowMessageFace("",0,0,2,27)
ShowMessage("そして、肉壺の中ではペニスが極上の歓迎を受けていた。")
ShowMessage("柔肉が、細かなヒダが甘く優しく肉棒を蕩かす――")
ShowMessageFace("",0,0,2,28)
ShowMessage("\\n<Luka>")
ShowMessage("あぁぁ……だめぇ……")
ShowMessage("きもちいいよぉ……")
ShowMessageFace("dakki_fc1",0,0,2,29)
ShowMessage("\\n<Daji>")
ShowMessage("ホホホ……我慢など出来まい？")
ShowMessage("ほれ、中をきつく締めてやれば――")
ShowMessageFace("",0,0,2,30)
ShowMessage("\\n<Luka>")
ShowMessage("はぅぅぅぅっ……！！")
ShowMessageFace("",0,0,2,31)
ShowMessage("ぎゅっと狭まってくる柔肉。")
ShowMessage("ペニスが、肉壁に四方から柔らかく圧迫され――")
RunCommonEvent(104)
PictureDisplay(5,"ev_dakki_h5",0,0,0,0,100,100,255,0)
RunCommonEvent(105)
ShowMessageFace("",0,0,2,32)
ShowMessage("\\n<Luka>")
ShowMessage("あ……あぁぁぁ……")
ShowMessageFace("",0,0,2,33)
ShowMessage("ドクドクと、妲己の膣内に精液が搾り出されていく。")
ShowMessage("同時に、心地良い脱力感が全身に広がっていった。")
ShowMessageFace("",0,0,2,34)
ShowMessage("射精と同時に、精気まで奪われている――")
ShowMessage("僕はそれを悟っていたが、もはや快楽には抗えなかった。")
ShowMessageFace("",0,0,2,35)
ShowMessage("\\n<Luka>")
ShowMessage("はぅぅ……きもちいいよぉ……")
ShowMessage("もっと、もっと吸ってぇ……")
ShowMessageFace("dakki_fc1",0,0,2,36)
ShowMessage("\\n<Daji>")
ShowMessage("ホホホ……すっかり堕ちてしまったか。")
ShowMessage("では、少々激しく行くぞ。")
PictureDisplay(5,"ev_dakki_h6",0,0,0,0,100,100,255,0)
ShowMessageFace("",0,0,2,37)
ShowMessage("ぎゅぅっ……と、妲己は僕を包むように抱擁した。")
ShowMessage("ますます激しくなる密着感に、僕はとろけてしまう。")
ShowMessageFace("",0,0,2,38)
ShowMessage("\\n<Luka>")
ShowMessage("はぅ……あぅぅぅ……")
ShowMessageFace("",0,0,2,39)
ShowMessage("そして膣内の密着感も、増す一方だった。")
ShowMessage("柔肉はペニスを締めながら、ぐねぐねと収縮を繰り返す。")
ShowMessageFace("dakki_fc1",0,0,2,40)
ShowMessage("\\n<Daji>")
ShowMessage("ホホホ……好きなだけ、愉しむが良い。")
ShowMessage("思うがままに、精を迸らせるが良い。")
ShowMessageFace("dakki_fc1",0,0,2,41)
ShowMessage("\\n<Daji>")
ShowMessage("お主はもはや、妾のモノよ。")
ShowMessage("その精も、肉も、魂までな……")
ShowMessageFace("",0,0,2,42)
ShowMessage("\\n<Luka>")
ShowMessage("はぅ……あぅぅぅ……")
ShowMessageFace("",0,0,2,43)
ShowMessage("妲己の抱擁に溺れながら、僕はすっかり体を弛緩させていた。")
ShowMessage("膣内のペニスが、悦びのままに脈動し――")
RunCommonEvent(104)
PictureDisplay(5,"ev_dakki_h7",0,0,0,0,100,100,255,0)
RunCommonEvent(105)
ShowMessageFace("",0,0,2,44)
ShowMessage("\\n<Luka>")
ShowMessage("ふぁぁぁぁ……")
ShowMessageFace("",0,0,2,45)
ShowMessage("そして、膣内にどっぷりと精液を捧げてしまう。")
ShowMessage("そればかりか、精気そのものが貪られていくのだ。")
ShowMessageFace("",0,0,2,46)
ShowMessage("快楽の代償に、全身を虚脱感が支配する。")
ShowMessage("頭の中はすっかりとろけ、もはや理性も失ってしまった――")
ShowMessageFace("dakki_fc1",0,0,2,47)
ShowMessage("\\n<Daji>")
ShowMessage("ホホホ……すっかり虜よな。")
ShowMessage("このまま、妾に抱かれ果てるが良い。")
PictureDisplay(5,"ev_dakki_h8",0,0,0,0,100,100,255,0)
ShowMessageFace("",0,0,2,48)
ShowMessage("妲己の尻尾が、僕を抱擁するかのように包み込む。")
ShowMessage("ふわふわの感触は、まさに天国のゆりかごのようだ――")
ShowMessageFace("",0,0,2,49)
ShowMessage("\\n<Luka>")
ShowMessage("はぅ……ふぁぁぁ……")
ShowMessageFace("dakki_fc1",0,0,2,50)
ShowMessage("\\n<Daji>")
ShowMessage("そのまま、甘美なる精を妾に捧げ続けるのだ。")
ShowMessage("干涸らびるまで、貪り尽くしてやろうぞ……")
ShowMessageFace("",0,0,2,51)
ShowMessage("\\n<Luka>")
ShowMessage("あぅ……はぅぅっ……")
RunCommonEvent(104)
PictureDisplay(5,"ev_dakki_h9",0,0,0,0,100,100,255,0)
RunCommonEvent(105)
ShowMessageFace("",0,0,2,52)
ShowMessage("快楽のままに、どぷどぷと精液を放つ。")
ShowMessage("甘く包んでくれる主に、精を献上するかのように――")
ShowMessageFace("",0,0,2,53)
ShowMessage("その代償に与えられた快楽は、身も心も蕩かした。")
ShowMessage("もはや僕は理性を失い、精を捧げ続けるだけの存在だった。")
ShowMessageFace("",0,0,2,54)
ShowMessage("\\n<Luka>")
ShowMessage("ふぁ……あぁぁ……")
ShowMessageFace("dakki_fc1",0,0,2,55)
ShowMessage("\\n<Daji>")
ShowMessage("ホホホ……そう、それでいい。")
ShowMessage("最期の瞬間まで、抱き締めていてやろう……")
ShowMessageFace("",0,0,2,56)
ShowMessage("\\n<Luka>")
ShowMessage("あ……あぁぁ……")
RunCommonEvent(104)
RunCommonEvent(105)
ShowMessageFace("",0,0,2,57)
ShowMessage("快楽のままに、妲己の魔膣に漏れ出る精。")
ShowMessage("同時に、搾取されていく精気――")
ShowMessageFace("",0,0,2,58)
ShowMessage("\\n<Luka>")
ShowMessage("ぅ……ぁぁ……")
RunCommonEvent(104)
RunCommonEvent(105)
ShowMessageFace("",0,0,2,59)
ShowMessage("僕は衰弱しながらも射精を繰り返し――")
ShowMessage("そして、身も心も妲己に捧げていく。")
ShowMessageFace("",0,0,2,60)
ShowMessage("\\n<Luka>")
ShowMessage("ぁ……ぅ……")
RunCommonEvent(104)
RunCommonEvent(105)
ShowMessageFace("",0,0,2,61)
ShowMessage("何度も何度も果て――")
ShowMessage("そして、精気を出し尽くし――")
RunCommonEvent(104)
RunCommonEvent(105)
246(2)
ShowMessageFace("",0,0,2,62)
ShowMessage("\\n<Luka>")
ShowMessage("……………………")
ShowMessageFace("dakki_fc1",0,0,2,63)
ShowMessage("\\n<Daji>")
ShowMessage("ホホホ……尽き果ててしまったか。")
ShowMessage("これで、その魂まで妾のものよ。")
ShowMessageFace("",0,0,2,64)
ShowMessage("こうして僕は、妲己に抱かれながら搾り尽くされた。")
ShowMessage("その屍まで貪られ、身も心も搾取されたのである――")
221()
PictureClear(5)
PictureClear(6)
246(2)
ShowMessageFace("",0,0,2,65)
ShowMessage("・・・・・・・・")
RunCommonEvent(3999)
0()
