// EVENT 4401
Name "Sister Lamia"

If(0,25,1)
 221()
 PictureClear(5)
 PictureClear(6)
 ShowMessageFace("",0,0,2,0)
 ShowMessage("......")
 242(2)
 Wait(120)
 241(bytes(0x04,0x08,0x6f,0x3a,0x0d,0x52,0x50,0x47,0x3a,0x3a,0x42,0x47,0x4d,0x08,0x3a,0x0a,0x40,0x6e,0x61,0x6d,0x65,0x49,0x22,0x0c,0x63,0x61,0x73,0x74,0x6c,0x65,0x36,0x06,0x3a,0x06,0x45,0x54,0x3a,0x0c,0x40,0x76,0x6f,0x6c,0x75,0x6d,0x65,0x69,0x69,0x3a,0x0b,0x40,0x70,0x69,0x74,0x63,0x68,0x69,0x69))
 EndEventProcessing()
 0()
EndIf()
PictureDisplay(5,"80_sisterlamia_st01",0,0,0,0,100,100,255,0)
ShowMessageFace("sisterlamia_fc1",0,0,2,1)
ShowMessage("\\n<Sofia>You look at my breasts so often...")
ShowMessageFace("",0,0,2,2)
ShowMessage("\\n<Luka>Eh? Th-that's not true...")
ShowMessageFace("sisterlamia_fc1",0,0,2,3)
ShowMessage("\\n<Sofia>Do not lie.\nAs your ally, it is my duty to cleanse you of such dirty thoughts...")
ShowMessageFace("",0,0,2,4)
ShowMessage("\\n<Luka>Wh-what...Ugh!")
241(bytes(0x04,0x08,0x6f,0x3a,0x0d,0x52,0x50,0x47,0x3a,0x3a,0x42,0x47,0x4d,0x08,0x3a,0x0a,0x40,0x6e,0x61,0x6d,0x65,0x49,0x22,0x09,0x65,0x72,0x6f,0x31,0x06,0x3a,0x06,0x45,0x54,0x3a,0x0c,0x40,0x76,0x6f,0x6c,0x75,0x6d,0x65,0x69,0x69,0x3a,0x0b,0x40,0x70,0x69,0x74,0x63,0x68,0x69,0x69))
245(bytes(0x04,0x08,0x6f,0x3a,0x0d,0x52,0x50,0x47,0x3a,0x3a,0x42,0x47,0x53,0x08,0x3a,0x0a,0x40,0x6e,0x61,0x6d,0x65,0x49,0x22,0x17,0x6d,0x6f,0x6e,0x5f,0x68,0x73,0x65,0x61,0x6e,0x31,0x37,0x5f,0x73,0x69,0x67,0x6f,0x6b,0x69,0x06,0x3a,0x06,0x45,0x54,0x3a,0x0c,0x40,0x76,0x6f,0x6c,0x75,0x6d,0x65,0x69,0x55,0x3a,0x0b,0x40,0x70,0x69,0x74,0x63,0x68,0x69,0x69))
PictureDisplay(5,"ev_sisterlamia_hb1",0,0,0,0,100,100,0,0)
PictureMove(5,null,0,0,0,0,100,100,255,0,30,true)
ShowMessageFace("",0,0,2,5)
ShowMessage("Sofia pushes me down and exposes her breasts.")
ShowMessage("She tucks my penis between her plump breasts!")
ShowMessageFace("",0,0,2,6)
ShowMessage("\\n<Luka>Ah, aaah...")
ShowMessageFace("",0,0,2,7)
ShowMessage("Her soft breasts touch my penis from both sides.")
ShowMessage("Her soft skin and warm body temperature comfort my penis...")
PictureDisplay(5,"ev_sisterlamia_hb2",0,0,0,0,100,100,255,0)
ShowMessageFace("sisterlamia_fc1",1,0,2,8)
ShowMessage("\\n<Sofia>Are you still denying the fact that you're interested in my chest?\nYour shameless penis is not denying it...")
ShowMessageFace("sisterlamia_fc1",1,0,2,9)
ShowMessage("\\n<Sofia>I will punish you.\nI will make you shoot out your unclean feelings on my chest...")
ShowMessageFace("",0,0,2,10)
ShowMessage("\\n<Luka>N...no way... Aaah...")
ShowMessageFace("",0,0,2,11)
ShowMessage("Sofia puts both her hands on her breasts and squeezes gently.")
ShowMessage("My penis, caught in her valley, is pressed by her breasts.")
ShowMessageFace("",0,0,2,12)
ShowMessage("Feeling her warmth and the soft squeezing...")
ShowMessage("It felt like ascending to heaven.")
ShowMessageFace("sisterlamia_fc1",1,0,2,13)
ShowMessage("\\n<Sofia>This is not for your enjoyment so I will finish you quickly.\nI will make the pleasure stronger so please finish soon...")
ShowMessageFace("",0,0,2,14)
ShowMessage("\\n<Luka>Ah, aaaah...!")
ShowMessageFace("",0,0,2,15)
ShowMessage("Sofia starts an up and down, alternating movement with her breasts.")
ShowMessage("She crushes and rubs my penis inside her valley.")
ShowMessageFace("",0,0,2,16)
ShowMessage("On top of that, she stimulates my glans with her right hand from above.")
ShowMessage("My hips buck from the gentle strokes and rubbing.")
ShowMessageFace("",0,0,2,17)
ShowMessage("\\n<Luka>Nnngh...That feels good...")
ShowMessageFace("sisterlamia_fc1",1,0,2,18)
ShowMessage("\\n<Sofia>Although I am just squeezing out your semen, you're enjoying it...\nThen I will finish you quickly.")
ShowMessageFace("",0,0,2,19)
ShowMessage("\\n<Luka>Hnnaaa...!")
ShowMessageFace("",0,0,2,20)
ShowMessage("Her breasts alternate up and down, rubbing my penis inside her cleavage.")
ShowMessage("At times she lightly taps my glans with her palm.")
ShowMessageFace("",0,0,2,21)
ShowMessage("I entrust my penis to her chest and let her do whatever she wants.")
ShowMessage("The sweet feeling of ejaculation soon follows...")
ShowMessageFace("",0,0,2,22)
ShowMessage("\\n<Luka>Aaah...I'm going to come...")
ShowMessageFace("sisterlamia_fc1",1,0,2,23)
ShowMessage("\\n<Sofia>I do not mind, please finish in my chest.")
ShowMessageFace("",0,0,2,24)
ShowMessage("Sofia intensifies her movements, clearly intending to make me come.")
ShowMessage("Feeling her sweet squeezing and rubbing, my vision goes white.")
ShowMessageFace("",0,0,2,25)
ShowMessage("\\n<Luka>Ah, aaaaaah!!")
RunCommonEvent(104)
PictureDisplay(5,"ev_sisterlamia_hb3",0,0,0,0,100,100,255,0)
RunCommonEvent(105)
ShowMessageFace("",0,0,2,26)
ShowMessage("I scatter my semen while caught inside Sofia's breasts.")
ShowMessage("Every time my penis pulsates, a blissful pleasure courses through me.")
ShowMessageFace("sisterlamia_fc1",1,0,2,27)
ShowMessage("\\n<Sofia>Your unclean feelings came out...\nNot a single drop of them is left.")
ShowMessageFace("",0,0,2,28)
ShowMessage("Sofia squeezes my penis between her breasts, making sure to get out every last drop.")
ShowMessage("Every drop of my semen remaining in my urethra is squeezed out.")
246(2)
ShowMessageFace("",0,0,2,29)
ShowMessage("\\n<Luka>Huaaa...")
ShowMessageFace("sisterlamia_fc1",1,0,2,30)
ShowMessage("\\n<Sofia>With this, I squeezed out all your unclean desires.\nIf unclean feelings gather again, I will squeeze them out...")
ShowMessageFace("",0,0,2,31)
ShowMessage("Sofia softly smiles at me.")
ShowMessage("But the aura of a woman who dominated a man oozes from her.")
221()
PictureClear(5)
PictureClear(6)
ShowMessageFace("",0,0,2,32)
ShowMessage("......")
242(2)
Wait(120)
241(bytes(0x04,0x08,0x6f,0x3a,0x0d,0x52,0x50,0x47,0x3a,0x3a,0x42,0x47,0x4d,0x08,0x3a,0x0a,0x40,0x6e,0x61,0x6d,0x65,0x49,0x22,0x0c,0x63,0x61,0x73,0x74,0x6c,0x65,0x36,0x06,0x3a,0x06,0x45,0x54,0x3a,0x0c,0x40,0x76,0x6f,0x6c,0x75,0x6d,0x65,0x69,0x69,0x3a,0x0b,0x40,0x70,0x69,0x74,0x63,0x68,0x69,0x69))
0()
