// EVENT 1109
Name "Talk: Sara"

If(1,20,0,1,0)
 JumpToLabel("情報")
 0()
EndIf()
If(1,20,0,2,0)
 JumpToLabel("質問")
 0()
EndIf()
If(1,20,0,3,0)
 JumpToLabel("要求")
 0()
EndIf()
If(1,20,0,4,0)
 JumpToLabel("贈与")
 0()
EndIf()
DefineLabel("情報")
ChangeVariable(13,13,0,2,1,100)
If(1,13,0,10,2)
 ShowMessageFace("sara_fc4",0,0,2,1)
 ShowMessage("\\n<Sara>Ahahaa... Let me suck out all your semen...")
 EndEventProcessing()
 0()
EndIf()
If(1,13,0,20,2)
 ShowMessageFace("sara_fc4",0,0,2,2)
 ShowMessage("\\n<Sara>Fufufuu, you look delicious...")
 EndEventProcessing()
 0()
EndIf()
If(1,13,0,30,2)
 ShowMessageFace("sara_fc4",0,0,2,3)
 ShowMessage("\\n<Sara>After I squeeze everything from all of you... all the men in this country will... Ahahaa...")
 EndEventProcessing()
 0()
EndIf()
If(1,13,0,40,2)
 ShowMessageFace("sara_fc4",0,0,2,4)
 ShowMessage("\\n<Sara>No need to be afraid. I'll squeeze you carefully until you're completely dry.")
 EndEventProcessing()
 0()
EndIf()
If(1,13,0,50,2)
 ShowMessageFace("sara_fc4",0,0,2,5)
 ShowMessage("\\n<Sara>Running away is useless, fufufuu... Resign yourself to getting sucked by me.")
 EndEventProcessing()
 0()
EndIf()
If(1,13,0,60,2)
 ShowMessageFace("sara_fc4",0,0,2,6)
 ShowMessage("\\n<Sara>Ahahaa, I'll give you a special service...♪ I'll kiss you passionately until the very end...")
 EndEventProcessing()
 0()
EndIf()
If(1,13,0,70,2)
 ShowMessageFace("sara_fc4",0,0,2,7)
 ShowMessage("\\n<Sara>Come deep inside my pussy. I'll drink every last drop...")
 EndEventProcessing()
 0()
EndIf()
If(1,13,0,80,2)
 ShowMessageFace("sara_fc4",0,0,2,8)
 ShowMessage("\\n<Sara>This is more fun than wielding a sword. Now, become my prey...")
 EndEventProcessing()
 0()
EndIf()
If(1,13,0,90,2)
 ShowMessageFace("sara_fc4",0,0,2,9)
 ShowMessage("\\n<Sara>Are you my prey? I'll suck lots from you, fufufuu...")
 EndEventProcessing()
 0()
EndIf()
If(1,13,0,100,2)
 ShowMessageFace("sara_fc4",0,0,2,10)
 ShowMessage("\\n<Sara>You'll be sent to heaven in my embrace. It'll be the best... Ahahaa...")
 EndEventProcessing()
 0()
EndIf()
DefineLabel("質問")
ChangeVariable(13,13,0,2,1,50)
If(1,13,0,10,2)
 ShowMessageFace("sara_fc4",0,0,2,11)
 ShowMessage("\\n<Sara>Hey, want to be squeezed by me...? Do you want to be squeezed until you're completely dry...?")
 ShowChoices(strings("I don't want to be squeezed","I want to be squeezed","I want to do the squeezing"),0)
 IfPlayerPicksChoice(0,"嫌だ")
  ShowMessageFace("sara_fc4",0,0,2,12)
  ShowMessage("\\n<Sara>Well, that doesn't matter. Even if you scream, no one can save you...")
  355("change_friend(10)")
  0()
 IfPlayerPicksChoice(1,"搾られたい")
  ShowMessageFace("sara_fc4",0,0,2,13)
  ShowMessage("\\n<Sara>Fufufuu, I want to squeeze you too. Hora, come closer...")
  313(0,1,0,26)
  ShowMessageFace("",0,0,2,14)
  ShowMessage("Luka has been seduced!")
  355("change_friend(10)")
  0()
 IfPlayerPicksChoice(2,"逆に搾りたい")
  ShowMessageFace("sara_fc4",0,0,2,15)
  ShowMessage("\\n<Sara>Oh? You can try, ufufuu...")
  0()
 404()
 EndEventProcessing()
 0()
EndIf()
If(1,13,0,20,2)
 ShowMessageFace("sara_fc4",0,0,2,16)
 ShowMessage("\\n<Sara>Do you want to rape me...? Or do you want to be raped...?")
 ShowChoices(strings("I don't want to do either","I want rape you","I want to be raped"),0)
 IfPlayerPicksChoice(0,"どっちも嫌だ")
  ShowMessageFace("sara_fc4",0,0,2,17)
  ShowMessage("\\n<Sara>So you won't even consider it? Guys like you need to be taken by force...")
  355("change_friend(-5)")
  0()
 IfPlayerPicksChoice(1,"犯したい")
  ShowMessageFace("sara_fc4",0,0,2,18)
  ShowMessage("\\n<Sara>Ahahaa, you want to rape me yourself? If you think you're up to it, give it a try...")
  355("change_friend(10)")
  0()
 IfPlayerPicksChoice(2,"犯されたい")
  ShowMessageFace("sara_fc4",0,0,2,19)
  ShowMessage("\\n<Sara>Ahahaa, you want to get raped by me? All right, I'll rape you plenty...")
  355("change_friend(10)")
  0()
 404()
 EndEventProcessing()
 0()
EndIf()
If(1,13,0,30,2)
 ShowMessageFace("sara_fc4",0,0,2,20)
 ShowMessage("\\n<Sara>Hey... Do you want me to take my time sucking you? Or do you want me to suck everything out all at once?")
 ShowChoices(strings("I don't want to be sucked at all","Take your time","All at once"),0)
 IfPlayerPicksChoice(0,"吸われたくない")
  ShowMessageFace("sara_fc4",0,0,2,21)
  ShowMessage("\\n<Sara>So you won't even consider it? Guys like you need to be taken by force...")
  355("change_friend(-5)")
  0()
 IfPlayerPicksChoice(1,"たっぷり時間をかけて")
  ShowMessageFace("sara_fc4",0,0,2,22)
  ShowMessage("\\n<Sara>Ahahaa, you want to be thoroughly sucked? Well then, I'll suck you slowly...")
  355("change_friend(10)")
  0()
 IfPlayerPicksChoice(2,"一気に")
  ShowMessageFace("sara_fc4",0,0,2,23)
  ShowMessage("\\n<Sara>Ahahaa, you want to be sucked bare all at once? Well then, I'll dry you out in a single go...")
  355("change_friend(10)")
  0()
 404()
 EndEventProcessing()
 0()
EndIf()
If(1,13,0,40,2)
 ShowMessageFace("sara_fc4",0,0,2,24)
 ShowMessage("\\n<Sara>Hey... Aside from inside my vagina, where would you like to release your semen? On my breasts? My face? Inside my mouth? Put it anywhere you want.")
 ShowChoices(strings("I won't","On your breasts","On your face","In your mouth"),0)
 IfPlayerPicksChoice(0,"遠慮する")
  ShowMessageFace("sara_fc4",0,0,2,25)
  ShowMessage("\\n<Sara>So you won't even consider it? Guys like you need to be taken by force...")
  355("change_friend(-5)")
  0()
 IfPlayerPicksChoice(1,"胸")
  ShowMessageFace("sara_fc4",0,0,2,26)
  ShowMessage("\\n<Sara>Ahaa, you want to get my breasts dirty? All right, I'll press it between them...")
  355("change_friend(10)")
  0()
 IfPlayerPicksChoice(2,"顔")
  ShowMessageFace("sara_fc4",0,0,2,27)
  ShowMessage("\\n<Sara>Ahaa, you want to dirty my face? Will you put it there on your own, or do you want me to do it...?")
  355("change_friend(10)")
  0()
 IfPlayerPicksChoice(3,"口")
  ShowMessageFace("sara_fc4",0,0,2,28)
  ShowMessage("\\n<Sara>Ahaa, you want me to drink it? All right, I'll suck out a lot...")
  355("change_friend(10)")
  0()
 404()
 EndEventProcessing()
 0()
EndIf()
If(1,13,0,50,2)
 ShowMessageFace("sara_fc4",0,0,2,29)
 ShowMessage("\\n<Sara>Hey... How many times will you come?")
 ShowChoices(strings("Once","Five times","100 times","Even once is impossible"),0)
 IfPlayerPicksChoice(0,"1回")
  ShowMessageFace("sara_fc4",0,0,2,30)
  ShowMessage("\\n<Sara>That's it? Well then, I'll thoroughly enjoy the one time...")
  0()
 IfPlayerPicksChoice(1,"5回")
  ShowMessageFace("sara_fc4",0,0,2,31)
  ShowMessage("\\n<Sara>I guess that's a little disappointing. But I'll be satisfied if you give me a lot...")
  0()
 IfPlayerPicksChoice(2,"100回")
  ShowMessageFace("sara_fc4",0,0,2,32)
  ShowMessage("\\n<Sara>Ahaa, amazing... Well then, I'll get lots of pleasure...")
  355("change_friend(10)")
  0()
 IfPlayerPicksChoice(3,"1回も無理")
  ShowMessageFace("sara_fc4",0,0,2,33)
  ShowMessage("\\n<Sara>Is that true? Well, I'm going to test that...")
  0()
 404()
 EndEventProcessing()
 0()
EndIf()
DefineLabel("要求")
ChangeVariable(13,13,0,2,1,30)
If(1,13,0,10,2)
 If(8,342)
  ShowMessageFace("sara_fc4",0,0,2,34)
  ShowMessage("\\n<Sara>Let me drink something white... I don't mind if it's milk...")
  ChangeVariable(24,24,0,3,0,342,0)
  ShowMessageFace("",0,0,2,35)
  ShowMessage("Do you want to give some \\ii[342]? (Have:\\V[24])")
  ShowChoices(strings("Yes","No"),2)
  IfPlayerPicksChoice(0,"Yes")
   ShowMessageFace("sara_fc4",1,0,2,36)
   ShowMessage("\\n<Sara>Ahahaa, I'm so happy. As a reward, I'll lead you to heaven...")
   ChangeInventory_Item(342,1,0,1)
   355("change_friend(20)")
   EndEventProcessing()
   0()
  IfPlayerPicksChoice(1,"No")
   ShowMessageFace("sara_fc4",2,0,2,37)
   ShowMessage("\\n<Sara>Really? What a tease...")
   EndEventProcessing()
   0()
  404()
  0()
 Else()
  ChangeVariable(13,13,0,0,20)
  0()
 EndIf()
 0()
EndIf()
If(1,13,0,20,2)
 If(8,417)
  ShowMessageFace("sara_fc4",0,0,2,38)
  ShowMessage("\\n<Sara>Ahh, I want some cake... Why? Well, I'm a succubus.")
  ChangeVariable(24,24,0,3,0,417,0)
  ShowMessageFace("",0,0,2,39)
  ShowMessage("Do you want to give some \\ii[417]? (Have:\\V[24])")
  ShowChoices(strings("Yes","No"),2)
  IfPlayerPicksChoice(0,"Yes")
   ShowMessageFace("sara_fc4",1,0,2,40)
   ShowMessage("\\n<Sara>Ahahaa, I'm so happy. As a reward, I'll lead you to heaven...")
   ChangeInventory_Item(417,1,0,1)
   355("change_friend(30)")
   EndEventProcessing()
   0()
  IfPlayerPicksChoice(1,"No")
   ShowMessageFace("sara_fc4",2,0,2,41)
   ShowMessage("\\n<Sara>Really? What a tease...")
   EndEventProcessing()
   0()
  404()
  0()
 Else()
  ChangeVariable(13,13,0,0,30)
  0()
 EndIf()
 0()
EndIf()
If(1,13,0,30,2)
 ShowMessageFace("sara_fc4",0,0,2,42)
 ShowMessage("\\n<Sara>Could you give me some money? I'll squeeze you plenty in exchange...")
 If(7,1050,0)
  ChangeVariable(24,24,0,3,7,2,0)
  ShowMessageFace("",0,0,2,43)
  ShowMessage("Do you want to give 1050G? (Remaining: \\V[24])")
  ShowChoices(strings("Yes","No"),2)
  IfPlayerPicksChoice(0,"Yes")
   ShowMessageFace("sara_fc4",1,0,2,44)
   ShowMessage("\\n<Sara>Ahahaa, I'm so happy. As a reward, I'll lead you to heaven...")
   125(1,0,1050)
   355("change_friend(25)")
   EndEventProcessing()
   0()
  IfPlayerPicksChoice(1,"No")
   ShowMessageFace("sara_fc4",2,0,2,45)
   ShowMessage("\\n<Sara>Really? What a tease...")
   EndEventProcessing()
   0()
  404()
  0()
 Else()
  ShowMessageFace("sara_fc4",2,0,2,46)
  ShowMessage("\\n<Sara>Whaaat? You don't have any money...?")
  EndEventProcessing()
  0()
 EndIf()
 0()
EndIf()
DefineLabel("贈与")
ChangeVariable(13,13,0,2,1,30)
If(1,25,0,1,0)
 ChangeVariable(13,13,0,0,30)
 ChangeVariable(25,25,0,0,0)
 0()
EndIf()
If(1,25,0,2,0)
 ChangeVariable(13,13,0,2,1,20)
 ChangeVariable(25,25,0,0,0)
 0()
EndIf()
If(1,13,0,10,2)
 ShowMessageFace("sara_fc4",0,0,2,47)
 ShowMessage("\\n<Sara>I'll give you this medicine... So please give me your semen...")
 250(bytes(0x04,0x08,0x6f,0x3a,0x0c,0x52,0x50,0x47,0x3a,0x3a,0x53,0x45,0x08,0x3a,0x0a,0x40,0x6e,0x61,0x6d,0x65,0x49,0x22,0x0a,0x49,0x74,0x65,0x6d,0x31,0x06,0x3a,0x06,0x45,0x54,0x3a,0x0b,0x40,0x70,0x69,0x74,0x63,0x68,0x69,0x69,0x3a,0x0c,0x40,0x76,0x6f,0x6c,0x75,0x6d,0x65,0x69,0x55))
 ChangeInventory_Item(4,0,0,1)
 ShowMessageFace("",0,0,2,48)
 ShowMessage("Sara gave you a \\ii[4]!")
 EndEventProcessing()
 0()
EndIf()
If(1,13,0,20,2)
 ShowMessageFace("sara_fc4",0,0,2,49)
 ShowMessage("\\n<Sara>Do you want my tail...? You want my tail, ahahaa...")
 250(bytes(0x04,0x08,0x6f,0x3a,0x0c,0x52,0x50,0x47,0x3a,0x3a,0x53,0x45,0x08,0x3a,0x0a,0x40,0x6e,0x61,0x6d,0x65,0x49,0x22,0x0a,0x49,0x74,0x65,0x6d,0x31,0x06,0x3a,0x06,0x45,0x54,0x3a,0x0b,0x40,0x70,0x69,0x74,0x63,0x68,0x69,0x69,0x3a,0x0c,0x40,0x76,0x6f,0x6c,0x75,0x6d,0x65,0x69,0x55))
 ChangeInventory_Item(181,0,0,1)
 ShowMessageFace("",0,0,2,50)
 ShowMessage("Sara gave you a \\ii[181]!")
 EndEventProcessing()
 0()
EndIf()
If(1,13,0,30,2)
 ShowMessageFace("sara_fc4",0,0,2,51)
 ShowMessage("\\n<Sara>I don't need money... Please give me your semen in exchange for this...")
 250(bytes(0x04,0x08,0x6f,0x3a,0x0c,0x52,0x50,0x47,0x3a,0x3a,0x53,0x45,0x08,0x3a,0x0a,0x40,0x6e,0x61,0x6d,0x65,0x49,0x22,0x0a,0x49,0x74,0x65,0x6d,0x31,0x06,0x3a,0x06,0x45,0x54,0x3a,0x0b,0x40,0x70,0x69,0x74,0x63,0x68,0x69,0x69,0x3a,0x0c,0x40,0x76,0x6f,0x6c,0x75,0x6d,0x65,0x69,0x55))
 125(0,0,1750)
 ShowMessageFace("",0,0,2,52)
 ShowMessage("Sara gave you 1750G!")
 EndEventProcessing()
 0()
EndIf()
0()
