// EVENT 3043
Name "Catfish Girl"

If(0,25,1)
 JumpToLabel("反省会")
 0()
EndIf()
PictureDisplay(5,"80_namazu_st02",0,0,0,0,100,100,0,0)
PictureMove(5,null,0,0,0,0,100,100,255,0,30,true)
241(bytes(0x04,0x08,0x6f,0x3a,0x0d,0x52,0x50,0x47,0x3a,0x3a,0x42,0x47,0x4d,0x08,0x3a,0x0a,0x40,0x6e,0x61,0x6d,0x65,0x49,0x22,0x09,0x65,0x72,0x6f,0x31,0x06,0x3a,0x06,0x45,0x54,0x3a,0x0c,0x40,0x76,0x6f,0x6c,0x75,0x6d,0x65,0x69,0x69,0x3a,0x0b,0x40,0x70,0x69,0x74,0x63,0x68,0x69,0x69))
ShowMessageFace("",0,0,2,1)
ShowMessage("\\n<Luka>Unnngh...")
ShowMessageFace("namazu_fc1",1,0,2,2)
ShowMessage("\\n<Catfish Girl>It's my win, then.\nShall I make you my prey, then?")
ShowMessageFace("",0,0,2,3)
ShowMessage("The Catfish Girl comes close to me, as I lay too weak to move.")
ShowMessage("I feel a thin slimy film all over her wet body.")
ShowMessageFace("namazu_fc1",1,0,2,4)
ShowMessage("\\n<Catfish Girl>Don't be frightened, I won't eat you.\nI just want a little semen...")
ShowMessageFace("",0,0,2,5)
ShowMessage("\\n<Luka>S-Semen...? Aaah...")
245(bytes(0x04,0x08,0x6f,0x3a,0x0d,0x52,0x50,0x47,0x3a,0x3a,0x42,0x47,0x53,0x08,0x3a,0x0a,0x40,0x6e,0x61,0x6d,0x65,0x49,0x22,0x17,0x6d,0x6f,0x6e,0x5f,0x68,0x73,0x65,0x61,0x6e,0x31,0x37,0x5f,0x73,0x69,0x67,0x6f,0x6b,0x69,0x06,0x3a,0x06,0x45,0x54,0x3a,0x0c,0x40,0x76,0x6f,0x6c,0x75,0x6d,0x65,0x69,0x55,0x3a,0x0b,0x40,0x70,0x69,0x74,0x63,0x68,0x69,0x69))
PictureDisplay(5,"ev_namazu_h1",0,0,0,0,100,100,0,0)
PictureMove(5,null,0,0,0,0,100,100,255,0,30,true)
ShowMessageFace("",0,0,2,6)
ShowMessage("Her soft breasts press against my penis.")
ShowMessage("The elastic feeling of them press against me.")
ShowMessageFace("",0,0,2,7)
ShowMessage("The warmth and softness of them give me a tingling of pleasure.")
ShowMessage("Surprised at the touch, a moan leaks from me.")
ShowMessageFace("",0,0,2,8)
ShowMessage("\\n<Luka>Ah... Ugh...!")
ShowMessageFace("namazu_fc1",1,0,2,9)
ShowMessage("\\n<Catfish Girl>Fufu, are my breasts comfortable?\nThey're about to make you feel even better...")
ShowMessageFace("",0,0,2,10)
ShowMessage("Using her hands, the Catfish Girl presses her breasts together.")
ShowMessage("My penis is squeezed between her soft tits.")
ShowMessageFace("",0,0,2,11)
ShowMessage("This tight feeling...")
ShowMessage("Sighing at the touch, power fades from my body.")
ShowMessageFace("",0,0,2,12)
ShowMessage("\\n<Luka>Nnngh...")
ShowMessageFace("namazu_fc1",1,0,2,13)
ShowMessage("\\n<Catfish Girl>Sheesh, are you already melting in bliss?\nYour precome is already leaking, too.")
PictureDisplay(5,"ev_namazu_h2",0,0,0,0,100,100,255,0)
ShowMessageFace("namazu_fc1",1,0,2,14)
ShowMessage("\\n<Catfish Girl>Nnnn... *Suck*")
ShowMessageFace("",0,0,2,15)
ShowMessage("\\n<Luka>Ah... Hyaa!")
ShowMessageFace("",0,0,2,16)
ShowMessage("Her lips close around the tip of my penis.")
ShowMessage("Lightly sucking on my tip, she swallows my precome.")
ShowMessageFace("",0,0,2,17)
ShowMessage("She takes my glans deeper into her mouth...")
245(bytes(0x04,0x08,0x6f,0x3a,0x0d,0x52,0x50,0x47,0x3a,0x3a,0x42,0x47,0x53,0x08,0x3a,0x0a,0x40,0x6e,0x61,0x6d,0x65,0x49,0x22,0x10,0x6d,0x6f,0x6e,0x5f,0x68,0x76,0x6f,0x69,0x63,0x65,0x31,0x06,0x3a,0x06,0x45,0x54,0x3a,0x0c,0x40,0x76,0x6f,0x6c,0x75,0x6d,0x65,0x69,0x55,0x3a,0x0b,0x40,0x70,0x69,0x74,0x63,0x68,0x69,0x69))
ShowMessageFace("namazu_fc1",1,0,2,18)
ShowMessage("\\n<Catfish Girl>*Lick* *Lick*")
ShowMessageFace("",0,0,2,19)
ShowMessage("Her tongue starts to run all over my urethral opening!")
ShowMessageFace("",0,0,2,20)
ShowMessage("\\n<Luka>Unnngh... Aaah!")
ShowMessageFace("",0,0,2,21)
ShowMessage("Her quick tongue movements are almost ticklish.")
ShowMessage("Overwhelmed at the stimulation, my body squirms and struggles.")
ShowMessageFace("namazu_fc1",2,0,2,22)
ShowMessage("\\n<Catfish Girl>Hrmph... Hey! Stop moving!")
ShowMessageFace("",0,0,2,23)
ShowMessage("The Catfish Girl presses her breasts harder together, squeezing my penis.")
ShowMessage("My penis is crushed between her large soft breasts.")
ShowMessageFace("",0,0,2,24)
ShowMessage("Like that, she renews her assault on my glans.")
ShowMessage("Her incredible tongue movements, licking and tickling me in her mouth.")
ShowMessageFace("",0,0,2,25)
ShowMessage("\\n<Luka>Ngh... Aaaah...!")
ShowMessageFace("namazu_fc1",1,0,2,26)
ShowMessage("\\n<Catfish Girl>Fufu, you can't escape from this.\nI'll play with you until you finish...")
ShowMessageFace("",0,0,2,27)
ShowMessage("\\n<Luka>D-don't... Hnnngh...!")
ShowMessageFace("",0,0,2,28)
ShowMessage("With my penis buried in her breasts, I can't escape.")
ShowMessage("Her tongue attacks my glans without mercy as I'm stuck under her.")
ShowMessageFace("",0,0,2,29)
ShowMessage("Her breasts rub against my penis at the same time.")
ShowMessage("Together with her tongue movements, it's too much to take.")
ShowMessageFace("",0,0,2,30)
ShowMessage("At last, the desire to come rises up through me.")
ShowMessage("My waist trembles as I let out a big moan.")
ShowMessageFace("",0,0,2,31)
ShowMessage("\\n<Luka>Unnngh...I'm going to come...!")
ShowMessageFace("namazu_fc1",1,0,2,32)
ShowMessage("\\n<Catfish Girl>It's too early to moan like that...\nBut I shall suck out your semen anyway.")
ShowMessageFace("namazu_fc1",1,0,2,33)
ShowMessage("\\n<Catfish Girl>Nnn... *Suck*")
ShowMessageFace("",0,0,2,34)
ShowMessage("With her lips around my tip, the Catfish Girl sucks on me.")
ShowMessage("She's sucking on my penis like it was a straw...")
ShowMessageFace("",0,0,2,35)
ShowMessage("\\n<Luka>Ngh... Ah, aaaah...!")
ShowMessageFace("",0,0,2,36)
ShowMessage("The crazy suction overwhelms me right at the end.")
ShowMessage("My head goes pure white as my body completely relaxes.")
RunCommonEvent(104)
PictureDisplay(5,"ev_namazu_h3",0,0,0,0,100,100,255,0)
RunCommonEvent(105)
ShowMessageFace("",0,0,2,37)
ShowMessage("The sweet feeling of release fills me as my penis pulses in her mouth.")
ShowMessage("As she sucks on me, spurt after spurt of semen floods into her.")
ShowMessageFace("",0,0,2,38)
ShowMessage("\\n<Luka>Nnngh...")
ShowMessageFace("namazu_fc1",1,0,2,39)
ShowMessage("\\n<Catfish Girl>Nnnn... *Gulp* *Gulp*")
ShowMessageFace("",0,0,2,40)
ShowMessage("The Catfish Girl skillfully sucks down my semen.")
ShowMessage("Her lips don't part from me until she's swallowed every drop.")
PictureDisplay(5,"ev_namazu_h4",0,0,0,0,100,100,255,0)
ShowMessageFace("namazu_fc1",1,0,2,41)
ShowMessage("\\n<Catfish Girl>Nnn... You have delicious semen.\nIt would be a shame to let prey like you get away from me.")
ShowMessageFace("",0,0,2,42)
ShowMessage("\\n<Luka>N...no way...")
ShowMessageFace("namazu_fc1",1,0,2,43)
ShowMessage("\\n<Catfish Girl>I love teasing dicks right after they're spurted once.\nPerhaps I'll play with you a bit more...")
PictureDisplay(5,"ev_namazu_h5",0,0,0,0,100,100,255,0)
ShowMessageFace("namazu_fc1",1,0,2,44)
ShowMessage("\\n<Catfish Girl>Mmmm... *Suuuuck*")
ShowMessageFace("",0,0,2,45)
ShowMessage("\\n<Luka>Ah... Aaaah!!")
ShowMessageFace("",0,0,2,46)
ShowMessage("So soon after my climax, she starts sucking even harder than before.")
ShowMessage("The aggressive suction makes me struggle to escape it.")
ShowMessageFace("namazu_fc1",1,0,2,47)
ShowMessage("\\n<Catfish Girl>Haha, there's no point squirming around...\n*Suck* *Suuuuck*")
ShowMessageFace("",0,0,2,48)
ShowMessage("\\n<Luka>Hya...A-Aaaah!!")
ShowMessageFace("",0,0,2,49)
ShowMessage("But no matter how I struggle, my penis is firmly stuck between her breasts.")
ShowMessage("With no place to escape to, I can only withstand her vacuum blowjob.")
ShowMessageFace("",0,0,2,50)
ShowMessage("Her mouth is tightly closed around my glans.")
ShowMessage("Sucking and sucking, it's like she's trying to pull semen straight from my balls.")
ShowMessageFace("",0,0,2,51)
ShowMessage("At the same time, my shaft is being massaged by her soft breasts.")
ShowMessage("The sweet, tight friction fills my senses.")
ShowMessageFace("",0,0,2,52)
ShowMessage("\\n<Luka>Ngh... Ah, ah, Unnngh...!")
ShowMessageFace("",0,0,2,53)
ShowMessage("Overwhelmed by the pleasure, I can feel a second climax quickly approaching.")
ShowMessage("No... Rather, it's being forcibly sucked out.")
ShowMessageFace("namazu_fc1",1,0,2,54)
ShowMessage("\\n<Catfish Girl>If you suck hard right after a climax, a second one quickly follows...\nNow... Come again!")
ShowMessageFace("",0,0,2,55)
ShowMessage("\\n<Luka>Hyaaa!")
ShowMessageFace("",0,0,2,56)
ShowMessage("My brain itself flickers in ecstasy.")
ShowMessage("Writhing in agonized pleasure, my body trembles.")
RunCommonEvent(104)
PictureDisplay(5,"ev_namazu_h6",0,0,0,0,100,100,255,0)
RunCommonEvent(105)
ShowMessageFace("",0,0,2,57)
ShowMessage("And in the next instant, I explode again.")
ShowMessage("I'm forcibly brought to a second climax.")
ShowMessageFace("",0,0,2,58)
ShowMessage("\\n<Luka>Ngh... Ah, aaaah...!!")
ShowMessageFace("namazu_fc1",1,0,2,59)
ShowMessage("\\n<Catfish Girl>Nnng... *Suck* *Suuuuuck*")
ShowMessageFace("",0,0,2,60)
ShowMessage("Even though I came, her suction only gets more intense.")
ShowMessage("A maddening vacuum all throughout my ejaculation.")
PictureDisplay(5,"ev_namazu_h7",0,0,0,0,100,100,255,0)
ShowMessageFace("",0,0,2,61)
ShowMessage("Even more semen is sucked out, filling her mouth.")
ShowMessage("The proof of my submission to her is spread all over.")
ShowMessageFace("namazu_fc1",1,0,2,62)
ShowMessage("\\n<Catfish Girl>*Suuuuck* *Gulp*")
246(2)
PictureDisplay(5,"ev_namazu_h8",0,0,0,0,100,100,255,0)
ShowMessageFace("namazu_fc1",1,0,2,63)
ShowMessage("\\n<Catfish Girl>....Whew, it's over.")
ShowMessageFace("",0,0,2,64)
ShowMessage("\\n<Luka>......")
ShowMessageFace("",0,0,2,65)
ShowMessage("Even though she finally parted from my penis, I'm still left stunned.")
ShowMessage("It's as if she sucked me dry with her forced vacuum.")
ShowMessageFace("namazu_fc1",1,0,2,66)
ShowMessage("\\n<Catfish Girl>Now, for my weakened prey...\nShall I take you back to my nest?")
ShowMessageFace("namazu_fc1",1,0,2,67)
ShowMessage("\\n<Catfish Girl>I'll be playing with you a lot from now on.\nYou better prepare yourself. Fufufu...")
ShowMessageFace("",0,0,2,68)
ShowMessage("\\n<Luka>......")
ShowMessageFace("",0,0,2,69)
ShowMessage("Unable to resist, I'm taken away by the Catfish Girl.")
221()
PictureClear(5)
ShowMessageFace("",0,0,2,70)
ShowMessage("Ever since then, I'm endlessly played with by the Catfish Girl.")
ShowMessage("Unable to escape from her nest, my semen is drained every day...")
DefineLabel("反省会")
ShowMessageFace("",0,0,2,71)
ShowMessage("......")
221()
242(1)
Wait(120)
355("memory_interruption")
ShowMessageFace("",0,0,2,72)
ShowMessage("You hear Ilias' voice calling out to you...")
ShowMessage("Receive her evaluation?")
ShowChoices(strings("Receive evaluation","Change difficulty","Reincarnate"),2)
IfPlayerPicksChoice(0,null)
 241(bytes(0x04,0x08,0x6f,0x3a,0x0d,0x52,0x50,0x47,0x3a,0x3a,0x42,0x47,0x4d,0x08,0x3a,0x0a,0x40,0x6e,0x61,0x6d,0x65,0x49,0x22,0x0a,0x69,0x72,0x69,0x61,0x73,0x06,0x3a,0x06,0x45,0x54,0x3a,0x0c,0x40,0x76,0x6f,0x6c,0x75,0x6d,0x65,0x69,0x5f,0x3a,0x0b,0x40,0x70,0x69,0x74,0x63,0x68,0x69,0x6e))
 PictureDisplay(1,"bg001",0,0,0,0,100,100,255,0)
 222()
 PictureDisplay(5,"80_iriasu_st02",0,0,0,0,100,100,0,0)
 PictureMove(5,null,0,0,0,0,100,100,255,0,30,true)
 ShowMessageFace("iriasu_fc1",1,0,2,73)
 ShowMessage("\\n<Ilias>When I was younger, I used to catch catfish in the nearby pond...\n...Of course, I'm lying.")
 PictureDisplay(5,"80_iriasu_st01",0,0,0,0,100,100,255,0)
 ShowMessageFace("iriasu_fc1",0,0,2,74)
 ShowMessage("\\n<Ilias>The Catfish Girl uses nasty attribute attacks.\nThunder, earth, both are troublesome.")
 ShowMessageFace("iriasu_fc1",0,0,2,75)
 ShowMessage("\\n<Ilias>In particular, Earthquake hurts your whole party.\nIt will be painful if some of your allies are weak to earth.")
 ShowMessageFace("iriasu_fc1",0,0,2,76)
 ShowMessage("\\n<Ilias>Since she's a sea creature, lightning is effective.\nEven though she herself can use lightning, it's still effective.")
 ShowMessageFace("iriasu_fc1",0,0,2,77)
 ShowMessage("\\n<Ilias>Abnormal status effects are also effective.\nIf her magic is painful, then stop her from using it altogether.")
 PictureDisplay(5,"80_iriasu_st02",0,0,0,0,100,100,255,0)
 ShowMessageFace("iriasu_fc1",1,0,2,78)
 ShowMessage("\\n<Ilias>Now go, oh brave Luka.\nBring that catfish out of the water... Though I've heard some have lungs...")
 242(1)
 221()
 PictureClear(5)
 PictureClear(1)
 Wait(60)
 0()
IfPlayerPicksChoice(1,null)
 ShowMessageFace("",0,0,2,79)
 ShowMessage("Please choose a difficulty level.")
 RunCommonEvent(110)
 0()
IfPlayerPicksChoice(2,null)
 0()
404()
RunCommonEvent(3000)
0()
