﻿// EVENT 0528
Name "コラボ後日談：大明海"

241(bytes(0x04,0x08,0x6f,0x3a,0x0d,0x52,0x50,0x47,0x3a,0x3a,0x42,0x47,0x4d,0x08,0x3a,0x0a,0x40,0x6e,0x61,0x6d,0x65,0x49,0x22,0x0a,0x6b,0x69,0x6b,0x69,0x32,0x06,0x3a,0x06,0x45,0x54,0x3a,0x0c,0x40,0x76,0x6f,0x6c,0x75,0x6d,0x65,0x69,0x69,0x3a,0x0b,0x40,0x70,0x69,0x74,0x63,0x68,0x69,0x69))
217()
ShowMessageFace("byakunen_fc1",2,0,2,1)
ShowMessage("\\n<Hakunen>")
ShowMessage("まさか……これは！")
ShowMessageFace("magatu_fc1",2,0,2,2)
ShowMessage("\\n<Magatsu>")
ShowMessage("間違いない、大明海の仕業だな。")
ShowMessage("これは、人間しか通れん結界だ。")
If(0,4,0)
 ShowMessageFace("alice_fc5",2,0,2,3)
 ShowMessage("\\n<Alice>")
 ShowMessage("どうする？")
 ShowMessage("無理矢理に壊してみるか……？")
 ShowMessageFace("",0,0,2,4)
 ShowMessage("アリスが、拳に力を込めた時だった――")
 0()
EndIf()
If(0,5,0)
 ShowMessageFace("iriasu_fc4",7,0,2,5)
 ShowMessage("\\n<Ilias>")
 ShowMessage("力づくで、粉砕してみますか……？")
 ShowMessageFace("",0,0,2,6)
 ShowMessage("イリアスが、力を集中した時だった――")
 0()
EndIf()
241(bytes(0x04,0x08,0x6f,0x3a,0x0d,0x52,0x50,0x47,0x3a,0x3a,0x42,0x47,0x4d,0x08,0x3a,0x0a,0x40,0x6e,0x61,0x6d,0x65,0x49,0x22,0x0a,0x62,0x6f,0x73,0x73,0x30,0x06,0x3a,0x06,0x45,0x54,0x3a,0x0c,0x40,0x76,0x6f,0x6c,0x75,0x6d,0x65,0x69,0x69,0x3a,0x0b,0x40,0x70,0x69,0x74,0x63,0x68,0x69,0x69))
205(-1,bytes(0x04,0x08,0x6f,0x3a,0x13,0x52,0x50,0x47,0x3a,0x3a,0x4d,0x6f,0x76,0x65,0x52,0x6f,0x75,0x74,0x65,0x09,0x3a,0x0c,0x40,0x72,0x65,0x70,0x65,0x61,0x74,0x46,0x3a,0x0f,0x40,0x73,0x6b,0x69,0x70,0x70,0x61,0x62,0x6c,0x65,0x46,0x3a,0x0a,0x40,0x77,0x61,0x69,0x74,0x54,0x3a,0x0a,0x40,0x6c,0x69,0x73,0x74,0x5b,0x07,0x6f,0x3a,0x15,0x52,0x50,0x47,0x3a,0x3a,0x4d,0x6f,0x76,0x65,0x43,0x6f,0x6d,0x6d,0x61,0x6e,0x64,0x07,0x3a,0x0a,0x40,0x63,0x6f,0x64,0x65,0x69,0x16,0x3a,0x10,0x40,0x70,0x61,0x72,0x61,0x6d,0x65,0x74,0x65,0x72,0x73,0x5b,0x00,0x6f,0x3b,0x0a,0x07,0x3b,0x0b,0x69,0x00,0x3b,0x0c,0x5b,0x00))
ChangeSwitch(31,31,0)
205(15,bytes(0x04,0x08,0x6f,0x3a,0x13,0x52,0x50,0x47,0x3a,0x3a,0x4d,0x6f,0x76,0x65,0x52,0x6f,0x75,0x74,0x65,0x09,0x3a,0x0c,0x40,0x72,0x65,0x70,0x65,0x61,0x74,0x46,0x3a,0x0f,0x40,0x73,0x6b,0x69,0x70,0x70,0x61,0x62,0x6c,0x65,0x46,0x3a,0x0a,0x40,0x77,0x61,0x69,0x74,0x54,0x3a,0x0a,0x40,0x6c,0x69,0x73,0x74,0x5b,0x08,0x6f,0x3a,0x15,0x52,0x50,0x47,0x3a,0x3a,0x4d,0x6f,0x76,0x65,0x43,0x6f,0x6d,0x6d,0x61,0x6e,0x64,0x07,0x3a,0x0a,0x40,0x63,0x6f,0x64,0x65,0x69,0x13,0x3a,0x10,0x40,0x70,0x61,0x72,0x61,0x6d,0x65,0x74,0x65,0x72,0x73,0x5b,0x07,0x69,0x0d,0x69,0x07,0x6f,0x3b,0x0a,0x07,0x3b,0x0b,0x69,0x17,0x3b,0x0c,0x5b,0x00,0x6f,0x3b,0x0a,0x07,0x3b,0x0b,0x69,0x00,0x3b,0x0c,0x5b,0x00))
PictureDisplay(5,"80_daimeikai_st01",0,0,0,0,100,100,0,0)
PictureMove(5,null,0,0,0,0,100,100,255,0,30,true)
ShowMessageFace("daimeikai_fc1",1,0,2,7)
ShowMessage("\\n<Daimyokai>")
ShowMessage("おいおい！")
ShowMessage("せっかく張った包囲網に穴を開けるなよ！")
ShowMessageFace("byakunen_fc1",2,0,2,8)
ShowMessage("\\n<Hakunen>")
ShowMessage("大明海様、やっぱり……")
ShowMessageFace("daimeikai_fc1",1,0,2,9)
ShowMessage("\\n<Daimyokai>")
ShowMessage("小僧に鬼婆までいるのか。")
ShowMessage("今は仕事だ、引っ込んでな。")
If(0,4,0)
 ShowMessageFace("alice_fc5",2,0,2,10)
 ShowMessage("\\n<Alice>")
 ShowMessage("ところが、そうはいかん。")
 ShowMessage("貴様も立派な異世界組だ、派手な動きは困る。")
 0()
EndIf()
If(0,5,0)
 ShowMessageFace("iriasu_fc4",2,0,2,11)
 ShowMessage("\\n<Ilias>")
 ShowMessage("あなたとて、異世界から紛れ込んだ異物。")
 ShowMessage("ここで、妙な真似をされては困るのです。")
 0()
EndIf()
ShowMessageFace("",0,0,2,12)
ShowMessage("大明海の過去の所行は、白念やマガツから聞いた。")
ShowMessage("放置しておけば、騒動を巻き起こすのは間違いないのだ――")
ShowMessageFace("rest_fc1",0,0,2,13)
ShowMessage("\\n<Lest>")
ShowMessage("ミュゼット達への対応は、僕達に任せてくれ。")
ShowMessage("だから、君は――")
ShowMessageFace("daimeikai_fc1",0,0,2,14)
ShowMessage("\\n<Daimyokai>")
ShowMessage("あくまで、俺の仕事を邪魔するのなら……")
ShowMessage("お前達から、先に狩るぜ！")
ShowMessageFace("byakunen_fc3",0,0,2,15)
ShowMessage("\\n<Hakunen>")
ShowMessage("つくづく融通の利かない人……！")
If(0,4,0)
 ShowMessageFace("alice_fc5",2,0,2,16)
 ShowMessage("\\n<Alice>")
 ShowMessage("大明海よ、貴様は非常に優れた退魔師だ。")
 ShowMessage("しかし、単独で我等全員に勝てるとでも思っているのか……？")
 0()
EndIf()
If(0,5,0)
 ShowMessageFace("iriasu_fc4",7,0,2,17)
 ShowMessage("\\n<Ilias>")
 ShowMessage("大明海……私が見たところ、貴方は最上級の退魔師です。")
 ShowMessage("しかし、単独で私達全員を相手に出来るとでも思うのですか？")
 0()
EndIf()
ShowMessageFace("daimeikai_fc1",0,0,2,18)
ShowMessage("\\n<Daimyokai>")
ShowMessage("やれやれ、仕方ねぇな。")
ShowMessage("これは、お前達向きに用意した品じゃないんだが――")
ShowMessageFace("",0,0,2,19)
ShowMessage("大明海は、懐から鉄鞭を取り出した！")
ShowMessage("あれは、間違いなく何らかの秘宝具だ――")
If(0,4,0)
 ShowMessageFace("alice_fc6",0,0,2,20)
 ShowMessage("\\n<Alice>")
 ShowMessage("あれは、まさか……打神鞭！？")
 ShowMessage("数百年前に失われたヤマタイの秘宝ではないか！")
 0()
EndIf()
If(0,5,0)
 ShowMessageFace("iriasu_fc4",5,0,2,21)
 ShowMessage("\\n<Ilias>")
 ShowMessage("まさか……打神鞭！？")
 ShowMessage("数百年前に失われた秘宝を、なぜあなたが……！")
 0()
EndIf()
ShowMessageFace("byakunen_fc1",2,0,2,22)
ShowMessage("\\n<Hakunen>")
ShowMessage("有名な品なのですか……！？")
If(0,4,0)
 ShowMessageFace("alice_fc6",0,0,2,23)
 ShowMessage("\\n<Alice>")
 ShowMessage("聖魔大戦において、沙蛇様が造り出した宝具とされている。")
 ShowMessage("天使を滅ぼす力が備わっているとか――")
 ShowMessageFace("daimeikai_fc1",0,0,2,24)
 ShowMessage("\\n<Daimyokai>")
 ShowMessage("おっと、この程度で驚いてもらっちゃ困るぜ！")
 ShowMessage("魔王なら、この剣も知ってるだろう！")
 0()
EndIf()
If(0,5,0)
 ShowMessageFace("iriasu_fc4",7,0,2,25)
 ShowMessage("\\n<Ilias>")
 ShowMessage("聖魔大戦において、沙蛇が造り出した宝具です。")
 ShowMessage("天使を滅ぼす、忌まわしい力が備わっているのですよ――")
 ShowMessageFace("daimeikai_fc1",0,0,2,26)
 ShowMessage("\\n<Daimyokai>")
 ShowMessage("おっと、この程度で驚いてもらっちゃ困るぜ！")
 ShowMessage("創世の女神なら、この剣も知ってるだろう！")
 0()
EndIf()
ShowMessageFace("",0,0,2,27)
ShowMessage("大明海は、神々しく光輝く剣を取り出した！")
If(0,4,0)
 ShowMessageFace("alice_fc6",0,0,2,28)
 ShowMessage("\\n<Alice>")
 ShowMessage("まさか――莫邪宝剣！？")
 ShowMessage("この世界に来たばかりの貴様が、なぜそんな秘宝具を！？")
 0()
EndIf()
If(0,5,0)
 ShowMessageFace("iriasu_fc4",5,0,2,29)
 ShowMessage("\\n<Ilias>")
 ShowMessage("まさか――莫邪宝剣！？")
 ShowMessage("この世界に来たばかりの貴方が、なぜそんな秘宝具を！？")
 0()
EndIf()
ShowMessageFace("daimeikai_fc1",2,0,2,30)
ShowMessage("\\n<Daimyokai>")
ShowMessage("うひゃひゃ、前に言っただろう！！")
ShowMessage("この俺は、お宝に目が無いのさ！！")
ShowMessageFace("daimeikai_fc1",2,0,2,31)
ShowMessage("\\n<Daimyokai>")
ShowMessage("まだまだ、まだまだあるぜ！")
ShowMessage("あれも、あれも、これも、それも！！")
PictureDisplay(5,"80_daimeikai_st11",0,0,0,0,100,100,255,0)
ShowMessageFace("",0,0,2,32)
ShowMessage("大明海は、様々な秘宝具で全身を固めた！")
ShowMessage("いずれも強大な力を秘めた武具に違いない――")
If(0,4,0)
 ShowMessageFace("alice_fc6",0,0,2,33)
 ShowMessage("\\n<Alice>")
 ShowMessage("番天印、傾世元禳、それに金霞帽、風火輪……！")
 ShowMessage("いったい、この世界でどれだけの秘法具を……！")
 0()
EndIf()
If(0,5,0)
 ShowMessageFace("iriasu_fc4",5,0,2,34)
 ShowMessage("\\n<Ilias>")
 ShowMessage("番天印、傾世元禳、それに金霞帽、風火輪……！")
 ShowMessage("いったい、この世界でどれだけの秘法具を……！")
 0()
EndIf()
ShowMessageFace("daimeikai_fc1",0,0,2,35)
ShowMessage("\\n<Daimyokai>")
ShowMessage("もちろん、あらゆる史料を調べて集め回ったのさ！")
ShowMessage("サン・イリアの大図書館、ヤマタイ村、スノウヘブンまでな！")
ShowMessageFace("daimeikai_fc1",2,0,2,36)
ShowMessage("\\n<Daimyokai>")
ShowMessage("異世界の秘宝具で身を固めた俺は、もはや大明海を超えた！")
ShowMessage("今の俺は、新明海よ！！")
ShowMessageFace("kazuya_fc2",2,0,2,37)
ShowMessage("\\n<Kazuya>")
ShowMessage("新明海……まるで辞書の名前だな。")
ShowMessageFace("magatu_fc1",2,0,2,38)
ShowMessage("\\n<Magatsu>")
ShowMessage("ここでこやつを倒さねば、災いの元となろう。")
ShowMessage("皆の者、力を貸してくれ！")
ShowMessageFace("daimeikai_fc1",0,0,2,39)
ShowMessage("\\n<Daimyokai>")
ShowMessage("さあ、まとめて掛かってきな！")
ShowMessage("新明海様の力を見せてやるぜ！！")
PictureClear(5)
SetBattleBGM(bytes(0x04,0x08,0x6f,0x3a,0x0d,0x52,0x50,0x47,0x3a,0x3a,0x42,0x47,0x4d,0x08,0x3a,0x0a,0x40,0x6e,0x61,0x6d,0x65,0x49,0x22,0x0e,0x64,0x61,0x69,0x6d,0x65,0x69,0x6b,0x61,0x69,0x06,0x3a,0x06,0x45,0x54,0x3a,0x0c,0x40,0x76,0x6f,0x6c,0x75,0x6d,0x65,0x69,0x69,0x3a,0x0b,0x40,0x70,0x69,0x74,0x63,0x68,0x69,0x69))
Battle(0,1423,false,false)
TeleportPlayer(0,19,72,16,8,2)
PictureDisplay(5,"80_daimeikai_st01",0,0,0,0,100,100,255,0)
TeleportEvent(15,0,72,15,2)
241(bytes(0x04,0x08,0x6f,0x3a,0x0d,0x52,0x50,0x47,0x3a,0x3a,0x42,0x47,0x4d,0x08,0x3a,0x0a,0x40,0x6e,0x61,0x6d,0x65,0x49,0x22,0x14,0x73,0x63,0x65,0x6e,0x65,0x5f,0x65,0x70,0x69,0x6c,0x6f,0x67,0x75,0x65,0x32,0x06,0x3a,0x06,0x45,0x54,0x3a,0x0c,0x40,0x76,0x6f,0x6c,0x75,0x6d,0x65,0x69,0x69,0x3a,0x0b,0x40,0x70,0x69,0x74,0x63,0x68,0x69,0x69))
SetBattleBGM(bytes(0x04,0x08,0x6f,0x3a,0x0d,0x52,0x50,0x47,0x3a,0x3a,0x42,0x47,0x4d,0x08,0x3a,0x0a,0x40,0x6e,0x61,0x6d,0x65,0x49,0x22,0x0b,0x62,0x61,0x74,0x74,0x6c,0x65,0x06,0x3a,0x06,0x45,0x54,0x3a,0x0c,0x40,0x76,0x6f,0x6c,0x75,0x6d,0x65,0x69,0x69,0x3a,0x0b,0x40,0x70,0x69,0x74,0x63,0x68,0x69,0x69))
ChangeVariable(1215,1215,0,0,4)
ChangeVariable(1214,1214,0,0,1)
314(0,0)
ShowMessageFace("daimeikai_fc1",1,0,2,40)
ShowMessage("\\n<Daimyokai>")
ShowMessage("ぐっ、まだだ……！　この程度で――")
250(bytes(0x04,0x08,0x6f,0x3a,0x0c,0x52,0x50,0x47,0x3a,0x3a,0x53,0x45,0x08,0x3a,0x0a,0x40,0x6e,0x61,0x6d,0x65,0x49,0x22,0x0e,0x6d,0x6f,0x6e,0x5f,0x62,0x72,0x65,0x61,0x6b,0x06,0x3a,0x06,0x45,0x54,0x3a,0x0b,0x40,0x70,0x69,0x74,0x63,0x68,0x69,0x69,0x3a,0x0c,0x40,0x76,0x6f,0x6c,0x75,0x6d,0x65,0x69,0x69))
ShowMessageFace("",0,0,2,41)
ShowMessage("大明海は、打神鞭を振るおうとした――")
ShowMessage("だが、戦いのダメージで打神鞭は砕けてしまった！")
Wait(30)
ShowMessageFace("daimeikai_fc1",1,0,2,42)
ShowMessage("\\n<Daimyokai>")
ShowMessage("ぐっ……！　畜生……！！")
ShowMessageFace("rovissa_fc1",0,0,2,43)
ShowMessage("\\n<Rovissa>")
ShowMessage("もうやめときなさいよ、大明海。")
ShowMessage("一度は、一緒に戦った仲じゃない……")
ShowMessageFace("lars_fc01",0,0,2,44)
ShowMessage("\\n<Lars>")
ShowMessage("……………………")
ShowMessageFace("daimeikai_fc1",1,0,2,45)
ShowMessage("\\n<Daimyokai>")
ShowMessage("……お前達と戦うなら、")
ShowMessage("今回の三倍は宝具を集めとくべきだったな。")
ShowMessageFace("daimeikai_fc1",1,0,2,46)
ShowMessage("\\n<Daimyokai>")
ShowMessage("この俺様とした事が、準備不足とは……")
ShowMessage("まったく、異世界ってのは調子が狂うぜ。")
ShowMessageFace("magatu_fc1",0,0,2,47)
ShowMessage("\\n<Magatsu>")
ShowMessage("ようやく観念したか……さて、どうする？")
ShowMessage("ふん縛って、牢にでも入れるか。")
ShowMessageFace("rovissa_fc1",0,0,2,48)
ShowMessage("\\n<Rovissa>")
ShowMessage("そこまでしなくてもいいんじゃない？")
ShowMessage("本来の敵は、ミュゼットのはずでしょ。")
ShowMessageFace("magatu_fc1",2,0,2,49)
ShowMessage("\\n<Magatsu>")
ShowMessage("こやつの頭には、魔物との相互理解など無い。")
ShowMessage("放置すれば、罪もない魔物まで狩り始めるぞ。")
If(0,4,0)
 ShowMessageFace("alice_fc5",2,0,2,50)
 ShowMessage("\\n<Alice>")
 ShowMessage("それでは……")
 ShowMessage("我々が、大明海を雇うということで妥協せんか？")
 0()
EndIf()
If(0,5,0)
 ShowMessageFace("iriasu_fc4",7,0,2,51)
 ShowMessage("\\n<Ilias>")
 ShowMessage("では……我々が、この者を雇いましょう。")
 ShowMessage("報酬と引き替えに、私達の傘下に入るのです。")
 0()
EndIf()
ShowMessageFace("daimeikai_fc1",0,0,2,52)
ShowMessage("\\n<Daimyokai>")
ShowMessage("ほう、専属契約か……")
ShowMessage("俺は、縛られた仕事は好まないんだがな。")
If(0,4,0)
 ShowMessageFace("alice_fc5",0,0,2,53)
 ShowMessage("\\n<Alice>")
 ShowMessage("貴様とて、元の世界には戻りたかろう。")
 ShowMessage("我々といれば、その機会も巡ってくるぞ。")
 0()
EndIf()
If(0,5,0)
 ShowMessageFace("iriasu_fc4",2,0,2,54)
 ShowMessage("\\n<Ilias>")
 ShowMessage("あなたも、元の世界に戻りたいのでしょう。")
 ShowMessage("私達といれば、その機会も巡ってきますよ。")
 0()
EndIf()
ShowMessageFace("daimeikai_fc1",1,0,2,55)
ShowMessage("\\n<Daimyokai>")
ShowMessage("ぬぅ……")
ShowMessage("元いた世界に戻るため、か。")
ShowMessageFace("daimeikai_fc1",0,0,2,56)
ShowMessage("\\n<Daimyokai>")
ShowMessage("いいだろう、雇われてやるぜ！")
ShowMessage("ただし、俺様は高いぞ！")
PictureClear(5)
205(15,bytes(0x04,0x08,0x6f,0x3a,0x13,0x52,0x50,0x47,0x3a,0x3a,0x4d,0x6f,0x76,0x65,0x52,0x6f,0x75,0x74,0x65,0x09,0x3a,0x0c,0x40,0x72,0x65,0x70,0x65,0x61,0x74,0x46,0x3a,0x0f,0x40,0x73,0x6b,0x69,0x70,0x70,0x61,0x62,0x6c,0x65,0x46,0x3a,0x0a,0x40,0x77,0x61,0x69,0x74,0x54,0x3a,0x0a,0x40,0x6c,0x69,0x73,0x74,0x5b,0x09,0x6f,0x3a,0x15,0x52,0x50,0x47,0x3a,0x3a,0x4d,0x6f,0x76,0x65,0x43,0x6f,0x6d,0x6d,0x61,0x6e,0x64,0x07,0x3a,0x0a,0x40,0x63,0x6f,0x64,0x65,0x69,0x2a,0x3a,0x10,0x40,0x70,0x61,0x72,0x61,0x6d,0x65,0x74,0x65,0x72,0x73,0x5b,0x00,0x6f,0x3b,0x0a,0x07,0x3b,0x0b,0x69,0x06,0x3b,0x0c,0x5b,0x00,0x6f,0x3b,0x0a,0x07,0x3b,0x0b,0x69,0x2c,0x3b,0x0c,0x5b,0x00,0x6f,0x3b,0x0a,0x07,0x3b,0x0b,0x69,0x00,0x3b,0x0c,0x5b,0x00))
355("add_actor_ex(814)")
249(bytes(0x04,0x08,0x6f,0x3a,0x0c,0x52,0x50,0x47,0x3a,0x3a,0x4d,0x45,0x08,0x3a,0x0a,0x40,0x6e,0x61,0x6d,0x65,0x49,0x22,0x0c,0x66,0x61,0x6e,0x66,0x61,0x6c,0x65,0x06,0x3a,0x06,0x45,0x54,0x3a,0x0b,0x40,0x70,0x69,0x74,0x63,0x68,0x69,0x69,0x3a,0x0c,0x40,0x76,0x6f,0x6c,0x75,0x6d,0x65,0x69,0x69))
ShowMessageFace("",0,0,2,57)
ShowMessage("大明海が仲間に加わった！")
ChangeSwitch(31,31,1)
Wait(60)
355("force_change_equip(814,1,1,967)")
655("force_change_equip(814,2,2,374)")
655("force_change_equip(814,3,2,376)")
655("force_change_equip(814,4,2,375)")
655("force_change_equip(814,5,2,377)")
ShowMessageFace("magatu_fc1",2,0,2,58)
ShowMessage("\\n<Magatsu>")
ShowMessage("やれやれ、こうなってしまうとはな……")
ShowMessage("集めた宝具は、没収させてもらうぞ。")
ShowMessageFace("daimeikai_fc1",0,0,2,59)
ShowMessage("\\n<Daimyokai>")
ShowMessage("残念だが、どの宝具もお前達には使えないぜ。")
ShowMessage("どれも強化術式を使って、俺様専用に改造済みなのさ。")
ShowMessageFace("byakunen_fc1",2,0,2,60)
ShowMessage("\\n<Hakunen>")
ShowMessage("つまり、もはや大明海様にしか使えないのですね。")
ShowMessage("この世界の秘宝に、なんということを……")
ShowMessageFace("ruka_fc1",0,0,2,61)
ShowMessage("\\n<Luka>")
ShowMessage("打神鞭とやらも、粉々だね……")
ShowMessageFace("",0,0,2,62)
ShowMessage("この損傷具合では、もはや修理も不可能だろう。")
ShowMessage("だが、その破片からは禍々しい力が感じ取れた――")
250(bytes(0x04,0x08,0x6f,0x3a,0x0c,0x52,0x50,0x47,0x3a,0x3a,0x53,0x45,0x08,0x3a,0x0a,0x40,0x6e,0x61,0x6d,0x65,0x49,0x22,0x0a,0x49,0x74,0x65,0x6d,0x31,0x06,0x3a,0x06,0x45,0x54,0x3a,0x0b,0x40,0x70,0x69,0x74,0x63,0x68,0x69,0x69,0x3a,0x0c,0x40,0x76,0x6f,0x6c,0x75,0x6d,0x65,0x69,0x55))
ChangeInventory_Item(595,0,0,1)
If(0,4,0)
 ShowMessageFace("alice_fc5",0,0,2,63)
 ShowMessage("\\n<Alice>")
 ShowMessage("これでは、もはや武器としては使えんな。")
 ShowMessage("しかしこんなになっても、まだ魔力が残っているとは……")
 0()
EndIf()
If(0,5,0)
 ShowMessageFace("iriasu_fc4",2,0,2,64)
 ShowMessage("\\n<Ilias>")
 ShowMessage("これでは、もはや武器としては使えませんね。")
 ShowMessage("ですが欠片となってなお魔力を残すとは、忌まわしい……")
 0()
EndIf()
ShowMessageFace("",0,0,2,65)
ShowMessage("ともかく、これで大明海の問題は解決した。")
ShowMessage("後は、ミュゼット達だ――")
ShowMessageFace("daimeikai_fc1",0,0,2,66)
ShowMessage("\\n<Daimyokai>")
ShowMessage("この先に、ミュゼットがいるぜ。")
ShowMessage("俺の力が借りたいなら、好きに使いな！")
241(bytes(0x04,0x08,0x6f,0x3a,0x0d,0x52,0x50,0x47,0x3a,0x3a,0x42,0x47,0x4d,0x08,0x3a,0x0a,0x40,0x6e,0x61,0x6d,0x65,0x49,0x22,0x12,0x64,0x75,0x6e,0x67,0x65,0x6f,0x6e,0x5f,0x73,0x69,0x6e,0x70,0x69,0x06,0x3a,0x06,0x45,0x54,0x3a,0x0c,0x40,0x76,0x6f,0x6c,0x75,0x6d,0x65,0x69,0x69,0x3a,0x0b,0x40,0x70,0x69,0x74,0x63,0x68,0x69,0x69))
EndEventProcessing()
0()
