﻿// EVENT 0074
Name "Skill: Play 341-350"

ChangeVariable(11,11,0,2,1,5)
If(1,100,0,341,0)
 If(1,11,0,1,0)
  ShowMessageFace("lilith_fc1",0,0,2,1)
  ShowMessage("\\n<Lilith & Lilim>Ufufu...")
  ShowMessageFace("",0,0,2,2)
  ShowMessage("Lilith & Lilim giggle as they smile...")
  EndEventProcessing()
  0()
 EndIf()
 If(1,11,0,2,0)
  ShowMessageFace("lilith_fc1",0,0,2,3)
  ShowMessage("\\n<Lilith & Lilim>Playing with fire is like a succubus...fufu.")
  355("interrupt_skill(3295)")
  EndEventProcessing()
  0()
 EndIf()
 If(1,11,0,3,0)
  ShowMessageFace("lilith_fc1",0,0,2,4)
  ShowMessage("\\n<Lilith & Lilim>Fufu...")
  313(0,191,0,24)
  ShowMessageFace("",0,0,2,5)
  ShowMessage("Lilith & Lilim caress each other's bodies...\nLilith & Lilim became horny!")
  EndEventProcessing()
  0()
 EndIf()
 If(1,11,0,4,0)
  ShowMessageFace("lilith_fc1",0,0,2,6)
  ShowMessage("\\n<Lilith & Lilim>Look into our eyes...")
  355("interrupt_skill(2560)")
  EndEventProcessing()
  0()
 EndIf()
 If(1,11,0,5,0)
  ShowMessageFace("lilith_fc1",0,0,2,7)
  ShowMessage("\\n<Lilith & Lilim>Fufu...")
  355("interrupt_skill(3296)")
  EndEventProcessing()
  0()
 EndIf()
 0()
EndIf()
If(1,100,0,342,0)
 If(1,11,0,1,0)
  ShowMessageFace("m_shadow_fc1",0,0,2,8)
  ShowMessage("\\n<Esmeralda>............")
  ShowMessageFace("",0,0,2,9)
  ShowMessage("Esmeralda is staring blankly...")
  EndEventProcessing()
  0()
 EndIf()
 If(1,11,0,2,0)
  ShowMessageFace("m_shadow_fc1",0,0,2,10)
  ShowMessage("\\n<Esmeralda>Possessing...")
  355("interrupt_skill(2959)")
  EndEventProcessing()
  0()
 EndIf()
 If(1,11,0,3,0)
  ShowMessageFace("m_shadow_fc1",0,0,2,11)
  ShowMessage("\\n<Esmeralda>Let me have a short rest...")
  313(0,342,0,11)
  ShowMessageFace("",0,0,2,12)
  ShowMessage("Esmeralda fell asleep...")
  EndEventProcessing()
  0()
 EndIf()
 If(1,11,0,4,0)
  ShowMessageFace("m_shadow_fc1",0,0,2,13)
  ShowMessage("\\n<Esmeralda>I will give you this...")
  ShowMessageFace("",0,0,2,14)
  ShowMessage("Esmeralda presents a gift!")
  250(bytes(0x04,0x08,0x6f,0x3a,0x0c,0x52,0x50,0x47,0x3a,0x3a,0x53,0x45,0x08,0x3a,0x0a,0x40,0x6e,0x61,0x6d,0x65,0x49,0x22,0x0a,0x49,0x74,0x65,0x6d,0x31,0x06,0x3a,0x06,0x45,0x54,0x3a,0x0b,0x40,0x70,0x69,0x74,0x63,0x68,0x69,0x69,0x3a,0x0c,0x40,0x76,0x6f,0x6c,0x75,0x6d,0x65,0x69,0x55))
  ChangeInventory_Item(387,0,0,1)
  ShowMessageFace("",0,0,2,15)
  ShowMessage("You obtain some \\ii[387]!")
  EndEventProcessing()
  0()
 EndIf()
 If(1,11,0,5,0)
  ShowMessageFace("m_shadow_fc1",0,0,2,16)
  ShowMessage("\\n<Esmeralda>It is fun to play with fire...")
  355("interrupt_skill(3295)")
  EndEventProcessing()
  0()
 EndIf()
 0()
EndIf()
If(1,100,0,343,0)
 If(1,11,0,1,0)
  ShowMessageFace("enenra_fc1",1,0,2,17)
  ShowMessage("\\n<Yugiri>Kukuku...")
  ShowMessageFace("",0,0,2,18)
  ShowMessage("Yugiri is laughing boldly...")
  EndEventProcessing()
  0()
 EndIf()
 If(1,11,0,2,0)
  ShowMessageFace("enenra_fc1",2,0,2,19)
  ShowMessage("\\n<Yugiri>The youth are completely unreliable nowadays...")
  ShowMessageFace("",0,0,2,20)
  ShowMessage("Yugiri is complaining to herself...")
  EndEventProcessing()
  0()
 EndIf()
 If(1,11,0,3,0)
  ShowMessageFace("enenra_fc1",1,0,2,21)
  ShowMessage("\\n<Yugiri>It's a festival! A one-person festival!")
  ShowMessageFace("",0,0,2,22)
  ShowMessage("Yugiri is dancing and singing happily...")
  EndEventProcessing()
  0()
 EndIf()
 If(1,11,0,4,0)
  ShowMessageFace("enenra_fc1",1,0,2,23)
  ShowMessage("\\n<Yugiri>Here, you can have this!")
  ShowMessageFace("",0,0,2,24)
  ShowMessage("Yugiri presents a gift!")
  250(bytes(0x04,0x08,0x6f,0x3a,0x0c,0x52,0x50,0x47,0x3a,0x3a,0x53,0x45,0x08,0x3a,0x0a,0x40,0x6e,0x61,0x6d,0x65,0x49,0x22,0x0a,0x49,0x74,0x65,0x6d,0x31,0x06,0x3a,0x06,0x45,0x54,0x3a,0x0b,0x40,0x70,0x69,0x74,0x63,0x68,0x69,0x69,0x3a,0x0c,0x40,0x76,0x6f,0x6c,0x75,0x6d,0x65,0x69,0x55))
  ChangeInventory_Item(396,0,0,1)
  ShowMessageFace("",0,0,2,25)
  ShowMessage("You obtain some \\ii[396]!")
  EndEventProcessing()
  0()
 EndIf()
 If(1,11,0,5,0)
  ShowMessageFace("enenra_fc1",1,0,2,26)
  ShowMessage("\\n<Yugiri>Playing with fire is fun...")
  355("interrupt_skill(3295)")
  EndEventProcessing()
  0()
 EndIf()
 0()
EndIf()
If(1,100,0,344,0)
 If(1,11,0,1,0)
  ShowMessageFace("kirin_fc1",0,0,2,27)
  ShowMessage("\\n<Kirin>This is drawing...")
  ShowMessageFace("",0,0,2,28)
  ShowMessage("Kirin is doodling on the ground...")
  EndEventProcessing()
  0()
 EndIf()
 If(1,11,0,2,0)
  ShowMessageFace("kirin_fc1",0,0,2,29)
  ShowMessage("\\n<Kirin>A discharge!")
  355("interrupt_skill(3308)")
  EndEventProcessing()
  0()
 EndIf()
 If(1,11,0,3,0)
  ShowMessageFace("kirin_fc1",3,0,2,30)
  ShowMessage("\\n<Kirin>Nooo, my body was shocked...!")
  313(0,344,0,15)
  ShowMessageFace("",0,0,2,31)
  ShowMessage("Kirin's body went numb!")
  EndEventProcessing()
  0()
 EndIf()
 If(1,11,0,4,0)
  ShowMessageFace("kirin_fc1",0,0,2,32)
  ShowMessage("\\n<Kirin>Here, you should build up your strength with this.")
  ShowMessageFace("",0,0,2,33)
  ShowMessage("Kirin presents a gift!")
  250(bytes(0x04,0x08,0x6f,0x3a,0x0c,0x52,0x50,0x47,0x3a,0x3a,0x53,0x45,0x08,0x3a,0x0a,0x40,0x6e,0x61,0x6d,0x65,0x49,0x22,0x0a,0x49,0x74,0x65,0x6d,0x31,0x06,0x3a,0x06,0x45,0x54,0x3a,0x0b,0x40,0x70,0x69,0x74,0x63,0x68,0x69,0x69,0x3a,0x0c,0x40,0x76,0x6f,0x6c,0x75,0x6d,0x65,0x69,0x55))
  ChangeInventory_Item(388,0,0,1)
  ShowMessageFace("",0,0,2,34)
  ShowMessage("You obtain some \\ii[388]!")
  EndEventProcessing()
  0()
 EndIf()
 If(1,11,0,5,0)
  ShowMessageFace("kirin_fc1",0,0,2,35)
  ShowMessage("\\n<Kirin>Now, let's cause a little mischief...")
  355("interrupt_skill(3295)")
  EndEventProcessing()
  0()
 EndIf()
 0()
EndIf()
If(1,100,0,345,0)
 If(1,11,0,1,0)
  ShowMessageFace("zyakotuonna_fc1",0,0,2,36)
  ShowMessage("\\n<Jakotsu>Kukuku...")
  355("interrupt_skill(3296)")
  EndEventProcessing()
  0()
 EndIf()
 If(1,11,0,2,0)
  ShowMessageFace("zyakotuonna_fc1",0,0,2,37)
  ShowMessage("\\n<Jakotsu>Haven't you been told since ancient times to be coiled by the long ones...?")
  ShowMessageFace("",0,0,2,38)
  ShowMessage("Jakotsu began preaching!\n...But nobody was listening.")
  EndEventProcessing()
  0()
 EndIf()
 If(1,11,0,3,0)
  ShowMessageFace("zyakotuonna_fc1",0,0,2,39)
  ShowMessage("\\n<Jakotsu>I'm going to hibernate for a bit...")
  313(0,345,0,11)
  ShowMessageFace("",0,0,2,40)
  ShowMessage("Jakotsu fell asleep...")
  EndEventProcessing()
  0()
 EndIf()
 If(1,11,0,4,0)
  ShowMessageFace("zyakotuonna_fc1",0,0,2,41)
  ShowMessage("\\n<Jakotsu>Here, have this.")
  ShowMessageFace("",0,0,2,42)
  ShowMessage("Jakotsu presents a gift!")
  250(bytes(0x04,0x08,0x6f,0x3a,0x0c,0x52,0x50,0x47,0x3a,0x3a,0x53,0x45,0x08,0x3a,0x0a,0x40,0x6e,0x61,0x6d,0x65,0x49,0x22,0x0a,0x49,0x74,0x65,0x6d,0x31,0x06,0x3a,0x06,0x45,0x54,0x3a,0x0b,0x40,0x70,0x69,0x74,0x63,0x68,0x69,0x69,0x3a,0x0c,0x40,0x76,0x6f,0x6c,0x75,0x6d,0x65,0x69,0x55))
  ChangeInventory_Item(332,0,0,1)
  ShowMessageFace("",0,0,2,43)
  ShowMessage("You obtain some \\ii[332]!")
  EndEventProcessing()
  0()
 EndIf()
 If(1,11,0,5,0)
  ShowMessageFace("zyakotuonna_fc1",0,0,2,44)
  ShowMessage("\\n<Jakotsu>You're a nuisance...!")
  355("interrupt_skill(2741)")
  EndEventProcessing()
  0()
 EndIf()
 0()
EndIf()
If(1,100,0,346,0)
 If(1,11,0,1,0)
  ShowMessageFace("behemoth_fc1",0,0,2,45)
  ShowMessage("\\n<Beheena>*glance*...!")
  ShowMessageFace("",0,0,2,46)
  ShowMessage("Beheena makes a sidelong glance...\nHowever, it appeared to be more like a glare!")
  EndEventProcessing()
  0()
 EndIf()
 If(1,11,0,2,0)
  ShowMessageFace("behemoth_fc1",0,0,2,47)
  ShowMessage("\\n<Beheena>Move it!!")
  355("interrupt_skill(2695)")
  EndEventProcessing()
  0()
 EndIf()
 If(1,11,0,3,0)
  ShowMessageFace("behemoth_fc1",0,0,2,48)
  ShowMessage("\\n<Beheena>I've been gettin' hungry...")
  ShowMessageFace("",0,0,2,49)
  ShowMessage("Beheena is eating some food she stole...")
  EndEventProcessing()
  0()
 EndIf()
 If(1,11,0,4,0)
  ShowMessageFace("behemoth_fc1",0,0,2,50)
  ShowMessage("\\n<Beheena>Eat this!")
  ShowMessageFace("",0,0,2,51)
  ShowMessage("Beheena presents a gift!")
  250(bytes(0x04,0x08,0x6f,0x3a,0x0c,0x52,0x50,0x47,0x3a,0x3a,0x53,0x45,0x08,0x3a,0x0a,0x40,0x6e,0x61,0x6d,0x65,0x49,0x22,0x0a,0x49,0x74,0x65,0x6d,0x31,0x06,0x3a,0x06,0x45,0x54,0x3a,0x0b,0x40,0x70,0x69,0x74,0x63,0x68,0x69,0x69,0x3a,0x0c,0x40,0x76,0x6f,0x6c,0x75,0x6d,0x65,0x69,0x55))
  ChangeInventory_Item(376,0,0,1)
  ShowMessageFace("",0,0,2,52)
  ShowMessage("You obtain a \\ii[376]!")
  EndEventProcessing()
  0()
 EndIf()
 If(1,11,0,5,0)
  ShowMessageFace("behemoth_fc1",0,0,2,53)
  ShowMessage("\\n<Beheena>Oooooh!")
  355("interrupt_skill(2698)")
  EndEventProcessing()
  0()
 EndIf()
 0()
EndIf()
If(1,100,0,347,0)
 If(1,11,0,1,0)
  ShowMessageFace("wyvern_fc1",1,0,2,54)
  ShowMessage("\\n<Warvein>Let's have some fun once in a while...!")
  ShowMessageFace("",0,0,2,55)
  ShowMessage("Warvein is dancing and singing happily...")
  EndEventProcessing()
  0()
 EndIf()
 If(1,11,0,2,0)
  ShowMessageFace("wyvern_fc1",0,0,2,56)
  ShowMessage("\\n<Warvein>Flap! Flap!")
  355("interrupt_skill(2831)")
  EndEventProcessing()
  0()
 EndIf()
 If(1,11,0,3,0)
  ShowMessageFace("wyvern_fc1",0,0,2,57)
  ShowMessage("\\n<Warvein>I'm going to sleep a bit...")
  313(0,347,0,11)
  ShowMessageFace("",0,0,2,58)
  ShowMessage("Warvein fell asleep...")
  EndEventProcessing()
  0()
 EndIf()
 If(1,11,0,4,0)
  ShowMessageFace("wyvern_fc1",0,0,2,59)
  ShowMessage("\\n<Warvein>Have this!")
  ShowMessageFace("",0,0,2,60)
  ShowMessage("Warvein presents a gift!")
  250(bytes(0x04,0x08,0x6f,0x3a,0x0c,0x52,0x50,0x47,0x3a,0x3a,0x53,0x45,0x08,0x3a,0x0a,0x40,0x6e,0x61,0x6d,0x65,0x49,0x22,0x0a,0x49,0x74,0x65,0x6d,0x31,0x06,0x3a,0x06,0x45,0x54,0x3a,0x0b,0x40,0x70,0x69,0x74,0x63,0x68,0x69,0x69,0x3a,0x0c,0x40,0x76,0x6f,0x6c,0x75,0x6d,0x65,0x69,0x55))
  ChangeInventory_Item(358,0,0,1)
  ShowMessageFace("",0,0,2,61)
  ShowMessage("You obtain a \\ii[358]!")
  EndEventProcessing()
  0()
 EndIf()
 If(1,11,0,5,0)
  ShowMessageFace("wyvern_fc1",0,0,2,62)
  ShowMessage("\\n<Warvein>Oooooh!!")
  355("interrupt_skill(2698)")
  EndEventProcessing()
  0()
 EndIf()
 0()
EndIf()
If(1,100,0,348,0)
 If(1,11,0,1,0)
  ShowMessageFace("kyoryuu_fc1",1,0,2,63)
  ShowMessage("\\n<Giga>Hazy...")
  ShowMessageFace("",0,0,2,64)
  ShowMessage("Giga is in a daze...")
  EndEventProcessing()
  0()
 EndIf()
 If(1,11,0,2,0)
  ShowMessageFace("kyoryuu_fc1",1,0,2,65)
  ShowMessage("\\n<Giga>*munch munch*...")
  ShowMessageFace("",0,0,2,66)
  ShowMessage("Giga is eating some food she stole...")
  EndEventProcessing()
  0()
 EndIf()
 If(1,11,0,3,0)
  ShowMessageFace("kyoryuu_fc1",1,0,2,67)
  ShowMessage("\\n<Giga>*snore*...")
  313(0,348,0,11)
  ShowMessageFace("",0,0,2,68)
  ShowMessage("Giga fell asleep...")
  EndEventProcessing()
  0()
 EndIf()
 If(1,11,0,4,0)
  ShowMessageFace("kyoryuu_fc1",0,0,2,69)
  ShowMessage("\\n<Giga>Lost...")
  ShowMessageFace("",0,0,2,70)
  ShowMessage("Giga is confused...")
  EndEventProcessing()
  0()
 EndIf()
 If(1,11,0,5,0)
  ShowMessageFace("kyoryuu_fc1",1,0,2,71)
  ShowMessage("\\n<Giga>Cruuush!")
  355("interrupt_skill(2993)")
  EndEventProcessing()
  0()
 EndIf()
 0()
EndIf()
If(1,100,0,349,0)
 If(1,11,0,1,0)
  ShowMessageFace("monk_sucubuss_fc1",0,0,2,72)
  ShowMessage("\\n<Elza>Haa! Fuu!")
  ShowMessageFace("",0,0,2,73)
  ShowMessage("Elza is training in secret...")
  EndEventProcessing()
  0()
 EndIf()
 If(1,11,0,2,0)
  ShowMessageFace("monk_sucubuss_fc1",0,0,2,74)
  ShowMessage("\\n<Elza>Ahahaha...♪")
  ShowMessageFace("",0,0,2,75)
  ShowMessage("Elza is dancing and singing happily...")
  EndEventProcessing()
  0()
 EndIf()
 If(1,11,0,3,0)
  ShowMessageFace("monk_sucubuss_fc1",1,0,2,76)
  ShowMessage("\\n<Elza>Ufufu...")
  355("interrupt_skill(3296)")
  EndEventProcessing()
  0()
 EndIf()
 If(1,11,0,4,0)
  ShowMessageFace("monk_sucubuss_fc1",0,0,2,77)
  ShowMessage("\\n<Elza>You can have this present!")
  ShowMessageFace("",0,0,2,78)
  ShowMessage("Elza presents a gift!")
  250(bytes(0x04,0x08,0x6f,0x3a,0x0c,0x52,0x50,0x47,0x3a,0x3a,0x53,0x45,0x08,0x3a,0x0a,0x40,0x6e,0x61,0x6d,0x65,0x49,0x22,0x0a,0x49,0x74,0x65,0x6d,0x31,0x06,0x3a,0x06,0x45,0x54,0x3a,0x0b,0x40,0x70,0x69,0x74,0x63,0x68,0x69,0x69,0x3a,0x0c,0x40,0x76,0x6f,0x6c,0x75,0x6d,0x65,0x69,0x55))
  ChangeInventory_Item(385,0,0,1)
  ShowMessageFace("",0,0,2,79)
  ShowMessage("You obtain some \\ii[385]!")
  EndEventProcessing()
  0()
 EndIf()
 If(1,11,0,5,0)
  ShowMessageFace("monk_sucubuss_fc1",0,0,2,80)
  ShowMessage("\\n<Elza>Hmph!!")
  355("interrupt_skill(3294)")
  EndEventProcessing()
  0()
 EndIf()
 0()
EndIf()
If(1,100,0,350,0)
 If(1,11,0,1,0)
  ShowMessageFace("monk_demon_fc1",0,0,2,81)
  ShowMessage("\\n<Annie>I also like this...")
  355("interrupt_skill(3295)")
  EndEventProcessing()
  0()
 EndIf()
 If(1,11,0,2,0)
  ShowMessageFace("monk_demon_fc1",2,0,2,82)
  ShowMessage("\\n<Annie>I'm withdrawing for now!")
  ShowMessageFace("",0,0,2,83)
  ShowMessage("Annie ran away!\n...But she didn't know the way, and soon came back.")
  EndEventProcessing()
  0()
 EndIf()
 If(1,11,0,3,0)
  ShowMessageFace("monk_demon_fc1",0,0,2,84)
  ShowMessage("\\n<Annie>Haa! Sei!")
  ShowMessageFace("",0,0,2,85)
  ShowMessage("Annie is training in secret...")
  EndEventProcessing()
  0()
 EndIf()
 If(1,11,0,4,0)
  ShowMessageFace("monk_demon_fc1",0,0,2,86)
  ShowMessage("\\n<Annie>This is a present.")
  ShowMessageFace("",0,0,2,87)
  ShowMessage("Annie presents a gift!")
  250(bytes(0x04,0x08,0x6f,0x3a,0x0c,0x52,0x50,0x47,0x3a,0x3a,0x53,0x45,0x08,0x3a,0x0a,0x40,0x6e,0x61,0x6d,0x65,0x49,0x22,0x0a,0x49,0x74,0x65,0x6d,0x31,0x06,0x3a,0x06,0x45,0x54,0x3a,0x0b,0x40,0x70,0x69,0x74,0x63,0x68,0x69,0x69,0x3a,0x0c,0x40,0x76,0x6f,0x6c,0x75,0x6d,0x65,0x69,0x55))
  ChangeInventory_Item(393,0,0,1)
  ShowMessageFace("",0,0,2,88)
  ShowMessage("You obtain some \\ii[393]!")
  EndEventProcessing()
  0()
 EndIf()
 If(1,11,0,5,0)
  ShowMessageFace("monk_demon_fc1",0,0,2,89)
  ShowMessage("\\n<Annie>Haa!")
  355("interrupt_skill(3294)")
  EndEventProcessing()
  0()
 EndIf()
 0()
EndIf()
0()
