﻿// EVENT 7291
Name "Magda: Talk"

If(1,830,0,0,0)
 ChangeVariable(830,830,0,0,1)
 0()
EndIf()
241(bytes(0x04,0x08,0x6f,0x3a,0x0d,0x52,0x50,0x47,0x3a,0x3a,0x42,0x47,0x4d,0x08,0x3a,0x0a,0x40,0x6e,0x61,0x6d,0x65,0x49,0x22,0x09,0x65,0x72,0x6f,0x32,0x06,0x3a,0x06,0x45,0x54,0x3a,0x0c,0x40,0x76,0x6f,0x6c,0x75,0x6d,0x65,0x69,0x50,0x3a,0x0b,0x40,0x70,0x69,0x74,0x63,0x68,0x69,0x69))
PictureDisplay(5,"80_mob_sanzoku_st01",0,0,0,0,100,100,0,0)
PictureMove(5,null,0,0,0,0,100,100,255,0,30,true)
If(0,2331,1)
 ShowMessageFace("mob_sanzoku_fc1",0,0,2,1)
 ShowMessage("\\n<Magda>You're a battle fucker.\nWhy don't you have a match with me?")
 0()
EndIf()
If(1,830,0,2,1)
 ShowMessageFace("mob_sanzoku_fc1",0,0,2,2)
 ShowMessage("\\n<Magda>The bet's 1100G...\nYou've already got my prize, so I don't have any more.")
 0()
Else()
 ShowMessageFace("mob_sanzoku_fc1",0,0,2,3)
 ShowMessage("\\n<Magda>The bet's 1100G...\nIf you win, I'll give you an accessory that makes you resistant to physical attacks.")
 0()
EndIf()
ShowMessageFace("mob_sanzoku_fc1",0,0,2,4)
ShowMessage("\\n<Magda>So, how about it?\nYou wanna try enduring my technique?")
ShowChoices(strings("Battle Fuck Challenge","Reconsider"),2)
IfPlayerPicksChoice(0,"バトルファックを挑む")
 If(7,1100,0)
  RunCommonEvent(7292)
  EndEventProcessing()
  0()
 Else()
  ShowMessageFace("mob_sanzoku_fc1",0,0,2,5)
  ShowMessage("\\n<Magda>You're short on money.\nGo earn some more...")
  PictureClear(5)
  EndEventProcessing()
  0()
 EndIf()
 0()
IfPlayerPicksChoice(1,"やめておく")
 ShowMessageFace("mob_sanzoku_fc1",0,0,2,6)
 ShowMessage("\\n<Magda>Haha, so you're running away.\nYou don't wanna scatter your semen here...?")
 PictureClear(5)
 EndEventProcessing()
 0()
404()
0()
