// EVENT 0022
Name "Material Delivery"

ChangeVariable(11,11,0,2,1,46)
250(bytes(0x04,0x08,0x6f,0x3a,0x0c,0x52,0x50,0x47,0x3a,0x3a,0x53,0x45,0x08,0x3a,0x0a,0x40,0x6e,0x61,0x6d,0x65,0x49,0x22,0x0a,0x49,0x74,0x65,0x6d,0x31,0x06,0x3a,0x06,0x45,0x54,0x3a,0x0b,0x40,0x70,0x69,0x74,0x63,0x68,0x69,0x69,0x3a,0x0c,0x40,0x76,0x6f,0x6c,0x75,0x6d,0x65,0x69,0x55))
If(1,11,0,20,2)
 ChangeVariable(12,12,0,2,1,11)
 If(1,12,0,1,0)
  ChangeInventory_Item(51,0,0,2)
  ChangeInventory_Item(52,0,0,1)
  ShowMessageFace("",0,0,2,1)
  ShowMessage("2 \\ii[51] and 1 \\ii[52] were delivered!")
  EndEventProcessing()
  0()
 EndIf()
 If(1,12,0,2,0)
  ChangeInventory_Item(55,0,0,2)
  ChangeInventory_Item(56,0,0,1)
  ShowMessageFace("",0,0,2,2)
  ShowMessage("2 \\ii[55] and 1 \\ii[56] were delivered!")
  EndEventProcessing()
  0()
 EndIf()
 If(1,12,0,3,0)
  ChangeInventory_Item(59,0,0,2)
  ChangeInventory_Item(61,0,0,1)
  ShowMessageFace("",0,0,2,3)
  ShowMessage("2 \\ii[59] and 1 \\ii[61] were delivered!")
  EndEventProcessing()
  0()
 EndIf()
 If(1,12,0,4,0)
  ChangeInventory_Item(63,0,0,2)
  ChangeInventory_Item(64,0,0,1)
  ShowMessageFace("",0,0,2,4)
  ShowMessage("2 \\ii[63] and 1 \\ii[64] were delivered!")
  EndEventProcessing()
  0()
 EndIf()
 If(1,12,0,5,0)
  ChangeInventory_Item(67,0,0,2)
  ChangeInventory_Item(69,0,0,1)
  ShowMessageFace("",0,0,2,5)
  ShowMessage("2 \\ii[67] and 1 \\ii[69] were delivered!")
  EndEventProcessing()
  0()
 EndIf()
 If(1,12,0,6,0)
  ChangeInventory_Item(71,0,0,2)
  ChangeInventory_Item(72,0,0,1)
  ShowMessageFace("",0,0,2,6)
  ShowMessage("2 \\ii[71] and 1 \\ii[72] were delivered!")
  EndEventProcessing()
  0()
 EndIf()
 If(1,12,0,7,0)
  ChangeInventory_Item(75,0,0,2)
  ChangeInventory_Item(76,0,0,1)
  ShowMessageFace("",0,0,2,7)
  ShowMessage("2 \\ii[75] and 1 \\ii[76] were delivered!")
  EndEventProcessing()
  0()
 EndIf()
 If(1,12,0,8,0)
  ChangeInventory_Item(79,0,0,2)
  ChangeInventory_Item(80,0,0,1)
  ShowMessageFace("",0,0,2,8)
  ShowMessage("2 \\ii[79] and 1 \\ii[80] were delivered!")
  EndEventProcessing()
  0()
 EndIf()
 If(1,12,0,9,0)
  ChangeInventory_Item(53,0,0,1)
  ChangeInventory_Item(57,0,0,1)
  ChangeInventory_Item(61,0,0,1)
  ShowMessageFace("",0,0,2,9)
  ShowMessage("1 \\ii[53], 1 \\ii[57], and 1 \\ii[61] were delivered!")
  EndEventProcessing()
  0()
 EndIf()
 If(1,12,0,10,0)
  ChangeInventory_Item(65,0,0,1)
  ChangeInventory_Item(69,0,0,1)
  ChangeInventory_Item(73,0,0,1)
  ShowMessageFace("",0,0,2,10)
  ShowMessage("1 \\ii[65], 1 \\ii[69], and 1 \\ii[73] were delivered!")
  EndEventProcessing()
  0()
 EndIf()
 If(1,12,0,11,0)
  ChangeInventory_Item(77,0,0,1)
  ChangeInventory_Item(81,0,0,1)
  ShowMessageFace("",0,0,2,11)
  ShowMessage("1 \\ii[77] and 1 \\ii[81] were delivered!")
  EndEventProcessing()
  0()
 EndIf()
 0()
EndIf()
If(1,11,0,40,2)
 ChangeVariable(12,12,0,2,1,16)
 If(1,12,0,1,0)
  ChangeInventory_Item(161,0,0,2)
  ChangeInventory_Item(165,0,0,1)
  ShowMessageFace("",0,0,2,12)
  ShowMessage("2 \\ii[161] and 1 \\ii[165] were delivered!")
  EndEventProcessing()
  0()
 EndIf()
 If(1,12,0,2,0)
  ChangeInventory_Item(164,0,0,2)
  ChangeInventory_Item(182,0,0,1)
  ShowMessageFace("",0,0,2,13)
  ShowMessage("2 \\ii[164] and 1 \\ii[182] were delivered!")
  EndEventProcessing()
  0()
 EndIf()
 If(1,12,0,3,0)
  ChangeInventory_Item(166,0,0,2)
  ChangeInventory_Item(172,0,0,1)
  ShowMessageFace("",0,0,2,14)
  ShowMessage("2 \\ii[166] and 1 \\ii[172] were delivered!")
  EndEventProcessing()
  0()
 EndIf()
 If(1,12,0,4,0)
  ChangeInventory_Item(171,0,0,2)
  ChangeInventory_Item(226,0,0,1)
  ShowMessageFace("",0,0,2,15)
  ShowMessage("2 \\ii[171] and 1 \\ii[226] were delivered!")
  EndEventProcessing()
  0()
 EndIf()
 If(1,12,0,5,0)
  ChangeInventory_Item(173,0,0,2)
  ChangeInventory_Item(206,0,0,1)
  ShowMessageFace("",0,0,2,16)
  ShowMessage("2 \\ii[173] and 1 \\ii[206] were delivered!")
  EndEventProcessing()
  0()
 EndIf()
 If(1,12,0,6,0)
  ChangeInventory_Item(176,0,0,2)
  ChangeInventory_Item(228,0,0,1)
  ShowMessageFace("",0,0,2,17)
  ShowMessage("2 \\ii[176] and 1 \\ii[228] were delivered!")
  EndEventProcessing()
  0()
 EndIf()
 If(1,12,0,7,0)
  ChangeInventory_Item(183,0,0,2)
  ChangeInventory_Item(200,0,0,1)
  ShowMessageFace("",0,0,2,18)
  ShowMessage("2 \\ii[183] and 1 \\ii[200] were delivered!")
  EndEventProcessing()
  0()
 EndIf()
 If(1,12,0,8,0)
  ChangeInventory_Item(184,0,0,2)
  ChangeInventory_Item(199,0,0,1)
  ShowMessageFace("",0,0,2,19)
  ShowMessage("2 \\ii[184] and 1 \\ii[199] were delivered!")
  EndEventProcessing()
  0()
 EndIf()
 If(1,12,0,9,0)
  ChangeInventory_Item(185,0,0,2)
  ChangeInventory_Item(210,0,0,1)
  ShowMessageFace("",0,0,2,20)
  ShowMessage("2 \\ii[185] and 1 \\ii[210] were delivered!")
  EndEventProcessing()
  0()
 EndIf()
 If(1,12,0,10,0)
  ChangeInventory_Item(186,0,0,2)
  ChangeInventory_Item(221,0,0,1)
  ShowMessageFace("",0,0,2,21)
  ShowMessage("2 \\ii[186] and 1 \\ii[221] were delivered!")
  EndEventProcessing()
  0()
 EndIf()
 If(1,12,0,11,0)
  ChangeInventory_Item(189,0,0,2)
  ChangeInventory_Item(213,0,0,1)
  ShowMessageFace("",0,0,2,22)
  ShowMessage("2 \\ii[189] and 1 \\ii[213] were delivered!")
  EndEventProcessing()
  0()
 EndIf()
 If(1,12,0,12,0)
  ChangeInventory_Item(195,0,0,2)
  ChangeInventory_Item(236,0,0,1)
  ShowMessageFace("",0,0,2,23)
  ShowMessage("2 \\ii[195] and 1 \\ii[236] were delivered!")
  EndEventProcessing()
  0()
 EndIf()
 If(1,12,0,13,0)
  ChangeInventory_Item(196,0,0,2)
  ChangeInventory_Item(215,0,0,1)
  ShowMessageFace("",0,0,2,24)
  ShowMessage("2 \\ii[196] and 1 \\ii[215] were delivered!")
  EndEventProcessing()
  0()
 EndIf()
 If(1,12,0,14,0)
  ChangeInventory_Item(197,0,0,2)
  ChangeInventory_Item(223,0,0,1)
  ShowMessageFace("",0,0,2,25)
  ShowMessage("2 \\ii[197] and 1 \\ii[223] were delivered!")
  EndEventProcessing()
  0()
 EndIf()
 If(1,12,0,15,0)
  ChangeInventory_Item(204,0,0,2)
  ChangeInventory_Item(234,0,0,1)
  ShowMessageFace("",0,0,2,26)
  ShowMessage("2 \\ii[204] and 1 \\ii[234] were delivered!")
  EndEventProcessing()
  0()
 EndIf()
 If(1,12,0,16,0)
  ChangeInventory_Item(175,0,0,2)
  ChangeInventory_Item(212,0,0,1)
  ShowMessageFace("",0,0,2,27)
  ShowMessage("2 \\ii[175] and 1 \\ii[212] were delivered!")
  EndEventProcessing()
  0()
 EndIf()
 0()
EndIf()
If(1,11,0,45,2)
 ChangeVariable(12,12,0,2,1,22)
 If(1,12,0,1,0)
  ChangeInventory_Item(219,0,0,1)
  ChangeInventory_Item(233,0,0,1)
  ShowMessageFace("",0,0,2,28)
  ShowMessage("1 \\ii[219] and 1 \\ii[233] were delivered!")
  EndEventProcessing()
  0()
 EndIf()
 If(1,12,0,2,0)
  ChangeInventory_Item(225,0,0,1)
  ChangeInventory_Item(240,0,0,1)
  ShowMessageFace("",0,0,2,29)
  ShowMessage("1 \\ii[225] and 1 \\ii[240] were delivered!")
  EndEventProcessing()
  0()
 EndIf()
 If(1,12,0,3,0)
  ChangeInventory_Item(211,0,0,1)
  ChangeInventory_Item(245,0,0,1)
  ShowMessageFace("",0,0,2,30)
  ShowMessage("1 \\ii[211] and 1 \\ii[245] were delivered!")
  EndEventProcessing()
  0()
 EndIf()
 If(1,12,0,4,0)
  ChangeInventory_Item(238,0,0,1)
  ChangeInventory_Item(244,0,0,1)
  ShowMessageFace("",0,0,2,31)
  ShowMessage("1 \\ii[238] and 1 \\ii[244] were delivered!")
  EndEventProcessing()
  0()
 EndIf()
 If(1,12,0,5,0)
  ChangeInventory_Item(178,0,0,1)
  ChangeInventory_Item(193,0,0,1)
  ChangeInventory_Item(220,0,0,1)
  ShowMessageFace("",0,0,2,32)
  ShowMessage("1 \\ii[178], 1 \\ii[193], and 1 \\ii[220] were delivered!")
  EndEventProcessing()
  0()
 EndIf()
 If(1,12,0,6,0)
  ChangeInventory_Item(163,0,0,1)
  ChangeInventory_Item(191,0,0,1)
  ChangeInventory_Item(216,0,0,1)
  ShowMessageFace("",0,0,2,33)
  ShowMessage("1 \\ii[163], 1 \\ii[191], and 1 \\ii[216] were delivered!")
  EndEventProcessing()
  0()
 EndIf()
 If(1,12,0,7,0)
  ChangeInventory_Item(207,0,0,1)
  ChangeInventory_Item(208,0,0,1)
  ChangeInventory_Item(224,0,0,1)
  ShowMessageFace("",0,0,2,34)
  ShowMessage("1 \\ii[207], 1 \\ii[208], and 1 \\ii[224] were delivered!")
  EndEventProcessing()
  0()
 EndIf()
 If(1,12,0,8,0)
  ChangeInventory_Item(167,0,0,1)
  ChangeInventory_Item(217,0,0,1)
  ChangeInventory_Item(246,0,0,1)
  ShowMessageFace("",0,0,2,35)
  ShowMessage("1 \\ii[167], 1 \\ii[217], and 1 \\ii[246] were delivered!")
  EndEventProcessing()
  0()
 EndIf()
 If(1,12,0,9,0)
  ChangeInventory_Item(160,0,0,1)
  ChangeInventory_Item(177,0,0,1)
  ChangeInventory_Item(218,0,0,1)
  ShowMessageFace("",0,0,2,36)
  ShowMessage("1 \\ii[160], 1 \\ii[177], and 1 \\ii[218] were delivered!")
  EndEventProcessing()
  0()
 EndIf()
 If(1,12,0,10,0)
  ChangeInventory_Item(162,0,0,1)
  ChangeInventory_Item(181,0,0,1)
  ChangeInventory_Item(222,0,0,1)
  ShowMessageFace("",0,0,2,37)
  ShowMessage("1 \\ii[162], 1 \\ii[181], and 1 \\ii[222] were delivered!")
  EndEventProcessing()
  0()
 EndIf()
 If(1,12,0,11,0)
  ChangeInventory_Item(168,0,0,1)
  ChangeInventory_Item(192,0,0,1)
  ChangeInventory_Item(227,0,0,1)
  ShowMessageFace("",0,0,2,38)
  ShowMessage("1 \\ii[168], 1 \\ii[192], and 1 \\ii[227] were delivered!")
  EndEventProcessing()
  0()
 EndIf()
 If(1,12,0,12,0)
  ChangeInventory_Item(174,0,0,1)
  ChangeInventory_Item(209,0,0,1)
  ChangeInventory_Item(242,0,0,1)
  ShowMessageFace("",0,0,2,39)
  ShowMessage("1 \\ii[174], 1 \\ii[209], and 1 \\ii[242] were delivered!")
  EndEventProcessing()
  0()
 EndIf()
 If(1,12,0,13,0)
  ChangeInventory_Item(170,0,0,1)
  ChangeInventory_Item(187,0,0,1)
  ChangeInventory_Item(230,0,0,1)
  ShowMessageFace("",0,0,2,40)
  ShowMessage("1 \\ii[170], 1 \\ii[187], and 1 \\ii[230] were delivered!")
  EndEventProcessing()
  0()
 EndIf()
 If(1,12,0,14,0)
  ChangeInventory_Item(169,0,0,1)
  ChangeInventory_Item(188,0,0,1)
  ChangeInventory_Item(229,0,0,1)
  ShowMessageFace("",0,0,2,41)
  ShowMessage("1 \\ii[169], 1 \\ii[188], and 1 \\ii[229] were delivered!")
  EndEventProcessing()
  0()
 EndIf()
 If(1,12,0,15,0)
  ChangeInventory_Item(241,0,0,1)
  ChangeInventory_Item(249,0,0,1)
  ChangeInventory_Item(252,0,0,1)
  ShowMessageFace("",0,0,2,42)
  ShowMessage("1 \\ii[241], 1 \\ii[249], and 1 \\ii[252] were delivered!")
  EndEventProcessing()
  0()
 EndIf()
 If(1,12,0,16,0)
  ChangeInventory_Item(205,0,0,1)
  ChangeInventory_Item(232,0,0,1)
  ChangeInventory_Item(248,0,0,1)
  ShowMessageFace("",0,0,2,43)
  ShowMessage("1 \\ii[205], 1 \\ii[232], and 1 \\ii[248] were delivered!")
  EndEventProcessing()
  0()
 EndIf()
 If(1,12,0,17,0)
  ChangeInventory_Item(198,0,0,1)
  ChangeInventory_Item(235,0,0,1)
  ChangeInventory_Item(253,0,0,1)
  ShowMessageFace("",0,0,2,44)
  ShowMessage("1 \\ii[198], 1 \\ii[235], and 1 \\ii[253] were delivered!")
  EndEventProcessing()
  0()
 EndIf()
 If(1,12,0,18,0)
  ChangeInventory_Item(201,0,0,1)
  ChangeInventory_Item(214,0,0,1)
  ChangeInventory_Item(231,0,0,1)
  ShowMessageFace("",0,0,2,45)
  ShowMessage("1 \\ii[201], 1 \\ii[214], and 1 \\ii[231] were delivered!")
  EndEventProcessing()
  0()
 EndIf()
 If(1,12,0,19,0)
  ChangeInventory_Item(179,0,0,1)
  ChangeInventory_Item(190,0,0,1)
  ChangeInventory_Item(202,0,0,1)
  ShowMessageFace("",0,0,2,46)
  ShowMessage("1 \\ii[179], 1 \\ii[190], and 1 \\ii[202] were delivered!")
  EndEventProcessing()
  0()
 EndIf()
 If(1,12,0,20,0)
  ChangeInventory_Item(239,0,0,1)
  ChangeInventory_Item(243,0,0,1)
  ChangeInventory_Item(251,0,0,1)
  ShowMessageFace("",0,0,2,47)
  ShowMessage("1 \\ii[239], 1 \\ii[243], and 1 \\ii[251] were delivered!")
  EndEventProcessing()
  0()
 EndIf()
 If(1,12,0,21,0)
  ChangeInventory_Item(194,0,0,1)
  ChangeInventory_Item(237,0,0,1)
  ChangeInventory_Item(247,0,0,1)
  ShowMessageFace("",0,0,2,48)
  ShowMessage("1 \\ii[194], 1 \\ii[237], and 1 \\ii[247] were delivered!")
  EndEventProcessing()
  0()
 EndIf()
 If(1,12,0,22,0)
  ChangeInventory_Item(180,0,0,1)
  ChangeInventory_Item(203,0,0,1)
  ChangeInventory_Item(250,0,0,1)
  ShowMessageFace("",0,0,2,49)
  ShowMessage("1 \\ii[180], 1 \\ii[203], and 1 \\ii[250] were delivered!")
  EndEventProcessing()
  0()
 EndIf()
 0()
EndIf()
If(1,11,0,46,0)
 ChangeVariable(12,12,0,2,1,32)
 If(1,12,0,1,0)
  ChangeInventory_Item(54,0,0,1)
  ShowMessageFace("",0,0,2,50)
  ShowMessage("1 \\ii[54] was delivered!")
  EndEventProcessing()
  0()
 EndIf()
 If(1,12,0,2,0)
  ChangeInventory_Item(58,0,0,1)
  ShowMessageFace("",0,0,2,51)
  ShowMessage("1 \\ii[58] was delivered!")
  EndEventProcessing()
  0()
 EndIf()
 If(1,12,0,3,0)
  ChangeInventory_Item(62,0,0,1)
  ShowMessageFace("",0,0,2,52)
  ShowMessage("1 \\ii[62] was delivered!")
  EndEventProcessing()
  0()
 EndIf()
 If(1,12,0,4,0)
  ChangeInventory_Item(66,0,0,1)
  ShowMessageFace("",0,0,2,53)
  ShowMessage("1 \\ii[66] was delivered!")
  EndEventProcessing()
  0()
 EndIf()
 If(1,12,0,5,0)
  ChangeInventory_Item(70,0,0,1)
  ShowMessageFace("",0,0,2,54)
  ShowMessage("1 \\ii[70] was delivered!")
  EndEventProcessing()
  0()
 EndIf()
 If(1,12,0,6,0)
  ChangeInventory_Item(74,0,0,1)
  ShowMessageFace("",0,0,2,55)
  ShowMessage("1 \\ii[74] was delivered!")
  EndEventProcessing()
  0()
 EndIf()
 If(1,12,0,7,0)
  ChangeInventory_Item(78,0,0,1)
  ShowMessageFace("",0,0,2,56)
  ShowMessage("1 \\ii[78] was delivered!")
  EndEventProcessing()
  0()
 EndIf()
 If(1,12,0,8,0)
  ChangeInventory_Item(82,0,0,1)
  ShowMessageFace("",0,0,2,57)
  ShowMessage("1 \\ii[82] was delivered!")
  EndEventProcessing()
  0()
 EndIf()
 If(1,12,0,9,0)
  ChangeInventory_Item(254,0,0,1)
  ShowMessageFace("",0,0,2,58)
  ShowMessage("1 \\ii[254] was delivered!")
  EndEventProcessing()
  0()
 EndIf()
 If(1,12,0,10,0)
  ChangeInventory_Item(255,0,0,1)
  ShowMessageFace("",0,0,2,59)
  ShowMessage("1 \\ii[255] was delivered!")
  EndEventProcessing()
  0()
 EndIf()
 If(1,12,0,11,0)
  ChangeInventory_Item(256,0,0,1)
  ShowMessageFace("",0,0,2,60)
  ShowMessage("1 \\ii[256] was delivered!")
  EndEventProcessing()
  0()
 EndIf()
 If(1,12,0,12,0)
  ChangeInventory_Item(257,0,0,1)
  ShowMessageFace("",0,0,2,61)
  ShowMessage("1 \\ii[257] was delivered!")
  EndEventProcessing()
  0()
 EndIf()
 If(1,12,0,13,0)
  ChangeInventory_Item(258,0,0,1)
  ShowMessageFace("",0,0,2,62)
  ShowMessage("1 \\ii[258] was delivered!")
  EndEventProcessing()
  0()
 EndIf()
 If(1,12,0,14,0)
  ChangeInventory_Item(259,0,0,1)
  ShowMessageFace("",0,0,2,63)
  ShowMessage("1 \\ii[259] was delivered!")
  EndEventProcessing()
  0()
 EndIf()
 If(1,12,0,15,0)
  ChangeInventory_Item(260,0,0,1)
  ShowMessageFace("",0,0,2,64)
  ShowMessage("1 \\ii[260] was delivered!")
  EndEventProcessing()
  0()
 EndIf()
 If(1,12,0,16,0)
  ChangeInventory_Item(261,0,0,1)
  ShowMessageFace("",0,0,2,65)
  ShowMessage("1 \\ii[261] was delivered!")
  EndEventProcessing()
  0()
 EndIf()
 If(1,12,0,17,0)
  ChangeInventory_Item(262,0,0,1)
  ShowMessageFace("",0,0,2,66)
  ShowMessage("1 \\ii[262] was delivered!")
  EndEventProcessing()
  0()
 EndIf()
 If(1,12,0,18,0)
  ChangeInventory_Item(263,0,0,1)
  ShowMessageFace("",0,0,2,67)
  ShowMessage("1 \\ii[263] was delivered!")
  EndEventProcessing()
  0()
 EndIf()
 If(1,12,0,19,0)
  ChangeInventory_Item(264,0,0,1)
  ShowMessageFace("",0,0,2,68)
  ShowMessage("1 \\ii[264] was delivered!")
  EndEventProcessing()
  0()
 EndIf()
 If(1,12,0,20,0)
  ChangeInventory_Item(265,0,0,1)
  ShowMessageFace("",0,0,2,69)
  ShowMessage("1 \\ii[265] was delivered!")
  EndEventProcessing()
  0()
 EndIf()
 If(1,12,0,21,0)
  ChangeInventory_Item(266,0,0,1)
  ShowMessageFace("",0,0,2,70)
  ShowMessage("1 \\ii[266] was delivered!")
  EndEventProcessing()
  0()
 EndIf()
 If(1,12,0,22,0)
  ChangeInventory_Item(267,0,0,1)
  ShowMessageFace("",0,0,2,71)
  ShowMessage("1 \\ii[267] was delivered!")
  EndEventProcessing()
  0()
 EndIf()
 If(1,12,0,23,0)
  ChangeInventory_Item(268,0,0,1)
  ShowMessageFace("",0,0,2,72)
  ShowMessage("1 \\ii[268] was delivered!")
  EndEventProcessing()
  0()
 EndIf()
 If(1,12,0,24,0)
  ChangeInventory_Item(269,0,0,1)
  ShowMessageFace("",0,0,2,73)
  ShowMessage("1 \\ii[269] was delivered!")
  EndEventProcessing()
  0()
 EndIf()
 If(1,12,0,25,0)
  ChangeInventory_Item(270,0,0,1)
  ShowMessageFace("",0,0,2,74)
  ShowMessage("1 \\ii[270] was delivered!")
  EndEventProcessing()
  0()
 EndIf()
 If(1,12,0,26,0)
  ChangeInventory_Item(271,0,0,1)
  ShowMessageFace("",0,0,2,75)
  ShowMessage("1 \\ii[271] was delivered!")
  EndEventProcessing()
  0()
 EndIf()
 If(1,12,0,27,0)
  ChangeInventory_Item(272,0,0,1)
  ShowMessageFace("",0,0,2,76)
  ShowMessage("1 \\ii[272] was delivered!")
  EndEventProcessing()
  0()
 EndIf()
 If(1,12,0,28,0)
  ChangeInventory_Item(273,0,0,1)
  ShowMessageFace("",0,0,2,77)
  ShowMessage("1 \\ii[273] was delivered!")
  EndEventProcessing()
  0()
 EndIf()
 If(1,12,0,29,0)
  ChangeInventory_Item(274,0,0,1)
  ShowMessageFace("",0,0,2,78)
  ShowMessage("1 \\ii[274] was delivered!")
  EndEventProcessing()
  0()
 EndIf()
 If(1,12,0,30,0)
  ChangeInventory_Item(275,0,0,1)
  ShowMessageFace("",0,0,2,79)
  ShowMessage("1 \\ii[275] was delivered!")
  EndEventProcessing()
  0()
 EndIf()
 If(1,12,0,31,0)
  ChangeInventory_Item(276,0,0,1)
  ShowMessageFace("",0,0,2,80)
  ShowMessage("1 \\ii[276] was delivered!")
  EndEventProcessing()
  0()
 EndIf()
 If(1,12,0,32,0)
  ChangeInventory_Item(277,0,0,1)
  ShowMessageFace("",0,0,2,81)
  ShowMessage("1 \\ii[277] was delivered!")
  EndEventProcessing()
  0()
 EndIf()
 0()
EndIf()
0()
