﻿// EVENT 2014
Name "Seduction: Wolf Girl"

If(0,25,1)
 EndEventProcessing()
 0()
EndIf()
355("$game_troop.lose_event_id = 3014")
ChangeVariable(26,26,0,3,3,1,4)
ChangeVariable(26,26,4,0,10)
ShowMessageFace("okami_fc1",0,0,2,1)
ShowMessage("\\n<Wolf Girl>Ughh! I can't win like this!\n...Fine, you can plant your seed in me!")
ShowMessageFace("okami_fc1",0,0,2,2)
ShowMessage("\\n<Wolf Girl>Don't worry about it, mate with me!\nPlus, I want to get impregnated by a strong man's seed!")
ShowMessageFace("",0,0,2,3)
ShowMessage("Resigning herself to her fate, the Wolf Girl entrusts her body to Luka...")
ChangeSwitch(98,98,0)
ChangeSwitch(96,96,0)
ShowChoices(strings("Ignore her","Put it in"),1)
IfPlayerPicksChoice(0,"Ignore her")
 ShowMessageFace("",0,0,2,4)
 ShowMessage("Luka resists her temptation!")
 RunCommonEvent(1999)
 EndEventProcessing()
 0()
IfPlayerPicksChoice(1,"挿れてみる")
 0()
404()
ChangeVariable(26,26,3,0,3)
250(bytes(0x04,0x08,0x6f,0x3a,0x0c,0x52,0x50,0x47,0x3a,0x3a,0x53,0x45,0x08,0x3a,0x0a,0x40,0x6e,0x61,0x6d,0x65,0x49,0x22,0x11,0x6d,0x6f,0x6e,0x5f,0x65,0x72,0x6f,0x5f,0x70,0x79,0x75,0x31,0x06,0x3a,0x06,0x45,0x54,0x3a,0x0b,0x40,0x70,0x69,0x74,0x63,0x68,0x69,0x69,0x3a,0x0c,0x40,0x76,0x6f,0x6c,0x75,0x6d,0x65,0x69,0x69))
311(0,1,1,1,26,true)
ShowMessageFace("",0,0,2,5)
ShowMessage("Luka aligns his penis with the Wolf Girl's vagina, and thrusts his hips forward! His penis gets wrapped up by her tight, fleshy hole!\\D")
ShowMessage("Luka takes \\V[26] damage!")
ChangeVariable(27,27,0,3,3,1,2)
If(1,27,0,0,0)
 JumpToLabel("射精1")
 0()
EndIf()
ShowMessageFace("",0,0,2,6)
ShowMessage("\\n<Luka>Ah! Aaaah!\nIt's so tight...!")
ShowMessageFace("okami_fc1",0,0,2,7)
ShowMessage("\\n<Wolf Girl>My body is well-trained!\nMy pussy muscles can constrict nicely too!")
250(bytes(0x04,0x08,0x6f,0x3a,0x0c,0x52,0x50,0x47,0x3a,0x3a,0x53,0x45,0x08,0x3a,0x0a,0x40,0x6e,0x61,0x6d,0x65,0x49,0x22,0x13,0x6d,0x6f,0x6e,0x5f,0x65,0x72,0x6f,0x5f,0x63,0x68,0x75,0x70,0x61,0x35,0x06,0x3a,0x06,0x45,0x54,0x3a,0x0b,0x40,0x70,0x69,0x74,0x63,0x68,0x69,0x69,0x3a,0x0c,0x40,0x76,0x6f,0x6c,0x75,0x6d,0x65,0x69,0x69))
311(0,1,1,1,26,true)
ShowMessageFace("",0,0,2,8)
ShowMessage("The soft vagina softly pressures Luka's penis!\nHis dick is clamped by the Wolf Girl's hot vagina!\\D")
ShowMessage("Luka takes \\V[26] damage!")
ChangeVariable(27,27,0,3,3,1,2)
If(1,27,0,0,0)
 JumpToLabel("射精2")
 0()
EndIf()
ShowMessageFace("",0,0,2,9)
ShowMessage("\\n<Luka>Hyaaaah!")
ShowMessageFace("okami_fc1",0,0,2,10)
ShowMessage("\\n<Wolf Girl>I'll make you come like this!\nLet out your thick seed inside!")
ShowChoices(strings("Struggle","Let her continue"),2)
IfPlayerPicksChoice(0,"Struggle")
 ShowMessageFace("",0,0,2,11)
 ShowMessage("Luka struggles wildly!\nHowever, he failed to escape the Wolf Girl's grip!")
 ShowMessageFace("okami_fc1",0,0,2,12)
 ShowMessage("\\n<Wolf Girl>It's no use struggling!\nHere, I'll make my grip stronger!")
 0()
IfPlayerPicksChoice(1,"なすがまま")
 ShowMessageFace("",0,0,2,13)
 ShowMessage("Luka wants to come inside...")
 ShowMessageFace("okami_fc1",0,0,2,14)
 ShowMessage("\\n<Wolf Girl>Not resisting anymore?\nThen, I'll make my grip stronger!")
 0()
404()
250(bytes(0x04,0x08,0x6f,0x3a,0x0c,0x52,0x50,0x47,0x3a,0x3a,0x53,0x45,0x08,0x3a,0x0a,0x40,0x6e,0x61,0x6d,0x65,0x49,0x22,0x13,0x6d,0x6f,0x6e,0x5f,0x65,0x72,0x6f,0x5f,0x63,0x68,0x75,0x70,0x61,0x35,0x06,0x3a,0x06,0x45,0x54,0x3a,0x0b,0x40,0x70,0x69,0x74,0x63,0x68,0x69,0x69,0x3a,0x0c,0x40,0x76,0x6f,0x6c,0x75,0x6d,0x65,0x69,0x69))
311(0,1,1,1,26,true)
ShowMessageFace("",0,0,2,15)
ShowMessage("The soft vagina tightens up on Luka!\\D")
ShowMessage("Luka takes \\V[26] damage!")
ChangeVariable(27,27,0,3,3,1,2)
If(1,27,0,0,0)
 JumpToLabel("射精2")
 0()
EndIf()
ShowMessageFace("",0,0,2,16)
ShowMessage("\\n<Luka>No more... I'm gonna come...")
ShowMessageFace("okami_fc1",0,0,2,17)
ShowMessage("\\n<Wolf Girl>Spurt your white stuff inside my pussy!\nMy womb will receive all your seed!")
ShowChoices(strings("Struggle","Let her continue"),2)
IfPlayerPicksChoice(0,"Struggle")
 ShowMessageFace("",0,0,2,18)
 ShowMessage("Luka struggles wildly!\nHowever, he failed to escape Wolf Girl's grip!")
 ShowMessageFace("okami_fc1",0,0,2,19)
 ShowMessage("\\n<Wolf Girl>I told you it's pointless!\nJust come already!")
 0()
IfPlayerPicksChoice(1,"なすがまま")
 ShowMessageFace("",0,0,2,20)
 ShowMessage("Luka lets her continue...")
 ShowMessageFace("okami_fc1",0,0,2,21)
 ShowMessage("\\n<Wolf Girl>Looks like you gave up!\nCome on, come!")
 0()
404()
250(bytes(0x04,0x08,0x6f,0x3a,0x0c,0x52,0x50,0x47,0x3a,0x3a,0x53,0x45,0x08,0x3a,0x0a,0x40,0x6e,0x61,0x6d,0x65,0x49,0x22,0x13,0x6d,0x6f,0x6e,0x5f,0x65,0x72,0x6f,0x5f,0x63,0x68,0x75,0x70,0x61,0x35,0x06,0x3a,0x06,0x45,0x54,0x3a,0x0b,0x40,0x70,0x69,0x74,0x63,0x68,0x69,0x69,0x3a,0x0c,0x40,0x76,0x6f,0x6c,0x75,0x6d,0x65,0x69,0x69))
311(0,1,1,1,26,true)
ShowMessageFace("",0,0,2,22)
ShowMessage("A sweet pressure is given to Luka's penis!\nAll the length of it is under pressure! It's on the edge!\\D")
ShowMessage("Luka takes \\V[26] damage!")
ChangeVariable(27,27,0,3,3,1,2)
If(1,27,0,0,0)
 JumpToLabel("射精2")
 0()
EndIf()
DefineLabel("射精1")
ShowMessageFace("",0,0,2,23)
ShowMessage("\\n<Luka>Ah! No! It's... coming!")
RunCommonEvent(104)
RunCommonEvent(105)
ShowMessageFace("",0,0,2,24)
ShowMessage("At the moment of insertion, I came immediately...")
ShowMessageFace("okami_fc1",0,0,2,25)
ShowMessage("\\n<Wolf Girl>Did you just come the moment you put it in?\nYou didn't seem to get stronger about that!")
RunCommonEvent(2000)
EndEventProcessing()
DefineLabel("射精2")
ShowMessageFace("",0,0,2,26)
ShowMessage("\\n<Luka>C-coming!\nFwaaaaaah!")
RunCommonEvent(104)
RunCommonEvent(105)
ShowMessageFace("",0,0,2,27)
ShowMessage("While savoring the vaginal tightness, I came pitifully inside...")
ShowMessageFace("okami_fc1",0,0,2,28)
ShowMessage("\\n<Wolf Girl>Ahaha! You came so easily!\nYou didn't seem to get stronger about that!")
RunCommonEvent(2000)
EndEventProcessing()
0()
