﻿// EVENT 0606
Name "Event: Mermaid Merchant"

ChangeSwitch(73,73,0)
PictureDisplay(5,"80_s_mermaid_st02",0,0,0,0,100,100,0,0)
PictureMove(5,null,0,0,0,0,100,100,255,0,60,true)
ShowMessageFace("s_mermaid_fc1",1,0,2,1)
ShowMessage("\\n<Mermaid Merchant>Welcome! I'm a traveling merchant.\nWanna buy something? I've got some special wares for ya, too!")
ShowChoices(strings("Normal wares","Special wares","Not interested"),3)
IfPlayerPicksChoice(0,null)
 Shop(0,2,0,0,false)
 605(0,4,0,0)
 605(0,7,0,0)
 605(0,11,0,0)
 605(0,13,0,0)
 605(0,14,0,0)
 605(0,15,0,0)
 605(0,16,0,0)
 605(0,17,0,0)
 605(0,18,0,0)
 605(0,19,0,0)
 605(0,20,0,0)
 605(0,21,0,0)
 605(0,23,0,0)
 605(0,35,0,0)
 605(0,52,0,0)
 605(0,56,0,0)
 605(0,60,0,0)
 605(0,64,0,0)
 605(0,68,0,0)
 605(0,72,0,0)
 605(0,76,0,0)
 605(0,80,0,0)
 605(0,102,0,0)
 605(0,109,0,0)
 ShowMessageFace("s_mermaid_fc1",0,0,2,2)
 ShowMessage("\\n<Mermaid Merchant>Thanks! Come again!")
 PictureClear(5)
 ChangeSwitch(73,73,1)
 EndEventProcessing()
 0()
IfPlayerPicksChoice(1,null)
 If(1,129,0,0,0)
  ChangeVariable(11,11,0,2,1,15)
  If(1,11,0,1,0)
   ShowMessageFace("s_mermaid_fc1",1,0,2,3)
   ShowMessage("\\n<Mermaid Merchant>I've got a Life Nut for 3000G. Interested?\nYou won't find one cheaper than this!")
   ShowMessageFace("",0,0,2,4)
   ShowMessage("Buy a Life Nut?\\$")
   ShowChoices(strings("Yes","No"),2)
   IfPlayerPicksChoice(0,"はい")
    125(1,0,3000)
    250(bytes(0x04,0x08,0x6f,0x3a,0x0c,0x52,0x50,0x47,0x3a,0x3a,0x53,0x45,0x08,0x3a,0x0a,0x40,0x6e,0x61,0x6d,0x65,0x49,0x22,0x0a,0x49,0x74,0x65,0x6d,0x31,0x06,0x3a,0x06,0x45,0x54,0x3a,0x0b,0x40,0x70,0x69,0x74,0x63,0x68,0x69,0x69,0x3a,0x0c,0x40,0x76,0x6f,0x6c,0x75,0x6d,0x65,0x69,0x55))
    ChangeInventory_Item(24,0,0,1)
    ShowMessageFace("s_mermaid_fc1",1,0,2,5)
    ShowMessage("\\n<Mermaid Merchant>Thanks! Come again!")
    ChangeVariable(129,129,0,0,1)
    PictureClear(5)
    ChangeSwitch(73,73,1)
    EndEventProcessing()
    0()
   IfPlayerPicksChoice(1,"いいえ")
    ShowMessageFace("s_mermaid_fc1",0,0,2,6)
    ShowMessage("\\n<Mermaid Merchant>Welp, seeya later.")
    ChangeVariable(129,129,0,0,2)
    PictureClear(5)
    ChangeSwitch(73,73,1)
    EndEventProcessing()
    0()
   404()
   0()
  EndIf()
  If(1,11,0,2,0)
   ShowMessageFace("s_mermaid_fc1",1,0,2,7)
   ShowMessage("\\n<Mermaid Merchant>I've got a Mystery Nut for 3000G. Interested?\nYou won't find one cheaper than this!")
   ShowMessageFace("",0,0,2,8)
   ShowMessage("Buy a Mystery Nut?\\$")
   ShowChoices(strings("Yes","No"),2)
   IfPlayerPicksChoice(0,"はい")
    125(1,0,3000)
    250(bytes(0x04,0x08,0x6f,0x3a,0x0c,0x52,0x50,0x47,0x3a,0x3a,0x53,0x45,0x08,0x3a,0x0a,0x40,0x6e,0x61,0x6d,0x65,0x49,0x22,0x0a,0x49,0x74,0x65,0x6d,0x31,0x06,0x3a,0x06,0x45,0x54,0x3a,0x0b,0x40,0x70,0x69,0x74,0x63,0x68,0x69,0x69,0x3a,0x0c,0x40,0x76,0x6f,0x6c,0x75,0x6d,0x65,0x69,0x55))
    ChangeInventory_Item(25,0,0,1)
    ShowMessageFace("s_mermaid_fc1",1,0,2,9)
    ShowMessage("\\n<Mermaid Merchant>Thanks! Come again!")
    ChangeVariable(129,129,0,0,1)
    PictureClear(5)
    ChangeSwitch(73,73,1)
    EndEventProcessing()
    0()
   IfPlayerPicksChoice(1,"いいえ")
    ShowMessageFace("s_mermaid_fc1",0,0,2,10)
    ShowMessage("\\n<Mermaid Merchant>Welp, seeya later.")
    ChangeVariable(129,129,0,0,2)
    PictureClear(5)
    ChangeSwitch(73,73,1)
    EndEventProcessing()
    0()
   404()
   0()
  EndIf()
  If(1,11,0,3,0)
   ShowMessageFace("s_mermaid_fc1",1,0,2,11)
   ShowMessage("\\n<Mermaid Merchant>I've got a Seed of Power for 3000G. Interested?\nYou won't find one cheaper than this!")
   ShowMessageFace("",0,0,2,12)
   ShowMessage("Buy a Seed of Power?\\$")
   ShowChoices(strings("Yes","No"),2)
   IfPlayerPicksChoice(0,"はい")
    125(1,0,3000)
    250(bytes(0x04,0x08,0x6f,0x3a,0x0c,0x52,0x50,0x47,0x3a,0x3a,0x53,0x45,0x08,0x3a,0x0a,0x40,0x6e,0x61,0x6d,0x65,0x49,0x22,0x0a,0x49,0x74,0x65,0x6d,0x31,0x06,0x3a,0x06,0x45,0x54,0x3a,0x0b,0x40,0x70,0x69,0x74,0x63,0x68,0x69,0x69,0x3a,0x0c,0x40,0x76,0x6f,0x6c,0x75,0x6d,0x65,0x69,0x55))
    ChangeInventory_Item(26,0,0,1)
    ShowMessageFace("s_mermaid_fc1",1,0,2,13)
    ShowMessage("\\n<Mermaid Merchant>Thanks! Come again!")
    ChangeVariable(129,129,0,0,1)
    PictureClear(5)
    ChangeSwitch(73,73,1)
    EndEventProcessing()
    0()
   IfPlayerPicksChoice(1,"いいえ")
    ShowMessageFace("s_mermaid_fc1",0,0,2,14)
    ShowMessage("\\n<Mermaid Merchant>Welp, seeya later.")
    ChangeVariable(129,129,0,0,2)
    PictureClear(5)
    ChangeSwitch(73,73,1)
    EndEventProcessing()
    0()
   404()
   0()
  EndIf()
  If(1,11,0,4,0)
   ShowMessageFace("s_mermaid_fc1",1,0,2,15)
   ShowMessage("\\n<Mermaid Merchant>I've got a Seed of Defense for 3000G. Interested?\nYou won't find one cheaper than this!")
   ShowMessageFace("",0,0,2,16)
   ShowMessage("Buy a Seed of Defense?\\$")
   ShowChoices(strings("Yes","No"),2)
   IfPlayerPicksChoice(0,"はい")
    125(1,0,3000)
    250(bytes(0x04,0x08,0x6f,0x3a,0x0c,0x52,0x50,0x47,0x3a,0x3a,0x53,0x45,0x08,0x3a,0x0a,0x40,0x6e,0x61,0x6d,0x65,0x49,0x22,0x0a,0x49,0x74,0x65,0x6d,0x31,0x06,0x3a,0x06,0x45,0x54,0x3a,0x0b,0x40,0x70,0x69,0x74,0x63,0x68,0x69,0x69,0x3a,0x0c,0x40,0x76,0x6f,0x6c,0x75,0x6d,0x65,0x69,0x55))
    ChangeInventory_Item(27,0,0,1)
    ShowMessageFace("s_mermaid_fc1",1,0,2,17)
    ShowMessage("\\n<Mermaid Merchant>Thanks! Come again!")
    ChangeVariable(129,129,0,0,1)
    PictureClear(5)
    ChangeSwitch(73,73,1)
    EndEventProcessing()
    0()
   IfPlayerPicksChoice(1,"いいえ")
    ShowMessageFace("s_mermaid_fc1",0,0,2,18)
    ShowMessage("\\n<Mermaid Merchant>Welp, seeya later.")
    ChangeVariable(129,129,0,0,2)
    PictureClear(5)
    ChangeSwitch(73,73,1)
    EndEventProcessing()
    0()
   404()
   0()
  EndIf()
  If(1,11,0,5,0)
   ShowMessageFace("s_mermaid_fc1",1,0,2,19)
   ShowMessage("\\n<Mermaid Merchant>I've got a Seed of Magic for 3000G. Interested?\nYou won't find one cheaper than this!")
   ShowMessageFace("",0,0,2,20)
   ShowMessage("Buy a Seed of Magic?\\$")
   ShowChoices(strings("Yes","No"),2)
   IfPlayerPicksChoice(0,"はい")
    125(1,0,3000)
    250(bytes(0x04,0x08,0x6f,0x3a,0x0c,0x52,0x50,0x47,0x3a,0x3a,0x53,0x45,0x08,0x3a,0x0a,0x40,0x6e,0x61,0x6d,0x65,0x49,0x22,0x0a,0x49,0x74,0x65,0x6d,0x31,0x06,0x3a,0x06,0x45,0x54,0x3a,0x0b,0x40,0x70,0x69,0x74,0x63,0x68,0x69,0x69,0x3a,0x0c,0x40,0x76,0x6f,0x6c,0x75,0x6d,0x65,0x69,0x55))
    ChangeInventory_Item(28,0,0,1)
    ShowMessageFace("s_mermaid_fc1",1,0,2,21)
    ShowMessage("\\n<Mermaid Merchant>Thanks! Come again!")
    ChangeVariable(129,129,0,0,1)
    PictureClear(5)
    ChangeSwitch(73,73,1)
    EndEventProcessing()
    0()
   IfPlayerPicksChoice(1,"いいえ")
    ShowMessageFace("s_mermaid_fc1",0,0,2,22)
    ShowMessage("\\n<Mermaid Merchant>Welp, seeya later.")
    ChangeVariable(129,129,0,0,2)
    PictureClear(5)
    ChangeSwitch(73,73,1)
    EndEventProcessing()
    0()
   404()
   0()
  EndIf()
  If(1,11,0,6,0)
   ShowMessageFace("s_mermaid_fc1",1,0,2,23)
   ShowMessage("\\n<Mermaid Merchant>I've got a Seed of Spirit for 3000G. Interested?\nYou won't find one cheaper than this!")
   ShowMessageFace("",0,0,2,24)
   ShowMessage("Buy a Seed of Spirit?\\$")
   ShowChoices(strings("Yes","No"),2)
   IfPlayerPicksChoice(0,"はい")
    125(1,0,3000)
    250(bytes(0x04,0x08,0x6f,0x3a,0x0c,0x52,0x50,0x47,0x3a,0x3a,0x53,0x45,0x08,0x3a,0x0a,0x40,0x6e,0x61,0x6d,0x65,0x49,0x22,0x0a,0x49,0x74,0x65,0x6d,0x31,0x06,0x3a,0x06,0x45,0x54,0x3a,0x0b,0x40,0x70,0x69,0x74,0x63,0x68,0x69,0x69,0x3a,0x0c,0x40,0x76,0x6f,0x6c,0x75,0x6d,0x65,0x69,0x55))
    ChangeInventory_Item(29,0,0,1)
    ShowMessageFace("s_mermaid_fc1",1,0,2,25)
    ShowMessage("\\n<Mermaid Merchant>Thanks! Come again!")
    ChangeVariable(129,129,0,0,1)
    PictureClear(5)
    ChangeSwitch(73,73,1)
    EndEventProcessing()
    0()
   IfPlayerPicksChoice(1,"いいえ")
    ShowMessageFace("s_mermaid_fc1",0,0,2,26)
    ShowMessage("\\n<Mermaid Merchant>Welp, seeya later.")
    ChangeVariable(129,129,0,0,2)
    PictureClear(5)
    ChangeSwitch(73,73,1)
    EndEventProcessing()
    0()
   404()
   0()
  EndIf()
  If(1,11,0,7,0)
   ShowMessageFace("s_mermaid_fc1",1,0,2,27)
   ShowMessage("\\n<Mermaid Merchant>I've got a Seed of Agility for 3000G. Interested?\nYou won't find one cheaper than this!")
   ShowMessageFace("",0,0,2,28)
   ShowMessage("Buy a Seed of Agility?\\$")
   ShowChoices(strings("Yes","No"),2)
   IfPlayerPicksChoice(0,"はい")
    125(1,0,3000)
    250(bytes(0x04,0x08,0x6f,0x3a,0x0c,0x52,0x50,0x47,0x3a,0x3a,0x53,0x45,0x08,0x3a,0x0a,0x40,0x6e,0x61,0x6d,0x65,0x49,0x22,0x0a,0x49,0x74,0x65,0x6d,0x31,0x06,0x3a,0x06,0x45,0x54,0x3a,0x0b,0x40,0x70,0x69,0x74,0x63,0x68,0x69,0x69,0x3a,0x0c,0x40,0x76,0x6f,0x6c,0x75,0x6d,0x65,0x69,0x55))
    ChangeInventory_Item(30,0,0,1)
    ShowMessageFace("s_mermaid_fc1",1,0,2,29)
    ShowMessage("\\n<Mermaid Merchant>Thanks! Come again!")
    ChangeVariable(129,129,0,0,1)
    PictureClear(5)
    ChangeSwitch(73,73,1)
    EndEventProcessing()
    0()
   IfPlayerPicksChoice(1,"いいえ")
    ShowMessageFace("s_mermaid_fc1",0,0,2,30)
    ShowMessage("\\n<Mermaid Merchant>Welp, seeya later.")
    ChangeVariable(129,129,0,0,2)
    PictureClear(5)
    ChangeSwitch(73,73,1)
    EndEventProcessing()
    0()
   404()
   0()
  EndIf()
  If(1,11,0,8,0)
   ShowMessageFace("s_mermaid_fc1",1,0,2,31)
   ShowMessage("\\n<Mermaid Merchant>I've got a Seed of Skill for 3000G. Interested?\nYou won't find one cheaper than this!")
   ShowMessageFace("",0,0,2,32)
   ShowMessage("Buy a Seed of Skill?\\$")
   ShowChoices(strings("Yes","No"),2)
   IfPlayerPicksChoice(0,"はい")
    125(1,0,3000)
    250(bytes(0x04,0x08,0x6f,0x3a,0x0c,0x52,0x50,0x47,0x3a,0x3a,0x53,0x45,0x08,0x3a,0x0a,0x40,0x6e,0x61,0x6d,0x65,0x49,0x22,0x0a,0x49,0x74,0x65,0x6d,0x31,0x06,0x3a,0x06,0x45,0x54,0x3a,0x0b,0x40,0x70,0x69,0x74,0x63,0x68,0x69,0x69,0x3a,0x0c,0x40,0x76,0x6f,0x6c,0x75,0x6d,0x65,0x69,0x55))
    ChangeInventory_Item(31,0,0,1)
    ShowMessageFace("s_mermaid_fc1",1,0,2,33)
    ShowMessage("\\n<Mermaid Merchant>Thanks! Come again!")
    ChangeVariable(129,129,0,0,1)
    PictureClear(5)
    ChangeSwitch(73,73,1)
    EndEventProcessing()
    0()
   IfPlayerPicksChoice(1,"いいえ")
    ShowMessageFace("s_mermaid_fc1",0,0,2,34)
    ShowMessage("\\n<Mermaid Merchant>Welp, seeya later.")
    ChangeVariable(129,129,0,0,2)
    PictureClear(5)
    ChangeSwitch(73,73,1)
    EndEventProcessing()
    0()
   404()
   0()
  EndIf()
  If(1,11,0,9,0)
   ShowMessageFace("s_mermaid_fc1",1,0,2,35)
   ShowMessage("\\n<Mermaid Merchant>I've got an Angel Seed for 3000G. Interested?\nYou won't find one cheaper than this!")
   ShowMessageFace("",0,0,2,36)
   ShowMessage("Buy an Angel Seed?\\$")
   ShowChoices(strings("Yes","No"),2)
   IfPlayerPicksChoice(0,"はい")
    125(1,0,3000)
    250(bytes(0x04,0x08,0x6f,0x3a,0x0c,0x52,0x50,0x47,0x3a,0x3a,0x53,0x45,0x08,0x3a,0x0a,0x40,0x6e,0x61,0x6d,0x65,0x49,0x22,0x0a,0x49,0x74,0x65,0x6d,0x31,0x06,0x3a,0x06,0x45,0x54,0x3a,0x0b,0x40,0x70,0x69,0x74,0x63,0x68,0x69,0x69,0x3a,0x0c,0x40,0x76,0x6f,0x6c,0x75,0x6d,0x65,0x69,0x55))
    ChangeInventory_Item(37,0,0,1)
    ShowMessageFace("s_mermaid_fc1",1,0,2,37)
    ShowMessage("\\n<Mermaid Merchant>Thanks! Come again!")
    ChangeVariable(129,129,0,0,1)
    PictureClear(5)
    ChangeSwitch(73,73,1)
    EndEventProcessing()
    0()
   IfPlayerPicksChoice(1,"いいえ")
    ShowMessageFace("s_mermaid_fc1",0,0,2,38)
    ShowMessage("\\n<Mermaid Merchant>Welp, seeya later.")
    ChangeVariable(129,129,0,0,2)
    PictureClear(5)
    ChangeSwitch(73,73,1)
    EndEventProcessing()
    0()
   404()
   0()
  EndIf()
  If(1,11,0,10,0)
   ShowMessageFace("s_mermaid_fc1",1,0,2,39)
   ShowMessage("\\n<Mermaid Merchant>I've got a Seed of Promotion for 3000G. Interested?\nYou won't find one cheaper than this!")
   ShowMessageFace("",0,0,2,40)
   ShowMessage("Buy a Seed of Promotion?\\$")
   ShowChoices(strings("Yes","No"),2)
   IfPlayerPicksChoice(0,"はい")
    125(1,0,3000)
    250(bytes(0x04,0x08,0x6f,0x3a,0x0c,0x52,0x50,0x47,0x3a,0x3a,0x53,0x45,0x08,0x3a,0x0a,0x40,0x6e,0x61,0x6d,0x65,0x49,0x22,0x0a,0x49,0x74,0x65,0x6d,0x31,0x06,0x3a,0x06,0x45,0x54,0x3a,0x0b,0x40,0x70,0x69,0x74,0x63,0x68,0x69,0x69,0x3a,0x0c,0x40,0x76,0x6f,0x6c,0x75,0x6d,0x65,0x69,0x55))
    ChangeInventory_Item(41,0,0,1)
    ShowMessageFace("s_mermaid_fc1",1,0,2,41)
    ShowMessage("\\n<Mermaid Merchant>Thanks! Come again!")
    ChangeVariable(129,129,0,0,1)
    PictureClear(5)
    ChangeSwitch(73,73,1)
    EndEventProcessing()
    0()
   IfPlayerPicksChoice(1,"いいえ")
    ShowMessageFace("s_mermaid_fc1",0,0,2,42)
    ShowMessage("\\n<Mermaid Merchant>Welp, seeya later.")
    ChangeVariable(129,129,0,0,2)
    PictureClear(5)
    ChangeSwitch(73,73,1)
    EndEventProcessing()
    0()
   404()
   0()
  EndIf()
  If(1,11,0,11,0)
   ShowMessageFace("s_mermaid_fc1",1,0,2,43)
   ShowMessage("\\n<Mermaid Merchant>I've got a Seed of Lineage for 3000G. Interested?\nYou won't find one cheaper than this!")
   ShowMessageFace("",0,0,2,44)
   ShowMessage("Buy a Seed of Lineage?\\$")
   ShowChoices(strings("Yes","No"),2)
   IfPlayerPicksChoice(0,"はい")
    125(1,0,3000)
    250(bytes(0x04,0x08,0x6f,0x3a,0x0c,0x52,0x50,0x47,0x3a,0x3a,0x53,0x45,0x08,0x3a,0x0a,0x40,0x6e,0x61,0x6d,0x65,0x49,0x22,0x0a,0x49,0x74,0x65,0x6d,0x31,0x06,0x3a,0x06,0x45,0x54,0x3a,0x0b,0x40,0x70,0x69,0x74,0x63,0x68,0x69,0x69,0x3a,0x0c,0x40,0x76,0x6f,0x6c,0x75,0x6d,0x65,0x69,0x55))
    ChangeInventory_Item(45,0,0,1)
    ShowMessageFace("s_mermaid_fc1",1,0,2,45)
    ShowMessage("\\n<Mermaid Merchant>Thanks! Come again!")
    ChangeVariable(129,129,0,0,1)
    PictureClear(5)
    ChangeSwitch(73,73,1)
    EndEventProcessing()
    0()
   IfPlayerPicksChoice(1,"いいえ")
    ShowMessageFace("s_mermaid_fc1",0,0,2,46)
    ShowMessage("\\n<Mermaid Merchant>Welp, seeya later.")
    ChangeVariable(129,129,0,0,2)
    PictureClear(5)
    ChangeSwitch(73,73,1)
    EndEventProcessing()
    0()
   404()
   0()
  EndIf()
  If(1,11,0,12,1)
   ShowMessageFace("s_mermaid_fc1",1,0,2,47)
   ShowMessage("\\n<Mermaid Merchant>I've got a Small Medal for 3000G. Interested?\nYou won't find one cheaper than this!")
   ShowMessageFace("",0,0,2,48)
   ShowMessage("Buy a Small Medal?\\$")
   ShowChoices(strings("Yes","No"),2)
   IfPlayerPicksChoice(0,"はい")
    125(1,0,3000)
    250(bytes(0x04,0x08,0x6f,0x3a,0x0c,0x52,0x50,0x47,0x3a,0x3a,0x53,0x45,0x08,0x3a,0x0a,0x40,0x6e,0x61,0x6d,0x65,0x49,0x22,0x0a,0x49,0x74,0x65,0x6d,0x31,0x06,0x3a,0x06,0x45,0x54,0x3a,0x0b,0x40,0x70,0x69,0x74,0x63,0x68,0x69,0x69,0x3a,0x0c,0x40,0x76,0x6f,0x6c,0x75,0x6d,0x65,0x69,0x55))
    ChangeInventory_Item(32,0,0,1)
    ShowMessageFace("s_mermaid_fc1",1,0,2,49)
    ShowMessage("\\n<Mermaid Merchant>Thanks! Come again!")
    ChangeVariable(129,129,0,0,1)
    PictureClear(5)
    ChangeSwitch(73,73,1)
    EndEventProcessing()
    0()
   IfPlayerPicksChoice(1,"いいえ")
    ShowMessageFace("s_mermaid_fc1",0,0,2,50)
    ShowMessage("\\n<Mermaid Merchant>Welp, seeya later.")
    ChangeVariable(129,129,0,0,2)
    PictureClear(5)
    ChangeSwitch(73,73,1)
    EndEventProcessing()
    0()
   404()
   0()
  EndIf()
  EndEventProcessing()
  0()
 EndIf()
 If(1,129,0,1,0)
  PictureDisplay(5,"80_s_mermaid_st01",0,0,0,0,100,100,0,0)
  PictureMove(5,null,0,0,0,0,100,100,255,0,60,true)
  ShowMessageFace("s_mermaid_fc1",0,0,2,51)
  ShowMessage("\\n<Mermaid Merchant>Thanks! Come again!")
  PictureClear(5)
  ChangeSwitch(73,73,1)
  EndEventProcessing()
  0()
 EndIf()
 If(1,129,0,2,0)
  PictureDisplay(5,"80_s_mermaid_st01",0,0,0,0,100,100,0,0)
  PictureMove(5,null,0,0,0,0,100,100,255,0,60,true)
  ShowMessageFace("s_mermaid_fc1",0,0,2,52)
  ShowMessage("\\n<Mermaid Merchant>Huh? I thought you didn't want it?\nI already ate it.")
  ShowMessageFace("s_mermaid_fc1",0,0,2,53)
  ShowMessage("\\n<Mermaid Merchant>Welp! Come again!")
  PictureClear(5)
  ChangeSwitch(73,73,1)
  EndEventProcessing()
  0()
 EndIf()
 0()
IfPlayerPicksChoice(2,null)
 ShowMessageFace("s_mermaid_fc1",0,0,2,54)
 ShowMessage("\\n<Mermaid Merchant>Welp, seeya later.")
 PictureClear(5)
 ChangeSwitch(73,73,1)
 EndEventProcessing()
 0()
404()
0()
