﻿// EVENT 1240
Name "Talk: Warmer"

If(1,20,0,1,0)
 JumpToLabel("情報")
 0()
EndIf()
If(1,20,0,2,0)
 JumpToLabel("質問")
 0()
EndIf()
If(1,20,0,3,0)
 JumpToLabel("要求")
 0()
EndIf()
If(1,20,0,4,0)
 JumpToLabel("贈与")
 0()
EndIf()
DefineLabel("情報")
ChangeVariable(13,13,0,2,1,100)
If(1,13,0,10,2)
 ShowMessageFace("warmer_fc1",0,0,2,1)
 ShowMessage("\\n<Warmer>Body, slimy...")
 EndEventProcessing()
 0()
EndIf()
If(1,13,0,20,2)
 ShowMessageFace("warmer_fc1",0,0,2,2)
 ShowMessage("\\n<Warmer>Sticky...")
 EndEventProcessing()
 0()
EndIf()
If(1,13,0,30,2)
 ShowMessageFace("warmer_fc1",0,0,2,3)
 ShowMessage("\\n<Warmer>Ghouls, friends...")
 EndEventProcessing()
 0()
EndIf()
If(1,13,0,40,2)
 ShowMessageFace("warmer_fc1",0,0,2,4)
 ShowMessage("\\n<Warmer>I'm hungry...")
 EndEventProcessing()
 0()
EndIf()
If(1,13,0,50,2)
 ShowMessageFace("warmer_fc1",0,0,2,5)
 ShowMessage("\\n<Warmer>Hobbling...")
 EndEventProcessing()
 0()
EndIf()
If(1,13,0,60,2)
 ShowMessageFace("warmer_fc1",0,0,2,6)
 ShowMessage("\\n<Warmer>Ahhhhhhhh...")
 EndEventProcessing()
 0()
EndIf()
If(1,13,0,70,2)
 ShowMessageFace("warmer_fc1",0,0,2,7)
 ShowMessage("\\n<Warmer>Damp... Like...\nSlugs... Like...")
 EndEventProcessing()
 0()
EndIf()
If(1,13,0,80,2)
 ShowMessageFace("warmer_fc1",0,0,2,8)
 ShowMessage("\\n<Warmer>Meat, want to eat...")
 EndEventProcessing()
 0()
EndIf()
If(1,13,0,90,2)
 ShowMessageFace("warmer_fc1",0,0,2,9)
 ShowMessage("\\n<Warmer>Rain, touch...")
 EndEventProcessing()
 0()
EndIf()
If(1,13,0,100,2)
 ShowMessageFace("warmer_fc1",0,0,2,10)
 ShowMessage("\\n<Warmer>Swamp, like...\nBubbling...")
 EndEventProcessing()
 0()
EndIf()
DefineLabel("質問")
ChangeVariable(13,13,0,2,1,50)
If(1,13,0,10,2)
 ShowMessageFace("warmer_fc1",0,0,2,11)
 ShowMessage("\\n<Warmer>When you're hungry...\nWhat do you eat?")
 ShowChoices(strings("Meat","Vegetables","Zombies"),0)
 IfPlayerPicksChoice(0,"肉")
  ShowMessageFace("warmer_fc1",0,0,2,12)
  ShowMessage("\\n<Warmer>Meat, tasty...")
  355("change_friend(10)")
  0()
 IfPlayerPicksChoice(1,"野菜")
  ShowMessageFace("warmer_fc1",2,0,2,13)
  ShowMessage("\\n<Warmer>Cannot understand...")
  355("change_friend(-5)")
  0()
 IfPlayerPicksChoice(2,"ゾンビ")
  ShowMessageFace("warmer_fc1",2,0,2,14)
  ShowMessage("\\n<Warmer>Zombies eat humans... Humans eat zombies...\nTurning round and round, Ouroboros...")
  0()
 404()
 EndEventProcessing()
 0()
EndIf()
If(1,13,0,20,2)
 ShowMessageFace("warmer_fc1",0,0,2,15)
 ShowMessage("\\n<Warmer>I'm hungry...\nCan I eat...?")
 ShowChoices(strings("Okay","I'm no good","Can I eat you too?"),0)
 IfPlayerPicksChoice(0,"いいよ")
  ShowMessageFace("warmer_fc1",0,0,2,16)
  ShowMessage("\\n<Warmer>*munch munch*...")
  355("change_friend(10)")
  0()
 IfPlayerPicksChoice(1,"ダメ")
  ShowMessageFace("warmer_fc1",2,0,2,17)
  ShowMessage("\\n<Warmer>............")
  355("change_friend(-5)")
  0()
 IfPlayerPicksChoice(2,"君も食べていい？")
  ShowMessageFace("warmer_fc1",0,0,2,18)
  ShowMessage("\\n<Warmer>Then, I'll give my right foot...\nHead, let me eat...")
  0()
 404()
 EndEventProcessing()
 0()
EndIf()
If(1,13,0,30,2)
 ShowMessageFace("warmer_fc1",0,0,2,19)
 ShowMessage("\\n<Warmer>I...am alive?")
 ShowChoices(strings("You're alive","You're dead","I don't know"),0)
 IfPlayerPicksChoice(0,"生きてる")
  ShowMessageFace("warmer_fc1",0,0,2,20)
  ShowMessage("\\n<Warmer>Alive...alive...♪")
  355("change_friend(10)")
  0()
 IfPlayerPicksChoice(1,"死んでる")
  ShowMessageFace("warmer_fc1",2,0,2,21)
  ShowMessage("\\n<Warmer>......?!")
  ShowMessageFace("",0,0,2,22)
  ShowMessage("She appears to be shocked...")
  355("change_friend(-5)")
  0()
 IfPlayerPicksChoice(2,"分からない")
  ShowMessageFace("warmer_fc1",2,0,2,23)
  ShowMessage("\\n<Warmer>Alive? Dead?\nI do not know...")
  355("change_friend(10)")
  0()
 404()
 EndEventProcessing()
 0()
EndIf()
If(1,13,0,40,2)
 ShowMessageFace("warmer_fc1",0,0,2,24)
 ShowMessage("\\n<Warmer>Ghouls, friends...\nWhat are your friends?")
 ShowChoices(strings("Warmer","Ghouls","Love and courage"),0)
 IfPlayerPicksChoice(0,"ウォーマー")
  ShowMessageFace("warmer_fc1",0,0,2,25)
  ShowMessage("\\n<Warmer>Then, mine too...\nYou, friend...")
  355("change_friend(10)")
  0()
 IfPlayerPicksChoice(1,"グール")
  ShowMessageFace("warmer_fc1",0,0,2,26)
  ShowMessage("\\n<Warmer>Ghouls are not friends with you...")
  0()
 IfPlayerPicksChoice(2,"愛と勇気")
  ShowMessageFace("warmer_fc1",0,0,2,27)
  ShowMessage("\\n<Warmer>Strong and independent...cool...")
  355("change_friend(10)")
  0()
 404()
 EndEventProcessing()
 0()
EndIf()
If(1,13,0,50,2)
 ShowMessageFace("warmer_fc1",0,0,2,28)
 ShowMessage("\\n<Warmer>Slimy, like...?")
 ShowChoices(strings("I love it","I hate it","I'm already slimy"),0)
 IfPlayerPicksChoice(0,"大好き")
  ShowMessageFace("warmer_fc1",0,0,2,29)
  ShowMessage("\\n<Warmer>I'll make you slimy...\nSlimy slimy...")
  ShowMessageFace("ruka_fc1",0,0,2,30)
  ShowMessage("\\n<Luka>Uwah! ♪")
  313(0,1,0,23)
  ShowMessageFace("",0,0,2,31)
  ShowMessage("Luka has been covered in slime!")
  355("change_friend(10)")
  0()
 IfPlayerPicksChoice(1,"大嫌い")
  ShowMessageFace("warmer_fc1",2,0,2,32)
  ShowMessage("\\n<Warmer>............")
  355("change_friend(-5)")
  0()
 IfPlayerPicksChoice(2,"すでにヌルヌルだ")
  ShowMessageFace("warmer_fc1",2,0,2,33)
  ShowMessage("\\n<Warmer>Liar...")
  0()
 404()
 EndEventProcessing()
 0()
EndIf()
DefineLabel("要求")
ChangeVariable(13,13,0,2,1,30)
If(1,13,0,10,2)
 If(8,16)
  ShowMessageFace("warmer_fc1",0,0,2,34)
  ShowMessage("\\n<Warmer>Restorative...give me...")
  ChangeVariable(24,24,0,3,0,16,0)
  ShowMessageFace("",0,0,2,35)
  ShowMessage("Do you want to give a \\ii[16]? (Have:\\V[24])")
  ShowChoices(strings("Yes","No"),2)
  IfPlayerPicksChoice(0,"Yes")
   ShowMessageFace("warmer_fc1",0,0,2,36)
   ShowMessage("\\n<Warmer>Happy...")
   ChangeInventory_Item(16,1,0,1)
   355("change_friend(20)")
   EndEventProcessing()
   0()
  IfPlayerPicksChoice(1,"No")
   ShowMessageFace("warmer_fc1",2,0,2,37)
   ShowMessage("\\n<Warmer>...Won't give?!")
   EndEventProcessing()
   0()
  404()
  0()
 Else()
  ChangeVariable(13,13,0,0,20)
  0()
 EndIf()
 0()
EndIf()
If(1,13,0,20,2)
 If(8,329)
  ShowMessageFace("warmer_fc1",0,0,2,38)
  ShowMessage("\\n<Warmer>Meat...give me...")
  ChangeVariable(24,24,0,3,0,329,0)
  ShowMessageFace("",0,0,2,39)
  ShowMessage("Do you want to give some \\ii[329]? (Have:\\V[24])")
  ShowChoices(strings("Yes","No"),2)
  IfPlayerPicksChoice(0,"Yes")
   ShowMessageFace("warmer_fc1",0,0,2,40)
   ShowMessage("\\n<Warmer>Happy...")
   ChangeInventory_Item(329,1,0,1)
   355("change_friend(30)")
   EndEventProcessing()
   0()
  IfPlayerPicksChoice(1,"No")
   ShowMessageFace("warmer_fc1",2,0,2,41)
   ShowMessage("\\n<Warmer>...Won't give?!")
   EndEventProcessing()
   0()
  404()
  0()
 Else()
  ChangeVariable(13,13,0,0,30)
  0()
 EndIf()
 0()
EndIf()
If(1,13,0,30,2)
 ShowMessageFace("warmer_fc1",0,0,2,42)
 ShowMessage("\\n<Warmer>Money...give me...")
 If(7,813,0)
  ChangeVariable(24,24,0,3,7,2,0)
  ShowMessageFace("",0,0,2,43)
  ShowMessage("Do you want to give 813G? (Remaining:\\V[24]G)")
  ShowChoices(strings("Yes","No"),2)
  IfPlayerPicksChoice(0,"Yes")
   ShowMessageFace("warmer_fc1",0,0,2,44)
   ShowMessage("\\n<Warmer>Happy...")
   125(1,0,813)
   355("change_friend(25)")
   EndEventProcessing()
   0()
  IfPlayerPicksChoice(1,"No")
   ShowMessageFace("warmer_fc1",2,0,2,45)
   ShowMessage("\\n<Warmer>...Won't give?!")
   EndEventProcessing()
   0()
  404()
  0()
 Else()
  ShowMessageFace("warmer_fc1",2,0,2,46)
  ShowMessage("\\n<Warmer>...None?!")
  EndEventProcessing()
  0()
 EndIf()
 0()
EndIf()
DefineLabel("贈与")
ChangeVariable(13,13,0,2,1,30)
If(1,25,0,1,0)
 ChangeVariable(13,13,0,0,30)
 ChangeVariable(25,25,0,0,0)
 0()
EndIf()
If(1,25,0,2,0)
 ChangeVariable(13,13,0,2,1,20)
 ChangeVariable(25,25,0,0,0)
 0()
EndIf()
If(1,13,0,10,2)
 ShowMessageFace("warmer_fc1",0,0,2,47)
 ShowMessage("\\n<Warmer>Give...")
 250(bytes(0x04,0x08,0x6f,0x3a,0x0c,0x52,0x50,0x47,0x3a,0x3a,0x53,0x45,0x08,0x3a,0x0a,0x40,0x6e,0x61,0x6d,0x65,0x49,0x22,0x0a,0x49,0x74,0x65,0x6d,0x31,0x06,0x3a,0x06,0x45,0x54,0x3a,0x0b,0x40,0x70,0x69,0x74,0x63,0x68,0x69,0x69,0x3a,0x0c,0x40,0x76,0x6f,0x6c,0x75,0x6d,0x65,0x69,0x55))
 ChangeInventory_Item(221,0,0,1)
 ShowMessageFace("",0,0,2,48)
 ShowMessage("The Warmer gave you some \\ii[221]!")
 EndEventProcessing()
 0()
EndIf()
If(1,13,0,20,2)
 ShowMessageFace("warmer_fc1",0,0,2,49)
 ShowMessage("\\n<Warmer>Give...")
 250(bytes(0x04,0x08,0x6f,0x3a,0x0c,0x52,0x50,0x47,0x3a,0x3a,0x53,0x45,0x08,0x3a,0x0a,0x40,0x6e,0x61,0x6d,0x65,0x49,0x22,0x0a,0x49,0x74,0x65,0x6d,0x31,0x06,0x3a,0x06,0x45,0x54,0x3a,0x0b,0x40,0x70,0x69,0x74,0x63,0x68,0x69,0x69,0x3a,0x0c,0x40,0x76,0x6f,0x6c,0x75,0x6d,0x65,0x69,0x55))
 ChangeInventory_Item(432,0,0,1)
 ShowMessageFace("",0,0,2,50)
 ShowMessage("The Warmer gave you some \\ii[432]!")
 EndEventProcessing()
 0()
EndIf()
If(1,13,0,30,2)
 ShowMessageFace("warmer_fc1",0,0,2,51)
 ShowMessage("\\n<Warmer>Give...")
 250(bytes(0x04,0x08,0x6f,0x3a,0x0c,0x52,0x50,0x47,0x3a,0x3a,0x53,0x45,0x08,0x3a,0x0a,0x40,0x6e,0x61,0x6d,0x65,0x49,0x22,0x0a,0x49,0x74,0x65,0x6d,0x31,0x06,0x3a,0x06,0x45,0x54,0x3a,0x0b,0x40,0x70,0x69,0x74,0x63,0x68,0x69,0x69,0x3a,0x0c,0x40,0x76,0x6f,0x6c,0x75,0x6d,0x65,0x69,0x55))
 125(0,0,1355)
 ShowMessageFace("",0,0,2,52)
 ShowMessage("The Warmer gave you 1355G!")
 EndEventProcessing()
 0()
EndIf()
0()
