﻿// EVENT 2101
Name "Seduction: Scorpion Girl"

If(0,25,1)
 EndEventProcessing()
 0()
EndIf()
355("$game_troop.lose_event_id = 3101")
ChangeVariable(26,26,0,3,3,1,4)
ChangeVariable(26,26,4,0,10)
ShowMessageFace("sasori_fc1",0,0,2,1)
ShowMessage("\\n<Scorpion Girl>Heh, you're not that bad.\nI'll give you a special reward...")
355("battler_graphic_hide")
PictureDisplay(5,"80_sasori_st11",0,0,0,0,100,100,255,0)
ShowMessageFace("",0,0,2,2)
ShowMessage("The tip of the Scorpion Girl's tail reveals an orifice!")
ShowMessageFace("sasori_fc1",0,0,2,3)
ShowMessage("\\n<Scorpion Girl>Hooora... I'll hold your penis in this tail.\nIt looks very pleasurable, doesn't it?")
ShowMessageFace("sasori_fc1",0,0,2,4)
ShowMessage("\\n<Scorpion Girl>Don't you want to have your male extract sucked to the last drop...?")
ChangeSwitch(98,98,0)
ChangeSwitch(96,96,0)
ShowChoices(strings("Ignore her","Give in to temptation"),1)
IfPlayerPicksChoice(0,"Ignore her")
 ShowMessageFace("",0,0,2,5)
 ShowMessage("Luka resists her temptation!")
 RunCommonEvent(1999)
 EndEventProcessing()
 0()
IfPlayerPicksChoice(1,"Give in to temptation")
 0()
404()
ShowMessageFace("sasori_fc1",1,0,2,6)
ShowMessage("\\n<Scorpion Girl>Being sucked by this tail will feel amazing...\nI'm sure you'll be so overjoyed you'll ejaculate...")
PictureDisplay(5,"ev_sasori_h1",0,0,0,0,100,100,255,0)
ShowMessageFace("",0,0,2,7)
ShowMessage("The Scorpion Girl leans over Luka, restricting his movement! Luka's body is pinned down underneath the Scorpion Girl!")
ShowMessageFace("sasori_fc1",1,0,2,8)
ShowMessage("\\n<Scorpion Girl>Resign yourself, for I shall suck you down to the last drop...")
ChangeVariable(26,26,3,0,4)
250(bytes(0x04,0x08,0x6f,0x3a,0x0c,0x52,0x50,0x47,0x3a,0x3a,0x53,0x45,0x08,0x3a,0x0a,0x40,0x6e,0x61,0x6d,0x65,0x49,0x22,0x11,0x6d,0x6f,0x6e,0x5f,0x65,0x72,0x6f,0x5f,0x70,0x79,0x75,0x34,0x06,0x3a,0x06,0x45,0x54,0x3a,0x0b,0x40,0x70,0x69,0x74,0x63,0x68,0x69,0x69,0x3a,0x0c,0x40,0x76,0x6f,0x6c,0x75,0x6d,0x65,0x69,0x69))
PictureDisplay(6,"ev_sasori_ct01",0,0,0,0,100,100,255,0)
311(0,1,1,1,26,true)
ShowMessageFace("",0,0,2,9)
ShowMessage("As the Scorpion Girl holds Luka down, she brings his penis into her tail's opening! The soft flesh wraps around Luka's dick!\\D")
ShowMessage("Luka takes \\V[26] damage!")
ChangeVariable(27,27,0,3,3,1,2)
If(1,27,0,0,0)
 JumpToLabel("射精1")
 0()
EndIf()
ShowMessageFace("",0,0,2,10)
ShowMessage("\\n<Luka>Aa-aaaaah...!!")
ShowMessageFace("",0,0,2,11)
ShowMessage("My body writhes in agony as my penis is wrapped in her soft flesh. The Scorpion Girl's firm restraint however, prevents me from escaping.")
ShowMessageFace("sasori_fc1",1,0,2,12)
ShowMessage("\\n<Scorpion Girl>It feels good doesn't it...? Don't worry and just let it out like this.")
250(bytes(0x04,0x08,0x6f,0x3a,0x0c,0x52,0x50,0x47,0x3a,0x3a,0x53,0x45,0x08,0x3a,0x0a,0x40,0x6e,0x61,0x6d,0x65,0x49,0x22,0x13,0x6d,0x6f,0x6e,0x5f,0x65,0x72,0x6f,0x5f,0x63,0x68,0x75,0x70,0x61,0x34,0x06,0x3a,0x06,0x45,0x54,0x3a,0x0b,0x40,0x70,0x69,0x74,0x63,0x68,0x69,0x69,0x3a,0x0c,0x40,0x76,0x6f,0x6c,0x75,0x6d,0x65,0x69,0x69))
311(0,1,1,1,26,true)
ShowMessageFace("",0,0,2,13)
ShowMessage("The Scorpion Girl's tail sucks on Luka's dick!\nThe flesh inside her tail undulates, conveying a strange pleasure to the glans!\\D")
ShowMessage("Luka takes \\V[26] damage!")
ChangeVariable(27,27,0,3,3,1,2)
If(1,27,0,0,0)
 JumpToLabel("射精2")
 0()
EndIf()
ShowMessageFace("sasori_fc1",1,0,2,14)
ShowMessage("\\n<Scorpion Girl>Hooora, shoot out your male extract...")
250(bytes(0x04,0x08,0x6f,0x3a,0x0c,0x52,0x50,0x47,0x3a,0x3a,0x53,0x45,0x08,0x3a,0x0a,0x40,0x6e,0x61,0x6d,0x65,0x49,0x22,0x13,0x6d,0x6f,0x6e,0x5f,0x65,0x72,0x6f,0x5f,0x63,0x68,0x75,0x70,0x61,0x34,0x06,0x3a,0x06,0x45,0x54,0x3a,0x0b,0x40,0x70,0x69,0x74,0x63,0x68,0x69,0x69,0x3a,0x0c,0x40,0x76,0x6f,0x6c,0x75,0x6d,0x65,0x69,0x69))
311(0,1,1,1,26,true)
ShowMessageFace("",0,0,2,15)
ShowMessage("The Scorpion Girl's soft tail flesh swells!\nThe inside of her tail contracts as it thoroughly massages Luka's penis!\\D")
ShowMessage("Luka takes \\V[26] damage!")
ChangeVariable(27,27,0,3,3,1,2)
If(1,27,0,0,0)
 JumpToLabel("射精2")
 0()
EndIf()
DefineLabel("射精1")
ShowMessageFace("",0,0,2,16)
ShowMessage("\\n<Luka>Ah...I'm coming...!")
RunCommonEvent(104)
PictureDisplay(6,"ev_sasori_ct02",0,0,0,0,100,100,255,0)
RunCommonEvent(105)
ShowMessageFace("",0,0,2,17)
ShowMessage("The Scorpion Girl's squeezing tail felt so good, I couldn't endure it at all. My sticky semen steadily pours into her tail.")
ShowMessageFace("sasori_fc1",1,0,2,18)
ShowMessage("\\n<Scorpion Girl>An instant finish.\nI've never met anyone who came so quickly... How pathetic.")
RunCommonEvent(2000)
EndEventProcessing()
DefineLabel("射精2")
ShowMessageFace("",0,0,2,19)
ShowMessage("\\n<Luka>Fwaaah...So good...")
RunCommonEvent(104)
PictureDisplay(6,"ev_sasori_ct02",0,0,0,0,100,100,255,0)
RunCommonEvent(105)
ShowMessageFace("",0,0,2,20)
ShowMessage("I could no longer endure being violated by the Scorpion Girl's squeezing tail. My sticky semen steadily pours into her tail.")
ShowMessageFace("sasori_fc1",1,0,2,21)
ShowMessage("\\n<Scorpion Girl>You let out so much sticky male extract...\nFufu, it's very delicious.")
RunCommonEvent(2000)
EndEventProcessing()
0()
