// EVENT 5682
Name "Roza 2"

PictureDisplay(5,"80_cirqueb_st21",0,0,0,0,100,100,255,0)
ShowMessageFace("cirqueb_fc3",0,0,2,1)
ShowMessage("\\n<Roza>")
ShowMessage("You want me to play with you...?")
ShowMessageFace("",0,0,2,2)
ShowMessage("\\n<Luka>Y-Yes... Please...")
ShowMessageFace("cirqueb_fc3",0,0,2,3)
ShowMessage("\\n<Roza>")
ShowMessage("All right, come to my room...")
ShowMessageFace("",0,0,2,4)
ShowMessage("I follow her to their room...")
221()
PictureDisplay(1,"bg195",0,0,0,0,100,100,255,0)
PictureDisplay(5,"ev_cirque_hc1",0,0,0,0,100,100,255,0)
222()
245(bytes(0x04,0x08,0x6f,0x3a,0x0d,0x52,0x50,0x47,0x3a,0x3a,0x42,0x47,0x53,0x08,0x3a,0x0a,0x40,0x6e,0x61,0x6d,0x65,0x49,0x22,0x17,0x6d,0x6f,0x6e,0x5f,0x68,0x73,0x65,0x61,0x6e,0x31,0x37,0x5f,0x73,0x69,0x67,0x6f,0x6b,0x69,0x06,0x3a,0x06,0x45,0x54,0x3a,0x0c,0x40,0x76,0x6f,0x6c,0x75,0x6d,0x65,0x69,0x55,0x3a,0x0b,0x40,0x70,0x69,0x74,0x63,0x68,0x69,0x69))
241(bytes(0x04,0x08,0x6f,0x3a,0x0d,0x52,0x50,0x47,0x3a,0x3a,0x42,0x47,0x4d,0x08,0x3a,0x0a,0x40,0x6e,0x61,0x6d,0x65,0x49,0x22,0x09,0x65,0x72,0x6f,0x31,0x06,0x3a,0x06,0x45,0x54,0x3a,0x0c,0x40,0x76,0x6f,0x6c,0x75,0x6d,0x65,0x69,0x69,0x3a,0x0b,0x40,0x70,0x69,0x74,0x63,0x68,0x69,0x69))
ShowMessageFace("",0,0,2,5)
ShowMessage("As soon as I enter the room, Roza hugs my body.")
ShowMessage("Her skin feels like a mucous membrane, with threads of slime hanging all over it.")
ShowMessageFace("",0,0,2,6)
ShowMessage("\\n<Luka>Auuu...")
ShowMessageFace("",0,0,2,7)
ShowMessage("Her large breasts press against my body and I feel their slimy softness.")
ShowMessage("My whole body is enveloped in a soft, slimy sensation that feels good just being held like this...")
PictureDisplay(5,"ev_cirque_hc2",0,0,0,0,100,100,255,0)
ShowMessageFace("cirqueb_fc3",0,0,2,8)
ShowMessage("\\n<Roza>")
ShowMessage("Nnn...Mmpch...")
ShowMessageFace("",0,0,2,9)
ShowMessage("Roza's tongue stretches out and licks my face.")
ShowMessage("A sweet ticklish feeling traces across my face and strands of saliva cover the spots she licks...")
ShowMessageFace("cirqueb_fc3",0,0,2,10)
ShowMessage("\\n<Roza>")
ShowMessage("Tasty...I want to eat you just like this...")
ShowMessageFace("",0,0,2,11)
ShowMessage("\\n<Luka>N-no way... Ahh...")
PictureDisplay(5,"ev_cirque_hc3",0,0,0,0,100,100,255,0)
ShowMessageFace("",0,0,2,12)
ShowMessage("My lower body instantly reacts, my penis gets erect.")
ShowMessage("My erect penis presses against Roza's breasts.")
ShowMessageFace("",0,0,2,13)
ShowMessage("The surface of her plump breasts is covered in a sticky mucus.")
ShowMessage("The feeling of her elastic meat coupled with the sensation of her sticky mucus, cover my penis.")
ShowMessageFace("cirqueb_fc3",0,0,2,14)
ShowMessage("\\n<Roza>")
ShowMessage("I made it get big...")
ShowMessage("Well then, I'll make you come with my chest...")
ShowMessageFace("",0,0,2,15)
ShowMessage("\\n<Luka>Ah... Aaaah...")
PictureDisplay(5,"ev_cirque_hc4",0,0,0,0,100,100,255,0)
ShowMessageFace("",0,0,2,16)
ShowMessage("Roza's big breasts squeeze my penis from both sides...")
ShowMessage("My manhood is squeezed in her valley!")
ShowMessageFace("",0,0,2,17)
ShowMessage("My penis is immediately covered with her slime.")
ShowMessage("I instantly get soaked in ecstasy from the powerful pleasure...")
ShowMessageFace("",0,0,2,18)
ShowMessage("\\n<Luka>Auuu...They're so slimy, but so soft...")
ShowMessageFace("cirqueb_fc3",0,0,2,19)
ShowMessage("\\n<Roza>")
ShowMessage("My body...Does it feel good?")
ShowMessageFace("",0,0,2,20)
ShowMessage("The surface of her breasts rub and stimulates my penis.")
ShowMessage("Her dripping mucus gets my manhood all sticky.")
ShowMessageFace("",0,0,2,21)
ShowMessage("I'm squeezed between her slimy elastic breasts...")
ShowMessage("I entrust myself to Roza as my waist starts trembling.")
ShowMessageFace("",0,0,2,22)
ShowMessage("\\n<Luka>Auuu...That feels good...")
ShowMessageFace("cirqueb_fc3",0,0,2,23)
ShowMessage("\\n<Roza>")
ShowMessage("Well then, ejaculate on my breasts...")
245(bytes(0x04,0x08,0x6f,0x3a,0x0d,0x52,0x50,0x47,0x3a,0x3a,0x42,0x47,0x53,0x08,0x3a,0x0a,0x40,0x6e,0x61,0x6d,0x65,0x49,0x22,0x17,0x6d,0x6f,0x6e,0x5f,0x68,0x73,0x65,0x61,0x6e,0x31,0x38,0x5f,0x73,0x6c,0x69,0x6d,0x65,0x31,0x06,0x3a,0x06,0x45,0x54,0x3a,0x0c,0x40,0x76,0x6f,0x6c,0x75,0x6d,0x65,0x69,0x55,0x3a,0x0b,0x40,0x70,0x69,0x74,0x63,0x68,0x69,0x69))
PictureDisplay(5,"ev_cirque_hc5",0,0,0,0,100,100,255,0)
ShowMessageFace("",0,0,2,24)
ShowMessage("Roza presses her breasts together and squeezes my penis between them.")
ShowMessage("My manhood is squeezed from both sides at the same time...")
ShowMessageFace("",0,0,2,25)
ShowMessage("\\n<Luka>Auuuuu...!")
ShowMessageFace("cirqueb_fc3",0,0,2,26)
ShowMessage("\\n<Roza>")
ShowMessage("My slimy chest feels good...")
ShowMessage("Now, come.")
ShowMessageFace("",0,0,2,27)
ShowMessage("She crushes my penis with her elastic flesh.")
ShowMessage("Her slimy meat thoroughly rubs my entire meat rod...")
ShowMessageFace("",0,0,2,28)
ShowMessage("\\n<Luka>Hauu... A-Ahhh...!")
ShowMessageFace("",0,0,2,29)
ShowMessage("From the back of my waist I feel the sense of release rise up...")
ShowMessage("It spreads throughout my entire lower body and I entrust myself to the sweet numbness...")
RunCommonEvent(104)
PictureDisplay(5,"ev_cirque_hc6",0,0,0,0,100,100,255,0)
RunCommonEvent(105)
ShowMessageFace("",0,0,2,30)
ShowMessage("I shoot my semen while tasting the pleasure of her slimy skin.")
ShowMessage("My penis pulsates between Roza's breasts and starts spurting semen...")
ShowMessageFace("",0,0,2,31)
ShowMessage("\\n<Luka>Auuu...That feels so good...")
ShowMessageFace("",0,0,2,32)
ShowMessage("I devote a large amount of semen to Roza's breasts.")
ShowMessage("The best feeling of release encases me all throughout my ejaculation until I finish...")
246(2)
ShowMessageFace("cirqueb_fc3",0,0,2,33)
ShowMessage("\\n<Roza>")
ShowMessage("You covered my breasts with semen...")
ShowMessage("You shot out a lot...")
ShowMessageFace("",0,0,2,34)
ShowMessage("\\n<Luka>.........")
ShowMessageFace("",0,0,2,35)
ShowMessage("Seeing my semen entangled in her slimy chest is quite the spectacle...")
ShowMessage("Totally weakened, I can do nothing but stare at it.")
221()
PictureClear(5)
PictureClear(6)
ShowMessageFace("",0,0,2,36)
ShowMessage("......")
RunCommonEvent(3998)
0()
