// EVENT 2010
Name "Seduction: Tiny Lamia"

If(0,25,1)
 EndEventProcessing()
 0()
EndIf()
355("$game_troop.lose_event_id = 3010")
ChangeVariable(26,26,0,3,3,1,4)
ChangeVariable(26,26,4,0,10)
ShowMessageFace("pramia_fc1",2,0,2,1)
ShowMessage("\\n<Tiny Lamia>If this keeps up, I'll lose!\nInstead, I'll use my charm!")
ShowMessageFace("pramia_fc1",1,0,2,2)
ShowMessage("\\n<Tiny Lamia>Heey... Do you want me to twine around youu?")
ChangeSwitch(98,98,0)
ChangeSwitch(96,96,0)
ShowChoices(strings("Ignore her","Get tempted"),1)
IfPlayerPicksChoice(0,"Ignore her")
 ShowMessageFace("",0,0,2,3)
 ShowMessage("Luka resists her temptation!")
 RunCommonEvent(1999)
 EndEventProcessing()
 0()
IfPlayerPicksChoice(1,"誘惑に乗る")
 0()
404()
ShowMessageFace("pramia_fc1",0,0,2,4)
ShowMessage("\\n<Tiny Lamia>No way? You fell for that!?")
250(bytes(0x04,0x08,0x6f,0x3a,0x0c,0x52,0x50,0x47,0x3a,0x3a,0x53,0x45,0x08,0x3a,0x0a,0x40,0x6e,0x61,0x6d,0x65,0x49,0x22,0x16,0x6d,0x6f,0x6e,0x5f,0x65,0x72,0x6f,0x5f,0x6d,0x61,0x6b,0x69,0x74,0x75,0x6b,0x69,0x32,0x06,0x3a,0x06,0x45,0x54,0x3a,0x0b,0x40,0x70,0x69,0x74,0x63,0x68,0x69,0x69,0x3a,0x0c,0x40,0x76,0x6f,0x6c,0x75,0x6d,0x65,0x69,0x69))
355("battler_graphic_hide")
PictureDisplay(5,"ev_pramia_h1",0,0,0,0,100,100,255,0)
ShowMessageFace("",0,0,2,5)
ShowMessage("The Tiny Lamia's short tail moves towards Luka!")
ShowMessage("It coils around his body!")
ShowMessage("The Tiny Lamia is now twined around him!")
ShowMessageFace("",0,0,2,6)
ShowMessage("\\n<Luka>Uggh...")
ShowMessageFace("",0,0,2,7)
ShowMessage("However, the Tiny Lamia isn't able to exert much pressure.")
ShowMessage("With a little struggling, it wouldn't be that hard to get free...")
ShowMessageFace("pramia_fc1",1,0,2,8)
ShowMessage("\\n<Tiny Lamia>I'll constrict your penis for you with my monster pussy.\nAnd I'll squeeze out all of your sticky white stuff...")
ShowMessageFace("",0,0,2,9)
ShowMessage("The Tiny Lamia pulls Luka's pants down, revealing his crotch!")
ShowMessage("Her vagina approaches his penis like it wants to devour it!")
ShowMessageFace("pramia_fc1",1,0,2,10)
ShowMessage("\\n<Tiny Lamia>Okay then, I'll rape you.\nHora hora... It's going in...")
ShowChoices(strings("Struggle","Let her continue"),1)
IfPlayerPicksChoice(0,"Struggle")
 ShowMessageFace("",0,0,2,11)
 ShowMessage("Luka struggles violently, and gets free from the Tiny Lamia's grip!")
 RunCommonEvent(1999)
 EndEventProcessing()
 0()
IfPlayerPicksChoice(1,"なすがまま")
 ShowMessageFace("",0,0,2,12)
 ShowMessage("Luka lets himself get raped...")
 0()
404()
ShowMessageFace("pramia_fc1",1,0,2,13)
ShowMessage("\\n<Tiny Lamia>Then, I'll eat you...\nI'll devour your dick with my demon pussy...")
ChangeVariable(26,26,3,0,2)
250(bytes(0x04,0x08,0x6f,0x3a,0x0c,0x52,0x50,0x47,0x3a,0x3a,0x53,0x45,0x08,0x3a,0x0a,0x40,0x6e,0x61,0x6d,0x65,0x49,0x22,0x11,0x6d,0x6f,0x6e,0x5f,0x65,0x72,0x6f,0x5f,0x70,0x79,0x75,0x34,0x06,0x3a,0x06,0x45,0x54,0x3a,0x0b,0x40,0x70,0x69,0x74,0x63,0x68,0x69,0x69,0x3a,0x0c,0x40,0x76,0x6f,0x6c,0x75,0x6d,0x65,0x69,0x69))
PictureDisplay(5,"ev_pramia_h2",0,0,0,0,100,100,255,0)
311(0,1,1,1,26,true)
ShowMessageFace("",0,0,2,14)
ShowMessage("Luka's penis goes into the Tiny Lamia's vagina!")
ShowMessage("It's assaulted by a powerful pressure!\\D")
ShowMessage("Luka takes \\V[26] damage!")
ShowMessageFace("",0,0,2,15)
ShowMessage("Luka is being raped by the Tiny Lamia!")
ChangeVariable(27,27,0,3,3,1,2)
If(1,27,0,0,0)
 JumpToLabel("射精1")
 0()
EndIf()
ShowMessageFace("pramia_fc1",1,0,2,16)
ShowMessage("\\n<Tiny Lamia>Ahaha... Isn't it amazing inside me?\nIs your dick gonna melt?")
ShowMessageFace("",0,0,2,17)
ShowMessage("The Tiny Lamia's insides get extremely tight, intensely pressuring Luka.")
ShowMessage("His dick is being teased.")
ShowMessageFace("pramia_fc1",1,0,2,18)
ShowMessage("\\n<Tiny Lamia>Hoora, you can moan, you know.\nMe tightening around your dick with my pussy... This is paradise, right?")
ShowMessageFace("",0,0,2,19)
ShowMessage("\\n<Luka>Ugh...")
ShowMessageFace("pramia_fc1",1,0,2,20)
ShowMessage("\\n<Tiny Lamia>You're keeping up your facade...\nI'm proud of my talent at driving men mad.")
ShowMessageFace("pramia_fc1",1,0,2,21)
ShowMessage("\\n<Tiny Lamia>Hora... If I squeeze like this...\nyour dick'll be all wrung out... Hora hora hora...")
250(bytes(0x04,0x08,0x6f,0x3a,0x0c,0x52,0x50,0x47,0x3a,0x3a,0x53,0x45,0x08,0x3a,0x0a,0x40,0x6e,0x61,0x6d,0x65,0x49,0x22,0x13,0x6d,0x6f,0x6e,0x5f,0x65,0x72,0x6f,0x5f,0x63,0x68,0x75,0x70,0x61,0x35,0x06,0x3a,0x06,0x45,0x54,0x3a,0x0b,0x40,0x70,0x69,0x74,0x63,0x68,0x69,0x69,0x3a,0x0c,0x40,0x76,0x6f,0x6c,0x75,0x6d,0x65,0x69,0x69))
311(0,1,1,1,26,true)
ShowMessageFace("",0,0,2,22)
ShowMessage("The Tiny Lamia's vagina grips Luka's penis, tightly pressuring it!\\D")
ShowMessage("Luka takes \\V[26] damage!")
ChangeVariable(27,27,0,3,3,1,2)
If(1,27,0,0,0)
 JumpToLabel("射精2")
 0()
EndIf()
ShowMessageFace("",0,0,2,23)
ShowMessage("\\n<Luka>Aaahh!")
ShowMessageFace("pramia_fc1",1,0,2,24)
ShowMessage("\\n<Tiny Lamia>Ahaha, you moaned... You couldn't resist?\nA little more, and you'll let your man milk out inside me!")
250(bytes(0x04,0x08,0x6f,0x3a,0x0c,0x52,0x50,0x47,0x3a,0x3a,0x53,0x45,0x08,0x3a,0x0a,0x40,0x6e,0x61,0x6d,0x65,0x49,0x22,0x13,0x6d,0x6f,0x6e,0x5f,0x65,0x72,0x6f,0x5f,0x63,0x68,0x75,0x70,0x61,0x35,0x06,0x3a,0x06,0x45,0x54,0x3a,0x0b,0x40,0x70,0x69,0x74,0x63,0x68,0x69,0x69,0x3a,0x0c,0x40,0x76,0x6f,0x6c,0x75,0x6d,0x65,0x69,0x69))
311(0,1,1,1,26,true)
ShowMessageFace("",0,0,2,25)
ShowMessage("The Tiny Lamia constricts her vagina!\\D")
ShowMessage("Luka takes \\V[26] damage!")
ChangeVariable(27,27,0,3,3,1,2)
If(1,27,0,0,0)
 JumpToLabel("射精2")
 0()
EndIf()
ShowMessageFace("",0,0,2,26)
ShowMessage("\\n<Luka>Aagh! Hyaaah!!")
ShowMessageFace("pramia_fc1",1,0,2,27)
ShowMessage("\\n<Tiny Lamia>Ahaha! I'll tighten again and agaaain!\nGo even crazier from your pleasuuure!♪")
250(bytes(0x04,0x08,0x6f,0x3a,0x0c,0x52,0x50,0x47,0x3a,0x3a,0x53,0x45,0x08,0x3a,0x0a,0x40,0x6e,0x61,0x6d,0x65,0x49,0x22,0x13,0x6d,0x6f,0x6e,0x5f,0x65,0x72,0x6f,0x5f,0x63,0x68,0x75,0x70,0x61,0x35,0x06,0x3a,0x06,0x45,0x54,0x3a,0x0b,0x40,0x70,0x69,0x74,0x63,0x68,0x69,0x69,0x3a,0x0c,0x40,0x76,0x6f,0x6c,0x75,0x6d,0x65,0x69,0x69))
311(0,1,1,1,26,true)
ShowMessageFace("",0,0,2,28)
ShowMessage("The Tiny Lamia's vagina tightens around Luka's penis!\\D")
ShowMessage("Luka takes \\V[26] damage!")
ChangeVariable(27,27,0,3,3,1,2)
If(1,27,0,0,0)
 JumpToLabel("射精2")
 0()
EndIf()
ShowMessageFace("pramia_fc1",1,0,2,29)
ShowMessage("\\n<Tiny Lamia>Ehehe... Want me to make you come now?\nWell then, I'll squish you with my finishing technique.")
ShowMessageFace("pramia_fc1",1,0,2,30)
ShowMessage("\\n<Tiny Lamia>It's no use trying to resist!\nIf I use this technique, you'll be forced to release your seed...")
250(bytes(0x04,0x08,0x6f,0x3a,0x0c,0x52,0x50,0x47,0x3a,0x3a,0x53,0x45,0x08,0x3a,0x0a,0x40,0x6e,0x61,0x6d,0x65,0x49,0x22,0x13,0x6d,0x6f,0x6e,0x5f,0x65,0x72,0x6f,0x5f,0x63,0x68,0x75,0x70,0x61,0x35,0x06,0x3a,0x06,0x45,0x54,0x3a,0x0b,0x40,0x70,0x69,0x74,0x63,0x68,0x69,0x69,0x3a,0x0c,0x40,0x76,0x6f,0x6c,0x75,0x6d,0x65,0x69,0x69))
311(0,1,1,1,26,true)
ShowMessageFace("",0,0,2,31)
ShowMessage("The Tiny Lamia's vagina suddenly constricts!")
ShowMessage("Luka's penis gets crushed from its tip all the way to its base!\\D")
ShowMessage("Luka takes \\V[26] damage!")
ChangeVariable(27,27,0,3,3,1,2)
If(1,27,0,0,0)
 JumpToLabel("射精2")
 0()
EndIf()
DefineLabel("射精1")
ShowMessageFace("",0,0,2,32)
ShowMessage("\\n<Luka>Ah! I'm gonna spurt!")
ShowMessageFace("pramia_fc1",0,0,2,33)
ShowMessage("\\n<Tiny Lamia>Huh!? H-hey, wai-!")
RunCommonEvent(104)
PictureDisplay(5,"ev_pramia_h3",0,0,0,0,100,100,255,0)
RunCommonEvent(105)
ShowMessageFace("",0,0,2,34)
ShowMessage("The moment the Tiny Lamia pushes down her waist,")
ShowMessage("Luka's penis spurts into the merciless vagina like a pressed fruit.")
ShowMessageFace("pramia_fc1",1,0,2,35)
ShowMessage("\\n<Tiny Lamia>Ahaha...!\nYou came the moment it went in! How embarrassiiiing.♪")
ShowMessageFace("pramia_fc1",1,0,2,36)
ShowMessage("\\n<Tiny Lamia>Are you really a herooo?")
RunCommonEvent(2000)
EndEventProcessing()
DefineLabel("射精2")
ShowMessageFace("",0,0,2,37)
ShowMessage("\\n<Luka>Fwaaah... It's getting so tight inside...")
RunCommonEvent(104)
PictureDisplay(5,"ev_pramia_h3",0,0,0,0,100,100,255,0)
RunCommonEvent(105)
ShowMessageFace("",0,0,2,38)
ShowMessage("A massive amount of semen pours into the relentlessly squeezing vagina.")
ShowMessageFace("pramia_fc1",1,0,2,39)
ShowMessage("\\n<Tiny Lamia>Ahaha! I really destroyed you with my finishing technique.\nYou must've felt heaven, right...?")
RunCommonEvent(2000)
EndEventProcessing()
0()
