// EVENT 4466
Name "Chrome 1"

If(0,25,1)
 221()
 PictureClear(5)
 PictureClear(6)
 ShowMessageFace("",0,0,2,0)
 ShowMessage("......")
 242(2)
 Wait(120)
 241(bytes(0x04,0x08,0x6f,0x3a,0x0d,0x52,0x50,0x47,0x3a,0x3a,0x42,0x47,0x4d,0x08,0x3a,0x0a,0x40,0x6e,0x61,0x6d,0x65,0x49,0x22,0x0c,0x63,0x61,0x73,0x74,0x6c,0x65,0x36,0x06,0x3a,0x06,0x45,0x54,0x3a,0x0c,0x40,0x76,0x6f,0x6c,0x75,0x6d,0x65,0x69,0x69,0x3a,0x0b,0x40,0x70,0x69,0x74,0x63,0x68,0x69,0x69))
 EndEventProcessing()
 0()
EndIf()
PictureDisplay(5,"80_chrom_st01",0,0,0,0,100,100,255,0)
ShowMessageFace("chrom_fc2",0,0,2,1)
ShowMessage("\\n<Chrome>What? Do you want me to toy with you?")
ShowMessageFace("",0,0,2,2)
ShowMessage("\\n<Luka>Y...Yes... Please...")
PictureDisplay(5,"80_chrom_st03",0,0,0,0,100,100,255,0)
ShowMessageFace("chrom_fc2",2,0,2,3)
ShowMessage("\\n<Chrome>I don't mind. I'll show you lots of love...")
ShowMessageFace("",0,0,2,4)
ShowMessage("Like that, I was invited to Chrome's room...")
221()
PictureDisplay(1,"bg195",0,0,0,0,100,100,255,0)
PictureDisplay(5,"ev_chrom_hg1",0,0,0,0,100,100,255,0)
222()
241(bytes(0x04,0x08,0x6f,0x3a,0x0d,0x52,0x50,0x47,0x3a,0x3a,0x42,0x47,0x4d,0x08,0x3a,0x0a,0x40,0x6e,0x61,0x6d,0x65,0x49,0x22,0x09,0x65,0x72,0x6f,0x31,0x06,0x3a,0x06,0x45,0x54,0x3a,0x0c,0x40,0x76,0x6f,0x6c,0x75,0x6d,0x65,0x69,0x69,0x3a,0x0b,0x40,0x70,0x69,0x74,0x63,0x68,0x69,0x69))
245(bytes(0x04,0x08,0x6f,0x3a,0x0d,0x52,0x50,0x47,0x3a,0x3a,0x42,0x47,0x53,0x08,0x3a,0x0a,0x40,0x6e,0x61,0x6d,0x65,0x49,0x22,0x17,0x6d,0x6f,0x6e,0x5f,0x68,0x73,0x65,0x61,0x6e,0x31,0x37,0x5f,0x73,0x69,0x67,0x6f,0x6b,0x69,0x06,0x3a,0x06,0x45,0x54,0x3a,0x0c,0x40,0x76,0x6f,0x6c,0x75,0x6d,0x65,0x69,0x55,0x3a,0x0b,0x40,0x70,0x69,0x74,0x63,0x68,0x69,0x69))
ShowMessageFace("chrom_fc2",2,0,2,5)
ShowMessage("\\n<Chrome>Kuku, how unsightly.")
ShowMessageFace("",0,0,2,6)
ShowMessage("\\n<Luka>Ah... Ngh...Ugh...")
ShowMessageFace("",0,0,2,7)
ShowMessage("Embraced by Frederica from behind, Chrome's playing with my penis in the front.")
ShowMessage("Chrome's breasts are pressed into my face, and I'm sucking her tiny nipple.")
ShowMessageFace("",0,0,2,8)
ShowMessage("Her small hand gently holds my penis, controlling me.")
ShowMessage("The smooth touch of her tiny fingers on my glans feels too good...")
ShowMessageFace("chrom_fc2",2,0,2,9)
ShowMessage("\\n<Chrome>Does it feel like a dream?\nI'll make you come quick like this...")
ShowMessageFace("",0,0,2,10)
ShowMessage("Frederica's huge breasts push against my back.")
ShowMessage("Chrome's handjob continues as I suck on her breasts.")
ShowMessageFace("",0,0,2,11)
ShowMessage("Caught from front and back, I drown in pure pleasure.")
ShowMessage("It's like I'm a baby, being comforted and loved...")
ShowMessageFace("",0,0,2,12)
ShowMessage("\\n<Luka>Aaah...Huaaa...")
ShowMessageFace("chrom_fc2",2,0,2,13)
ShowMessage("\\n<Chrome>Kuku, you're totally entranced.\nYou're sucking on my tiny tit like a baby.")
PictureDisplay(5,"ev_chrom_hg2",0,0,0,0,100,100,255,0)
ShowMessageFace("chrom_fc2",2,0,2,14)
ShowMessage("\\n<Chrome>...Well then, I guess I'll have to care for you like a baby.\nThis dick that decided to get erect on its own.")
ShowMessageFace("",0,0,2,15)
ShowMessage("Chrome starts to move her hand faster.")
ShowMessage("Stroking it up and down, she's moving at an unbearable pace.")
ShowMessageFace("chrom_fc2",2,0,2,16)
ShowMessage("\\n<Chrome>Horehore, how is that?")
ShowMessageFace("",0,0,2,17)
ShowMessage("\\n<Luka>Ah, aaah...!")
ShowMessageFace("",0,0,2,18)
ShowMessage("My waist bounces up under her treatment.")
ShowMessage("Her small fingers press up against the neck of my penis as she strokes.")
ShowMessageFace("chrom_fc2",2,0,2,19)
ShowMessage("\\n<Chrome>Is this how you wanted me to play with your dick?\nKuku, aren't you overjoyed? You got your wish.")
ShowMessageFace("",0,0,2,20)
ShowMessage("\\n<Luka>Huaaa... Ah, aaah...")
ShowMessageFace("",0,0,2,21)
ShowMessage("Being held like a baby, having my penis played with...")
ShowMessage("I'm completely entranced by the pleasure.")
ShowMessageFace("",0,0,2,22)
ShowMessage("Like I've been possessed, I suck on Chrome's nipple.")
ShowMessage("My body trembles as the pleasure spreads through me.")
ShowMessageFace("",0,0,2,23)
ShowMessage("\\n<Luka>Nnn... Nnnn...")
ShowMessageFace("chrom_fc2",2,0,2,24)
ShowMessage("\\n<Chrome>Even if you suck it that hard, no milk will come out.\nInstead, I'll squeeze some milk out of your penis...")
ShowMessageFace("",0,0,2,25)
ShowMessage("\\n<Luka>Ah... Aaah...!")
ShowMessageFace("",0,0,2,26)
ShowMessage("Chrome's hand strokes me even more intensely.")
ShowMessage("It's an action clearly meant to finish me off.")
ShowMessageFace("",0,0,2,27)
ShowMessage("Her quick, forceful handjob...")
ShowMessage("The intense stimulation brings me to an instant high.")
ShowMessageFace("",0,0,2,28)
ShowMessage("\\n<Luka>N-noooo... I'm coming...!")
ShowMessageFace("chrom_fc2",2,0,2,29)
ShowMessage("\\n<Chrome>Kuku, going to leak like a little baby?\nThen let's see you shoot it out as hard as you can! ♪")
ShowMessageFace("",0,0,2,30)
ShowMessage("\\n<Luka>Ah, aaah...")
RunCommonEvent(104)
PictureDisplay(5,"ev_chrom_hg3",0,0,0,0,100,100,255,0)
RunCommonEvent(105)
ShowMessageFace("",0,0,2,31)
ShowMessage("While sucking Chrome's nipple, I come, my semen shooting up through her small hand.")
ShowMessage("It was an orgasm that echoed through my entire body.")
ShowMessageFace("",0,0,2,32)
ShowMessage("A feeling of shame comes over me, as I'm so easily controlled by her.")
ShowMessage("But even the feeling of submission feels like pure ecstasy...")
ShowMessageFace("",0,0,2,33)
ShowMessage("\\n<Luka>Nnnn...")
ShowMessageFace("chrom_fc2",2,0,2,34)
ShowMessage("\\n<Chrome>What, you're still sucking?\nYou really are like a baby.")
ShowMessageFace("",0,0,2,35)
ShowMessage("While giggling, Chrome squeezes out every drop of semen into her hand.")
ShowMessage("I keep sucking on her tiny tit, letting the pleasure continue to fill me.")
246(2)
ShowMessageFace("chrom_fc2",2,0,2,36)
ShowMessage("\\n<Chrome>If you want me to show you some more affection, just let me know...\nI'll spoil you any time...")
ShowMessageFace("",0,0,2,37)
ShowMessage("\\n<Luka>......")
ShowMessageFace("",0,0,2,38)
ShowMessage("After my orgasm, the feeling of submission and shame mixes within me.")
ShowMessage("It feels like my heart and soul were completely dominated by Chrome...")
221()
PictureClear(5)
ShowMessageFace("",0,0,2,39)
ShowMessage("......")
242(2)
Wait(120)
241(bytes(0x04,0x08,0x6f,0x3a,0x0d,0x52,0x50,0x47,0x3a,0x3a,0x42,0x47,0x4d,0x08,0x3a,0x0a,0x40,0x6e,0x61,0x6d,0x65,0x49,0x22,0x0c,0x63,0x61,0x73,0x74,0x6c,0x65,0x36,0x06,0x3a,0x06,0x45,0x54,0x3a,0x0c,0x40,0x76,0x6f,0x6c,0x75,0x6d,0x65,0x69,0x69,0x3a,0x0b,0x40,0x70,0x69,0x74,0x63,0x68,0x69,0x69))
0()
