// EVENT 1116
Name "Talk: Iron Maiden"

If(1,20,0,1,0)
 JumpToLabel("情報")
 0()
EndIf()
If(1,20,0,2,0)
 JumpToLabel("質問")
 0()
EndIf()
If(1,20,0,3,0)
 JumpToLabel("要求")
 0()
EndIf()
If(1,20,0,4,0)
 JumpToLabel("贈与")
 0()
EndIf()
DefineLabel("情報")
ChangeVariable(13,13,0,2,1,50)
If(1,13,0,10,2)
 ShowMessageFace("ironmaiden_fc1",0,0,2,1)
 ShowMessage("\\n<Iron Maiden>......")
 ShowMessageFace("",0,0,2,2)
 ShowMessage("The Iron Maiden examines the situation.")
 EndEventProcessing()
 0()
EndIf()
If(1,13,0,20,2)
 ShowMessageFace("ironmaiden_fc1",0,0,2,3)
 ShowMessage("\\n<Iron Maiden>......")
 ShowMessageFace("",0,0,2,4)
 ShowMessage("The Iron Maiden smiles.")
 EndEventProcessing()
 0()
EndIf()
If(1,13,0,30,2)
 ShowMessageFace("ironmaiden_fc1",0,0,2,5)
 ShowMessage("\\n<Iron Maiden>......")
 ShowMessageFace("",0,0,2,6)
 ShowMessage("The Iron Maiden is staring.")
 EndEventProcessing()
 0()
EndIf()
If(1,13,0,40,2)
 ShowMessageFace("ironmaiden_fc1",0,0,2,7)
 ShowMessage("\\n<Iron Maiden>......")
 ShowMessageFace("",0,0,2,8)
 ShowMessage("The Iron Maiden subtly averts her eyes.")
 EndEventProcessing()
 0()
EndIf()
If(1,13,0,50,2)
 ShowMessageFace("ironmaiden_fc1",0,0,2,9)
 ShowMessage("\\n<Iron Maiden>......")
 ShowMessageFace("",0,0,2,10)
 ShowMessage("The Iron Maiden looks on emotionlessly.")
 EndEventProcessing()
 0()
EndIf()
DefineLabel("質問")
ChangeVariable(13,13,0,2,1,30)
If(1,13,0,10,2)
 ShowMessageFace("ironmaiden_fc1",0,0,2,11)
 ShowMessage("\\n<Iron Maiden>......")
 ShowMessageFace("",0,0,2,12)
 ShowMessage("The Iron Maiden is blinking rapidly!")
 ShowMessage("...Is there something in her eye?")
 ShowChoices(strings("Watch and wait","Now's your chance!","Remove what's in her eye"),0)
 IfPlayerPicksChoice(0,"様子を見る")
  ShowMessageFace("ironmaiden_fc1",0,0,2,13)
  ShowMessage("\\n<Iron Maiden>......")
  ShowMessageFace("",0,0,2,14)
  ShowMessage("A little while later, she gets it out of her eye.")
  0()
 IfPlayerPicksChoice(1,"今がチャンス！")
  ShowMessageFace("ironmaiden_fc1",0,0,2,15)
  ShowMessage("\\n<Iron Maiden>......")
  333(0,0,8)
  ShowMessageFace("",0,0,2,16)
  ShowMessage("The Iron Maiden's vision is plunged into darkness!")
  355("change_friend(-5)")
  0()
 IfPlayerPicksChoice(2,"取ってあげる")
  ShowMessageFace("ruka_fc1",0,0,2,17)
  ShowMessage("\\n<Luka>A-are you okay?")
  ShowMessageFace("ironmaiden_fc1",0,0,2,18)
  ShowMessage("\\n<Iron Maiden>......")
  ShowMessageFace("",0,0,2,19)
  ShowMessage("Luka wiped the Iron Maiden's eyes!")
  355("change_friend(10)")
  0()
 404()
 EndEventProcessing()
 0()
EndIf()
If(1,13,0,20,2)
 ShowMessageFace("ironmaiden_fc1",0,0,2,20)
 ShowMessage("\\n<Iron Maiden>......")
 ShowMessageFace("",0,0,2,21)
 ShowMessage("Looks like the Iron Maiden's door isn't closed properly.")
 ShowChoices(strings("It bothers you","You don't care"),0)
 IfPlayerPicksChoice(0,"気になる")
  ShowMessageFace("ruka_fc1",0,0,2,22)
  ShowMessage("\\n<Luka>Your half-closed door bothers you, doesn't it?")
  ShowMessageFace("",0,0,2,23)
  ShowMessage("Luka neatly closes the Iron Maiden's door.")
  ShowMessageFace("ironmaiden_fc1",0,0,2,24)
  ShowMessage("\\n<Iron Maiden>......")
  355("change_friend(10)")
  0()
 IfPlayerPicksChoice(1,"気にならない")
  ShowMessageFace("ironmaiden_fc1",0,0,2,25)
  ShowMessage("\\n<Iron Maiden>......")
  ShowMessageFace("",0,0,2,26)
  ShowMessage("It seems to bother the Iron Maiden.")
  355("change_friend(-5)")
  0()
 404()
 EndEventProcessing()
 0()
EndIf()
If(1,13,0,30,2)
 ShowMessageFace("ironmaiden_fc1",0,0,2,27)
 ShowMessage("\\n<Iron Maiden>......")
 ShowMessageFace("",0,0,2,28)
 ShowMessage("The Iron Maiden is pleading for something with her eyes.")
 ShowChoices(strings("Ask what she wants","Plead for something with your eyes too","Ignore her"),0)
 IfPlayerPicksChoice(0,"何なのか聞いてみる")
  ShowMessageFace("ruka_fc1",0,0,2,29)
  ShowMessage("\\n<Luka>Come on, can you tell me what it is?")
  ShowMessageFace("ironmaiden_fc1",0,0,2,30)
  ShowMessage("\\n<Iron Maiden>......")
  ShowMessageFace("",0,0,2,31)
  ShowMessage("You don't know what she wants.")
  ShowMessage("However, you seem to have a slightly better understanding of each other.")
  355("change_friend(10)")
  0()
 IfPlayerPicksChoice(1,"こちらも目で訴えかける")
  ShowMessageFace("ruka_fc1",0,0,2,32)
  ShowMessage("\\n<Luka>......")
  ShowMessageFace("ironmaiden_fc1",0,0,2,33)
  ShowMessage("\\n<Iron Maiden>......")
  ShowMessageFace("",0,0,2,34)
  ShowMessage("Nothing has changed.")
  0()
 IfPlayerPicksChoice(2,"Ignore her")
  ShowMessageFace("ironmaiden_fc1",0,0,2,35)
  ShowMessage("\\n<Iron Maiden>......")
  ShowMessageFace("",0,0,2,36)
  ShowMessage("The Iron Maiden seems disappointed.")
  355("change_friend(-5)")
  0()
 404()
 EndEventProcessing()
 0()
EndIf()
DefineLabel("要求")
ChangeVariable(13,13,0,2,1,30)
If(1,13,0,10,2)
 If(8,340)
  ShowMessageFace("ironmaiden_fc1",0,0,2,37)
  ShowMessage("\\n<Iron Maiden>......")
  ShowMessageFace("",0,0,2,38)
  ShowMessage("The Iron Maiden is staring at your egg.")
  ChangeVariable(24,24,0,3,0,340,0)
  ShowMessageFace("",0,0,2,39)
  ShowMessage("Do you want to give an \\ii[340]? (Have:\\V[24])")
  ShowChoices(strings("Yes","No"),2)
  IfPlayerPicksChoice(0,"Yes")
   ShowMessageFace("ironmaiden_fc1",0,0,2,40)
   ShowMessage("\\n<Iron Maiden>......")
   ShowMessageFace("",0,0,2,41)
   ShowMessage("She seems pleased.")
   ChangeInventory_Item(340,1,0,1)
   355("change_friend(20)")
   EndEventProcessing()
   0()
  IfPlayerPicksChoice(1,"No")
   ShowMessageFace("ironmaiden_fc1",0,0,2,42)
   ShowMessage("\\n<Iron Maiden>......")
   ShowMessageFace("",0,0,2,43)
   ShowMessage("She seems disappointed.")
   EndEventProcessing()
   0()
  404()
  0()
 Else()
  ChangeVariable(13,13,0,0,20)
  0()
 EndIf()
 0()
EndIf()
If(1,13,0,20,2)
 If(8,7)
  ShowMessageFace("ironmaiden_fc1",0,0,2,44)
  ShowMessage("\\n<Iron Maiden>......")
  ShowMessageFace("",0,0,2,45)
  ShowMessage("The Iron Maiden is staring at your boost drink.")
  ChangeVariable(24,24,0,3,0,7,0)
  ShowMessageFace("",0,0,2,46)
  ShowMessage("Do you want to give a \\ii[7]? (Have:\\V[24])")
  ShowChoices(strings("Yes","No"),2)
  IfPlayerPicksChoice(0,"Yes")
   ShowMessageFace("ironmaiden_fc1",0,0,2,47)
   ShowMessage("\\n<Iron Maiden>......")
   ShowMessageFace("",0,0,2,48)
   ShowMessage("She seems pleased.")
   ChangeInventory_Item(7,1,0,1)
   355("change_friend(30)")
   EndEventProcessing()
   0()
  IfPlayerPicksChoice(1,"No")
   ShowMessageFace("ironmaiden_fc1",0,0,2,49)
   ShowMessage("\\n<Iron Maiden>......")
   ShowMessageFace("",0,0,2,50)
   ShowMessage("She seems disappointed.")
   EndEventProcessing()
   0()
  404()
  0()
 Else()
  ChangeVariable(13,13,0,0,30)
  0()
 EndIf()
 0()
EndIf()
If(1,13,0,30,2)
 ShowMessageFace("ironmaiden_fc1",0,0,2,51)
 ShowMessage("\\n<Iron Maiden>......")
 ShowMessageFace("",0,0,2,52)
 ShowMessage("The Iron Maiden is staring at your wallet.")
 If(7,267,0)
  ChangeVariable(24,24,0,3,7,2,0)
  ShowMessageFace("",0,0,2,53)
  ShowMessage("Do you want to give 267G? (Remaining: \\V[24])")
  ShowChoices(strings("Yes","No"),2)
  IfPlayerPicksChoice(0,"Yes")
   ShowMessageFace("ironmaiden_fc1",0,0,2,54)
   ShowMessage("\\n<Iron Maiden>......")
   ShowMessageFace("",0,0,2,55)
   ShowMessage("She seems pleased.")
   125(1,0,267)
   355("change_friend(25)")
   EndEventProcessing()
   0()
  IfPlayerPicksChoice(1,"No")
   ShowMessageFace("ironmaiden_fc1",0,0,2,56)
   ShowMessage("\\n<Iron Maiden>......")
   ShowMessageFace("",0,0,2,57)
   ShowMessage("She seems disappointed.")
   EndEventProcessing()
   0()
  404()
  0()
 Else()
  ShowMessageFace("ironmaiden_fc1",0,0,2,58)
  ShowMessage("\\n<Iron Maiden>......")
  ShowMessageFace("",0,0,2,59)
  ShowMessage("However, she realizes you're out of money and gives up.")
  EndEventProcessing()
  0()
 EndIf()
 0()
EndIf()
DefineLabel("贈与")
ChangeVariable(13,13,0,2,1,30)
If(1,25,0,1,0)
 ChangeVariable(13,13,0,0,30)
 ChangeVariable(25,25,0,0,0)
 0()
EndIf()
If(1,25,0,2,0)
 ChangeVariable(13,13,0,2,1,20)
 ChangeVariable(25,25,0,0,0)
 0()
EndIf()
If(1,13,0,10,2)
 ShowMessageFace("ironmaiden_fc1",0,0,2,60)
 ShowMessage("\\n<Iron Maiden>......")
 ShowMessageFace("",0,0,2,61)
 ShowMessage("The Iron Maiden creaks opens and a crystal falls out!")
 250(bytes(0x04,0x08,0x6f,0x3a,0x0c,0x52,0x50,0x47,0x3a,0x3a,0x53,0x45,0x08,0x3a,0x0a,0x40,0x6e,0x61,0x6d,0x65,0x49,0x22,0x0a,0x49,0x74,0x65,0x6d,0x31,0x06,0x3a,0x06,0x45,0x54,0x3a,0x0b,0x40,0x70,0x69,0x74,0x63,0x68,0x69,0x69,0x3a,0x0c,0x40,0x76,0x6f,0x6c,0x75,0x6d,0x65,0x69,0x55))
 ChangeInventory_Item(195,0,0,1)
 ShowMessageFace("",0,0,2,62)
 ShowMessage("The Iron Maiden gave you a \\ii[195]!")
 EndEventProcessing()
 0()
EndIf()
If(1,13,0,20,2)
 ShowMessageFace("ironmaiden_fc1",0,0,2,63)
 ShowMessage("\\n<Iron Maiden>......")
 ShowMessageFace("",0,0,2,64)
 ShowMessage("The Iron Maiden creaks opens and a bottle of medicine falls out!")
 250(bytes(0x04,0x08,0x6f,0x3a,0x0c,0x52,0x50,0x47,0x3a,0x3a,0x53,0x45,0x08,0x3a,0x0a,0x40,0x6e,0x61,0x6d,0x65,0x49,0x22,0x0a,0x49,0x74,0x65,0x6d,0x31,0x06,0x3a,0x06,0x45,0x54,0x3a,0x0b,0x40,0x70,0x69,0x74,0x63,0x68,0x69,0x69,0x3a,0x0c,0x40,0x76,0x6f,0x6c,0x75,0x6d,0x65,0x69,0x55))
 ChangeInventory_Item(21,0,0,1)
 ShowMessageFace("",0,0,2,65)
 ShowMessage("The Iron Maiden gave you \\ii[21]!")
 EndEventProcessing()
 0()
EndIf()
If(1,13,0,30,2)
 ShowMessageFace("ironmaiden_fc1",0,0,2,66)
 ShowMessage("\\n<Iron Maiden>......")
 ShowMessageFace("",0,0,2,67)
 ShowMessage("The Iron Maiden creaks opens and some coins spill out onto the ground!")
 250(bytes(0x04,0x08,0x6f,0x3a,0x0c,0x52,0x50,0x47,0x3a,0x3a,0x53,0x45,0x08,0x3a,0x0a,0x40,0x6e,0x61,0x6d,0x65,0x49,0x22,0x0a,0x49,0x74,0x65,0x6d,0x31,0x06,0x3a,0x06,0x45,0x54,0x3a,0x0b,0x40,0x70,0x69,0x74,0x63,0x68,0x69,0x69,0x3a,0x0c,0x40,0x76,0x6f,0x6c,0x75,0x6d,0x65,0x69,0x55))
 125(0,0,445)
 ShowMessageFace("",0,0,2,68)
 ShowMessage("The Iron Maiden gave you 445G!")
 EndEventProcessing()
 0()
EndIf()
0()
