// EVENT 3187
Name "Yuki-Onna"

PictureDisplay(5,"80_yukionna_st02",0,0,0,0,100,100,0,0)
PictureMove(5,null,0,0,0,0,100,100,255,0,30,true)
241(bytes(0x04,0x08,0x6f,0x3a,0x0d,0x52,0x50,0x47,0x3a,0x3a,0x42,0x47,0x4d,0x08,0x3a,0x0a,0x40,0x6e,0x61,0x6d,0x65,0x49,0x22,0x09,0x65,0x72,0x6f,0x31,0x06,0x3a,0x06,0x45,0x54,0x3a,0x0c,0x40,0x76,0x6f,0x6c,0x75,0x6d,0x65,0x69,0x69,0x3a,0x0b,0x40,0x70,0x69,0x74,0x63,0x68,0x69,0x69))
ShowMessageFace("",0,0,2,1)
ShowMessage("\\n<Luka>")
ShowMessage("Unnngh...")
ShowMessageFace("",0,0,2,2)
ShowMessage("Exhausted after my orgasm, I fall to the frozen ground.")
ShowMessage("Yuki-Onna slowly walks toward me, with a cold smile on her face.")
ShowMessageFace("",0,0,2,3)
ShowMessage("Just her smile is enough to send chills down my spine...")
ShowMessage("It's the smile of a ruler... No, of a predator...")
ShowMessageFace("yukionna_fc1",1,0,2,4)
ShowMessage("\\n<Yuki-Onna>")
ShowMessage("I'll suck on you... Suck everything...")
250(bytes(0x04,0x08,0x6f,0x3a,0x0c,0x52,0x50,0x47,0x3a,0x3a,0x53,0x45,0x08,0x3a,0x0a,0x40,0x6e,0x61,0x6d,0x65,0x49,0x22,0x0e,0x6d,0x6f,0x6e,0x5f,0x75,0x6d,0x61,0x72,0x75,0x06,0x3a,0x06,0x45,0x54,0x3a,0x0b,0x40,0x70,0x69,0x74,0x63,0x68,0x69,0x69,0x3a,0x0c,0x40,0x76,0x6f,0x6c,0x75,0x6d,0x65,0x69,0x69))
ShowMessageFace("",0,0,2,5)
ShowMessage("The sleeves of her strange clothes extend toward me.")
ShowMessage("It grabs hold of my body, and starts to wrap around me!")
ShowMessageFace("",0,0,2,6)
ShowMessage("\\n<Luka>")
ShowMessage("Wh...What the... Urhg!")
250(bytes(0x04,0x08,0x6f,0x3a,0x0c,0x52,0x50,0x47,0x3a,0x3a,0x53,0x45,0x08,0x3a,0x0a,0x40,0x6e,0x61,0x6d,0x65,0x49,0x22,0x16,0x6d,0x6f,0x6e,0x5f,0x65,0x72,0x6f,0x5f,0x73,0x69,0x6d,0x65,0x74,0x75,0x6b,0x65,0x31,0x06,0x3a,0x06,0x45,0x54,0x3a,0x0b,0x40,0x70,0x69,0x74,0x63,0x68,0x69,0x69,0x3a,0x0c,0x40,0x76,0x6f,0x6c,0x75,0x6d,0x65,0x69,0x69))
PictureDisplay(5,"ev_yukionna_h1",0,0,0,0,100,100,255,0)
ShowMessageFace("",0,0,2,7)
ShowMessage("Before I can react, I'm already wound in her clothes.")
ShowMessage("Confused, I start to panic.")
ShowMessageFace("",0,0,2,8)
ShowMessage("I push and shove against the fabric.")
ShowMessage("But suspended in mid-air, it doesn't do anything. The soft fabric lets me struggle without ripping.")
ShowMessageFace("",0,0,2,9)
ShowMessage("The overpowering feeling of being trapped sends off alarms in my brain.")
ShowMessageFace("yukionna_fc1",1,0,2,10)
ShowMessage("\\n<Yuki-Onna>")
ShowMessage("Here, I'll suck...")
ShowMessageFace("",0,0,2,11)
ShowMessage("\\n<Luka>")
ShowMessage("Ah, aaaah...!")
ShowMessageFace("",0,0,2,12)
ShowMessage("Some strange magic starts to pulse through the silk clothes around me.")
ShowMessage("The skin that's touching the cloth starts to ooze a strange liquid.")
ShowMessageFace("",0,0,2,13)
ShowMessage("As the strange liquid oozes out of me, an overpowering sense of release fills my body.")
ShowMessageFace("",0,0,2,14)
ShowMessage("\\n<Luka>")
ShowMessage("Hnnaaa...")
ShowMessageFace("",0,0,2,15)
ShowMessage("The stimulation instantly causes my penis to get erect.")
ShowMessage("Noticing, Yuki-onna's cold stare lands on my penis.")
ShowMessageFace("yukionna_fc1",1,0,2,16)
ShowMessage("\\n<Yuki-Onna>")
ShowMessage("So that's what you want?")
ShowMessage("Then, I'll focus here...")
ShowMessageFace("",0,0,2,17)
ShowMessage("\\n<Luka>")
ShowMessage("Hyaaa...!")
ShowMessageFace("",0,0,2,18)
ShowMessage("Her silky clothes quickly wrap around my now erect penis.")
ShowMessageFace("",0,0,2,19)
ShowMessage("The soft fabric tightens around me, as the strange sense of release I was feeling starts to be focused all on my penis.")
ShowMessageFace("",0,0,2,20)
ShowMessage("\\n<Luka>")
ShowMessage("Ah-aaaaah...")
ShowMessageFace("",0,0,2,21)
ShowMessage("I yell out in ecstasy as it feels like I'm melting in her clothes.")
ShowMessage("After only a few moments, my penis trembles in the silk.")
RunCommonEvent(104)
PictureDisplay(5,"ev_yukionna_h2",0,0,0,0,100,100,255,0)
RunCommonEvent(105)
ShowMessageFace("",0,0,2,22)
ShowMessage("Semen shoots out, but I don't even notice.")
ShowMessage("The sense of release has already been flooding me for so long, it's just another addition to the stimulation.")
ShowMessageFace("",0,0,2,23)
ShowMessage("\\n<Luka>")
ShowMessage("Unnngh...")
ShowMessageFace("",0,0,2,24)
ShowMessage("The ejaculation itself felt different from normal, anyway.")
ShowMessageFace("",0,0,2,25)
ShowMessage("Instead of shooting out semen, it was more like it was just leaking out.")
ShowMessageFace("yukionna_fc1",1,0,2,26)
ShowMessage("\\n<Yuki-Onna>")
ShowMessage("You came...")
ShowMessage("I'll steal even more from you...")
ShowMessageFace("",0,0,2,27)
ShowMessage("\\n<Luka>")
ShowMessage("Ah, aaaah...!")
PictureDisplay(5,"ev_yukionna_h3",0,0,0,0,100,100,255,0)
ShowMessageFace("",0,0,2,28)
ShowMessage("Her silky clothes gradually starts to move and massage me, pounding a powerful physical pleasure into me.\n\n")
ShowMessage("At the same time, everywhere her clothes are touching me, the strange liquid with the pleasurable release continues to leak out of my body.")
ShowMessageFace("",0,0,2,29)
ShowMessage("I tremble in ecstasy as her clothes keep me suspended in mid-air, surrounded by pleasure from all sides.")
RunCommonEvent(104)
PictureDisplay(5,"ev_yukionna_h4",0,0,0,0,100,100,255,0)
RunCommonEvent(105)
ShowMessageFace("",0,0,2,30)
ShowMessage("\\n<Luka>")
ShowMessage("Huaaa...")
ShowMessageFace("",0,0,2,31)
ShowMessage("I relax my body, my thoughts being slowly pounded away and replaced by nothing but the feeling of release.")
PictureDisplay(5,"ev_yukionna_h5",0,0,0,0,100,100,255,0)
ShowMessageFace("yukionna_fc1",1,0,2,32)
ShowMessage("\\n<Yuki-Onna>")
ShowMessage("I'll suck out more...")
ShowMessage("Your life... More... More...")
ShowMessageFace("",0,0,2,33)
ShowMessage("\\n<Luka>")
ShowMessage("Ah... Unnngh...")
ShowMessageFace("",0,0,2,34)
ShowMessage("The small bits of light I could see through her clothes are taken from me, as the cloth wraps all the way around my face.")
ShowMessageFace("",0,0,2,35)
ShowMessage("Her cold clothes are taking everything from me...")
ShowMessage("Even my life itself is about to be taken by her...")
ShowMessageFace("",0,0,2,36)
ShowMessage("\\n<Luka>")
ShowMessage("S-Stop...")
ShowMessageFace("",0,0,2,37)
ShowMessage("Just before I drown in the pleasure, I catch myself, and start to writhe.")
ShowMessage("But even weaker than before, I can't escape from the wrap of her clothes...")
ShowMessageFace("",0,0,2,38)
ShowMessage("Unable to escape, the realization that I'm going to die dawns on me...")
ShowMessageFace("yukionna_fc1",1,0,2,39)
ShowMessage("\\n<Yuki-Onna>")
ShowMessage("More... I want more...")
ShowMessage("I'll suck on you... Until the very end...")
ShowMessageFace("",0,0,2,40)
ShowMessage("\\n<Luka>")
ShowMessage("St... Ahh...")
ShowMessageFace("",0,0,2,41)
ShowMessage("As I struggle, the pleasure only becomes even more powerful.")
ShowMessage("After a few more minutes, I don't even have the strength left to resist.")
ShowMessageFace("",0,0,2,42)
ShowMessage("I start to lose myself in the ecstasy, as more and more of that liquid is sucked out.")
ShowMessageFace("",0,0,2,43)
ShowMessage("\\n<Luka>")
ShowMessage("Ah... Haaaa...")
RunCommonEvent(104)
PictureDisplay(5,"ev_yukionna_h6",0,0,0,0,100,100,255,0)
RunCommonEvent(105)
ShowMessageFace("",0,0,2,44)
ShowMessage("Each orgasm just increases the constant pleasure being forced into me.")
ShowMessageFace("",0,0,2,45)
ShowMessage("Not bringing a final feeling of release, it just continues to multiply...")
ShowMessage("Each orgasm brings me one step closer to my end...")
ShowMessageFace("",0,0,2,46)
ShowMessage("\\n<Luka>")
ShowMessage("Stop... Stop...")
ShowMessageFace("yukionna_fc1",1,0,2,47)
ShowMessage("\\n<Yuki-Onna>")
ShowMessage("I won't let you get away...")
ShowMessage("You already belong to me...")
ShowMessageFace("",0,0,2,48)
ShowMessage("\\n<Luka>")
ShowMessage("No... I'm going to come again...")
ShowMessageFace("",0,0,2,49)
ShowMessage("As soon as I orgasm, the pleasure doubles.")
ShowMessage("Gasping in the cold air, I feel myself on the very edge of life.")
ShowMessageFace("",0,0,2,50)
ShowMessage("Every single cell of my skin touching the fabric seems to be rejoicing in ecstasy at the release...")
ShowMessageFace("",0,0,2,51)
ShowMessage("\\n<Luka>")
ShowMessage("Ah... Ahhh....")
ShowMessageFace("yukionna_fc1",1,0,2,52)
ShowMessage("\\n<Yuki-Onna>")
ShowMessage("The next one will end you...")
ShowMessage("I'll steal everything, to the last drop...")
ShowMessageFace("",0,0,2,53)
ShowMessage("She tightens the silk around my penis at the same time she announces my fate...")
ShowMessageFace("",0,0,2,54)
ShowMessage("\\n<Luka>")
ShowMessage("Ah... Ahh...")
RunCommonEvent(104)
RunCommonEvent(105)
ShowMessageFace("",0,0,2,55)
ShowMessage("My penis twitches in a final ejaculation, as I lose consciousness.")
ShowMessageFace("yukionna_fc1",1,0,2,56)
ShowMessage("\\n<Yuki-Onna>")
ShowMessage("I stole the last bit... Goodbye.")
ShowMessageFace("",0,0,2,57)
ShowMessage("Yuki-Onna whispers that to my frozen body.")
ShowMessage("Wrapped in her strange sleeve, Yuki-Onna stole everything from me...")
221()
PictureClear(5)
PictureClear(6)
ShowMessageFace("",0,0,2,58)
ShowMessage("......")
221()
242(1)
Wait(120)
355("memory_interruption")
ShowMessageFace("",0,0,2,59)
ShowMessage("You hear Ilias' voice calling out to you...")
ShowMessage("Receive her evaluation?")
ShowChoices(strings("Receive Evaluation","Change Difficulty","Reincarnate"),3)
IfPlayerPicksChoice(0,"Receive Evaluation")
 241(bytes(0x04,0x08,0x6f,0x3a,0x0d,0x52,0x50,0x47,0x3a,0x3a,0x42,0x47,0x4d,0x08,0x3a,0x0a,0x40,0x6e,0x61,0x6d,0x65,0x49,0x22,0x0a,0x69,0x72,0x69,0x61,0x73,0x06,0x3a,0x06,0x45,0x54,0x3a,0x0c,0x40,0x76,0x6f,0x6c,0x75,0x6d,0x65,0x69,0x5f,0x3a,0x0b,0x40,0x70,0x69,0x74,0x63,0x68,0x69,0x6e))
 PictureDisplay(1,"bg001",0,0,0,0,100,100,255,0)
 222()
 PictureDisplay(5,"80_iriasu_st04",0,0,0,0,100,100,0,0)
 PictureMove(5,null,0,0,0,0,100,100,255,0,30,true)
 ShowMessageFace("iriasu_fc1",3,0,2,60)
 ShowMessage("\\n<Ilias>")
 ShowMessage("Made into the prey of Yuki-Onna?")
 ShowMessage("That's just cold... But the thought of me depending on a Hero like you is even more chilling...")
 PictureDisplay(5,"80_iriasu_st01",0,0,0,0,100,100,255,0)
 ShowMessageFace("iriasu_fc1",0,0,2,61)
 ShowMessage("\\n<Ilias>")
 ShowMessage("As her name suggests, Yuki-Onna heavily relies on ice attacks.")
 ShowMessage("She's also good with Pleasure attacks.")
 ShowMessageFace("iriasu_fc1",0,0,2,62)
 ShowMessage("\\n<Ilias>")
 ShowMessage("As you can already guess, she's weak to Fire.")
 ShowMessage("If you focus on pummeling her with Fire attacks you'll have no trouble defeating her.")
 PictureDisplay(5,"80_iriasu_st02",0,0,0,0,100,100,255,0)
 ShowMessageFace("iriasu_fc1",1,0,2,63)
 ShowMessage("\\n<Ilias>")
 ShowMessage("Now go, oh Brave Luka.")
 ShowMessage("Do not allow yourself to be defeated by the cold.")
 242(1)
 221()
 PictureClear(5)
 PictureClear(1)
 Wait(60)
 0()
IfPlayerPicksChoice(1,"Change Difficulty")
 ShowMessageFace("",0,0,2,64)
 ShowMessage("Please choose a difficulty level.")
 RunCommonEvent(110)
 0()
IfPlayerPicksChoice(2,"Reincarnate")
 0()
404()
RunCommonEvent(3000)
0()
