// EVENT 7203
Name "ジーナ：敗北"

RunCommonEvent(7000)
PictureDisplay(5,"80_mob_kensi_st01",0,0,0,0,100,100,255,0)
PictureClear(6)
ShowMessageFace("mob_kensi_fc1",0,0,2,1)
ShowMessage("\\n<Gina>That's my victory.")
ShowMessage("I'll take my winnings.")
125(1,0,400)
ShowMessageFace("",0,0,2,2)
ShowMessage("Luka hands over 400G!")
ShowMessageFace("mob_kensi_fc1",0,0,2,3)
ShowMessage("\\n<Gina>Well then, come back some other time.")
ShowMessage("I'll make you come whenever.")
If(0,2331,1)
 PictureClear(5)
 281(1)
 TeleportPlayer(0,39,21,48,2,0)
 216(0)
 0()
EndIf()
EndEventProcessing()
0()
