// EVENT 5166
Name "Demon Scylla1"

PictureDisplay(5,"80_scyllad_st02",0,0,0,0,100,100,0,0)
PictureMove(5,null,0,0,0,0,100,100,255,0,30,true)
ShowMessageFace("scyllad_fc1",0,0,2,1)
ShowMessage("\\n<Miriam>")
ShowMessage("You want me to pleasure you?")
ShowMessage("I'm not really in the mood right now...")
ShowMessageFace("",0,0,2,2)
ShowMessage("\\n<Luka>")
ShowMessage("P-please...")
ShowMessageFace("scyllad_fc1",0,0,2,3)
ShowMessage("\\n<Miriam>")
ShowMessage("I guess there's no helping it...")
ShowMessage("Well then, I'll finish you fast!")
ShowMessageFace("",0,0,2,4)
ShowMessage("Miriam's tentacles approach me.")
ShowMessage("While holding down my lower body, they take off my clothes...")
ShowMessageFace("",0,0,2,5)
ShowMessage("\\n<Luka>")
ShowMessage("Ah... Aaaah...!")
241(bytes(0x04,0x08,0x6f,0x3a,0x0d,0x52,0x50,0x47,0x3a,0x3a,0x42,0x47,0x4d,0x08,0x3a,0x0a,0x40,0x6e,0x61,0x6d,0x65,0x49,0x22,0x09,0x65,0x72,0x6f,0x31,0x06,0x3a,0x06,0x45,0x54,0x3a,0x0c,0x40,0x76,0x6f,0x6c,0x75,0x6d,0x65,0x69,0x69,0x3a,0x0b,0x40,0x70,0x69,0x74,0x63,0x68,0x69,0x69))
PictureDisplay(5,"ev_scyllad_ha3",0,0,0,0,100,100,255,0)
PictureMove(5,null,0,0,0,0,100,100,255,0,30,true)
ShowMessageFace("",0,0,2,6)
ShowMessage("She exposes my already erect penis.")
ShowMessage("Miriam holds my shaft with a tentacle while looking closely at it...")
ShowMessageFace("",0,0,2,7)
ShowMessage("\\n<Luka>")
ShowMessage("This is embarrassing...")
ShowMessageFace("scyllad_fc1",0,0,2,8)
ShowMessage("\\n<Miriam>")
ShowMessage("Wua, it's so big already.")
ShowMessageFace("",0,0,2,9)
ShowMessage("Miriam brings her index finger close to my glans...")
ShowMessage("And pokes it with her fingertip.")
ShowMessageFace("",0,0,2,10)
ShowMessage("\\n<Luka>")
ShowMessage("Auuu...!")
ShowMessageFace("",0,0,2,11)
ShowMessage("Just touching my tip irritates me.")
ShowMessage("Just like that, Miriam traces her finger over my glans, looking intensely at my penis...")
ShowMessageFace("scyllad_fc1",0,0,2,12)
ShowMessage("\\n<Miriam>")
ShowMessage("Hey, you want me to put it inside...?")
ShowMessageFace("",0,0,2,13)
ShowMessage("\\n<Luka>")
ShowMessage("Eh...? N-no...")
ShowMessageFace("scyllad_fc1",0,0,2,14)
ShowMessage("\\n<Miriam>")
ShowMessage("Sorry but, I'll put it inside you!")
ShowMessageFace("",0,0,2,15)
ShowMessage("\\n<Luka>")
ShowMessage("Eh? What...")
245(bytes(0x04,0x08,0x6f,0x3a,0x0d,0x52,0x50,0x47,0x3a,0x3a,0x42,0x47,0x53,0x08,0x3a,0x0a,0x40,0x6e,0x61,0x6d,0x65,0x49,0x22,0x17,0x6d,0x6f,0x6e,0x5f,0x68,0x73,0x65,0x61,0x6e,0x31,0x37,0x5f,0x73,0x69,0x67,0x6f,0x6b,0x69,0x06,0x3a,0x06,0x45,0x54,0x3a,0x0c,0x40,0x76,0x6f,0x6c,0x75,0x6d,0x65,0x69,0x55,0x3a,0x0b,0x40,0x70,0x69,0x74,0x63,0x68,0x69,0x69))
PictureDisplay(5,"ev_scyllad_ha4",0,0,0,0,100,100,255,0)
ShowMessageFace("",0,0,2,16)
ShowMessage("To my surprise, in the next moment she sticks her finger in my urethra!")
ShowMessageFace("",0,0,2,17)
ShowMessage("\\n<Luka>")
ShowMessage("Ah...Aaaaah!!")
ShowMessageFace("",0,0,2,18)
ShowMessage("My hips tremble from the unexpected stimulation.")
ShowMessage("Her slim finger that entered my urethra, it feels like a foreign body but it also brings pleasure with it.")
ShowMessageFace("",0,0,2,19)
ShowMessage("\\n<Luka>")
ShowMessage("Auu... Pull it out please...")
ShowMessageFace("scyllad_fc1",0,0,2,20)
ShowMessage("\\n<Miriam>")
ShowMessage("Should I pull it out? What to do?")
ShowMessageFace("",0,0,2,21)
ShowMessage("After happily saying that, Miriam...")
PictureDisplay(5,"ev_scyllad_ha5",0,0,0,0,100,100,255,0)
ShowMessageFace("scyllad_fc1",0,0,2,22)
ShowMessage("\\n<Miriam>")
ShowMessage("Ei, ei, eee~ii ♪")
ShowMessageFace("",0,0,2,23)
ShowMessage("Miriam slowly moves her finger back and forth in my urethra!")
ShowMessage("She wiggles her finger and stimulates my sensitive urethra.")
ShowMessageFace("",0,0,2,24)
ShowMessage("\\n<Luka>")
ShowMessage("Ahiii..! Ah...Aaaaaaah!")
ShowMessageFace("scyllad_fc1",0,0,2,25)
ShowMessage("\\n<Miriam>")
ShowMessage("I will reward you if you can endure this teasing.")
ShowMessage("With my tentacles, I'll give you lots of pleasure...")
ShowMessageFace("",0,0,2,26)
ShowMessage("\\n<Luka>")
ShowMessage("No... Stop...stop...!!")
ShowMessageFace("",0,0,2,27)
ShowMessage("Having my urethra rubbed from the inside gives me a unique pleasure.")
ShowMessage("There is no pain because of the secretion from Miriam's finger.")
ShowMessageFace("scyllad_fc1",0,0,2,28)
ShowMessage("\\n<Miriam>")
ShowMessage("Hora, hora, horaa~♪")
ShowMessageFace("",0,0,2,29)
ShowMessage("\\n<Luka>")
ShowMessage("Hyaaaaaa!!")
ShowMessageFace("",0,0,2,30)
ShowMessage("My whole body is trembling from this urethral torture.")
ShowMessage("Having my penis stimulated from the inside... The feeling of ejaculation wells up in me...")
ShowMessageFace("",0,0,2,31)
ShowMessage("\\n<Luka>")
ShowMessage("I'm coming! I'm coming!")
ShowMessageFace("scyllad_fc1",0,0,2,32)
ShowMessage("\\n<Miriam>")
ShowMessage("What? You're going to come from this?")
ShowMessage("You're going to come, don't you want to taste my tentacles?")
ShowMessageFace("",0,0,2,33)
ShowMessage("\\n<Luka>")
ShowMessage("I-impossible...Aaaaaaah!!")
ShowMessageFace("",0,0,2,34)
ShowMessage("I can't endure the attack of her finger on urethra anymore.")
ShowMessage("My waist trembles from the strong stimulation...")
RunCommonEvent(104)
PictureDisplay(5,"ev_scyllad_ha6",0,0,0,0,100,100,255,0)
RunCommonEvent(105)
ShowMessageFace("",0,0,2,35)
ShowMessage("\\n<Luka>")
ShowMessage("Auuuu...!")
ShowMessageFace("",0,0,2,36)
ShowMessage("Then, my penis starts pulsating and my semen comes out.")
ShowMessage("Despite having her finger in my urethra, my semen shoots out through the gaps near her finger...")
246(2)
PictureDisplay(5,"ev_scyllad_ha7",0,0,0,0,100,100,255,0)
ShowMessageFace("scyllad_fc1",0,0,2,37)
ShowMessage("\\n<Miriam>")
ShowMessage("You came from this...")
ShowMessageFace("",0,0,2,38)
ShowMessage("Miriam pulls her finger out of my trembling penis' urethra...")
ShowMessage("Her finger is stained with my cloudy semen.")
ShowMessageFace("",0,0,2,39)
ShowMessage("Her face, hands and breasts are stained by my semen.")
ShowMessage("It seems that she got all dirty from moving her finger inside while I was coming...")
ShowMessageFace("",0,0,2,40)
ShowMessage("Miriam giggles, all covered in my cloudiness...")
ShowMessageFace("scyllad_fc1",0,0,2,41)
ShowMessage("\\n<Miriam>")
ShowMessage("Yes, sorry for teasing you with my finger.")
ShowMessage("If you endured a bit longer you could have played with the tentacles inside my vagina...")
ShowMessageFace("scyllad_fc1",0,0,2,42)
ShowMessage("\\n<Miriam>")
ShowMessage("I'm sorry, ufufufufu.")
ShowMessage("Tentacle teasing postponed. ♪")
ShowMessageFace("",0,0,2,43)
ShowMessage("\\n<Luka>")
ShowMessage("............")
ShowMessageFace("",0,0,2,44)
ShowMessage("After having my urethra ravaged, I sill feel a lingering sensation.")
ShowMessage("For a while, it felt strange every time I peed...")
221()
PictureClear(5)
PictureClear(6)
ShowMessageFace("",0,0,2,45)
ShowMessage("......")
RunCommonEvent(3998)
0()
