// EVENT 2052
Name "Seduction: Sea Cucumber Girl"

If(0,25,1)
 EndEventProcessing()
 0()
EndIf()
355("$game_troop.lose_event_id = 3052")
ChangeVariable(26,26,0,3,3,1,4)
ChangeVariable(26,26,4,0,10)
ShowMessageFace("namako_fc1",0,0,2,1)
ShowMessage("\\n<Sea Cucumber Girl>Ara, aren't you the energetic one.\nI'd love to suck out the fluids of a healthy boy like you.")
ShowMessageFace("namako_fc1",1,0,2,2)
ShowMessage("\\n<Sea Cucumber Girl>Hey, come inside of me.\nI'll make you happy with some squeezing...")
ShowMessageFace("",0,0,2,3)
ShowMessage("The Sea Cucumber Girl's lower mouth opens seductively.")
ChangeSwitch(98,98,0)
ChangeSwitch(96,96,0)
ShowChoices(strings("Ignore her","Give in to temptation"),1)
IfPlayerPicksChoice(0,"Ignore her")
 ShowMessageFace("",0,0,2,4)
 ShowMessage("Luka resists her temptation!")
 RunCommonEvent(1999)
 EndEventProcessing()
 0()
IfPlayerPicksChoice(1,"誘惑に乗る")
 0()
404()
ShowMessageFace("namako_fc1",1,0,2,5)
ShowMessage("\\n<Sea Cucumber Girl>Fufu, no complaints?\nNow, come here...")
ChangeVariable(26,26,3,0,2)
250(bytes(0x04,0x08,0x6f,0x3a,0x0c,0x52,0x50,0x47,0x3a,0x3a,0x53,0x45,0x08,0x3a,0x0a,0x40,0x6e,0x61,0x6d,0x65,0x49,0x22,0x16,0x6d,0x6f,0x6e,0x5f,0x65,0x72,0x6f,0x5f,0x6d,0x61,0x6b,0x69,0x74,0x75,0x6b,0x69,0x32,0x06,0x3a,0x06,0x45,0x54,0x3a,0x0b,0x40,0x70,0x69,0x74,0x63,0x68,0x69,0x69,0x3a,0x0c,0x40,0x76,0x6f,0x6c,0x75,0x6d,0x65,0x69,0x69))
355("battler_graphic_hide")
PictureDisplay(5,"ev_namako_h1",0,0,0,0,100,100,255,0)
PictureDisplay(6,"ev_namako_ct01",0,0,0,0,100,100,255,0)
311(0,1,1,1,26,true)
ShowMessageFace("",0,0,2,6)
ShowMessage("Luka is sucked into the Sea Cucumber Girl's lower mouth!")
ShowMessage("Luka has been completely bound!\\D")
ShowMessage("Luka takes \\V[26] damage!")
ChangeVariable(27,27,0,3,3,1,2)
If(1,27,0,0,0)
 JumpToLabel("射精1")
 0()
EndIf()
ShowMessageFace("",0,0,2,7)
ShowMessage("\\n<Luka>Urhg... What's this!?\nAaah...")
ShowMessageFace("",0,0,2,8)
ShowMessage("It's wet inside of her, and warm.")
ShowMessage("It's like I'm bound in a living sleeping bag...")
ShowMessageFace("namako_fc1",1,0,2,9)
ShowMessage("\\n<Sea Cucumber Girl>My mouth is amazing, no?\nI'll suck on all of you, and squeeze out your fluids...")
ShowChoices(strings("Struggle","Let her continue"),1)
IfPlayerPicksChoice(0,"もがく")
 ShowMessageFace("",0,0,2,10)
 ShowMessage("Luka starts to struggle!")
 ShowMessage("But he can't break of her mouth!")
 ShowMessageFace("namako_fc1",1,0,2,11)
 ShowMessage("\\n<Sea Cucumber Girl>Are you resisting?\nThen I'll make it so you can't think about anything at all...")
 0()
IfPlayerPicksChoice(1,"なすがまま")
 ShowMessageFace("",0,0,2,12)
 ShowMessage("Luka surrenders to the pleasure...")
 ShowMessageFace("namako_fc1",1,0,2,13)
 ShowMessage("\\n<Sea Cucumber Girl>Arara, are you already melting in ecstasy?\nThen melt away inside your head...")
 0()
404()
250(bytes(0x04,0x08,0x6f,0x3a,0x0c,0x52,0x50,0x47,0x3a,0x3a,0x53,0x45,0x08,0x3a,0x0a,0x40,0x6e,0x61,0x6d,0x65,0x49,0x22,0x16,0x6d,0x6f,0x6e,0x5f,0x65,0x72,0x6f,0x5f,0x6d,0x61,0x6b,0x69,0x74,0x75,0x6b,0x69,0x33,0x06,0x3a,0x06,0x45,0x54,0x3a,0x0b,0x40,0x70,0x69,0x74,0x63,0x68,0x69,0x69,0x3a,0x0c,0x40,0x76,0x6f,0x6c,0x75,0x6d,0x65,0x69,0x69))
311(0,1,1,1,26,true)
ShowMessageFace("",0,0,2,14)
ShowMessage("The Sea Cucumber Girl's mouth wriggles around Luka!")
ShowMessage("A comfortable ecstasy spreads through his body!\\D")
ShowMessage("Luka takes \\V[26] damage!")
ShowMessageFace("",0,0,2,15)
ShowMessage("Luka is soaked in ecstasy!")
ChangeVariable(27,27,0,3,3,1,2)
If(1,27,0,0,0)
 JumpToLabel("射精2")
 0()
EndIf()
ShowMessageFace("",0,0,2,16)
ShowMessage("\\n<Luka>Ahh...")
ShowMessageFace("namako_fc1",1,0,2,17)
ShowMessage("\\n<Sea Cucumber Girl>Just indulge in the ecstasy.\nI'll take care of everything...")
250(bytes(0x04,0x08,0x6f,0x3a,0x0c,0x52,0x50,0x47,0x3a,0x3a,0x53,0x45,0x08,0x3a,0x0a,0x40,0x6e,0x61,0x6d,0x65,0x49,0x22,0x16,0x6d,0x6f,0x6e,0x5f,0x65,0x72,0x6f,0x5f,0x6d,0x61,0x6b,0x69,0x74,0x75,0x6b,0x69,0x33,0x06,0x3a,0x06,0x45,0x54,0x3a,0x0b,0x40,0x70,0x69,0x74,0x63,0x68,0x69,0x69,0x3a,0x0c,0x40,0x76,0x6f,0x6c,0x75,0x6d,0x65,0x69,0x69))
311(0,1,1,1,26,true)
ShowMessageFace("",0,0,2,18)
ShowMessage("Her inner walls squeeze down around him!")
ShowMessage("Viscous mucus sticks to his body!\\D")
ShowMessage("Luka takes \\V[26] damage!")
ChangeVariable(27,27,0,3,3,1,2)
If(1,27,0,0,0)
 JumpToLabel("射精2")
 0()
EndIf()
ShowMessageFace("namako_fc1",1,0,2,19)
ShowMessage("\\n<Sea Cucumber Girl>Do you feel all the folds inside me?\nI'll give you a good taste...")
250(bytes(0x04,0x08,0x6f,0x3a,0x0c,0x52,0x50,0x47,0x3a,0x3a,0x53,0x45,0x08,0x3a,0x0a,0x40,0x6e,0x61,0x6d,0x65,0x49,0x22,0x16,0x6d,0x6f,0x6e,0x5f,0x65,0x72,0x6f,0x5f,0x6d,0x61,0x6b,0x69,0x74,0x75,0x6b,0x69,0x33,0x06,0x3a,0x06,0x45,0x54,0x3a,0x0b,0x40,0x70,0x69,0x74,0x63,0x68,0x69,0x69,0x3a,0x0c,0x40,0x76,0x6f,0x6c,0x75,0x6d,0x65,0x69,0x69))
311(0,1,1,1,26,true)
ShowMessageFace("",0,0,2,20)
ShowMessage("Her inner walls swell, causing a strange stimulation to assault Luka!")
ShowMessage("The innumerable folds rub his body!\\D")
ShowMessage("Luka takes \\V[26] damage!")
ChangeVariable(27,27,0,3,3,1,2)
If(1,27,0,0,0)
 JumpToLabel("射精2")
 0()
EndIf()
ShowMessageFace("namako_fc1",1,0,2,21)
ShowMessage("\\n<Sea Cucumber Girl>Are you going to leak soon?\nThen go ahead and ejaculate...")
250(bytes(0x04,0x08,0x6f,0x3a,0x0c,0x52,0x50,0x47,0x3a,0x3a,0x53,0x45,0x08,0x3a,0x0a,0x40,0x6e,0x61,0x6d,0x65,0x49,0x22,0x16,0x6d,0x6f,0x6e,0x5f,0x65,0x72,0x6f,0x5f,0x6d,0x61,0x6b,0x69,0x74,0x75,0x6b,0x69,0x33,0x06,0x3a,0x06,0x45,0x54,0x3a,0x0b,0x40,0x70,0x69,0x74,0x63,0x68,0x69,0x69,0x3a,0x0c,0x40,0x76,0x6f,0x6c,0x75,0x6d,0x65,0x69,0x69))
311(0,1,1,1,26,true)
ShowMessageFace("",0,0,2,22)
ShowMessage("Her mouth closes tight around his body!")
ShowMessage("It shrinks more and more, stimulating him!\\D")
ShowMessage("Luka takes \\V[26] damage!")
ChangeVariable(27,27,0,3,3,1,2)
If(1,27,0,0,0)
 JumpToLabel("射精2")
 0()
EndIf()
DefineLabel("射精1")
ShowMessageFace("",0,0,2,23)
ShowMessage("\\n<Luka>Oh no, I'm coming... Aaah...")
RunCommonEvent(104)
PictureDisplay(5,"ev_namako_h2",0,0,0,0,100,100,255,0)
PictureDisplay(6,"ev_namako_ct02",0,0,0,0,100,100,255,0)
RunCommonEvent(105)
ShowMessageFace("",0,0,2,24)
ShowMessage("The moment I'm sucked into her mouth, I come.")
ShowMessage("I couldn't withstand that pleasure for even a moment...")
ShowMessageFace("namako_fc1",1,0,2,25)
ShowMessage("\\n<Sea Cucumber Girl>Ah, you couldn't hold it the moment you came inside...\nFufu, how miserable.")
RunCommonEvent(2000)
EndEventProcessing()
DefineLabel("射精2")
ShowMessageFace("",0,0,2,26)
ShowMessage("\\n<Luka>That feels good...Huaaa...")
RunCommonEvent(104)
PictureDisplay(5,"ev_namako_h2",0,0,0,0,100,100,255,0)
PictureDisplay(6,"ev_namako_ct02",0,0,0,0,100,100,255,0)
RunCommonEvent(105)
ShowMessageFace("",0,0,2,27)
ShowMessage("Sucked by her entire mouth, I finally come.")
ShowMessage("Soaked in excessive pleasure, I come inside her lower mouth.")
ShowMessageFace("namako_fc1",1,0,2,28)
ShowMessage("\\n<Sea Cucumber Girl>Did it feel nice coming while immersed in ecstasy?\nAnd you sure seem to have come a lot, too. Teehee.")
RunCommonEvent(2000)
EndEventProcessing()
0()
