// EVENT 3036
Name "Eater"

If(0,25,1)
 JumpToLabel("反省会")
 0()
EndIf()
PictureDisplay(5,"80_eater_st04",0,0,0,0,100,100,0,0)
PictureMove(5,null,0,0,0,0,100,100,255,0,30,true)
241(bytes(0x04,0x08,0x6f,0x3a,0x0d,0x52,0x50,0x47,0x3a,0x3a,0x42,0x47,0x4d,0x08,0x3a,0x0a,0x40,0x6e,0x61,0x6d,0x65,0x49,0x22,0x09,0x65,0x72,0x6f,0x31,0x06,0x3a,0x06,0x45,0x54,0x3a,0x0c,0x40,0x76,0x6f,0x6c,0x75,0x6d,0x65,0x69,0x69,0x3a,0x0b,0x40,0x70,0x69,0x74,0x63,0x68,0x69,0x69))
ShowMessageFace("",0,0,2,1)
ShowMessage("\\n<Luka>Unnngh...")
ShowMessageFace("eater_fc1",1,0,2,2)
ShowMessage("\\n<Eater>You look...delicious...")
ShowMessageFace("",0,0,2,3)
ShowMessage("My body gets tangled in her meat petals.")
ShowMessage("Before I realize what's happening, all of my clothes were gone.")
ShowMessageFace("",0,0,2,4)
ShowMessage("\\n<Luka>W-wait, don't... Unnngh...!")
PictureDisplay(5,"ev_eater_h01",0,0,0,0,100,100,0,0)
PictureMove(5,null,0,0,0,0,100,100,255,0,30,true)
ShowMessageFace("",0,0,2,5)
ShowMessage("I'm dragged inside her petals, sitting in front of Eater.")
ShowMessage("Oddly enough, she looks like a little girl.")
ShowMessageFace("eater_fc1",1,0,2,6)
ShowMessage("\\n<Eater>Can I eat you?")
ShowMessageFace("",0,0,2,7)
ShowMessage("\\n<Luka>Eh?")
PictureDisplay(5,"ev_eater_h02",0,0,0,0,100,100,255,0)
245(bytes(0x04,0x08,0x6f,0x3a,0x0d,0x52,0x50,0x47,0x3a,0x3a,0x42,0x47,0x53,0x08,0x3a,0x0a,0x40,0x6e,0x61,0x6d,0x65,0x49,0x22,0x1e,0x6d,0x6f,0x6e,0x5f,0x68,0x73,0x65,0x61,0x6e,0x31,0x31,0x5f,0x69,0x6e,0x6e,0x65,0x72,0x77,0x6f,0x72,0x6b,0x73,0x5f,0x63,0x31,0x06,0x3a,0x06,0x45,0x54,0x3a,0x0c,0x40,0x76,0x6f,0x6c,0x75,0x6d,0x65,0x69,0x55,0x3a,0x0b,0x40,0x70,0x69,0x74,0x63,0x68,0x69,0x69))
ShowMessageFace("",0,0,2,8)
ShowMessage("In the next moment, I feel a strange sensation on my scrotum.")
ShowMessage("My balls start sinking in her flesh as if it was a swamp.")
ShowMessageFace("eater_fc1",1,0,2,9)
ShowMessage("\\n<Eater>Can I eat you?\nLike this... Can I eat?")
ShowMessageFace("",0,0,2,10)
ShowMessage("My balls rub against the meaty floor of her petals.")
ShowMessage("The soft feeling of it is warm and gently rubs my scrotum.")
ShowMessageFace("",0,0,2,11)
ShowMessage("\\n<Luka>N-no, stop!")
ShowMessageFace("",0,0,2,12)
ShowMessage("I refuse to feel pleasure from this.")
ShowMessage("I have no hope of her understanding what I say.")
PictureDisplay(5,"ev_eater_h03",0,0,0,0,100,100,255,0)
ShowMessageFace("eater_fc1",2,0,2,13)
ShowMessage("\\n<Eater>Uh...No?\n...No good?")
ShowMessageFace("",0,0,2,14)
ShowMessage("Despite my anticipation, it seems she can understand me properly.")
ShowMessage("She looks sad and resigned.")
ShowMessageFace("eater_fc1",2,0,2,15)
ShowMessage("\\n<Eater>Can't eat?... No good?...Uhhh...")
ShowMessageFace("",0,0,2,16)
ShowMessage("My balls slide down through her meaty floor.")
ShowMessage("Her soft meat clings to my testicles.")
ShowMessageFace("",0,0,2,17)
ShowMessage("\\n<Luka>Ah, ugh...!")
ShowMessageFace("",0,0,2,18)
ShowMessage("However, there's nothing I can do about it.")
ShowMessage("Eater understands that I'm unwilling to be eaten.")
PictureDisplay(5,"ev_eater_h04",0,0,0,0,100,100,255,0)
ShowMessageFace("eater_fc1",2,0,2,19)
ShowMessage("\\n<Eater>Ah...I want to eat..want to eat...\nI want to eeeeeeeeeat...")
ShowMessageFace("",0,0,2,20)
ShowMessage("At the back of the meat floor wrapping my scrotum, I hear a strange sound like a ticking.")
ShowMessage("Underneath, another mouth seems to be rubbing my balls with its teeth.")
ShowMessageFace("",0,0,2,21)
ShowMessage("\\n<Luka>Hya! N-noooo...!\nD-don't eat...Aah!")
ShowMessageFace("",0,0,2,22)
ShowMessage("Eater seems to understand what I tell her.")
ShowMessage("If I manage to persuade her, I might escape...")
ShowMessageFace("",0,0,2,23)
ShowMessage("\\n<Luka>No, n-no, don't eat...\nBesides, you should rele-aaaah!")
PictureDisplay(5,"ev_eater_h05",0,0,0,0,100,100,255,0)
ShowMessageFace("",0,0,2,24)
ShowMessage("My words are cut off in the next moment as a pleasurable feeling shoots through me.")
ShowMessage("Tentacles from her meat floor wrap around my whole body.")
ShowMessageFace("eater_fc1",1,0,2,25)
ShowMessage("\\n<Eater>Well, you like this?\nLike butt strokes?")
ShowMessageFace("",0,0,2,26)
ShowMessage("Her meat floor starts waving underneath me and caressing my ass.")
ShowMessage("This peculiar feeling sends waves of pleasure through me.")
ShowMessageFace("eater_fc1",1,0,2,27)
ShowMessage("\\n<Eater>Thighs too...\nFeels good, you like it?")
ShowMessageFace("",0,0,2,28)
ShowMessage("Both my thighs and ass get wrapped in her tentacles and are getting stroked.")
ShowMessage("They secrete a mucus-like substance and spread it all over me.")
ShowMessageFace("",0,0,2,29)
ShowMessage("It feels as if my body is thoroughly tasted...")
ShowMessageFace("",0,0,2,30)
ShowMessage("\\n<Luka>Th-this...Unnngh...!")
ShowMessageFace("",0,0,2,31)
ShowMessage("My penis is also in close contact with her waving meaty floor.")
ShowMessage("Even though the pleasure is not strong, it does feel really good.")
ShowMessageFace("eater_fc1",1,0,2,32)
ShowMessage("\\n<Eater>I like your meaty thighs...\nYour meaty ass...I want to eat it too...")
ShowMessageFace("eater_fc1",1,0,2,33)
ShowMessage("\\n<Eater>I'll make you feel good... Let me eat it...")
PictureDisplay(5,"ev_eater_h06",0,0,0,0,100,100,255,0)
ShowMessageFace("",0,0,2,34)
ShowMessage("Arms extend from Eater's body and reach for my chest.")
ShowMessage("Her arms have a hard nail-like end and uses them to touch my nipples.")
ShowMessageFace("eater_fc1",0,0,2,35)
ShowMessage("\\n<Eater>Nipples, soft...")
ShowMessageFace("",0,0,2,36)
ShowMessage("\\n<Luka>T-This is... Aahh...")
ShowMessageFace("",0,0,2,37)
ShowMessage("It's a tickling sensation and it's accompanied by the feeling of having my entire lower body caressed.")
PictureDisplay(5,"ev_eater_h07",0,0,0,0,100,100,255,0)
ShowMessageFace("eater_fc1",1,0,2,38)
ShowMessage("\\n<Eater>Can I...eat this too?")
ShowMessageFace("",0,0,2,39)
ShowMessage("Part of her meat wraps around my penis and rubs gently against it.")
ShowMessage("The meat swells around my penis as if slowly asking me to come.")
ShowMessageFace("",0,0,2,40)
ShowMessage("\\n<Luka>Ah, aaah... D-don't...")
ShowMessageFace("eater_fc1",2,0,2,41)
ShowMessage("\\n<Eater>I want to eat it... Can I eat it?\nLet me eat your penis...?")
ShowMessageFace("",0,0,2,42)
ShowMessage("Her soft meat crawls all over my penis and wriggles around my urethral opening.")
ShowMessage("It's not a strong stimulus, just enough to tease me.")
ShowMessageFace("",0,0,2,43)
ShowMessage("My penis reacts to the soft stimulation.")
ShowMessage("I'm filled with a sweet pleasure as my nipples and ass are stimulated at the same time.")
ShowMessageFace("",0,0,2,44)
ShowMessage("\\n<Luka>D-don't... Aaaah...!!")
ShowMessageFace("",0,0,2,45)
ShowMessage("Slowly, a sense of release fills me.")
ShowMessage("My penis, tangled up in her meat, starts pulsing.")
RunCommonEvent(104)
PictureDisplay(5,"ev_eater_h08",0,0,0,0,100,100,255,0)
RunCommonEvent(105)
ShowMessageFace("",0,0,2,46)
ShowMessage("Just from that...my semen leaks out.")
ShowMessage("It doesn't shoot out violently, but in a slow and steady flow.")
ShowMessageFace("",0,0,2,47)
ShowMessage("\\n<Luka>Huaaa... I came...")
PictureDisplay(5,"ev_eater_h09",0,0,0,0,100,100,255,0)
ShowMessageFace("eater_fc1",3,0,2,48)
ShowMessage("\\n<Eater>You came. ♪\nYou came, pew pew pew... Tasty...♪")
ShowMessageFace("",0,0,2,49)
ShowMessage("The part of her meat floor where my semen drips down starts wriggling gently.")
ShowMessage("She's eating my semen...")
ShowMessageFace("eater_fc1",3,0,2,50)
ShowMessage("\\n<Eater>Yum, yum, delicious...\nThick semen... Tasty, tastyyyyy...")
ShowMessageFace("eater_fc1",3,0,2,51)
ShowMessage("\\n<Eater>I want to eat it all, I want to eat...\nPenis... totally... defeated...")
ShowMessageFace("",0,0,2,52)
ShowMessage("Eater gets more excited as she tastes my semen.")
ShowMessage("My reasoning slowly starts to fade.")
ShowMessageFace("eater_fc1",1,0,2,53)
ShowMessage("\\n<Eater>C-can I eat? Can I eat? Can I eeeeeat?\nCan I eeeeeeaaaat?")
ShowMessageFace("",0,0,2,54)
ShowMessage("\\n<Luka>N-nooo!!!")
ShowMessageFace("",0,0,2,55)
ShowMessage("I start screaming in a panic.")
ShowMessage("Eater, on the other hand...")
PictureDisplay(5,"ev_eater_h10",0,0,0,0,100,100,255,0)
ShowMessageFace("eater_fc1",4,0,2,56)
ShowMessage("\\n<Eater>Urhg... Waaaaahhhh...")
ShowMessageFace("",0,0,2,57)
ShowMessage("She starts crying.")
ShowMessage("Her tentacles tremble as tears stream down her cheeks...")
ShowMessageFace("eater_fc1",4,0,2,58)
ShowMessage("\\n<Eater>...No good? Why no good?\nWhy can't eat, whyyyyy waaaaaaaaahhh!?")
ShowMessageFace("",0,0,2,59)
ShowMessage("\\n<Luka>Ah, aaaah...!")
ShowMessageFace("",0,0,2,60)
ShowMessage("Her wriggling tentacles crawl all over my body.")
ShowMessage("Additionally, the tongue underneath her meat floor crawls all over my ball sack.")
ShowMessageFace("",0,0,2,61)
ShowMessage("Her tongue doesn't miss an inch, soaking my scrotum with its saliva.")
ShowMessage("Her persistent caresses with her tongue bring me a sweet pleasure.")
PictureDisplay(5,"ev_eater_h11",0,0,0,0,100,100,255,0)
ShowMessageFace("",0,0,2,62)
ShowMessage("\\n<Luka>Nnngh...That feels good...")
ShowMessageFace("eater_fc1",2,0,2,63)
ShowMessage("\\n<Eater>......")
ShowMessageFace("eater_fc1",1,0,2,64)
ShowMessage("\\n<Eater>...Feels good?\nLick lick feels good?")
ShowMessageFace("",0,0,2,65)
ShowMessage("Her tongue continues to play with my testicles.")
ShowMessage("It glides all over coating me more and more with her saliva.")
ShowMessageFace("eater_fc1",1,0,2,66)
ShowMessage("\\n<Eater>Can I eat if feels good?\nIf I lick lick a lot can I eat?")
ShowMessageFace("",0,0,2,67)
ShowMessage("\\n<Luka>Th-that's not... Aaaah...!!")
PictureDisplay(5,"ev_eater_h13",0,0,0,0,100,100,255,0)
ShowMessageFace("",0,0,2,68)
ShowMessage("Her tentacles grow longer and cling to my body.")
ShowMessage("They start caressing every inch of my body.")
ShowMessageFace("eater_fc1",1,0,2,69)
ShowMessage("\\n<Eater>*Slurp* *Suck*\nTentacles, feel good?")
ShowMessageFace("",0,0,2,70)
ShowMessage("\\n<Luka>S-Stop... Aaah...!!")
ShowMessageFace("",0,0,2,71)
ShowMessage("Her tentacles crawl all over my body, covering me with their slimy mucus.")
ShowMessage("A tongue crawls out from each of her arms and starts licking my nipples.")
ShowMessageFace("",0,0,2,72)
ShowMessage("My balls are also being played with by one of her tongues.")
ShowMessage("My penis, though, rarely gets any attention.")
ShowMessageFace("eater_fc1",1,0,2,73)
ShowMessage("\\n<Eater>H-hey... Can I eat it?")
ShowMessageFace("",0,0,2,74)
ShowMessage("\\n<Luka>D-don't... Aaah...")
ShowMessageFace("",0,0,2,75)
ShowMessage("It feels as if my whole body is greedily tasted.")
ShowMessage("However, my male instinct interprets this as pleasure.")
ShowMessageFace("",0,0,2,76)
ShowMessage("\\n<Luka>C-coming...Aaaah...!!")
RunCommonEvent(104)
PictureDisplay(5,"ev_eater_h14",0,0,0,0,100,100,255,0)
RunCommonEvent(105)
ShowMessageFace("",0,0,2,77)
ShowMessage("I ejaculate once again while having my whole body tasted.")
ShowMessage("My penis remains entwined in her sticky meat as I shoot out my seed.")
ShowMessageFace("",0,0,2,78)
ShowMessage("\\n<Luka>Nnngh...")
ShowMessageFace("eater_fc1",1,0,2,79)
ShowMessage("\\n<Eater>It came out... It came out again...\nEhehehehe ♪")
ShowMessageFace("eater_fc1",1,0,2,80)
ShowMessage("\\n<Eater>Good enough?\nFelt good...Now can I eat?")
ShowMessageFace("",0,0,2,81)
ShowMessage("\\n<Luka>......")
ShowMessageFace("",0,0,2,82)
ShowMessage("Immersed in ecstasy, I forget to refuse her.")
ShowMessage("Eater lightly giggles.")
PictureDisplay(5,"ev_eater_h15",0,0,0,0,100,100,255,0)
ShowMessageFace("eater_fc1",3,0,2,83)
ShowMessage("\\n<Eater>Can I eat? Eat, melt...\nTurn mush... Delicious juice..")
ShowMessageFace("",0,0,2,84)
ShowMessage("Eater's body starts secreting some strange mucus.")
ShowMessage("She starts spreading it all over my body.")
ShowMessageFace("eater_fc1",3,0,2,85)
ShowMessage("\\n<Eater>Eat, melt...\nFeels good?")
ShowMessageFace("",0,0,2,86)
ShowMessage("Her tentacles wiggle around and coat my entire body with her digestive juices.")
ShowMessage("My reasoning slowly fades as the pleasure takes hold.")
ShowMessageFace("",0,0,2,87)
ShowMessage("I feel as if I could melt from this pleasure.")
ShowMessage("It would probably feel really good to just be digested.")
ShowMessageFace("",0,0,2,88)
ShowMessage("\\n<Luka>Ah... Ugh...")
ShowMessageFace("",0,0,2,89)
ShowMessage("This ruinous desire clouds my reasoning.")
ShowMessage("In the back of my mind, I really want her to eat me like this.")
ShowMessageFace("",0,0,2,90)
ShowMessage("\\n<Luka>...No, don't...")
ShowMessageFace("",0,0,2,91)
ShowMessage("Although immersed in ecstasy, I manage to listen to the voice of reason.")
ShowMessage("In a trembling voice, I managed to utter my disagreement.")
PictureDisplay(5,"ev_eater_h16",0,0,0,0,100,100,255,0)
ShowMessageFace("eater_fc1",2,0,2,92)
ShowMessage("\\n<Eater>Ugh... Why...?\nLooks yummy... Why not eat?")
ShowMessageFace("",0,0,2,93)
ShowMessage("A huge petal of flesh rises behind me.")
ShowMessage("A thick tongue comes out of it and starts licking my back.")
ShowMessageFace("eater_fc1",2,0,2,94)
ShowMessage("\\n<Eater>Delicious, want to eat...")
ShowMessageFace("",0,0,2,95)
ShowMessage("The tongue trembles and licks all over my back, tasting me.")
ShowMessage("Tentacles that crawl all over my body start to vibrate as well.")
PictureDisplay(5,"ev_eater_h18",0,0,0,0,100,100,255,0)
ShowMessageFace("",0,0,2,96)
ShowMessage("\\n<Luka>Ah, aaah...")
ShowMessageFace("",0,0,2,97)
ShowMessage("After coming twice, my penis gets even more entangled in her meat.")
ShowMessage("Sticky liquid crawls up and down my glans and shaft.")
ShowMessageFace("eater_fc1",2,0,2,98)
ShowMessage("\\n<Eater>Penis, want to eat...\nMelt...")
ShowMessageFace("",0,0,2,99)
ShowMessage("Her meat gets more lubricated and focuses more on my glans.")
ShowMessage("It tightens around my glans, stimulating all my sensitive spots...")
ShowMessageFace("",0,0,2,100)
ShowMessage("\\n<Luka>N-noooo... Aaaah...!!")
RunCommonEvent(104)
PictureDisplay(5,"ev_eater_h19",0,0,0,0,100,100,255,0)
RunCommonEvent(105)
ShowMessageFace("",0,0,2,101)
ShowMessage("Responding to the stimulation, my semen gushes out.")
ShowMessage("With my whole body being caressed all over, my penis relaxes.")
ShowMessageFace("",0,0,2,102)
ShowMessage("My reasoning fades as ecstasy takes its place.")
ShowMessage("Is this a side effect of the mucus she spread all over me?")
ShowMessageFace("eater_fc1",1,0,2,103)
ShowMessage("\\n<Eater>Semen, lots...\nPenis, more more...")
PictureDisplay(5,"ev_eater_h20",0,0,0,0,100,100,255,0)
ShowMessageFace("",0,0,2,104)
ShowMessage("Her meat and tentacles twine and coil around my penis.")
ShowMessage("It feels as if it's being melted.")
ShowMessageFace("",0,0,2,105)
ShowMessage("\\n<Luka>Huaaa... Aaah...")
ShowMessageFace("",0,0,2,106)
ShowMessage("My whole body is caressed and immersed in sweet ecstasy.")
ShowMessage("My penis receives a heavenly stimulation as every part of it is played with.")
ShowMessageFace("",0,0,2,107)
ShowMessage("The sweet euphoric feelings erode and finally break my reasoning.")
ShowMessage("I want to taste the sweet pleasure of being eaten.")
ShowMessageFace("eater_fc1",1,0,2,108)
ShowMessage("\\n<Eater>So, good...? Hey, can I eat you?")
ShowMessageFace("",0,0,2,109)
ShowMessage("\\n<Luka>Aaah...Okay...")
ShowMessageFace("",0,0,2,110)
ShowMessage("I can't say no anymore.")
ShowMessage("I want to be melted and digested like this.")
PictureDisplay(5,"ev_eater_h34",0,0,0,0,100,100,255,0)
ShowMessageFace("eater_fc1",3,0,2,111)
ShowMessage("\\n<Eater>Okay?! Can I eat?\nI'll eat, I'll eat!")
ShowMessageFace("",0,0,2,112)
ShowMessage("\\n<Luka>......")
ShowMessageFace("",0,0,2,113)
ShowMessage("As her voice sounds more cheerful, her tentacles and meat floor start rustling.")
ShowMessageFace("",0,0,2,114)
ShowMessage("The sweet ecstasy of my ruinous expectations...")
ShowMessageFace("eater_fc1",3,0,2,115)
ShowMessage("\\n<Eater>I'll eat... I'll eat...♪")
ShowMessageFace("",0,0,2,116)
ShowMessage("The meat petals swell and approach my body...")
ShowMessage("Like that, they gently close and wrap around my body...")
If(0,95,0)
 246(2)
 221()
 ShowMessageFace("",0,0,2,117)
 ShowMessage("＊＊＊The rest of the vore scene is being skipped.＊＊＊")
 JumpToLabel("zzz")
 0()
EndIf()
PictureDisplay(5,"ev_eater_h35",0,0,0,0,100,100,255,0)
ShowMessageFace("",0,0,2,118)
ShowMessage("Her flower swallows me whole.")
ShowMessageFace("",0,0,2,119)
ShowMessage("\\n<Luka>Ah...! Aaaah!!")
ShowMessageFace("",0,0,2,120)
ShowMessage("Not even my screams of pleasure can be heard from outside.")
ShowMessage("What I felt up to this point is nothing compared to the agonizing, crazy pleasure given to me inside her.")
ShowMessageFace("",0,0,2,121)
ShowMessage("\\n<Luka>Hyaaa...! Aaaah...!!")
ShowMessageFace("",0,0,2,122)
ShowMessage("Her slimy meat walls keep rubbing me, slowly melting me.")
ShowMessage("I'm coated in pleasure and it feels unbearably good.")
ShowMessageFace("",0,0,2,123)
ShowMessage("\\n<Luka>Aaah...aaaah...")
ShowMessageFace("",0,0,2,124)
ShowMessage("A viscous liquid covers my entire body, slowly melting it.")
ShowMessage("All the while I don't stop ejaculating.")
ShowMessageFace("",0,0,2,125)
ShowMessage("\\n<Luka>aaah...")
ShowMessageFace("",0,0,2,126)
ShowMessage("My whole body turns to mush...")
ShowMessage("While immersed in ecstasy, I taste the once in a lifetime pleasure of being preyed upon.")
ShowMessageFace("",0,0,2,127)
ShowMessage("\\n<Luka>......")
ShowMessageFace("",0,0,2,128)
ShowMessage("Thus, Eater ate me...")
246(1)
PictureDisplay(5,"ev_eater_h36",0,0,0,0,100,100,255,0)
ShowMessageFace("eater_fc1",3,0,2,129)
ShowMessage("\\n<Eater>Thanks for the meal...♪")
ShowMessageFace("",0,0,2,130)
ShowMessage("The flesh petals open up but Luka was nowhere to be found.")
ShowMessage("However, Eater's belly was swelled and she had a satisfied look on her face.")
ShowMessageFace("eater_fc1",3,0,2,131)
ShowMessage("\\n<Eater>......")
ShowMessageFace("eater_fc1",1,0,2,132)
ShowMessage("\\n<Eater>......")
ShowMessageFace("eater_fc1",0,0,2,133)
ShowMessage("\\n<Eater>......")
ShowMessageFace("eater_fc1",2,0,2,134)
ShowMessage("\\n<Eater>I'm hungry...")
221()
PictureClear(5)
246(2)
DefineLabel("反省会")
ShowMessageFace("",0,0,2,135)
ShowMessage("......")
DefineLabel("zzz")
221()
242(1)
Wait(120)
355("memory_interruption")
ShowMessageFace("",0,0,2,136)
ShowMessage("You hear Ilias' voice calling out to you...")
ShowMessage("Receive her evaluation?")
ShowChoices(strings("Receive evaluation","Change difficulty","Reincarnate"),3)
IfPlayerPicksChoice(0,null)
 241(bytes(0x04,0x08,0x6f,0x3a,0x0d,0x52,0x50,0x47,0x3a,0x3a,0x42,0x47,0x4d,0x08,0x3a,0x0a,0x40,0x6e,0x61,0x6d,0x65,0x49,0x22,0x0a,0x69,0x72,0x69,0x61,0x73,0x06,0x3a,0x06,0x45,0x54,0x3a,0x0c,0x40,0x76,0x6f,0x6c,0x75,0x6d,0x65,0x69,0x5f,0x3a,0x0b,0x40,0x70,0x69,0x74,0x63,0x68,0x69,0x6e))
 PictureDisplay(1,"bg001",0,0,0,0,100,100,255,0)
 222()
 PictureDisplay(5,"80_iriasu_st04",0,0,0,0,100,100,0,0)
 PictureMove(5,null,0,0,0,0,100,100,255,0,30,true)
 ShowMessageFace("iriasu_fc1",3,0,2,137)
 ShowMessage("\\n<Ilias>Error 245 occurred...\nWhere on earth are you and what are you doing?")
 ShowMessageFace("iriasu_fc1",3,0,2,138)
 ShowMessage("\\n<Ilias>Since I get an error when analyzing your coordinates, we'll have to build a strategy from what you learned so far.\n...Also, is your opponent an apoptosis?")
 PictureDisplay(5,"80_iriasu_st01",0,0,0,0,100,100,255,0)
 ShowMessageFace("iriasu_fc1",0,0,2,139)
 ShowMessage("\\n<Ilias>Eater is...confusing. She's a plant monster, isn't she?\nShe will prey on anyone who's bound so be sure to struggle out of binds.")
 ShowMessageFace("iriasu_fc1",0,0,2,140)
 ShowMessage("\\n<Ilias>Since it's a plant monster, fire attacks should be effective against her.\nAs for status ailments...most seem to be ineffective.")
 ShowMessageFace("iriasu_fc1",0,0,2,141)
 ShowMessage("\\n<Ilias>Stun though seems to work and it should be easy to stop her actions.\nYou can also deprive her of her sight with Blind.")
 ShowMessageFace("iriasu_fc1",0,0,2,142)
 ShowMessage("\\n<Ilias>Her physical attacks aren't that strong so they shouldn't give you much trouble.\nBe aggressive and attack, especially with fire.")
 PictureDisplay(5,"80_iriasu_st04",0,0,0,0,100,100,255,0)
 ShowMessageFace("iriasu_fc1",3,0,2,143)
 ShowMessage("\\n<Ilias>Now go, oh brave Luka.\nAs far away as possible from that place...")
 242(1)
 221()
 PictureClear(5)
 PictureClear(1)
 Wait(60)
 0()
IfPlayerPicksChoice(1,null)
 ShowMessageFace("",0,0,2,144)
 ShowMessage("Please choose a difficulty level.")
 RunCommonEvent(110)
 0()
IfPlayerPicksChoice(2,null)
 0()
404()
RunCommonEvent(3000)
0()
