// EVENT 5467
Name "Arachne 2"

PictureDisplay(5,"80_arachnes_st02",0,0,0,0,100,100,0,0)
PictureDisplay(6,"80_arachnes_st12",0,0,0,0,100,100,0,0)
PictureDisplay(7,"80_arachnes_st22",0,0,0,0,100,100,0,0)
PictureMove(5,null,0,0,0,0,100,100,255,0,30,false)
PictureMove(6,null,0,0,0,0,100,100,255,0,30,false)
PictureMove(7,null,0,0,0,0,100,100,255,0,30,true)
ShowMessageFace("",0,0,2,1)
ShowMessage("\\n<Luka>P-please...")
ShowMessageFace("arachnes_fc3",1,0,2,2)
ShowMessage("\\n<Arachne A>Ahaha, you want us to make you feel good?")
ShowMessageFace("arachnes_fc2",1,0,2,3)
ShowMessage("\\n<Arachne B>Well then, let's mate. ♪")
ShowMessageFace("arachnes_fc4",0,0,2,4)
ShowMessage("\\n<Arachne C>We're all going to rape you! ♪")
ShowMessageFace("",0,0,2,5)
ShowMessage("The Arachnes swarm around my defenseless body...")
ShowMessageFace("",0,0,2,6)
ShowMessage("\\n<Luka>Wh-what... Aau!")
241(bytes(0x04,0x08,0x6f,0x3a,0x0d,0x52,0x50,0x47,0x3a,0x3a,0x42,0x47,0x4d,0x08,0x3a,0x0a,0x40,0x6e,0x61,0x6d,0x65,0x49,0x22,0x09,0x65,0x72,0x6f,0x31,0x06,0x3a,0x06,0x45,0x54,0x3a,0x0c,0x40,0x76,0x6f,0x6c,0x75,0x6d,0x65,0x69,0x69,0x3a,0x0b,0x40,0x70,0x69,0x74,0x63,0x68,0x69,0x69))
245(bytes(0x04,0x08,0x6f,0x3a,0x0d,0x52,0x50,0x47,0x3a,0x3a,0x42,0x47,0x53,0x08,0x3a,0x0a,0x40,0x6e,0x61,0x6d,0x65,0x49,0x22,0x1e,0x6d,0x6f,0x6e,0x5f,0x68,0x73,0x65,0x61,0x6e,0x30,0x35,0x5f,0x69,0x6e,0x6e,0x65,0x72,0x77,0x6f,0x72,0x6b,0x73,0x5f,0x61,0x35,0x06,0x3a,0x06,0x45,0x54,0x3a,0x0c,0x40,0x76,0x6f,0x6c,0x75,0x6d,0x65,0x69,0x55,0x3a,0x0b,0x40,0x70,0x69,0x74,0x63,0x68,0x69,0x69))
PictureClear(6)
PictureClear(7)
PictureDisplay(5,"ev_arachnes_ha01",0,0,0,0,100,100,255,0)
ShowMessageFace("",0,0,2,7)
ShowMessage("The Arachnes restrain me.\nThey hug me tightly and restrict my movement...")
ShowMessageFace("arachnes_fc3",1,0,2,8)
ShowMessage("\\n<Arachne A>Now you can't run away anymore.\nIt's time for mating fun! ♪")
ShowMessageFace("arachnes_fc2",1,0,2,9)
ShowMessage("\\n<Arachne B>I'm going to put your penis inside here.\nIt's gonna feel soooo good, you'll shoot out lots of semen. ♪")
ShowMessageFace("",0,0,2,10)
ShowMessage("\\n<Luka>That... Auuu...!")
PictureDisplay(6,"ev_arachnes_ct01",0,0,0,0,100,100,255,0)
ShowMessageFace("",0,0,2,11)
ShowMessage("The Arachne holding me from the front pushes her waist towards me...\nAnd she sucks my penis into the female opening on her crotch!")
ShowMessageFace("",0,0,2,12)
ShowMessage("\\n<Luka>Au... Hauuu!!")
ShowMessageFace("",0,0,2,13)
ShowMessage("In the next moment, I moan involuntarily.\nThe fleshy walls inside her press against my penis.")
ShowMessageFace("arachnes_fc3",1,0,2,14)
ShowMessage("\\n<Arachne A>Haha, he's inside! ♪")
ShowMessageFace("arachnes_fc2",1,0,2,15)
ShowMessage("\\n<Arachne B>It feels good inside me.\nHoora, I'll move around inside. ♪")
ShowMessageFace("",0,0,2,16)
ShowMessage("\\n<Luka>Th-that... Ah, aaaaaau!!")
PictureDisplay(5,"ev_arachnes_ha02",0,0,0,0,100,100,255,0)
PictureDisplay(6,"ev_arachnes_ct02",0,0,0,0,100,100,255,0)
ShowMessageFace("",0,0,2,17)
ShowMessage("Her inner walls start contracting, stimulating my penis.\nAs her flesh walls gently rub me, my body starts shaking.")
ShowMessageFace("arachnes_fc4",0,0,2,18)
ShowMessage("\\n<Arachne C>Ahaha, he looks like he's feeling good...♪\nHe's trying so hard to resist the pleasure, it's soooo cute. ♪")
ShowMessageFace("arachnes_fc3",1,0,2,19)
ShowMessage("\\n<Arachne A>That's because he's mating with monsters...\nYour penis feels good, doesn't it?")
ShowMessageFace("",0,0,2,20)
ShowMessage("\\n<Luka>Y-yes... Amazing...")
ShowMessageFace("",0,0,2,21)
ShowMessage("Her soft inner walls undulate, rubbing against my penis.\nIt's as if I've been swallowed by a trap full of wriggling flesh.")
ShowMessageFace("",0,0,2,22)
ShowMessage("Her flesh walls rub against the neck of my penis and squeeze my glans... The overwhelming pleasure makes me push my waist forward.")
ShowMessageFace("",0,0,2,23)
ShowMessage("\\n<Luka>Au... Coming, already...!!")
ShowMessageFace("arachnes_fc2",2,0,2,24)
ShowMessage("\\n<Arachne B>Eh? You're already going to come...?")
ShowMessageFace("",0,0,2,25)
ShowMessage("Surprised, the Arachne contracts her vagina.\nIronically, the stimulation stops...")
ShowMessageFace("",0,0,2,26)
ShowMessage("\\n<Luka>N-no...! Aaaaah...")
ShowMessageFace("",0,0,2,27)
ShowMessage("I hold on to the Arachne's body tightly as my waist starts shaking...")
RunCommonEvent(104)
PictureDisplay(5,"ev_arachnes_ha03",0,0,0,0,100,100,255,0)
PictureDisplay(6,"ev_arachnes_ct03",0,0,0,0,100,100,255,0)
RunCommonEvent(105)
ShowMessageFace("",0,0,2,28)
ShowMessage("And my semen shoots out inside her vagina.\nI taste the undulating movement of the flesh walls all throughout my ejaculation...")
PictureDisplay(5,"ev_arachnes_ha04",0,0,0,0,100,100,255,0)
PictureDisplay(6,"ev_arachnes_ct04",0,0,0,0,100,100,255,0)
ShowMessageFace("",0,0,2,29)
ShowMessage("\\n<Luka>Hauu...")
ShowMessageFace("",0,0,2,30)
ShowMessage("With my penis still inside her vagina, a feeling of ecstasy comes over me after I'm done ejaculating. Seeing my state, the Arachnes scornfully smile at me.")
ShowMessageFace("arachnes_fc3",1,0,2,31)
ShowMessage("\\n<Arachne A>Ahaha, he came so fast!\nYou, are such a premature ejaculator. ♪")
ShowMessageFace("arachnes_fc4",0,0,2,32)
ShowMessage("\\n<Arachne C>What, don't give up!\nYou have to try harder!")
ShowMessageFace("arachnes_fc2",0,0,2,33)
ShowMessage("\\n<Arachne B>I didn't expect you to finish that fast...\nSo, I'm going to wring you even more!")
ShowMessageFace("",0,0,2,34)
ShowMessage("\\n<Luka>Th-that... Ah, hauu...!!")
PictureDisplay(5,"ev_arachnes_ha05",0,0,0,0,100,100,255,0)
PictureDisplay(6,"ev_arachnes_ct05",0,0,0,0,100,100,255,0)
ShowMessageFace("",0,0,2,35)
ShowMessage("The inside of her vagina starts wriggling once more, filling me with a mysterious pleasure. It contracts and relaxes, squeezing my penis.")
ShowMessageFace("",0,0,2,36)
ShowMessage("This stimulation from the root to the tip makes it feel like I'm in heaven. My waist starts shaking from the overwhelming pleasure...")
ShowMessageFace("",0,0,2,37)
ShowMessage("\\n<Luka>A-amzing... This... Hauu...")
ShowMessageFace("arachnes_fc3",1,0,2,38)
ShowMessage("\\n<Arachne A>Looks like your penis feels good. ♪")
ShowMessageFace("arachnes_fc2",1,0,2,39)
ShowMessage("\\n<Arachne B>His penis is already throbbing inside me.\nIt looks like he'll come again in an instant...")
ShowMessageFace("arachnes_fc4",0,0,2,40)
ShowMessage("\\n<Arachne C>Haha, he's already going to cooome! ♪\nSo quick! Pathetic!")
ShowMessageFace("",0,0,2,41)
ShowMessage("\\n<Luka>D-don't... Aaaaau!!")
ShowMessageFace("",0,0,2,42)
ShowMessage("My waist shivers as the Arachnes make fun of me...")
RunCommonEvent(104)
PictureDisplay(5,"ev_arachnes_ha06",0,0,0,0,100,100,255,0)
PictureDisplay(6,"ev_arachnes_ct06",0,0,0,0,100,100,255,0)
RunCommonEvent(105)
ShowMessageFace("",0,0,2,43)
ShowMessage("And I come to a second disappointing climax.\nMy semen floods her inhuman vagina...")
ShowMessageFace("",0,0,2,44)
ShowMessage("\\n<Luka>Hauu...")
ShowMessageFace("arachnes_fc2",2,0,2,45)
ShowMessage("\\n<Arachne B>Come on, try to last a little longer...\nI can't be satisfied like this...")
ShowMessageFace("arachnes_fc3",1,0,2,46)
ShowMessage("\\n<Arachne A>Is it because the inside of a spider feels too good? Even if you try to endure it, you come this fast?")
ShowMessageFace("arachnes_fc4",0,0,2,47)
ShowMessage("\\n<Arachne C>Ahaha, he can't endure it. ♪")
ShowMessageFace("",0,0,2,48)
ShowMessage("\\n<Luka>........")
ShowMessageFace("",0,0,2,49)
ShowMessage("I taste humiliation as the Arachnes laugh at me.\nOn top of that, my penis is still trapped inside of one of the Arachnes.")
PictureDisplay(5,"ev_arachnes_ha07",0,0,0,0,100,100,255,0)
PictureDisplay(6,"ev_arachnes_ct07",0,0,0,0,100,100,255,0)
ShowMessageFace("arachnes_fc2",1,0,2,50)
ShowMessage("\\n<Arachne B>Come now... At least your semen is very delicious. I'll be satisfied if you give me lots of it.")
ShowMessageFace("arachnes_fc4",0,0,2,51)
ShowMessage("\\n<Arachne C>In that case, being a premature ejaculator is good. ♪")
ShowMessageFace("arachnes_fc3",1,0,2,52)
ShowMessage("\\n<Arachne A>Give us lots of your semen instead of resisting so we can eat it... Ufufufu.")
ShowMessageFace("",0,0,2,53)
ShowMessage("\\n<Luka>A-again, it feels good... Ah, aaaaau!!")
PictureDisplay(5,"ev_arachnes_ha08",0,0,0,0,100,100,255,0)
PictureDisplay(6,"ev_arachnes_ct08",0,0,0,0,100,100,255,0)
ShowMessageFace("",0,0,2,54)
ShowMessage("Her interior flesh walls start wriggling again, rubbing hard against my penis and squeezing it. I involuntarily relax as I feel her flesh gently rubbing against my glans.")
ShowMessageFace("",0,0,2,55)
ShowMessage("I cling to the Arachne's body as I taste this heaven.\nMy mind is paralyzed and all I can think of is the pleasure.")
ShowMessageFace("",0,0,2,56)
ShowMessage("\\n<Luka>Fuaaaaa... That feels so good...")
ShowMessageFace("",0,0,2,57)
ShowMessage("I entrust my body to the primordial instinct of mating, wanting nothing more than to shoot my semen... My existence has been degraded to this pitiful state.")
ShowMessageFace("arachnes_fc2",1,0,2,58)
ShowMessage("\\n<Arachne B>You can't endure it anyway, can you?\nHora, shoot it out quickly.")
ShowMessageFace("arachnes_fc3",1,0,2,59)
ShowMessage("\\n<Arachne A>You never thought mating with a monster could feel this good...")
ShowMessageFace("arachnes_fc4",0,0,2,60)
ShowMessage("\\n<Arachne C>Shoot it out! Shoot it out!")
ShowMessageFace("",0,0,2,61)
ShowMessage("\\n<Luka>C-coming... Hauu...")
RunCommonEvent(104)
PictureDisplay(5,"ev_arachnes_ha09",0,0,0,0,100,100,255,0)
PictureDisplay(6,"ev_arachnes_ct09",0,0,0,0,100,100,255,0)
RunCommonEvent(105)
ShowMessageFace("",0,0,2,62)
ShowMessage("Like that, my semen shoots out inside the Arachne's vagina... I get drunk on the feeling of the flesh wall squeezing me.")
ShowMessageFace("",0,0,2,63)
ShowMessage("I hold on to the Arachne, shaking my waist until my ejaculation is over... I release my semen until the last drop inside the inhuman vagina...")
ShowMessageFace("",0,0,2,64)
ShowMessage("\\n<Luka>Fuaaaa...")
ShowMessageFace("",0,0,2,65)
ShowMessage("The Arachnes watch me as I fully enjoy my ejaculation.\nThere is no greater humiliation for a man than this...")
PictureDisplay(5,"ev_arachnes_ha10",0,0,0,0,100,100,255,0)
PictureDisplay(6,"ev_arachnes_ct10",0,0,0,0,100,100,255,0)
ShowMessageFace("arachnes_fc2",1,0,2,66)
ShowMessage("\\n<Arachne B>You shot out so much inside my vagina...\nUfufu, I'm pretty satisfied.")
ShowMessageFace("arachnes_fc3",1,0,2,67)
ShowMessage("\\n<Arachne A>Did it feel good to leak it all out...?\nDid you get addicted to mating with spider girls?")
ShowMessageFace("arachnes_fc4",0,0,2,68)
ShowMessage("\\n<Arachne C>I'm going to wring you next, ahaha! ♪")
ShowMessageFace("",0,0,2,69)
ShowMessage("\\n<Luka>Ah, aaaah...")
ShowMessageFace("",0,0,2,70)
ShowMessage("The Arachnes giggle and press against my body...")
221()
PictureClear(5)
PictureClear(6)
246(2)
ShowMessageFace("",0,0,2,71)
ShowMessage("They continue to gang rape me all night long.\nI ejaculated many, many times and when morning came, I was dry...")
ShowMessageFace("",0,0,2,72)
ShowMessage("......")
RunCommonEvent(3998)
0()
