// EVENT 4507
Name "Bandersnatch Girl 2"

If(0,25,1)
 221()
 PictureClear(5)
 PictureClear(6)
 ShowMessageFace("",0,0,2,0)
 ShowMessage("......")
 242(2)
 Wait(120)
 241(bytes(0x04,0x08,0x6f,0x3a,0x0d,0x52,0x50,0x47,0x3a,0x3a,0x42,0x47,0x4d,0x08,0x3a,0x0a,0x40,0x6e,0x61,0x6d,0x65,0x49,0x22,0x0c,0x63,0x61,0x73,0x74,0x6c,0x65,0x36,0x06,0x3a,0x06,0x45,0x54,0x3a,0x0c,0x40,0x76,0x6f,0x6c,0x75,0x6d,0x65,0x69,0x69,0x3a,0x0b,0x40,0x70,0x69,0x74,0x63,0x68,0x69,0x69))
 EndEventProcessing()
 0()
EndIf()
PictureDisplay(5,"80_bander_st01",0,0,0,0,100,100,255,0)
ShowMessageFace("bander_fc1",0,0,2,1)
ShowMessage("\\n<Banachi>You're staring at my breasts...\nDo you want to try using them...?")
ShowMessageFace("",0,0,2,2)
ShowMessage("\\n<Luka>Y-yeah...")
PictureDisplay(5,"80_bander_st02",0,0,0,0,100,100,255,0)
ShowMessageFace("bander_fc1",1,0,2,3)
ShowMessage("\\n<Banachi>Very well...\nI'll squeeze out your semen with my breasts.")
ShowMessageFace("",0,0,2,4)
ShowMessage("Banachi's huge arm grabs hold of me.")
241(bytes(0x04,0x08,0x6f,0x3a,0x0d,0x52,0x50,0x47,0x3a,0x3a,0x42,0x47,0x4d,0x08,0x3a,0x0a,0x40,0x6e,0x61,0x6d,0x65,0x49,0x22,0x09,0x65,0x72,0x6f,0x31,0x06,0x3a,0x06,0x45,0x54,0x3a,0x0c,0x40,0x76,0x6f,0x6c,0x75,0x6d,0x65,0x69,0x69,0x3a,0x0b,0x40,0x70,0x69,0x74,0x63,0x68,0x69,0x69))
245(bytes(0x04,0x08,0x6f,0x3a,0x0d,0x52,0x50,0x47,0x3a,0x3a,0x42,0x47,0x53,0x08,0x3a,0x0a,0x40,0x6e,0x61,0x6d,0x65,0x49,0x22,0x17,0x6d,0x6f,0x6e,0x5f,0x68,0x73,0x65,0x61,0x6e,0x31,0x37,0x5f,0x73,0x69,0x67,0x6f,0x6b,0x69,0x06,0x3a,0x06,0x45,0x54,0x3a,0x0c,0x40,0x76,0x6f,0x6c,0x75,0x6d,0x65,0x69,0x55,0x3a,0x0b,0x40,0x70,0x69,0x74,0x63,0x68,0x69,0x69))
PictureDisplay(5,"ev_bander_hb1",0,0,0,0,100,100,0,0)
PictureMove(5,null,0,0,0,0,100,100,255,0,30,true)
ShowMessageFace("",0,0,2,5)
ShowMessage("She presses me against her body!")
ShowMessage("My penis is buried deep between her breasts!")
ShowMessageFace("",0,0,2,6)
ShowMessage("\\n<Luka>Ah, Ooooh...!")
ShowMessageFace("",0,0,2,7)
ShowMessage("Her warm, soft breasts press against me.")
ShowMessage("A melting sensation fills me from both sides.")
ShowMessageFace("",0,0,2,8)
ShowMessage("\\n<Luka>Nnngh...What... Is this...?")
ShowMessageFace("",0,0,2,9)
ShowMessage("But that isn't the only sensation.")
ShowMessage("Pressed between her breasts, a sweet numbing feeling fills my penis.")
ShowMessageFace("",0,0,2,10)
ShowMessage("\\n<Luka>My strength is fading... It's like my penis is being sucked.\nY-you can't be...!?")
ShowMessageFace("bander_fc1",1,0,2,11)
ShowMessage("\\n<Banachi>Yes, I'm draining your energy.\nEven my breasts can drain energy from captives...")
ShowMessageFace("",0,0,2,12)
ShowMessage("\\n<Luka>D-don't do that... Unnggh...")
ShowMessageFace("",0,0,2,13)
ShowMessage("A sweet sensation fills me as she drains my energy.")
ShowMessage("It feels like I'm slowly melting away in her...")
ShowMessageFace("",0,0,2,14)
ShowMessage("My penis pulses in ecstasy between her huge breasts.")
ShowMessage("Even though my energy is being drained, I can't resist this.")
ShowMessageFace("bander_fc1",1,0,2,15)
ShowMessage("\\n<Banachi>Even prey stops struggling once I drain their energy like this.\nIt looks like you can't even struggle.")
ShowMessageFace("",0,0,2,16)
ShowMessage("\\n<Luka>Nnngh...")
ShowMessageFace("",0,0,2,17)
ShowMessage("The draining sensation feels so good...")
ShowMessage("I feel myself slowly being drowned in pleasure.")
ShowMessageFace("",0,0,2,18)
ShowMessage("My penis begins to tremble between her breasts.")
ShowMessage("I'm going to come as she drains my energy...")
ShowMessageFace("bander_fc1",1,0,2,19)
ShowMessage("\\n<Banachi>Are you going to ejaculate?\nThat's what most men do... Go ahead and release.")
ShowMessageFace("",0,0,2,20)
ShowMessage("\\n<Luka>Unnngh...")
ShowMessageFace("",0,0,2,21)
ShowMessage("I'm surrendering to the pleasure...")
ShowMessage("Giving myself over, I put all my effort into ejaculating.")
ShowMessageFace("",0,0,2,22)
ShowMessage("\\n<Luka>C-coming...! Ahh...")
RunCommonEvent(104)
PictureDisplay(5,"ev_bander_hb2",0,0,0,0,100,100,255,0)
RunCommonEvent(105)
ShowMessageFace("",0,0,2,23)
ShowMessage("My penis pulses between her soft breasts.")
ShowMessage("My semen scatters all over her huge chest, dirtying her.")
ShowMessageFace("",0,0,2,24)
ShowMessage("At the same time, the energy draining fills my body with a sweet weakness.")
ShowMessage("A heavenly ecstasy comes over me until my orgasm is over.")
ShowMessageFace("",0,0,2,25)
ShowMessage("\\n<Luka>Nnngh...")
ShowMessageFace("bander_fc1",1,0,2,26)
ShowMessage("\\n<Banachi>Fufu... I sucked out your energy and semen both.\nYou're an ally, so I won't drain you until your death.")
ShowMessageFace("bander_fc1",1,0,2,27)
ShowMessage("\\n<Banachi>But are you satisfied?\nI can suck a little more, if you'd like?")
ShowMessageFace("",0,0,2,28)
ShowMessage("\\n<Luka>......")
ShowMessageFace("",0,0,2,29)
ShowMessage("Since she's draining my energy, this is dangerous.")
ShowMessage("But the intense pleasure blows away my fear of danger.")
ShowMessageFace("",0,0,2,30)
ShowMessage("\\n<Luka>P-please... More, please...")
ShowMessageFace("",0,0,2,31)
ShowMessage("I feel ashamed at begging for more.")
ShowMessage("But the desire for pleasure is even more pressing than my humiliation.")
ShowMessageFace("bander_fc1",1,0,2,32)
ShowMessage("\\n<Banachi>I see... I'll suck more then.\nDrown yourself in the pleasure of my breasts...")
ShowMessageFace("",0,0,2,33)
ShowMessage("\\n<Luka>Ah... Nnngh...")
ShowMessageFace("",0,0,2,34)
ShowMessage("Her soft breasts press against me from both sides, squeezing my penis between them.")
ShowMessageFace("",0,0,2,35)
ShowMessage("My energy is drained everywhere they touch me.")
ShowMessageFace("",0,0,2,36)
ShowMessage("\\n<Luka>Ah, aaah...")
ShowMessageFace("",0,0,2,37)
ShowMessage("Weakened, I just softly moan as the sweet numbing feeling fills me.")
ShowMessage("I've given my body and mind over to Banachi.")
ShowMessageFace("bander_fc1",1,0,2,38)
ShowMessage("\\n<Banachi>Fufufu, how unsightly...\nGive your precious semen to my breasts.")
ShowMessageFace("",0,0,2,39)
ShowMessage("Banachi moves her breasts up and down, rubbing them against my penis.")
ShowMessage("The desire to release overpowers everything else in me.")
ShowMessageFace("",0,0,2,40)
ShowMessage("\\n<Luka>Ah, aaaaaah!!")
RunCommonEvent(104)
PictureDisplay(5,"ev_bander_hb3",0,0,0,0,100,100,255,0)
RunCommonEvent(105)
ShowMessageFace("",0,0,2,41)
ShowMessage("I come between her breasts right away.")
ShowMessage("My semen overflows, spilling out between them.")
ShowMessageFace("bander_fc1",1,0,2,42)
ShowMessage("\\n<Banachi>I'll suck even more.\nDevote your semen and energy to my breasts...")
ShowMessageFace("",0,0,2,43)
ShowMessage("\\n<Luka>Nnngh...")
ShowMessageFace("",0,0,2,44)
ShowMessage("Weakened in crazed pleasure, everything is draining from me. This is what I desired...")
ShowMessageFace("",0,0,2,45)
ShowMessage("My penis is trembling in joy between her breasts.")
ShowMessage("Rejoicing in the pleasure of a male, my body just orgasms and feels ecstasy.")
ShowMessageFace("",0,0,2,46)
ShowMessage("Having given myself over to pleasure, my mind and body are in Banachi's control.")
ShowMessageFace("bander_fc1",1,0,2,47)
ShowMessage("\\n<Banachi>Not holding back at all?\nGive in to your body, and come all over me...")
ShowMessageFace("",0,0,2,48)
ShowMessage("\\n<Luka>Nnngh... Ah, aaaah...!!")
246(2)
RunCommonEvent(104)
PictureDisplay(5,"ev_bander_hb4",0,0,0,0,100,100,255,0)
RunCommonEvent(105)
ShowMessageFace("",0,0,2,49)
ShowMessage("A huge amount of my semen spills out from her breasts.")
ShowMessage("Too weak after my orgasms, I faint.")
ShowMessageFace("bander_fc1",1,0,2,50)
ShowMessage("\\n<Banachi>Any more than this, and you'll die...\nI'm sorry, but we have to stop here today.")
ShowMessageFace("bander_fc1",1,0,2,51)
ShowMessage("\\n<Banachi>Kukuku... Unless you want to give your soul to me?\nIf you do, just let me know...")
ShowMessageFace("",0,0,2,52)
ShowMessage("Banachi laughs as she releases my limp body.")
221()
PictureClear(5)
PictureClear(6)
ShowMessageFace("",0,0,2,53)
ShowMessage("......")
242(2)
Wait(120)
241(bytes(0x04,0x08,0x6f,0x3a,0x0d,0x52,0x50,0x47,0x3a,0x3a,0x42,0x47,0x4d,0x08,0x3a,0x0a,0x40,0x6e,0x61,0x6d,0x65,0x49,0x22,0x0c,0x63,0x61,0x73,0x74,0x6c,0x65,0x36,0x06,0x3a,0x06,0x45,0x54,0x3a,0x0c,0x40,0x76,0x6f,0x6c,0x75,0x6d,0x65,0x69,0x69,0x3a,0x0b,0x40,0x70,0x69,0x74,0x63,0x68,0x69,0x69))
0()
