// EVENT 4272
Name "Dark Elf Mage 2"

If(0,25,1)
 221()
 PictureClear(5)
 PictureClear(6)
 ShowMessageFace("",0,0,2,0)
 ShowMessage("......")
 242(2)
 Wait(120)
 241(bytes(0x04,0x08,0x6f,0x3a,0x0d,0x52,0x50,0x47,0x3a,0x3a,0x42,0x47,0x4d,0x08,0x3a,0x0a,0x40,0x6e,0x61,0x6d,0x65,0x49,0x22,0x0c,0x63,0x61,0x73,0x74,0x6c,0x65,0x36,0x06,0x3a,0x06,0x45,0x54,0x3a,0x0c,0x40,0x76,0x6f,0x6c,0x75,0x6d,0x65,0x69,0x69,0x3a,0x0b,0x40,0x70,0x69,0x74,0x63,0x68,0x69,0x69))
 EndEventProcessing()
 0()
EndIf()
PictureDisplay(5,"80_delh_b_st02",0,0,0,0,100,100,255,0)
ShowMessageFace("delh_b_fc1",1,0,2,1)
ShowMessage("\\n<Marion>You want to feel pleasure with my tentacles...?")
ShowMessageFace("",0,0,2,2)
ShowMessage("\\n<Luka>Y...Yes... Please...")
ShowMessageFace("delh_b_fc1",1,0,2,3)
ShowMessage("\\n<Marion>Fufu, very well...\nI'll make you feel good...")
ShowMessageFace("",0,0,2,4)
ShowMessage("I follow Marion to her room...")
221()
PictureDisplay(1,"bg195",0,0,0,0,100,100,255,0)
PictureDisplay(5,"ev_delh_b_h1",0,0,0,0,100,100,255,0)
222()
241(bytes(0x04,0x08,0x6f,0x3a,0x0d,0x52,0x50,0x47,0x3a,0x3a,0x42,0x47,0x4d,0x08,0x3a,0x0a,0x40,0x6e,0x61,0x6d,0x65,0x49,0x22,0x09,0x65,0x72,0x6f,0x31,0x06,0x3a,0x06,0x45,0x54,0x3a,0x0c,0x40,0x76,0x6f,0x6c,0x75,0x6d,0x65,0x69,0x69,0x3a,0x0b,0x40,0x70,0x69,0x74,0x63,0x68,0x69,0x69))
250(bytes(0x04,0x08,0x6f,0x3a,0x0c,0x52,0x50,0x47,0x3a,0x3a,0x53,0x45,0x08,0x3a,0x0a,0x40,0x6e,0x61,0x6d,0x65,0x49,0x22,0x16,0x6d,0x6f,0x6e,0x5f,0x65,0x72,0x6f,0x5f,0x6d,0x61,0x6b,0x69,0x74,0x75,0x6b,0x69,0x32,0x06,0x3a,0x06,0x45,0x54,0x3a,0x0b,0x40,0x70,0x69,0x74,0x63,0x68,0x69,0x69,0x3a,0x0c,0x40,0x76,0x6f,0x6c,0x75,0x6d,0x65,0x69,0x69))
PictureDisplay(5,"ev_delh_b_h1",0,0,0,0,100,100,255,0)
ShowMessageFace("",0,0,2,5)
ShowMessage("\\n<Luka>Urhhg...")
ShowMessageFace("",0,0,2,6)
ShowMessage("As soon as I enter her room, Marion's tentacles bind me.")
ShowMessage("All of my clothing is stripped off, and I'm left helpless.")
ShowMessageFace("delh_b_fc1",1,0,2,7)
ShowMessage("\\n<Marion>Now I'll be able to really suck out all of your energy.\nRejoice, for I'll bring you ecstasy until your death.")
ShowMessageFace("",0,0,2,8)
ShowMessage("\\n<Luka>D-Death? That's not...")
ShowMessageFace("delh_b_fc1",1,0,2,9)
ShowMessage("\\n<Marion>Yes, you'll die...\nBut isn't that the kind of dangerous pleasure you wanted to feel?")
ShowMessageFace("",0,0,2,10)
ShowMessage("\\n<Luka>N...no way... Aaah!")
ShowMessageFace("",0,0,2,11)
ShowMessage("The tentacle wraps all around me with its mucus covered membrane, rubbing me all over.")
PictureDisplay(5,"ev_delh_b_h2",0,0,0,0,100,100,255,0)
ShowMessageFace("delh_b_fc1",1,0,2,12)
ShowMessage("\\n<Marion>I'll cover your penis with this tentacle...")
ShowMessageFace("delh_b_fc1",1,0,2,13)
ShowMessage("\\n<Marion>With it's slimy, sticky surface,\nI'll force you to ejaculate over and over again.")
ShowMessageFace("delh_b_fc1",1,0,2,14)
ShowMessage("\\n<Marion>They'll keep sucking no matter how much you come.")
ShowMessageFace("delh_b_fc1",1,0,2,15)
ShowMessage("\\n<Marion>It will feel absolutely amazing...")
ShowMessageFace("",0,0,2,16)
ShowMessage("\\n<Luka>Ahhh!\nS...Stop...")
ShowMessageFace("",0,0,2,17)
ShowMessage("Wrapped in the tentacles, each one wriggles around me, covering me with its slimy mucus.")
ShowMessage("Trembling with disgust, a slight expectation rises through me.")
ShowMessageFace("",0,0,2,18)
ShowMessage("If that slimy thing was to wrap around my dick... what would it feel like?")
ShowMessageFace("",0,0,2,19)
ShowMessage("\\n<Luka>N... No... Stop...")
ShowMessageFace("delh_b_fc1",1,0,2,20)
ShowMessage("\\n<Marion>Well... Shall I start?")
245(bytes(0x04,0x08,0x6f,0x3a,0x0d,0x52,0x50,0x47,0x3a,0x3a,0x42,0x47,0x53,0x08,0x3a,0x0a,0x40,0x6e,0x61,0x6d,0x65,0x49,0x22,0x1a,0x6d,0x6f,0x6e,0x5f,0x68,0x73,0x65,0x61,0x6e,0x32,0x31,0x5f,0x74,0x65,0x6e,0x74,0x61,0x63,0x6c,0x65,0x32,0x06,0x3a,0x06,0x45,0x54,0x3a,0x0c,0x40,0x76,0x6f,0x6c,0x75,0x6d,0x65,0x69,0x55,0x3a,0x0b,0x40,0x70,0x69,0x74,0x63,0x68,0x69,0x69))
PictureDisplay(5,"ev_delh_b_h3",0,0,0,0,100,100,255,0)
ShowMessageFace("",0,0,2,21)
ShowMessage("The slimy tentacles cover my stomach, as my dick is sucked into one of the tentacle's slimy interior.")
ShowMessageFace("",0,0,2,22)
ShowMessage("\\n<Luka>Haaa!")
ShowMessageFace("",0,0,2,23)
ShowMessage("Inside the soft interior, I can feel the sticky mucus cover me.")
ShowMessage("Each time I rub against its walls, I feel more of my strength being drained.")
ShowMessageFace("delh_b_fc1",1,0,2,24)
ShowMessage("\\n<Marion>Fufu... It's incredible isn't it?\nEvery time it gives pleasure, it sucks out your energy...")
ShowMessageFace("",0,0,2,25)
ShowMessage("\\n<Luka>Aaaaa!")
ShowMessageFace("",0,0,2,26)
ShowMessage("The tentacle starts to slowly vibrate, stimulating me further.")
ShowMessageFace("",0,0,2,27)
ShowMessage("Stuck in the tentacles wavy interior, it's as if it was licking me all over.")
ShowMessageFace("",0,0,2,28)
ShowMessage("\\n<Luka>Auu... Stop this...")
ShowMessageFace("",0,0,2,29)
ShowMessage("I can feel the ejaculation rising up through me.")
ShowMessage("Different from before, it feels like a numbness is starting to spread through my body.")
ShowMessageFace("delh_b_fc1",1,0,2,30)
ShowMessage("\\n<Marion>Fufu... So you're already letting it out.\nThe tentacle's only purpose is to suck everything out, so don't hold back.")
ShowMessageFace("delh_b_fc1",1,0,2,31)
ShowMessage("\\n<Marion>Surrender to the pleasure, and let it all out.")
ShowMessageFace("",0,0,2,32)
ShowMessage("\\n<Luka>Haaa....")
ShowMessageFace("",0,0,2,33)
ShowMessage("I can't take it anymore.")
ShowMessage("My dick is being stimulated by this tentacle, and I can't do anything to stop it...")
ShowMessageFace("delh_b_fc1",1,0,2,34)
ShowMessage("\\n<Marion>Now... Let it suck everything away...")
ShowMessageFace("",0,0,2,35)
ShowMessage("\\n<Luka>Aaaahhh!")
ShowMessageFace("",0,0,2,36)
ShowMessage("The tentacle's insides start to slowly move in a waving formation, as if trying to milk everything out of me!")
RunCommonEvent(104)
PictureDisplay(5,"ev_delh_b_h4",0,0,0,0,100,100,255,0)
RunCommonEvent(105)
ShowMessageFace("",0,0,2,37)
ShowMessage("Wrapped by her tentacles, I explode inside of it.")
ShowMessage("Everything I shoot out is sucked in by the tentacle on me...")
ShowMessageFace("",0,0,2,38)
ShowMessage("\\n<Luka>Hau... Stop it now...")
ShowMessageFace("delh_b_fc1",1,0,2,39)
ShowMessage("\\n<Marion>Fufu... Not a chance.")
245(bytes(0x04,0x08,0x6f,0x3a,0x0d,0x52,0x50,0x47,0x3a,0x3a,0x42,0x47,0x53,0x08,0x3a,0x0a,0x40,0x6e,0x61,0x6d,0x65,0x49,0x22,0x1a,0x6d,0x6f,0x6e,0x5f,0x68,0x73,0x65,0x61,0x6e,0x32,0x32,0x5f,0x74,0x65,0x6e,0x74,0x61,0x63,0x6c,0x65,0x33,0x06,0x3a,0x06,0x45,0x54,0x3a,0x0c,0x40,0x76,0x6f,0x6c,0x75,0x6d,0x65,0x69,0x55,0x3a,0x0b,0x40,0x70,0x69,0x74,0x63,0x68,0x69,0x69))
ShowMessageFace("",0,0,2,40)
ShowMessage("As soon as the tentacle absorbed the last of the semen, it starts to stimulate me again.")
ShowMessageFace("",0,0,2,41)
ShowMessage("The inner walls continue to push against me as if licking, while moving in a wave.")
ShowMessageFace("delh_b_fc1",1,0,2,42)
ShowMessage("\\n<Marion>I said I would suck everything up...\nThis will continue until nothing is left of you...")
ShowMessageFace("delh_b_fc1",1,0,2,43)
ShowMessage("\\n<Marion>Sucking up your very life with this tentacle...")
ShowMessageFace("delh_b_fc1",1,0,2,44)
ShowMessage("\\n<Marion>Are you happy? Hahaha.")
ShowMessageFace("",0,0,2,45)
ShowMessage("\\n<Luka>How could I...")
ShowMessageFace("",0,0,2,46)
ShowMessage("I focus all of my willpower on my waist to stop the orgasm.")
ShowMessage("But the tentacle continues its milking movement, slowly breaking my endurance.")
ShowMessageFace("",0,0,2,47)
ShowMessage("The desire for release slowly bubbles up through me...")
ShowMessage("Even though I just came, I'm already on the edge of another.")
ShowMessageFace("delh_b_fc1",1,0,2,48)
ShowMessage("\\n<Marion>It isn't possible to resist.\nCaught by me, there's no escape but to be sucked until death...")
ShowMessageFace("",0,0,2,49)
ShowMessage("\\n<Luka>No...!")
ShowMessageFace("",0,0,2,50)
ShowMessage("No matter how hard I struggle, I can't break this tentacle off of me.")
ShowMessage("Driven to the limit, I can't endure any longer.")
ShowMessageFace("",0,0,2,51)
ShowMessage("\\n<Luka>Faa! Ahhhh!")
RunCommonEvent(104)
RunCommonEvent(105)
ShowMessageFace("",0,0,2,52)
ShowMessage("Forced to ejaculate again, the tentacle sucks up everything I shoot out.")
ShowMessage("All the power I had left to escape fades away.")
ShowMessageFace("",0,0,2,53)
ShowMessage("Being squeezed by the tentacle... I feel so good...")
ShowMessageFace("",0,0,2,54)
ShowMessage("\\n<Luka>Faa... My strength is gone...")
ShowMessageFace("delh_b_fc1",1,0,2,55)
ShowMessage("\\n<Marion>Haha... Stay entranced in ecstasy like that.\nIf you do so, you can feel even better.")
ShowMessageFace("",0,0,2,56)
ShowMessage("The Dark Elf laughs at me as the tentacle continues to milk me.")
ShowMessageFace("",0,0,2,57)
ShowMessage("Without mercy, the slimy tentacle continues to suck everything out of me.")
ShowMessageFace("",0,0,2,58)
ShowMessage("\\n<Luka>Aaa! Coming...again...!")
RunCommonEvent(104)
PictureDisplay(5,"ev_delh_b_h5",0,0,0,0,100,100,255,0)
RunCommonEvent(105)
ShowMessageFace("",0,0,2,59)
ShowMessage("The tentacle sucks everything as I shoot it.")
ShowMessageFace("",0,0,2,60)
ShowMessage("Not just my penis, but my entire body is exhausted and brought to the limit.")
ShowMessageFace("",0,0,2,61)
ShowMessage("\\n<Luka>Ahii! Stop it!\nIt's too good...!")
ShowMessageFace("delh_b_fc1",1,0,2,62)
ShowMessage("\\n<Marion>I've almost sucked everything up...\nJust a little more...")
ShowMessageFace("",0,0,2,63)
ShowMessage("\\n<Luka>Haa! Ahhh!")
ShowMessageFace("",0,0,2,64)
ShowMessage("The tentacle quickly contracts around me, forcing another orgasm.")
RunCommonEvent(104)
RunCommonEvent(105)
ShowMessageFace("",0,0,2,66)
ShowMessage("\\n<Luka>Auuu... Stop it... please...")
ShowMessageFace("",0,0,2,67)
ShowMessage("Forced to ejaculate over and over, the tentacle never stops.")
ShowMessageFace("",0,0,2,68)
ShowMessage("At this rate, I really will be sucked to death...")
ShowMessageFace("",0,0,2,69)
ShowMessage("\\n<Luka>Someone... Help... Stop...")
ShowMessageFace("delh_b_fc1",1,0,2,70)
ShowMessage("\\n<Marion>No.\nI said I wasn't going to stop until I sucked everything out.")
ShowMessageFace("delh_b_fc1",1,0,2,71)
ShowMessage("\\n<Marion>Until you die, this will continue.")
ShowMessageFace("",0,0,2,72)
ShowMessage("\\n<Luka>No... Stop... Ahhh!")
RunCommonEvent(104)
RunCommonEvent(105)
ShowMessageFace("",0,0,2,73)
ShowMessage("Continually forced to ejaculate, my vision starts to fade.")
ShowMessage("The tentacle never stops stimulating me, even as I slowly lose consciousness.")
ShowMessageFace("delh_b_fc1",1,0,2,74)
ShowMessage("\\n<Marion>You can come some more, can't you?\nPut everything out... Hahaha.")
ShowMessageFace("",0,0,2,75)
ShowMessage("\\n<Luka>Aaa....")
RunCommonEvent(104)
RunCommonEvent(105)
ShowMessageFace("",0,0,2,76)
ShowMessage("My life itself is being squeezed out of my penis...")
ShowMessage("Each ejaculation brings me closer to the end...")
221()
PictureClear(5)
246(2)
ShowMessageFace("delh_b_fc1",1,0,2,78)
ShowMessage("\\n<Marion>Fufu, I was joking when I said to the death.\nThere's no way I could do something so terrible to an ally.")
ShowMessageFace("",0,0,2,79)
ShowMessage("\\n<Luka>.............")
ShowMessageFace("",0,0,2,80)
ShowMessage("My consciousness is about to fade, but it seems like I won't actually die...")
ShowMessage("She stopped right before it was too late.")
ShowMessageFace("delh_b_fc1",1,0,2,81)
ShowMessage("\\n<Marion>Did you enjoy that kind of pleasure?\nIf you wish, I could keep going until you truly die...?")
ShowMessageFace("",0,0,2,82)
ShowMessage("\\n<Luka>.............")
ShowMessageFace("",0,0,2,83)
ShowMessage("Unsure if she's still joking or not...")
ShowMessage("I lose consciousness.")
ShowMessageFace("",0,0,2,84)
ShowMessage(".............")
242(2)
Wait(120)
241(bytes(0x04,0x08,0x6f,0x3a,0x0d,0x52,0x50,0x47,0x3a,0x3a,0x42,0x47,0x4d,0x08,0x3a,0x0a,0x40,0x6e,0x61,0x6d,0x65,0x49,0x22,0x0c,0x63,0x61,0x73,0x74,0x6c,0x65,0x36,0x06,0x3a,0x06,0x45,0x54,0x3a,0x0c,0x40,0x76,0x6f,0x6c,0x75,0x6d,0x65,0x69,0x69,0x3a,0x0b,0x40,0x70,0x69,0x74,0x63,0x68,0x69,0x69))
0()
