// EVENT 2018
Name "Seduction: Sheep Girl"

If(0,25,1)
 EndEventProcessing()
 0()
EndIf()
355("$game_troop.lose_event_id = 3018")
ChangeVariable(26,26,0,3,3,1,4)
ChangeVariable(26,26,4,0,10)
ShowMessageFace("hituzi_fc1",0,0,2,1)
ShowMessage("\\n<Sheep Girl>It looks like I'm gonna lose...\nCan't help it then, you can rape me.")
ShowMessageFace("",0,0,2,2)
ShowMessage("Sheep Girl looks resigned...")
ChangeSwitch(98,98,0)
ChangeSwitch(96,96,0)
ShowChoices(strings("Ignore her","RAPE"),1)
IfPlayerPicksChoice(0,"Ignore her")
 ShowMessageFace("",0,0,2,3)
 ShowMessage("Luka resists her temptation!")
 RunCommonEvent(1999)
 EndEventProcessing()
 0()
IfPlayerPicksChoice(1,"レイプする")
 0()
404()
ShowMessageFace("",0,0,2,4)
ShowMessage("While Luka's tempted, he drops his pants down!")
ShowMessage("Sheep Girl is pushing his penis against her vaginal opening!")
ShowMessageFace("hituzi_fc1",2,0,2,5)
ShowMessage("\\n<Sheep Girl>It's time for penetration.\nThat's also the loser's fate...")
ChangeVariable(26,26,3,0,4)
250(bytes(0x04,0x08,0x6f,0x3a,0x0c,0x52,0x50,0x47,0x3a,0x3a,0x53,0x45,0x08,0x3a,0x0a,0x40,0x6e,0x61,0x6d,0x65,0x49,0x22,0x11,0x6d,0x6f,0x6e,0x5f,0x65,0x72,0x6f,0x5f,0x70,0x79,0x75,0x32,0x06,0x3a,0x06,0x45,0x54,0x3a,0x0b,0x40,0x70,0x69,0x74,0x63,0x68,0x69,0x69,0x3a,0x0c,0x40,0x76,0x6f,0x6c,0x75,0x6d,0x65,0x69,0x69))
311(0,1,1,1,26,true)
ShowMessageFace("",0,0,2,6)
ShowMessage("Luka thrusts his hips forward, getting his penis inside Sheep Girl's vagina!")
ShowMessage("The soft vagina tighten on Luka's penis!\\D")
ShowMessage("Luka takes \\V[26] damage!")
ChangeVariable(27,27,0,3,3,1,2)
If(1,27,0,0,0)
 JumpToLabel("射精1")
 0()
EndIf()
ShowMessageFace("",0,0,2,7)
ShowMessage("\\n<Luka>What's up with that!?\nIt's hot and really tight!")
ShowMessageFace("hituzi_fc1",1,0,2,8)
ShowMessage("\\n<Sheep Girl>Don't judge me on my appearances.\nI'm a fantastic piece of flesh...")
ShowChoices(strings("Pull out","Continue"),2)
IfPlayerPicksChoice(0,"肉棒を引き抜く")
 ShowMessageFace("",0,0,2,9)
 ShowMessage("Luka tried to pull out!")
 ShowMessage("However the Sheep Girl's vagina holds his penis tightly!")
 ShowMessageFace("hituzi_fc1",1,0,2,10)
 ShowMessage("\\n<Sheep Girl>I won't let you escape...\nI'll keep raping you and make you cum!")
 0()
IfPlayerPicksChoice(1,"なすがまま")
 ShowMessageFace("",0,0,2,11)
 ShowMessage("Luka continues raping her.")
 ShowMessageFace("hituzi_fc1",1,0,2,12)
 ShowMessage("\\n<Sheep Girl>You don't resist it?\nThen, I'll make you come inside me!")
 0()
404()
250(bytes(0x04,0x08,0x6f,0x3a,0x0c,0x52,0x50,0x47,0x3a,0x3a,0x53,0x45,0x08,0x3a,0x0a,0x40,0x6e,0x61,0x6d,0x65,0x49,0x22,0x13,0x6d,0x6f,0x6e,0x5f,0x65,0x72,0x6f,0x5f,0x63,0x68,0x75,0x70,0x61,0x34,0x06,0x3a,0x06,0x45,0x54,0x3a,0x0b,0x40,0x70,0x69,0x74,0x63,0x68,0x69,0x69,0x3a,0x0c,0x40,0x76,0x6f,0x6c,0x75,0x6d,0x65,0x69,0x69))
311(0,1,1,1,26,true)
ShowMessageFace("",0,0,2,13)
ShowMessage("Sheep Girl's vagina flesh ondulates and tighten on Luka's penis!")
ShowMessage("A squeezing stimulation goes through the tip of his penis to the base!\\D")
ShowMessage("Luka takes \\V[26] damage!")
ChangeVariable(27,27,0,3,3,1,2)
If(1,27,0,0,0)
 JumpToLabel("射精2")
 0()
EndIf()
ShowMessageFace("",0,0,2,14)
ShowMessage("\\n<Luka>Huaaa...\nI can't resist this...")
ShowChoices(strings("Pull out","Continue"),2)
IfPlayerPicksChoice(0,"肉棒を引き抜く")
 ShowMessageFace("",0,0,2,15)
 ShowMessage("Luka tried to pull out!")
 ShowMessage("However his hips are dulled from the pleasure...")
 ShowMessageFace("hituzi_fc1",1,0,2,16)
 ShowMessage("\\n<Sheep Girl>It feels so good you can't move your hips...\nThen, I'll finish it with one stroke.")
 0()
IfPlayerPicksChoice(1,"なすがまま")
 ShowMessageFace("",0,0,2,17)
 ShowMessage("Luka wants to get milked dry.")
 ShowMessageFace("hituzi_fc1",1,0,2,18)
 ShowMessage("\\n<Sheep Girl>Looks like you gave up...\nIf that's the case, I'll give you the finishing blow in one tightening.")
 0()
404()
250(bytes(0x04,0x08,0x6f,0x3a,0x0c,0x52,0x50,0x47,0x3a,0x3a,0x53,0x45,0x08,0x3a,0x0a,0x40,0x6e,0x61,0x6d,0x65,0x49,0x22,0x13,0x6d,0x6f,0x6e,0x5f,0x65,0x72,0x6f,0x5f,0x63,0x68,0x75,0x70,0x61,0x34,0x06,0x3a,0x06,0x45,0x54,0x3a,0x0b,0x40,0x70,0x69,0x74,0x63,0x68,0x69,0x69,0x3a,0x0c,0x40,0x76,0x6f,0x6c,0x75,0x6d,0x65,0x69,0x69))
311(0,1,1,1,26,true)
ShowMessageFace("",0,0,2,19)
ShowMessage("Sheep Girl's vagina contracts, and pressures on Luka's penis!")
ShowMessage("Her soft flesh squeezes on Luka's glans!\\D")
ShowMessage("Luka takes \\V[26] damage!")
ChangeVariable(27,27,0,3,3,1,2)
If(1,27,0,0,0)
 JumpToLabel("射精2")
 0()
EndIf()
DefineLabel("射精1")
ShowMessageFace("",0,0,2,20)
ShowMessage("\\n<Luka>Aah...! It's so good!\nHuaaa...")
RunCommonEvent(104)
RunCommonEvent(105)
ShowMessageFace("",0,0,2,21)
ShowMessage("Luka came immediately after putting it inside...")
ShowMessageFace("hituzi_fc1",3,0,2,22)
ShowMessage("\\n<Sheep Girl>Enemy hero, defeated!\nWith this, confusion and frustration spreads in the party! Now...")
RunCommonEvent(2000)
EndEventProcessing()
DefineLabel("射精2")
ShowMessageFace("",0,0,2,23)
ShowMessage("\\n<Luka>It's so intense inside...\nAh, I'm coming... Aaaah...!")
RunCommonEvent(104)
RunCommonEvent(105)
ShowMessageFace("",0,0,2,24)
ShowMessage("Luka finally orgasms in the nicely tight Sheep Girl vagina...")
ShowMessageFace("hituzi_fc1",3,0,2,25)
ShowMessage("\\n<Sheep Girl>Enemy hero, defeated!\nWith this, confusion and frustration spreads in the party! Now...")
RunCommonEvent(2000)
EndEventProcessing()
0()
