﻿// EVENT 2060
Name "Seduction: Jellyfish Girl"

If(0,25,1)
 EndEventProcessing()
 0()
EndIf()
355("$game_troop.lose_event_id = 3060")
ChangeVariable(26,26,0,3,3,1,4)
ChangeVariable(26,26,4,0,10)
ShowMessageFace("kurage_fc1",0,0,2,1)
ShowMessage("\\n<Jellyfish Girl>Why are you resisting...?\nWouldn't it be more comfortable to let me eat you...?")
ShowMessageFace("kurage_fc1",0,0,2,2)
ShowMessage("\\n<Jellyfish Girl>Everyone gushes out semen as they melt inside me...\nYou shall too...")
ShowMessageFace("",0,0,2,3)
ShowMessage("Innumerable tentacles begin to swarm around Luka's body!")
ShowMessageFace("kurage_fc1",1,0,2,4)
ShowMessage("\\n<Jellyfish Girl>Like this, I will draw you into my umbrella...\nWhile being played with, I shall eat you...")
ShowMessageFace("kurage_fc1",0,0,2,5)
ShowMessage("\\n<Jellyfish Girl>You don't need to be afraid, it will feel so good...")
ChangeSwitch(98,98,0)
ChangeSwitch(96,96,0)
ShowChoices(strings("Struggle","Let her continue"),1)
IfPlayerPicksChoice(0,"Struggle")
 ShowMessageFace("",0,0,2,6)
 ShowMessage("Luka struggles violently, and escapes from the Jellyfish Girl's tentacles!")
 RunCommonEvent(1999)
 EndEventProcessing()
 0()
IfPlayerPicksChoice(1,"Let her continue")
 0()
404()
ShowMessageFace("",0,0,2,7)
ShowMessage("Luka does not resist, and lets her continue...")
ShowMessageFace("kurage_fc1",1,0,2,8)
ShowMessage("\\n<Jellyfish Girl>Then, I shall eat you...")
ChangeVariable(26,26,3,0,2)
250(bytes(0x04,0x08,0x6f,0x3a,0x0c,0x52,0x50,0x47,0x3a,0x3a,0x53,0x45,0x08,0x3a,0x0a,0x40,0x6e,0x61,0x6d,0x65,0x49,0x22,0x12,0x6d,0x6f,0x6e,0x5f,0x65,0x72,0x6f,0x5f,0x6e,0x61,0x6d,0x65,0x32,0x06,0x3a,0x06,0x45,0x54,0x3a,0x0b,0x40,0x70,0x69,0x74,0x63,0x68,0x69,0x69,0x3a,0x0c,0x40,0x76,0x6f,0x6c,0x75,0x6d,0x65,0x69,0x69))
PictureDisplay(6,"ev_kurage_ct01",0,0,0,0,100,100,255,0)
311(0,1,1,1,26,true)
ShowMessageFace("",0,0,2,9)
ShowMessage("Luka gets drawn inside of the Jellyfish Girl's umbrella by her tentacles! The tentacles crowding inside her umbrella cling to his whole body!\\D")
ShowMessage("Luka takes \\V[26] damage!")
ChangeVariable(27,27,0,3,3,1,2)
If(1,27,0,0,0)
 JumpToLabel("射精1")
 0()
EndIf()
ShowMessageFace("",0,0,2,10)
ShowMessage("\\n<Luka>Auuuuuu!")
ShowMessageFace("kurage_fc1",1,0,2,11)
ShowMessage("\\n<Jellyfish Girl>First, I will squeeze out your semen...and weaken you...")
250(bytes(0x04,0x08,0x6f,0x3a,0x0c,0x52,0x50,0x47,0x3a,0x3a,0x53,0x45,0x08,0x3a,0x0a,0x40,0x6e,0x61,0x6d,0x65,0x49,0x22,0x12,0x6d,0x6f,0x6e,0x5f,0x65,0x72,0x6f,0x5f,0x6e,0x61,0x6d,0x65,0x32,0x06,0x3a,0x06,0x45,0x54,0x3a,0x0b,0x40,0x70,0x69,0x74,0x63,0x68,0x69,0x69,0x3a,0x0c,0x40,0x76,0x6f,0x6c,0x75,0x6d,0x65,0x69,0x69))
311(0,1,1,1,26,true)
ShowMessageFace("",0,0,2,12)
ShowMessage("Inside the Jellyfish Girl's umbrella, the tentacles play with Luka's body!\\D")
ShowMessage("Luka takes \\V[26] damage!")
ChangeVariable(27,27,0,3,3,1,2)
If(1,27,0,0,0)
 JumpToLabel("射精1")
 0()
EndIf()
ShowMessageFace("",0,0,2,13)
ShowMessage("\\n<Luka>Aaaaaaah...!!")
ShowMessageFace("",0,0,2,14)
ShowMessage("My body writhes within her translucent umbrella.")
ShowMessageFace("",0,0,2,15)
ShowMessage("The tentacles undulating inside of her umbrella are squishy and full of elasticity. Her soft tentacles wrap around my dick from all sides.")
ShowMessageFace("",0,0,2,16)
ShowMessage("From many directions, my dick is stimulated by her tentacles with varying degrees of intensity. A peculiar sensation of elasticity pushes against me from the glans to the base--")
ShowMessageFace("",0,0,2,17)
ShowMessage("\\n<Luka>Faaa... It feels good...")
ShowMessageFace("kurage_fc1",1,0,2,18)
ShowMessage("\\n<Jellyfish Girl>Within this umbrella, you will be squeezed...")
250(bytes(0x04,0x08,0x6f,0x3a,0x0c,0x52,0x50,0x47,0x3a,0x3a,0x53,0x45,0x08,0x3a,0x0a,0x40,0x6e,0x61,0x6d,0x65,0x49,0x22,0x12,0x6d,0x6f,0x6e,0x5f,0x65,0x72,0x6f,0x5f,0x6e,0x61,0x6d,0x65,0x32,0x06,0x3a,0x06,0x45,0x54,0x3a,0x0b,0x40,0x70,0x69,0x74,0x63,0x68,0x69,0x69,0x3a,0x0c,0x40,0x76,0x6f,0x6c,0x75,0x6d,0x65,0x69,0x69))
311(0,1,1,1,26,true)
ShowMessageFace("",0,0,2,19)
ShowMessage("The inside of her umbrella contracts!\\D")
ShowMessage("Luka takes \\V[26] damage!")
ChangeVariable(27,27,0,3,3,1,2)
If(1,27,0,0,0)
 JumpToLabel("射精1")
 0()
EndIf()
ShowMessageFace("kurage_fc1",1,0,2,20)
ShowMessage("\\n<Jellyfish Girl>Hora hora... Hurry up...")
250(bytes(0x04,0x08,0x6f,0x3a,0x0c,0x52,0x50,0x47,0x3a,0x3a,0x53,0x45,0x08,0x3a,0x0a,0x40,0x6e,0x61,0x6d,0x65,0x49,0x22,0x12,0x6d,0x6f,0x6e,0x5f,0x65,0x72,0x6f,0x5f,0x6e,0x61,0x6d,0x65,0x32,0x06,0x3a,0x06,0x45,0x54,0x3a,0x0b,0x40,0x70,0x69,0x74,0x63,0x68,0x69,0x69,0x3a,0x0c,0x40,0x76,0x6f,0x6c,0x75,0x6d,0x65,0x69,0x69))
311(0,1,1,1,26,true)
ShowMessageFace("",0,0,2,21)
ShowMessage("The inside of her umbrella wriggles, conveying a strange pleasure throughout Luka's body!\\D")
ShowMessage("Luka takes \\V[26] damage!")
ChangeVariable(27,27,0,3,3,1,2)
If(1,27,0,0,0)
 JumpToLabel("射精1")
 0()
EndIf()
ShowMessageFace("kurage_fc1",1,0,2,22)
ShowMessage("\\n<Jellyfish Girl>You're about to come soon...\nFill me with white...")
250(bytes(0x04,0x08,0x6f,0x3a,0x0c,0x52,0x50,0x47,0x3a,0x3a,0x53,0x45,0x08,0x3a,0x0a,0x40,0x6e,0x61,0x6d,0x65,0x49,0x22,0x12,0x6d,0x6f,0x6e,0x5f,0x65,0x72,0x6f,0x5f,0x6e,0x61,0x6d,0x65,0x32,0x06,0x3a,0x06,0x45,0x54,0x3a,0x0b,0x40,0x70,0x69,0x74,0x63,0x68,0x69,0x69,0x3a,0x0c,0x40,0x76,0x6f,0x6c,0x75,0x6d,0x65,0x69,0x69))
311(0,1,1,1,26,true)
ShowMessageFace("",0,0,2,23)
ShowMessage("The countless squirming tentacles inside her umbrella play with Luka's entire body!\\D")
ShowMessage("Luka takes \\V[26] damage!")
ChangeVariable(27,27,0,3,3,1,2)
If(1,27,0,0,0)
 JumpToLabel("射精1")
 0()
EndIf()
DefineLabel("射精1")
ShowMessageFace("",0,0,2,24)
ShowMessage("\\n<Luka>Faaaa... Too good...")
RunCommonEvent(104)
PictureDisplay(6,"ev_kurage_ct02",0,0,0,0,100,100,255,0)
RunCommonEvent(105)
ShowMessageFace("",0,0,2,25)
ShowMessage("Squeezed inside of her umbrella, I miserably ejaculated. The ejaculation inside her contracting umbrella felt so good, I was left exhausted.")
ShowMessageFace("kurage_fc1",1,0,2,26)
ShowMessage("\\n<Jellyfish Girl>Was that comfortable...?\nBut you still have much more to squeeze...")
RunCommonEvent(2000)
EndEventProcessing()
0()
