// EVENT 2042
Name "Seduction: Mini Crab Girl"

If(0,25,1)
 EndEventProcessing()
 0()
EndIf()
355("$game_troop.lose_event_id = 3042")
ChangeVariable(26,26,0,3,3,1,4)
ChangeVariable(26,26,4,0,10)
ShowMessageFace("minikani_fc1",2,0,2,1)
ShowMessage("\\n<Mini Crab Girl>I'll lose at this rate!\nI don't want that!")
ShowMessageFace("minikani_fc1",2,0,2,2)
ShowMessage("\\n<Mini Crab Girl>I'll wash your penis for a bit, so please forgive me.\n...Please?")
ChangeSwitch(98,98,0)
ChangeSwitch(96,96,0)
ShowChoices(strings("Ignore her","Give in to temptation"),1)
IfPlayerPicksChoice(0,"Ignore her")
 ShowMessageFace("",0,0,2,3)
 ShowMessage("Luka resists her temptation!")
 RunCommonEvent(1999)
 EndEventProcessing()
 0()
IfPlayerPicksChoice(1,"誘惑に乗る")
 0()
404()
ShowMessageFace("minikani_fc1",1,0,2,4)
ShowMessage("\\n<Mini Crab Girl>Ehehe... Ok, I'll wash it nice and clean♪")
ChangeVariable(26,26,3,0,2)
250(bytes(0x04,0x08,0x6f,0x3a,0x0c,0x52,0x50,0x47,0x3a,0x3a,0x53,0x45,0x08,0x3a,0x0a,0x40,0x6e,0x61,0x6d,0x65,0x49,0x22,0x12,0x6d,0x6f,0x6e,0x5f,0x65,0x72,0x6f,0x5f,0x6b,0x6f,0x6b,0x69,0x31,0x06,0x3a,0x06,0x45,0x54,0x3a,0x0b,0x40,0x70,0x69,0x74,0x63,0x68,0x69,0x69,0x3a,0x0c,0x40,0x76,0x6f,0x6c,0x75,0x6d,0x65,0x69,0x69))
311(0,1,1,1,26,true)
ShowMessageFace("",0,0,2,5)
ShowMessage("The Mini Crab Girl fills her hands with foam!")
ShowMessage("With her foam covered hands, she grabs Luka's penis!\\D")
ShowMessage("Luka takes \\V[26] damage!")
ChangeVariable(27,27,0,3,3,1,2)
If(1,27,0,0,0)
 JumpToLabel("射精1")
 0()
EndIf()
ShowMessageFace("minikani_fc1",1,0,2,6)
ShowMessage("\\n<Mini Crab Girl>My bubbles feel good, don't they?\nI'll wash you nice and carefully... Ehehe♪")
250(bytes(0x04,0x08,0x6f,0x3a,0x0c,0x52,0x50,0x47,0x3a,0x3a,0x53,0x45,0x08,0x3a,0x0a,0x40,0x6e,0x61,0x6d,0x65,0x49,0x22,0x12,0x6d,0x6f,0x6e,0x5f,0x65,0x72,0x6f,0x5f,0x6b,0x6f,0x6b,0x69,0x31,0x06,0x3a,0x06,0x45,0x54,0x3a,0x0b,0x40,0x70,0x69,0x74,0x63,0x68,0x69,0x69,0x3a,0x0c,0x40,0x76,0x6f,0x6c,0x75,0x6d,0x65,0x69,0x69))
311(0,1,1,1,26,true)
ShowMessageFace("",0,0,2,7)
ShowMessage("The Mini Crab Girl caresses Luka's penis with her hands!")
ShowMessage("The warm, slimy feeling stimulates Luka!\\D")
ShowMessage("Luka takes \\V[26] damage!")
ChangeVariable(27,27,0,3,3,1,2)
If(1,27,0,0,0)
 JumpToLabel("射精1")
 0()
EndIf()
ShowMessageFace("",0,0,2,8)
ShowMessage("\\n<Luka>Unnngh...")
ShowMessageFace("minikani_fc1",1,0,2,9)
ShowMessage("\\n<Mini Crab Girl>Aree? You're moaning?\nBut I'm only just washing it~♪")
ShowMessageFace("minikani_fc1",1,0,2,10)
ShowMessage("\\n<Mini Crab Girl>Is there any chance that you're feeling good from this?\nAre you going to come from just this little?")
250(bytes(0x04,0x08,0x6f,0x3a,0x0c,0x52,0x50,0x47,0x3a,0x3a,0x53,0x45,0x08,0x3a,0x0a,0x40,0x6e,0x61,0x6d,0x65,0x49,0x22,0x12,0x6d,0x6f,0x6e,0x5f,0x65,0x72,0x6f,0x5f,0x6b,0x6f,0x6b,0x69,0x31,0x06,0x3a,0x06,0x45,0x54,0x3a,0x0b,0x40,0x70,0x69,0x74,0x63,0x68,0x69,0x69,0x3a,0x0c,0x40,0x76,0x6f,0x6c,0x75,0x6d,0x65,0x69,0x69))
311(0,1,1,1,26,true)
ShowMessageFace("",0,0,2,11)
ShowMessage("The Mini Crab Girl massages Luka's penis with her foamy hands!")
ShowMessage("Her slimy touch goes all over his sensitive spots!\\D")
ShowMessage("Luka takes \\V[26] damage!")
ChangeVariable(27,27,0,3,3,1,2)
If(1,27,0,0,0)
 JumpToLabel("射精1")
 0()
EndIf()
ShowMessageFace("minikani_fc1",1,0,2,12)
ShowMessage("\\n<Mini Crab Girl>Arere? What's wrong?\nYour penis is all twitchy?")
ShowMessageFace("minikani_fc1",1,0,2,13)
ShowMessage("\\n<Mini Crab Girl>I'm just washing it, so don't worry♪\nHora, scrub scrub~♪")
250(bytes(0x04,0x08,0x6f,0x3a,0x0c,0x52,0x50,0x47,0x3a,0x3a,0x53,0x45,0x08,0x3a,0x0a,0x40,0x6e,0x61,0x6d,0x65,0x49,0x22,0x12,0x6d,0x6f,0x6e,0x5f,0x65,0x72,0x6f,0x5f,0x6b,0x6f,0x6b,0x69,0x31,0x06,0x3a,0x06,0x45,0x54,0x3a,0x0b,0x40,0x70,0x69,0x74,0x63,0x68,0x69,0x69,0x3a,0x0c,0x40,0x76,0x6f,0x6c,0x75,0x6d,0x65,0x69,0x69))
311(0,1,1,1,26,true)
ShowMessageFace("",0,0,2,14)
ShowMessage("Sweet pleasure fills Luka as she scrubs his penis!")
ShowMessage("Caught in her bubbles, his penis is toyed with!\\D")
ShowMessage("Luka takes \\V[26] damage!")
ChangeVariable(27,27,0,3,3,1,2)
If(1,27,0,0,0)
 JumpToLabel("射精1")
 0()
EndIf()
ShowMessageFace("minikani_fc1",1,0,2,15)
ShowMessage("\\n<Mini Crab Girl>Are? Are you going to come?\nYour penis is going to leak from being washed?♪")
250(bytes(0x04,0x08,0x6f,0x3a,0x0c,0x52,0x50,0x47,0x3a,0x3a,0x53,0x45,0x08,0x3a,0x0a,0x40,0x6e,0x61,0x6d,0x65,0x49,0x22,0x12,0x6d,0x6f,0x6e,0x5f,0x65,0x72,0x6f,0x5f,0x6b,0x6f,0x6b,0x69,0x31,0x06,0x3a,0x06,0x45,0x54,0x3a,0x0b,0x40,0x70,0x69,0x74,0x63,0x68,0x69,0x69,0x3a,0x0c,0x40,0x76,0x6f,0x6c,0x75,0x6d,0x65,0x69,0x69))
311(0,1,1,1,26,true)
ShowMessageFace("",0,0,2,16)
ShowMessage("The Mini Crab Girl grabs hold of Luka's penis!")
ShowMessage("Like that, she slowly and carefully washes it!\\D")
ShowMessage("Luka takes \\V[26] damage!")
ChangeVariable(27,27,0,3,3,1,2)
If(1,27,0,0,0)
 JumpToLabel("射精1")
 0()
EndIf()
DefineLabel("射精1")
ShowMessageFace("",0,0,2,17)
ShowMessage("\\n<Luka>Aaah... Coming...!")
RunCommonEvent(104)
RunCommonEvent(105)
ShowMessageFace("",0,0,2,18)
ShowMessage("The moment her bubbles surround me, I come.")
ShowMessage("The slimy feeling was enough to make me melt.")
ShowMessageFace("minikani_fc1",1,0,2,19)
ShowMessage("\\n<Mini Crab Girl>Eh? Wait, wait... You already came!?\nAhaha, that's awful~♪ That's super fast~♪")
RunCommonEvent(2000)
EndEventProcessing()
DefineLabel("射精2")
ShowMessageFace("",0,0,2,20)
ShowMessage("\\n<Luka>Aaah... That feels good...")
RunCommonEvent(104)
RunCommonEvent(105)
ShowMessageFace("",0,0,2,21)
ShowMessage("As she washes my penis, I come.")
ShowMessage("My semen sprays out, covering her and her foam together.")
ShowMessageFace("minikani_fc1",1,0,2,22)
ShowMessage("\\n<Mini Crab Girl>Ahaha, you came from my washing~♪\nI wasn't even trying to do that~♪")
RunCommonEvent(2000)
EndEventProcessing()
0()
