
DisplayName "Haunted Mansion Parlor 1"



EVENT   3
 PAGE   1
  250(bytes(0x04,0x08,0x6f,0x3a,0x0c,0x52,0x50,0x47,0x3a,0x3a,0x53,0x45,0x08,0x3a,0x0a,0x40,0x6e,0x61,0x6d,0x65,0x49,0x22,0x09,0x4d,0x6f,0x76,0x65,0x06,0x3a,0x06,0x45,0x54,0x3a,0x0b,0x40,0x70,0x69,0x74,0x63,0x68,0x69,0x69,0x3a,0x0c,0x40,0x76,0x6f,0x6c,0x75,0x6d,0x65,0x69,0x55))
  TeleportPlayer(0,346,57,29,0,0)
  0()



EVENT   4
 PAGE   1
  250(bytes(0x04,0x08,0x6f,0x3a,0x0c,0x52,0x50,0x47,0x3a,0x3a,0x53,0x45,0x08,0x3a,0x0a,0x40,0x6e,0x61,0x6d,0x65,0x49,0x22,0x0a,0x43,0x68,0x65,0x73,0x74,0x06,0x3a,0x06,0x45,0x54,0x3a,0x0b,0x40,0x70,0x69,0x74,0x63,0x68,0x69,0x69,0x3a,0x0c,0x40,0x76,0x6f,0x6c,0x75,0x6d,0x65,0x69,0x55))
  205(0,bytes(0x04,0x08,0x6f,0x3a,0x13,0x52,0x50,0x47,0x3a,0x3a,0x4d,0x6f,0x76,0x65,0x52,0x6f,0x75,0x74,0x65,0x09,0x3a,0x0c,0x40,0x72,0x65,0x70,0x65,0x61,0x74,0x46,0x3a,0x0f,0x40,0x73,0x6b,0x69,0x70,0x70,0x61,0x62,0x6c,0x65,0x46,0x3a,0x0a,0x40,0x77,0x61,0x69,0x74,0x54,0x3a,0x0a,0x40,0x6c,0x69,0x73,0x74,0x5b,0x0b,0x6f,0x3a,0x15,0x52,0x50,0x47,0x3a,0x3a,0x4d,0x6f,0x76,0x65,0x43,0x6f,0x6d,0x6d,0x61,0x6e,0x64,0x07,0x3a,0x0a,0x40,0x63,0x6f,0x64,0x65,0x69,0x29,0x3a,0x10,0x40,0x70,0x61,0x72,0x61,0x6d,0x65,0x74,0x65,0x72,0x73,0x5b,0x00,0x6f,0x3b,0x0a,0x07,0x3b,0x0b,0x69,0x16,0x3b,0x0c,0x5b,0x00,0x6f,0x3b,0x0a,0x07,0x3b,0x0b,0x69,0x14,0x3b,0x0c,0x5b,0x06,0x69,0x08,0x6f,0x3b,0x0a,0x07,0x3b,0x0b,0x69,0x17,0x3b,0x0c,0x5b,0x00,0x6f,0x3b,0x0a,0x07,0x3b,0x0b,0x69,0x14,0x3b,0x0c,0x5b,0x06,0x69,0x08,0x6f,0x3b,0x0a,0x07,0x3b,0x0b,0x69,0x00,0x3b,0x0c,0x5b,0x00))
  ChangeSelfSwitch("A",0)
  ChangeInventory_Item(16,0,0,1)
  0()
 PAGE   2
  // condition: self-switch A is ON
  0()



EVENT   5
 PAGE   1
  If(0,2078,1)
   ChangeSwitch(2078,2078,0)
   ShowMessageFace("zonbe_fc3",0,0,2,1)
   ShowMessage("\\n<Zombie>Oh my, a human. W-wait! There's no need to be afraid!")
   If(0,6,0)
    ShowMessageFace("sonia_fc2",2,0,2,2)
    ShowMessage("\\n<Sonya>A talking zombie?")
    0()
   Else()
    ShowMessageFace("ruka_fc1",0,0,2,3)
    ShowMessage("\\n<Luka>A talking zombie?")
    0()
   EndIf()
   ShowMessageFace("zonbe_fc3",0,0,2,4)
   ShowMessage("\\n<Zombie>Yes, all zombies are different. I mean, it's the same for humans too, right?")
   ShowMessageFace("zonbe_fc3",0,0,2,5)
   ShowMessage("\\n<Zombie>The others don't talk as much as I do, well they can't, so I get pretty lonely. By the way, have some tea.")
   ShowMessageFace("",0,0,2,6)
   ShowMessage("The zombie treated us to tea.")
   250(bytes(0x04,0x08,0x6f,0x3a,0x0c,0x52,0x50,0x47,0x3a,0x3a,0x53,0x45,0x08,0x3a,0x0a,0x40,0x6e,0x61,0x6d,0x65,0x49,0x22,0x0a,0x48,0x65,0x61,0x6c,0x37,0x06,0x3a,0x06,0x45,0x54,0x3a,0x0b,0x40,0x70,0x69,0x74,0x63,0x68,0x69,0x69,0x3a,0x0c,0x40,0x76,0x6f,0x6c,0x75,0x6d,0x65,0x69,0x55))
   224(bytes(0x04,0x08,0x75,0x3a,0x0a,0x43,0x6f,0x6c,0x6f,0x72,0x25,0x00,0x00,0x00,0x00,0x00,0xe0,0x6f,0x40,0x00,0x00,0x00,0x00,0x00,0xe0,0x6f,0x40,0x00,0x00,0x00,0x00,0x00,0xe0,0x6f,0x40,0x00,0x00,0x00,0x00,0x00,0xe0,0x6f,0x40),30,true)
   314(0,0)
   ShowMessageFace("",0,0,2,7)
   ShowMessage("The party's HP and MP have been fully restored!")
   ShowMessageFace("zonbe_fc3",0,0,2,8)
   ShowMessage("\\n<Zombie>By the way, do you think zombies are in pain?")
   ShowChoices(strings("Yes","No"),2)
   IfPlayerPicksChoice(0,null)
    ShowMessageFace("zonbe_fc3",0,0,2,9)
    ShowMessage("\\n<Zombie>Right, that's what I figured. I mean we groan, and moan, and so on.")
    0()
   IfPlayerPicksChoice(1,null)
    ShowMessageFace("zonbe_fc3",0,0,2,10)
    ShowMessage("\\n<Zombie>Is that so? There are many who think we are in pain due to the groaning and moaning and such.")
    0()
   404()
   ShowMessageFace("zonbe_fc3",0,0,2,11)
   ShowMessage("\\n<Zombie>But surprisingly, being a zombie isn't so bad. We aren't in any pain, and it's actually kinda fun.")
   DefineLabel("ループ")
   ShowMessageFace("zonbe_fc3",0,0,2,12)
   ShowMessage("\\n<Zombie>I mean we can dance around wherever we want. Who's gonna go up to a zombie and tell them to stop, right?")
   ShowMessageFace("zonbe_fc3",0,0,2,13)
   ShowMessage("\\n<Zombie>Living humans can't do that, can you? Your world is full of hardships, isn't it?")
   ShowMessageFace("zonbe_fc3",0,0,2,14)
   ShowMessage("\\n<Zombie>I hardly remember anything from back when I was still alive, but you've got human relationships, coworkers, and bosses and such, don't you?")
   ShowChoices(strings("We do","We don't"),2)
   IfPlayerPicksChoice(0,null)
    ShowMessageFace("zonbe_fc3",0,0,2,15)
    ShowMessage("\\n<Zombie>Right, it's really quite a pain, isn't it? You need to be mindful of others and work and work...")
    0()
   IfPlayerPicksChoice(1,null)
    ShowMessageFace("zonbe_fc3",0,0,2,16)
    ShowMessage("\\n<Zombie>Oh, you're living freely. Ah, youth... I'm glad to see that you aren't wasting yours. You may not realize it, but others are burdened by society.")
    0()
   404()
   ShowMessageFace("zonbe_fc3",0,0,2,17)
   ShowMessage("\\n<Zombie>Even me, my boss... Well that's unexpected, I remember something from when I was alive even though I'm a zombie.")
   ShowMessageFace("zonbe_fc3",0,0,2,18)
   ShowMessage("\\n<Zombie>About that boss of mine, just thinking about him pisses me off. I should go give him a piece of my mind!")
   ShowMessageFace("zonbe_fc3",0,0,2,19)
   ShowMessage("\\n<Zombie>On second thought, that would be a bad idea. He had a bad heart and seeing the corpse of your former employee complaining to you...")
   ShowMessageFace("zonbe_fc3",0,0,2,20)
   ShowMessage("\\n<Zombie>Well, being dead is not so bad, y'know? Zombies look like they are in pain, but it's actually not so bad.")
   ShowMessageFace("zonbe_fc3",0,0,2,21)
   ShowMessage("\\n<Zombie>Wait, isn't this conversation looping? Hey, this isn't a loop is it?!")
   ShowChoices(strings("It's not","It is"),2)
   IfPlayerPicksChoice(0,null)
    ShowMessageFace("zonbe_fc3",0,0,2,22)
    ShowMessage("\\n<Zombie>No way... only I noticed the loop? Doesn't this make me a science fiction story heroine?!")
    ShowMessageFace("zonbe_fc3",0,0,2,23)
    ShowMessage("\\n<Zombie>We'll continue to loop and repeat the same thing everyday for all eternity.")
    ShowMessageFace("zonbe_fc3",0,0,2,24)
    ShowMessage("\\n<Zombie>Wait, doesn't that seem like everyday life? A series of a repeated actions with slight variations?")
    ShowMessageFace("zonbe_fc3",0,0,2,25)
    ShowMessage("\\n<Zombie>Um, what were we talking about? I confused myself... Ah, about how zombies unexpectedly have it easy.")
    JumpToLabel("ループ")
    0()
   IfPlayerPicksChoice(1,null)
    ShowMessageFace("zonbe_fc3",0,0,2,26)
    ShowMessage("\\n<Zombie>You're right, I'm glad you noticed. We nearly started to repeat the same conversation.")
    ShowMessageFace("zonbe_fc3",0,0,2,27)
    ShowMessage("\\n<Zombie>Well, that's basically what life is. After you die, everything is so much easier.")
    ShowMessageFace("zonbe_fc3",0,0,2,28)
    ShowMessage("\\n<Zombie>My apologies, I've taken too much of your time. It's just that... I get so lonely up here since I don't get many visitors.")
    ShowMessageFace("zonbe_fc3",0,0,2,29)
    ShowMessage("\\n<Zombie>Thank you for talking to me. It would make me happy if you came to talk to me again, if you don't mind.")
    EndEventProcessing()
    0()
   404()
   0()
  Else()
   ShowMessageFace("zonbe_fc3",0,0,2,30)
   ShowMessage("\\n<Zombie>The others can't talk as well as me so I get lonely. Here, have some tea.")
   ShowMessageFace("",0,0,2,31)
   ShowMessage("The zombie treated us to tea.")
   250(bytes(0x04,0x08,0x6f,0x3a,0x0c,0x52,0x50,0x47,0x3a,0x3a,0x53,0x45,0x08,0x3a,0x0a,0x40,0x6e,0x61,0x6d,0x65,0x49,0x22,0x0a,0x48,0x65,0x61,0x6c,0x37,0x06,0x3a,0x06,0x45,0x54,0x3a,0x0b,0x40,0x70,0x69,0x74,0x63,0x68,0x69,0x69,0x3a,0x0c,0x40,0x76,0x6f,0x6c,0x75,0x6d,0x65,0x69,0x55))
   224(bytes(0x04,0x08,0x75,0x3a,0x0a,0x43,0x6f,0x6c,0x6f,0x72,0x25,0x00,0x00,0x00,0x00,0x00,0xe0,0x6f,0x40,0x00,0x00,0x00,0x00,0x00,0xe0,0x6f,0x40,0x00,0x00,0x00,0x00,0x00,0xe0,0x6f,0x40,0x00,0x00,0x00,0x00,0x00,0xe0,0x6f,0x40),30,true)
   314(0,0)
   ShowMessageFace("",0,0,2,32)
   ShowMessage("The party's HP and MP have been fully restored!")
   ShowMessageFace("zonbe_fc3",0,0,2,33)
   ShowMessage("\\n<Zombie>Thank you for talking to me. I would be happy if you came again.")
   EndEventProcessing()
   0()
  EndIf()
  0()