﻿


EVENT   1
 PAGE   1
  0()
 PAGE   2
  // condition: switch 31 is ON
  0()



EVENT   4
 PAGE   1
  0()
 PAGE   2
  // condition: switch 31 is ON
  0()



EVENT   5
 PAGE   1
  0()
 PAGE   2
  // condition: switch 31 is ON
  0()



EVENT   9
 PAGE   1
  0()



EVENT   10
 PAGE   1
  0()



EVENT   13
 PAGE   1
  Wait(60)
  ShowMessageFace("",0,1,1,1)
  ShowMessage("Goodbye...")
  242(1)
  Wait(60)
  ShowMessageFace("ruka_fc1",0,0,2,2)
  ShowMessage("\\n<Luka>Sonya--!! ...Huh?")
  205(9,bytes(0x04,0x08,0x6f,0x3a,0x13,0x52,0x50,0x47,0x3a,0x3a,0x4d,0x6f,0x76,0x65,0x52,0x6f,0x75,0x74,0x65,0x09,0x3a,0x0c,0x40,0x72,0x65,0x70,0x65,0x61,0x74,0x46,0x3a,0x0f,0x40,0x73,0x6b,0x69,0x70,0x70,0x61,0x62,0x6c,0x65,0x46,0x3a,0x0a,0x40,0x77,0x61,0x69,0x74,0x54,0x3a,0x0a,0x40,0x6c,0x69,0x73,0x74,0x5b,0x07,0x6f,0x3a,0x15,0x52,0x50,0x47,0x3a,0x3a,0x4d,0x6f,0x76,0x65,0x43,0x6f,0x6d,0x6d,0x61,0x6e,0x64,0x07,0x3a,0x0a,0x40,0x63,0x6f,0x64,0x65,0x69,0x15,0x3a,0x10,0x40,0x70,0x61,0x72,0x61,0x6d,0x65,0x74,0x65,0x72,0x73,0x5b,0x00,0x6f,0x3b,0x0a,0x07,0x3b,0x0b,0x69,0x00,0x3b,0x0c,0x5b,0x00))
  Wait(30)
  241(bytes(0x04,0x08,0x6f,0x3a,0x0d,0x52,0x50,0x47,0x3a,0x3a,0x42,0x47,0x4d,0x08,0x3a,0x0a,0x40,0x6e,0x61,0x6d,0x65,0x49,0x22,0x14,0x73,0x63,0x65,0x6e,0x65,0x5f,0x65,0x70,0x69,0x6c,0x6f,0x67,0x75,0x65,0x32,0x06,0x3a,0x06,0x45,0x54,0x3a,0x0c,0x40,0x76,0x6f,0x6c,0x75,0x6d,0x65,0x69,0x69,0x3a,0x0b,0x40,0x70,0x69,0x74,0x63,0x68,0x69,0x69))
  ShowMessageFace("sonia_fc2",0,0,2,3)
  ShowMessage("\\n<Sonya>Hey, hold on...\nWhy are you suddenly yelling my name?")
  205(10,bytes(0x04,0x08,0x6f,0x3a,0x13,0x52,0x50,0x47,0x3a,0x3a,0x4d,0x6f,0x76,0x65,0x52,0x6f,0x75,0x74,0x65,0x09,0x3a,0x0c,0x40,0x72,0x65,0x70,0x65,0x61,0x74,0x46,0x3a,0x0f,0x40,0x73,0x6b,0x69,0x70,0x70,0x61,0x62,0x6c,0x65,0x46,0x3a,0x0a,0x40,0x77,0x61,0x69,0x74,0x54,0x3a,0x0a,0x40,0x6c,0x69,0x73,0x74,0x5b,0x07,0x6f,0x3a,0x15,0x52,0x50,0x47,0x3a,0x3a,0x4d,0x6f,0x76,0x65,0x43,0x6f,0x6d,0x6d,0x61,0x6e,0x64,0x07,0x3a,0x0a,0x40,0x63,0x6f,0x64,0x65,0x69,0x17,0x3a,0x10,0x40,0x70,0x61,0x72,0x61,0x6d,0x65,0x74,0x65,0x72,0x73,0x5b,0x00,0x6f,0x3b,0x0a,0x07,0x3b,0x0b,0x69,0x00,0x3b,0x0c,0x5b,0x00))
  ShowMessageFace("iriasu_fc4",2,0,2,4)
  ShowMessage("\\n<Ilias>He's probably just confused after having taken in so much knowledge. The day of the Great Disaster, and the two parallel worlds that have set their sights on this one...")
  ShowMessageFace("ruka_fc1",0,0,2,5)
  ShowMessage("\\n<Luka>Oh, right...\nOne world where the Goddess won, and another where the Dark Goddess did.")
  205(9,bytes(0x04,0x08,0x6f,0x3a,0x13,0x52,0x50,0x47,0x3a,0x3a,0x4d,0x6f,0x76,0x65,0x52,0x6f,0x75,0x74,0x65,0x09,0x3a,0x0c,0x40,0x72,0x65,0x70,0x65,0x61,0x74,0x46,0x3a,0x0f,0x40,0x73,0x6b,0x69,0x70,0x70,0x61,0x62,0x6c,0x65,0x46,0x3a,0x0a,0x40,0x77,0x61,0x69,0x74,0x46,0x3a,0x0a,0x40,0x6c,0x69,0x73,0x74,0x5b,0x07,0x6f,0x3a,0x15,0x52,0x50,0x47,0x3a,0x3a,0x4d,0x6f,0x76,0x65,0x43,0x6f,0x6d,0x6d,0x61,0x6e,0x64,0x07,0x3a,0x0a,0x40,0x63,0x6f,0x64,0x65,0x69,0x18,0x3a,0x10,0x40,0x70,0x61,0x72,0x61,0x6d,0x65,0x74,0x65,0x72,0x73,0x5b,0x00,0x6f,0x3b,0x0a,0x07,0x3b,0x0b,0x69,0x00,0x3b,0x0c,0x5b,0x00))
  205(10,bytes(0x04,0x08,0x6f,0x3a,0x13,0x52,0x50,0x47,0x3a,0x3a,0x4d,0x6f,0x76,0x65,0x52,0x6f,0x75,0x74,0x65,0x09,0x3a,0x0c,0x40,0x72,0x65,0x70,0x65,0x61,0x74,0x46,0x3a,0x0f,0x40,0x73,0x6b,0x69,0x70,0x70,0x61,0x62,0x6c,0x65,0x46,0x3a,0x0a,0x40,0x77,0x61,0x69,0x74,0x54,0x3a,0x0a,0x40,0x6c,0x69,0x73,0x74,0x5b,0x07,0x6f,0x3a,0x15,0x52,0x50,0x47,0x3a,0x3a,0x4d,0x6f,0x76,0x65,0x43,0x6f,0x6d,0x6d,0x61,0x6e,0x64,0x07,0x3a,0x0a,0x40,0x63,0x6f,0x64,0x65,0x69,0x18,0x3a,0x10,0x40,0x70,0x61,0x72,0x61,0x6d,0x65,0x74,0x65,0x72,0x73,0x5b,0x00,0x6f,0x3b,0x0a,0x07,0x3b,0x0b,0x69,0x00,0x3b,0x0c,0x5b,0x00))
  PictureDisplay(5,"80_eden_st31",0,0,0,0,100,100,0,0)
  PictureMove(5,null,0,0,0,0,100,100,255,0,60,true)
  ShowMessageFace("eden_fc2",0,0,2,6)
  ShowMessage("\\n<Eden>Yes, that is correct.\nAnd we come from the world of our Goddess Ilias.")
  ShowMessageFace("eden_fc2",0,0,2,7)
  ShowMessage("\\n<Eden>To delay destruction as much as possible...and to lead the chosen ones from numerous other worlds into our own.")
  ShowMessageFace("ruka_fc1",0,0,2,8)
  ShowMessage("\\n<Luka>But saving only the people who you've chosen...\nI absolutely can't approve of something like that.")
  PictureDisplay(5,"80_shion_st01",0,0,-150,0,100,100,255,0)
  PictureDisplay(6,"80_gnosis_st01",0,0,150,0,100,100,255,0)
  ShowMessageFace("shion_fc1",4,0,2,9)
  ShowMessage("\\n<Zion>Then you're telling us to welcome all of humanity from every parallel world into our own? No matter how you put it, that's just not possible.")
  ShowMessageFace("gnosis_fc1",2,0,2,10)
  ShowMessage("\\n<Gnosis>Therefore, we welcome only the chosen ones into paradise, while at the same time minimizing each world's chaos erosion rate to delay their destruction.")
  PictureClear(5)
  PictureClear(6)
  ShowMessageFace("sonia_fc4",0,0,2,11)
  ShowMessage("\\n<Sonya>I can't agree with something like that...\nWhat about the people who aren't chosen...?")
  ShowMessageFace("iriasu_fc4",7,0,2,12)
  ShowMessage("\\n<Ilias>So what are they supposed to do?\nThey can't help everyone, so they have no choice but to choose who to save.")
  ShowMessageFace("ruka_fc1",0,0,2,13)
  ShowMessage("\\n<Luka>Yeah, but...!\nWe'd be leaving it all up to the angels to decide who will be saved and who won't!")
  ShowMessageFace("iriasu_fc4",7,0,2,14)
  ShowMessage("\\n<Ilias>Then how would you decide who gets chosen?\nWould you have them decide democratically by the result of a majority vote?")
  ShowMessageFace("iriasu_fc4",7,0,2,15)
  ShowMessage("\\n<Ilias>If you did that, it would lead to massive bloodshed. Or would you rather have a lottery decide who gets saved?")
  ShowMessageFace("ruka_fc1",0,0,2,16)
  ShowMessage("\\n<Luka>............")
  PictureDisplay(5,"80_eden_st34",0,0,0,0,100,100,255,0)
  ShowMessageFace("eden_fc2",3,0,2,17)
  ShowMessage("\\n<Eden>This is painful for us, too.\nIf it were possible, we would prefer to save everybody...")
  ShowMessageFace("iriasu_fc4",2,0,2,18)
  ShowMessage("\\n<Ilias>But that's impossible--\nSo someone has to be the one to choose.")
  ShowMessageFace("eden_fc2",3,0,2,19)
  ShowMessage("\\n<Eden>There is one more matter of serious concern.\nThose from the world ruled by the Dark Goddess are scheming something truly wretched.")
  ShowMessageFace("iriasu_fc4",2,0,2,20)
  ShowMessage("\\n<Ilias>Yes, Lilith implied as much...\nThey're using return network magic to gather souls into their own world.")
  ShowMessageFace("ruka_fc1",0,0,2,21)
  ShowMessage("\\n<Luka>What does that mean?")
  ShowMessageFace("iriasu_fc4",2,0,2,22)
  ShowMessage("\\n<Ilias>I told you that you don't need to know...\nIt's so abhorrent that I hesitate to even speak it aloud.")
  ShowMessageFace("iriasu_fc4",7,0,2,23)
  ShowMessage("\\n<Ilias>But there is no doubt that they will commit mass slaughter in the process. All who reside in this world will be destroyed by the hands of the Dark Goddess.")
  ShowMessageFace("eden_fc2",3,0,2,24)
  ShowMessage("\\n<Eden>We are desperately trying to put a halt to their schemes. Please forgive us that we cannot personally be of aid to you at this time, Ilias.")
  PictureDisplay(5,"80_eden_st21",0,0,-200,0,100,100,255,0)
  PictureDisplay(6,"80_eden_st31",0,0,200,0,100,100,255,0)
  ShowMessageFace("eden_fc1",0,0,2,25)
  ShowMessage("\\n<Eden>It's all right, Eden...\nPlease leave Ilias to this Eden.")
  ShowMessageFace("eden_fc2",1,0,2,26)
  ShowMessage("\\n<Eden>As I would expect of Eden...\nThis Eden admires your loyalty.")
  PictureClear(6)
  PictureDisplay(5,"80_shion_st05",0,0,0,0,100,100,255,0)
  ShowMessageFace("shion_fc1",4,0,2,27)
  ShowMessage("\\n<Zion>Hey hey, Edens, don't stand around complimenting yourselves all day...")
  PictureClear(5)
  ShowMessageFace("iriasu_fc4",2,0,2,28)
  ShowMessage("\\n<Ilias>I now understand your intentions.\nHowever, there will be many who won't accept the selection plan.")
  ShowMessageFace("ruka_fc1",0,0,2,29)
  ShowMessage("\\n<Luka>I don't want to accept it, myself...")
  ShowMessageFace("sonia_fc1",5,0,2,30)
  ShowMessage("\\n<Sonya>I hate it too, I don't want to accept a plan like that! There has to be some other way!")
  PictureDisplay(5,"80_eden_st34",0,0,0,0,100,100,255,0)
  ShowMessageFace("eden_fc2",3,0,2,31)
  ShowMessage("\\n<Eden>We will not stop you from searching for another way. Rather, try your hardest to find a solution, so that you may have no regrets.")
  ShowMessageFace("eden_fc2",3,0,2,32)
  ShowMessage("\\n<Eden>...In the end, you will come to understand.\nThat there is no other way aside from the plan we devised.")
  ShowMessageFace("ruka_fc1",0,0,2,33)
  ShowMessage("\\n<Luka>............")
  PictureDisplay(5,"80_eden_st31",0,0,0,0,100,100,255,0)
  ShowMessageFace("eden_fc2",0,0,2,34)
  ShowMessage("\\n<Eden>Hero Luka, in the near future, you will arrive at the time of decision. We hope you'll have made up your mind by then.")
  ShowMessageFace("ruka_fc1",0,0,2,35)
  ShowMessage("\\n<Luka>Time of decision...?")
  ShowMessageFace("eden_fc2",0,0,2,36)
  ShowMessage("\\n<Eden>You will know when the time comes.\nI believe that you will make the right decision.")
  PictureDisplay(5,"80_shion_st01",0,0,-150,0,100,100,255,0)
  PictureDisplay(6,"80_gnosis_st01",0,0,150,0,100,100,255,0)
  ShowMessageFace("shion_fc1",0,0,2,37)
  ShowMessage("\\n<Zion>We're about done talking for now.\nWe can't relax here for too long.")
  ShowMessageFace("gnosis_fc1",3,0,2,38)
  ShowMessage("\\n<Gnosis>The three Lilith Sisters are flying to a point three nautical miles east of Gold Coast... My energy level is...below half? When was it consumed...?")
  PictureDisplay(5,"80_eden_st21",0,0,-200,0,100,100,255,0)
  PictureDisplay(6,"80_eden_st31",0,0,200,0,100,100,255,0)
  ShowMessageFace("eden_fc2",0,0,2,39)
  ShowMessage("\\n<Eden>...Well then Ilias, we must take our leave.\nEden, please take care of Ilias.")
  ShowMessageFace("eden_fc1",0,0,2,40)
  ShowMessage("\\n<Eden>Leave it to this Eden.\nEden, please take care of your Ilias too.")
  PictureDisplay(5,"80_shion_st04",0,0,-150,0,100,100,255,0)
  PictureDisplay(6,"80_gnosis_st01",0,0,150,0,100,100,255,0)
  ShowMessageFace("shion_fc1",3,0,2,41)
  ShowMessage("\\n<Zion>We're counting on you, Naked Eden.\nLet's go, Dressed Eden.")
  ShowMessageFace("gnosis_fc1",1,0,2,42)
  ShowMessage("\\n<Gnosis>We shall meet again at the time of the great decision...")
  PictureClear(5)
  PictureClear(6)
  Wait(60)
  212(4,501,false)
  212(5,501,false)
  212(1,501,false)
  ChangeSwitch(31,31,0)
  Wait(60)
  ShowMessageFace("iriasu_fc4",2,0,2,43)
  ShowMessage("\\n<Ilias>They're gone...")
  ShowMessageFace("ruka_fc1",0,0,2,44)
  ShowMessage("\\n<Luka>We've just learned a lot of facts.\nAnd--")
  241(bytes(0x04,0x08,0x6f,0x3a,0x0d,0x52,0x50,0x47,0x3a,0x3a,0x42,0x47,0x4d,0x08,0x3a,0x0a,0x40,0x6e,0x61,0x6d,0x65,0x49,0x22,0x00,0x06,0x3a,0x06,0x45,0x54,0x3a,0x0c,0x40,0x76,0x6f,0x6c,0x75,0x6d,0x65,0x69,0x69,0x3a,0x0b,0x40,0x70,0x69,0x74,0x63,0x68,0x69,0x69))
  223(bytes(0x04,0x08,0x75,0x3a,0x09,0x54,0x6f,0x6e,0x65,0x25,0x00,0x00,0x00,0x00,0x00,0x00,0x00,0x00,0x00,0x00,0x00,0x00,0x00,0x00,0x00,0x00,0x00,0x00,0x00,0x00,0x00,0x00,0x00,0x00,0x00,0x00,0x00,0x00,0x00,0xe0,0x6f,0x40),30,true)
  Wait(30)
  250(bytes(0x04,0x08,0x6f,0x3a,0x0c,0x52,0x50,0x47,0x3a,0x3a,0x53,0x45,0x08,0x3a,0x0a,0x40,0x6e,0x61,0x6d,0x65,0x49,0x22,0x0e,0x6d,0x6f,0x6e,0x5f,0x6b,0x6f,0x64,0x6f,0x75,0x06,0x3a,0x06,0x45,0x54,0x3a,0x0b,0x40,0x70,0x69,0x74,0x63,0x68,0x69,0x69,0x3a,0x0c,0x40,0x76,0x6f,0x6c,0x75,0x6d,0x65,0x69,0x69))
  PictureDisplay(7,"iv_adramelek1",0,0,0,0,100,100,0,0)
  PictureMove(7,null,0,0,0,0,100,100,255,0,30,true)
  PictureMove(7,null,0,0,0,0,100,100,0,0,30,true)
  PictureClear(7)
  223(bytes(0x04,0x08,0x75,0x3a,0x09,0x54,0x6f,0x6e,0x65,0x25,0x00,0x00,0x00,0x00,0x00,0x00,0x00,0x00,0x00,0x00,0x00,0x00,0x00,0x00,0x00,0x00,0x00,0x00,0x00,0x00,0x00,0x00,0x00,0x00,0x00,0x00,0x00,0x00,0x00,0x00,0x00,0x00),30,true)
  241(bytes(0x04,0x08,0x6f,0x3a,0x0d,0x52,0x50,0x47,0x3a,0x3a,0x42,0x47,0x4d,0x08,0x3a,0x0a,0x40,0x6e,0x61,0x6d,0x65,0x49,0x22,0x14,0x73,0x63,0x65,0x6e,0x65,0x5f,0x65,0x70,0x69,0x6c,0x6f,0x67,0x75,0x65,0x32,0x06,0x3a,0x06,0x45,0x54,0x3a,0x0c,0x40,0x76,0x6f,0x6c,0x75,0x6d,0x65,0x69,0x69,0x3a,0x0b,0x40,0x70,0x69,0x74,0x63,0x68,0x69,0x69))
  205(9,bytes(0x04,0x08,0x6f,0x3a,0x13,0x52,0x50,0x47,0x3a,0x3a,0x4d,0x6f,0x76,0x65,0x52,0x6f,0x75,0x74,0x65,0x09,0x3a,0x0c,0x40,0x72,0x65,0x70,0x65,0x61,0x74,0x46,0x3a,0x0f,0x40,0x73,0x6b,0x69,0x70,0x70,0x61,0x62,0x6c,0x65,0x46,0x3a,0x0a,0x40,0x77,0x61,0x69,0x74,0x46,0x3a,0x0a,0x40,0x6c,0x69,0x73,0x74,0x5b,0x07,0x6f,0x3a,0x15,0x52,0x50,0x47,0x3a,0x3a,0x4d,0x6f,0x76,0x65,0x43,0x6f,0x6d,0x6d,0x61,0x6e,0x64,0x07,0x3a,0x0a,0x40,0x63,0x6f,0x64,0x65,0x69,0x15,0x3a,0x10,0x40,0x70,0x61,0x72,0x61,0x6d,0x65,0x74,0x65,0x72,0x73,0x5b,0x00,0x6f,0x3b,0x0a,0x07,0x3b,0x0b,0x69,0x00,0x3b,0x0c,0x5b,0x00))
  205(10,bytes(0x04,0x08,0x6f,0x3a,0x13,0x52,0x50,0x47,0x3a,0x3a,0x4d,0x6f,0x76,0x65,0x52,0x6f,0x75,0x74,0x65,0x09,0x3a,0x0c,0x40,0x72,0x65,0x70,0x65,0x61,0x74,0x46,0x3a,0x0f,0x40,0x73,0x6b,0x69,0x70,0x70,0x61,0x62,0x6c,0x65,0x46,0x3a,0x0a,0x40,0x77,0x61,0x69,0x74,0x54,0x3a,0x0a,0x40,0x6c,0x69,0x73,0x74,0x5b,0x07,0x6f,0x3a,0x15,0x52,0x50,0x47,0x3a,0x3a,0x4d,0x6f,0x76,0x65,0x43,0x6f,0x6d,0x6d,0x61,0x6e,0x64,0x07,0x3a,0x0a,0x40,0x63,0x6f,0x64,0x65,0x69,0x17,0x3a,0x10,0x40,0x70,0x61,0x72,0x61,0x6d,0x65,0x74,0x65,0x72,0x73,0x5b,0x00,0x6f,0x3b,0x0a,0x07,0x3b,0x0b,0x69,0x00,0x3b,0x0c,0x5b,0x00))
  ShowMessageFace("ruka_fc1",0,0,2,45)
  ShowMessage("\\n<Luka>...Sonya, doesn't it feel like you've forgetten something? Something very important...")
  ShowMessageFace("sonia_fc4",0,0,2,46)
  ShowMessage("\\n<Sonya>Rather than forgetting...it's more like my head's a total mess. And chock-full of shocking facts.")
  ShowMessageFace("iriasu_fc4",2,0,2,47)
  ShowMessage("\\n<Ilias>Pull yourselves together...\nWhat Lilith said has revealed a horrible plot.")
  ShowMessageFace("iriasu_fc4",7,0,2,48)
  ShowMessage("\\n<Ilias>The Monster Lord's intention is the extinction of all life. We must head for her castle and exterminate her at once.")
  ShowMessageFace("sonia_fc2",2,0,2,49)
  ShowMessage("\\n<Sonya>This world's Ilias was the cause of the mana disturbance. But she's already disappeared...")
  ShowMessageFace("iriasu_fc4",0,0,2,50)
  ShowMessage("\\n<Ilias>Right... The flow of mana has normalized, and we should be able to revive that maleficent bird. Let's go to the maleficent bird's shrine at once.")
  ShowMessageFace("ruka_fc1",0,0,2,51)
  ShowMessage("\\n<Luka>What happened next in the true history?")
  ShowMessageFace("iriasu_fc4",2,0,2,52)
  ShowMessage("\\n<Ilias>With the power of the four spirits acquired, Luka embarked to the Monster Lord's Castle. Then he took on the Monster Lord--")
  ShowMessageFace("ruka_fc1",0,0,2,53)
  ShowMessage("\\n<Luka>I see, so I should defeat the Monster Lord.")
  ShowMessageFace("iriasu_fc4",5,0,2,54)
  ShowMessage("\\n<Ilias>W-well... More or less.")
  ShowMessageFace("sonia_fc2",2,0,2,55)
  ShowMessage("\\n<Sonya>More or less...?")
  ShowMessageFace("iriasu_fc5",0,0,2,56)
  ShowMessage("\\n<Ilias>She is the source of all evil, and must be struck down with extreme prejudice! Surely you already know this...!")
  ShowMessageFace("ruka_fc1",0,0,2,57)
  ShowMessage("\\n<Luka>In that case, let's head for the Monster Lord's Castle!\n...Err, but first we need to head back to the divine bird's shrine.")
  ShowMessageFace("iriasu_fc4",2,0,2,58)
  ShowMessage("\\n<Ilias>(If we continue to faithfully follow history like this, then we'll--)")
  ShowMessageFace("ruka_fc1",0,0,2,59)
  ShowMessage("\\n<Luka>...What's wrong, Ilias?")
  ShowMessageFace("iriasu_fc4",5,0,2,60)
  ShowMessage("\\n<Ilias>Nothing, I was just thinking to myself!\nCome now, let us make haste!")
  242(5)
  Wait(30)
  250(bytes(0x04,0x08,0x6f,0x3a,0x0c,0x52,0x50,0x47,0x3a,0x3a,0x53,0x45,0x08,0x3a,0x0a,0x40,0x6e,0x61,0x6d,0x65,0x49,0x22,0x10,0x6d,0x6f,0x6e,0x5f,0x61,0x73,0x69,0x6f,0x74,0x6f,0x33,0x06,0x3a,0x06,0x45,0x54,0x3a,0x0b,0x40,0x70,0x69,0x74,0x63,0x68,0x69,0x69,0x3a,0x0c,0x40,0x76,0x6f,0x6c,0x75,0x6d,0x65,0x69,0x69))
  205(9,bytes(0x04,0x08,0x6f,0x3a,0x13,0x52,0x50,0x47,0x3a,0x3a,0x4d,0x6f,0x76,0x65,0x52,0x6f,0x75,0x74,0x65,0x09,0x3a,0x0c,0x40,0x72,0x65,0x70,0x65,0x61,0x74,0x46,0x3a,0x0f,0x40,0x73,0x6b,0x69,0x70,0x70,0x61,0x62,0x6c,0x65,0x46,0x3a,0x0a,0x40,0x77,0x61,0x69,0x74,0x46,0x3a,0x0a,0x40,0x6c,0x69,0x73,0x74,0x5b,0x08,0x6f,0x3a,0x15,0x52,0x50,0x47,0x3a,0x3a,0x4d,0x6f,0x76,0x65,0x43,0x6f,0x6d,0x6d,0x61,0x6e,0x64,0x07,0x3a,0x0a,0x40,0x63,0x6f,0x64,0x65,0x69,0x06,0x3a,0x10,0x40,0x70,0x61,0x72,0x61,0x6d,0x65,0x74,0x65,0x72,0x73,0x5b,0x00,0x6f,0x3b,0x0a,0x07,0x3b,0x0b,0x69,0x06,0x3b,0x0c,0x5b,0x00,0x6f,0x3b,0x0a,0x07,0x3b,0x0b,0x69,0x00,0x3b,0x0c,0x5b,0x00))
  205(10,bytes(0x04,0x08,0x6f,0x3a,0x13,0x52,0x50,0x47,0x3a,0x3a,0x4d,0x6f,0x76,0x65,0x52,0x6f,0x75,0x74,0x65,0x09,0x3a,0x0c,0x40,0x72,0x65,0x70,0x65,0x61,0x74,0x46,0x3a,0x0f,0x40,0x73,0x6b,0x69,0x70,0x70,0x61,0x62,0x6c,0x65,0x46,0x3a,0x0a,0x40,0x77,0x61,0x69,0x74,0x54,0x3a,0x0a,0x40,0x6c,0x69,0x73,0x74,0x5b,0x08,0x6f,0x3a,0x15,0x52,0x50,0x47,0x3a,0x3a,0x4d,0x6f,0x76,0x65,0x43,0x6f,0x6d,0x6d,0x61,0x6e,0x64,0x07,0x3a,0x0a,0x40,0x63,0x6f,0x64,0x65,0x69,0x06,0x3a,0x10,0x40,0x70,0x61,0x72,0x61,0x6d,0x65,0x74,0x65,0x72,0x73,0x5b,0x00,0x6f,0x3b,0x0a,0x07,0x3b,0x0b,0x69,0x06,0x3b,0x0c,0x5b,0x00,0x6f,0x3b,0x0a,0x07,0x3b,0x0b,0x69,0x00,0x3b,0x0c,0x5b,0x00))
  205(9,bytes(0x04,0x08,0x6f,0x3a,0x13,0x52,0x50,0x47,0x3a,0x3a,0x4d,0x6f,0x76,0x65,0x52,0x6f,0x75,0x74,0x65,0x09,0x3a,0x0c,0x40,0x72,0x65,0x70,0x65,0x61,0x74,0x46,0x3a,0x0f,0x40,0x73,0x6b,0x69,0x70,0x70,0x61,0x62,0x6c,0x65,0x46,0x3a,0x0a,0x40,0x77,0x61,0x69,0x74,0x46,0x3a,0x0a,0x40,0x6c,0x69,0x73,0x74,0x5b,0x08,0x6f,0x3a,0x15,0x52,0x50,0x47,0x3a,0x3a,0x4d,0x6f,0x76,0x65,0x43,0x6f,0x6d,0x6d,0x61,0x6e,0x64,0x07,0x3a,0x0a,0x40,0x63,0x6f,0x64,0x65,0x69,0x06,0x3a,0x10,0x40,0x70,0x61,0x72,0x61,0x6d,0x65,0x74,0x65,0x72,0x73,0x5b,0x00,0x6f,0x3b,0x0a,0x07,0x3b,0x0b,0x69,0x06,0x3b,0x0c,0x5b,0x00,0x6f,0x3b,0x0a,0x07,0x3b,0x0b,0x69,0x00,0x3b,0x0c,0x5b,0x00))
  205(10,bytes(0x04,0x08,0x6f,0x3a,0x13,0x52,0x50,0x47,0x3a,0x3a,0x4d,0x6f,0x76,0x65,0x52,0x6f,0x75,0x74,0x65,0x09,0x3a,0x0c,0x40,0x72,0x65,0x70,0x65,0x61,0x74,0x46,0x3a,0x0f,0x40,0x73,0x6b,0x69,0x70,0x70,0x61,0x62,0x6c,0x65,0x46,0x3a,0x0a,0x40,0x77,0x61,0x69,0x74,0x46,0x3a,0x0a,0x40,0x6c,0x69,0x73,0x74,0x5b,0x0a,0x6f,0x3a,0x15,0x52,0x50,0x47,0x3a,0x3a,0x4d,0x6f,0x76,0x65,0x43,0x6f,0x6d,0x6d,0x61,0x6e,0x64,0x07,0x3a,0x0a,0x40,0x63,0x6f,0x64,0x65,0x69,0x06,0x3a,0x10,0x40,0x70,0x61,0x72,0x61,0x6d,0x65,0x74,0x65,0x72,0x73,0x5b,0x00,0x6f,0x3b,0x0a,0x07,0x3b,0x0b,0x69,0x06,0x3b,0x0c,0x5b,0x00,0x6f,0x3b,0x0a,0x07,0x3b,0x0b,0x69,0x06,0x3b,0x0c,0x5b,0x00,0x6f,0x3b,0x0a,0x07,0x3b,0x0b,0x69,0x2c,0x3b,0x0c,0x5b,0x00,0x6f,0x3b,0x0a,0x07,0x3b,0x0b,0x69,0x00,0x3b,0x0c,0x5b,0x00))
  205(14,bytes(0x04,0x08,0x6f,0x3a,0x13,0x52,0x50,0x47,0x3a,0x3a,0x4d,0x6f,0x76,0x65,0x52,0x6f,0x75,0x74,0x65,0x09,0x3a,0x0c,0x40,0x72,0x65,0x70,0x65,0x61,0x74,0x46,0x3a,0x0f,0x40,0x73,0x6b,0x69,0x70,0x70,0x61,0x62,0x6c,0x65,0x46,0x3a,0x0a,0x40,0x77,0x61,0x69,0x74,0x54,0x3a,0x0a,0x40,0x6c,0x69,0x73,0x74,0x5b,0x08,0x6f,0x3a,0x15,0x52,0x50,0x47,0x3a,0x3a,0x4d,0x6f,0x76,0x65,0x43,0x6f,0x6d,0x6d,0x61,0x6e,0x64,0x07,0x3a,0x0a,0x40,0x63,0x6f,0x64,0x65,0x69,0x06,0x3a,0x10,0x40,0x70,0x61,0x72,0x61,0x6d,0x65,0x74,0x65,0x72,0x73,0x5b,0x00,0x6f,0x3b,0x0a,0x07,0x3b,0x0b,0x69,0x06,0x3b,0x0c,0x5b,0x00,0x6f,0x3b,0x0a,0x07,0x3b,0x0b,0x69,0x00,0x3b,0x0c,0x5b,0x00))
  ShowMessageFace("",0,1,1,61)
  ShowMessage("Goodbye, Luka...")
  Wait(60)
  241(bytes(0x04,0x08,0x6f,0x3a,0x0d,0x52,0x50,0x47,0x3a,0x3a,0x42,0x47,0x4d,0x08,0x3a,0x0a,0x40,0x6e,0x61,0x6d,0x65,0x49,0x22,0x0b,0x66,0x69,0x65,0x6c,0x64,0x33,0x06,0x3a,0x06,0x45,0x54,0x3a,0x0c,0x40,0x76,0x6f,0x6c,0x75,0x6d,0x65,0x69,0x69,0x3a,0x0b,0x40,0x70,0x69,0x74,0x63,0x68,0x69,0x69))
  ShowMessageFace("ruka_fc1",0,0,2,62)
  ShowMessage("\\n<Luka>This isn't goodbye... I'm bringing you back, no matter what.")
  Wait(30)
  ShowMessageFace("sonia_fc2",2,0,2,63)
  ShowMessage("\\n<Sonya>Eh...? Did you say something?")
  ShowMessageFace("ruka_fc1",0,0,2,64)
  ShowMessage("\\n<Luka>Hm...? I wonder if that was just me...")
  ShowMessageFace("iriasu_fc4",7,0,2,65)
  ShowMessage("\\n<Ilias>What are you doing?! We have to leave quickly!")
  ShowMessageFace("ruka_fc1",0,0,2,66)
  ShowMessage("\\n<Luka>Got it!")
  ShowMessageFace("sonia_fc1",0,0,2,67)
  ShowMessage("\\n<Sonya>Okaaay!")
  250(bytes(0x04,0x08,0x6f,0x3a,0x0c,0x52,0x50,0x47,0x3a,0x3a,0x53,0x45,0x08,0x3a,0x0a,0x40,0x6e,0x61,0x6d,0x65,0x49,0x22,0x10,0x6d,0x6f,0x6e,0x5f,0x61,0x73,0x69,0x6f,0x74,0x6f,0x33,0x06,0x3a,0x06,0x45,0x54,0x3a,0x0b,0x40,0x70,0x69,0x74,0x63,0x68,0x69,0x69,0x3a,0x0c,0x40,0x76,0x6f,0x6c,0x75,0x6d,0x65,0x69,0x69))
  205(9,bytes(0x04,0x08,0x6f,0x3a,0x13,0x52,0x50,0x47,0x3a,0x3a,0x4d,0x6f,0x76,0x65,0x52,0x6f,0x75,0x74,0x65,0x09,0x3a,0x0c,0x40,0x72,0x65,0x70,0x65,0x61,0x74,0x46,0x3a,0x0f,0x40,0x73,0x6b,0x69,0x70,0x70,0x61,0x62,0x6c,0x65,0x46,0x3a,0x0a,0x40,0x77,0x61,0x69,0x74,0x46,0x3a,0x0a,0x40,0x6c,0x69,0x73,0x74,0x5b,0x08,0x6f,0x3a,0x15,0x52,0x50,0x47,0x3a,0x3a,0x4d,0x6f,0x76,0x65,0x43,0x6f,0x6d,0x6d,0x61,0x6e,0x64,0x07,0x3a,0x0a,0x40,0x63,0x6f,0x64,0x65,0x69,0x06,0x3a,0x10,0x40,0x70,0x61,0x72,0x61,0x6d,0x65,0x74,0x65,0x72,0x73,0x5b,0x00,0x6f,0x3b,0x0a,0x07,0x3b,0x0b,0x69,0x2c,0x3b,0x0c,0x5b,0x00,0x6f,0x3b,0x0a,0x07,0x3b,0x0b,0x69,0x00,0x3b,0x0c,0x5b,0x00))
  205(14,bytes(0x04,0x08,0x6f,0x3a,0x13,0x52,0x50,0x47,0x3a,0x3a,0x4d,0x6f,0x76,0x65,0x52,0x6f,0x75,0x74,0x65,0x09,0x3a,0x0c,0x40,0x72,0x65,0x70,0x65,0x61,0x74,0x46,0x3a,0x0f,0x40,0x73,0x6b,0x69,0x70,0x70,0x61,0x62,0x6c,0x65,0x46,0x3a,0x0a,0x40,0x77,0x61,0x69,0x74,0x54,0x3a,0x0a,0x40,0x6c,0x69,0x73,0x74,0x5b,0x09,0x6f,0x3a,0x15,0x52,0x50,0x47,0x3a,0x3a,0x4d,0x6f,0x76,0x65,0x43,0x6f,0x6d,0x6d,0x61,0x6e,0x64,0x07,0x3a,0x0a,0x40,0x63,0x6f,0x64,0x65,0x69,0x06,0x3a,0x10,0x40,0x70,0x61,0x72,0x61,0x6d,0x65,0x74,0x65,0x72,0x73,0x5b,0x00,0x6f,0x3b,0x0a,0x07,0x3b,0x0b,0x69,0x06,0x3b,0x0c,0x5b,0x00,0x6f,0x3b,0x0a,0x07,0x3b,0x0b,0x69,0x2c,0x3b,0x0c,0x5b,0x00,0x6f,0x3b,0x0a,0x07,0x3b,0x0b,0x69,0x00,0x3b,0x0c,0x5b,0x00))
  Wait(60)
  355("gain_medal(64)")
  ShowMessageFace("",0,0,2,68)
  ShowMessage("History goes on turning as fate has begun to move.\nThe girl who is no longer beside me, and I, who have forgotten her.")
  ShowMessageFace("",0,0,2,69)
  ShowMessage("The choice between light and darkness will soon come.\nWill our paths join, or will they cross?")
  ShowMessageFace("",0,0,2,70)
  ShowMessage("Where will our adventure lead us, and what will it bring about in the end? Holding doubt and confusion, we begin walking towards the time of decision.")
  ChangeSwitch(1525,1525,0)
  355("set_class_level(525, 351, 1, false, false)")
  355("add_stand_actor(525)")
  ChangeVariable(1001,1001,0,0,34)
  ChangeVariable(1076,1076,0,0,7)
  ChangeSwitch(100,100,1)
  221()
  Wait(60)
  ChangeSwitch(31,31,1)
  ChangeSwitch(32,32,1)
  ChangeSwitch(33,33,1)
  ChangeSwitch(34,34,1)
  ChangeSwitch(35,35,1)
  ChangeSwitch(36,36,1)
  ChangeSwitch(37,37,1)
  ChangeSwitch(38,38,1)
  TeleportPlayer(0,620,0,1,0,2)
  241(bytes(0x04,0x08,0x6f,0x3a,0x0d,0x52,0x50,0x47,0x3a,0x3a,0x42,0x47,0x4d,0x08,0x3a,0x0a,0x40,0x6e,0x61,0x6d,0x65,0x49,0x22,0x14,0x73,0x63,0x65,0x6e,0x65,0x5f,0x6b,0x61,0x6e,0x61,0x73,0x69,0x6d,0x69,0x33,0x06,0x3a,0x06,0x45,0x54,0x3a,0x0c,0x40,0x76,0x6f,0x6c,0x75,0x6d,0x65,0x69,0x69,0x3a,0x0b,0x40,0x70,0x69,0x74,0x63,0x68,0x69,0x69))
  222()
  0()



EVENT   14
 PAGE   1
  0()
