module NWConst
  module Audio
    AUDIO_ALIAS = {
    "Audio/BGM/cb1" => "System/sys1", "Audio/BGM/cb2" => "System/sys2", "Audio/BGM/cb3" => "System/sys3", "Audio/BGM/cb4" => "System/sys4", "Audio/BGM/cb5" => "System/sys5"
    }
  end
end
