#~ #==============================================================================
#~ # ■ Main
#~ #------------------------------------------------------------------------------
#~ # 　モジュールとクラスの定義が終わった後に実行される処理です。
#~ #==============================================================================

#~ rgss_main { SceneManager.run }

